{
"type": "FeatureCollection",
"features": [
{ "type": "Feature", "properties": { "Name": "ÃGUA BOA", "Description": "ÃGUA BOA \/ MT" }, "geometry": { "type": "LineString", "coordinates": [ [ -52.041434928978731, -13.756867080451343 ], [ -52.037515911030418, -13.830946612496119 ], [ -52.091535858892712, -13.917099673411144 ], [ -52.008892518275047, -13.976504313823 ], [ -51.910226293108899, -13.987117336495826 ], [ -51.84483235492916, -14.019534059748992 ], [ -51.843258076399081, -14.071112931016899 ], [ -51.891729032768573, -14.160484254544654 ], [ -51.954826904637912, -14.225511187491236 ], [ -52.067698573530322, -14.254958402408306 ], [ -52.106954195779451, -14.302650012587947 ], [ -52.168347606856514, -14.316942947758776 ], [ -52.168124514734529, -14.381732659334716 ], [ -52.246155210994175, -14.420461420058418 ], [ -52.329788686298798, -14.53458815491939 ], [ -52.309665603684607, -14.465312131249787 ], [ -52.322976992694009, -14.346473403025072 ], [ -52.385445875127004, -14.303709107289421 ], [ -52.382978628261071, -14.181172061041764 ], [ -52.531267323328279, -14.191637510362739 ], [ -52.929911524397312, -14.255501049733596 ], [ -52.980178452073858, -14.224067802587001 ], [ -53.038736973432549, -14.105495099219411 ], [ -53.031778118365423, -14.031364491078364 ], [ -52.991905742855685, -14.009947132054434 ], [ -52.998032412965465, -13.945235222627389 ], [ -53.052611128500757, -13.812955624602353 ], [ -53.112817835574617, -13.730612148531804 ], [ -53.09683047064965, -13.635830191510081 ], [ -52.418168670048033, -13.66696325035366 ], [ -52.041434928978731, -13.756867080451343 ] ] } }
]
}
