{
"type": "FeatureCollection",
"features": [
{ "type": "Feature", "properties": { "Name": "ALTA FLORESTA", "Description": "ALTA FLORESTA \/ MT" }, "geometry": { "type": "LineString", "coordinates": [ [ -55.86537331662521, -9.434430145234955 ], [ -55.931489244932663, -9.613966322587657 ], [ -55.859626961714866, -9.723873305308757 ], [ -55.831447837647545, -9.731983789919923 ], [ -55.823462421753334, -9.771160850093111 ], [ -55.860865367742463, -9.868083802425474 ], [ -55.895803597557915, -10.037269659866865 ], [ -56.006996098191337, -10.127687030731863 ], [ -56.104211046002945, -10.108500003872052 ], [ -56.180416480036456, -10.175841098387934 ], [ -56.161687592108642, -10.234973271199465 ], [ -56.095611058603424, -10.284757244051548 ], [ -56.06115682772537, -10.347482521401218 ], [ -56.202578013664379, -10.396481581259934 ], [ -56.281219665255321, -10.404246482489157 ], [ -56.232916384783266, -10.531937125198112 ], [ -56.26447019324479, -10.57884844759775 ], [ -56.33660290979639, -10.577045935521483 ], [ -56.432149885009153, -10.683419590741494 ], [ -56.585596157836385, -10.602414599953761 ], [ -56.634018825108626, -10.592508099069448 ], [ -56.715974589055975, -10.49053887626809 ], [ -56.805035418949387, -10.389548036712483 ], [ -56.977500391629739, -10.360234675989432 ], [ -56.963436872613556, -10.283595087942899 ], [ -56.942374828535492, -10.225866835086322 ], [ -56.948704982848646, -10.085663879784192 ], [ -56.903346371437863, -10.037770390690923 ], [ -56.934930022102769, -9.935909121608631 ], [ -56.895911992644301, -9.946980071872758 ], [ -56.658341131937675, -9.936049184722037 ], [ -56.591717049801957, -9.917345740413566 ], [ -56.525635346094305, -9.934896620782354 ], [ -56.441996126819731, -9.907884688127806 ], [ -56.382335057316993, -9.918063246521569 ], [ -56.329212589689234, -9.821109302652133 ], [ -56.355981539916115, -9.763550268929748 ], [ -56.337340120949762, -9.619197267939512 ], [ -56.253243205209685, -9.467456427172351 ], [ -56.273798284363295, -9.400722211360915 ], [ -55.86537331662521, -9.434430145234955 ] ] } }
]
}
