{
"type": "FeatureCollection",
"features": [
{ "type": "Feature", "properties": { "Name": "ARENÃPOLIS", "Description": "ARENÃPOLIS \/ MT" }, "geometry": { "type": "LineString", "coordinates": [ [ -56.726122389736474, -14.64761101693483 ], [ -56.906428987507752, -14.590782319948062 ], [ -56.948339999291477, -14.504663204842982 ], [ -56.977646455019851, -14.436347397214547 ], [ -56.886012107172974, -14.360908641520551 ], [ -56.8470921200053, -14.388155321510851 ], [ -56.754894727309761, -14.560933795158462 ], [ -56.726122389736474, -14.64761101693483 ] ] } }
]
}
