{
"type": "FeatureCollection",
"features": [
{ "type": "Feature", "properties": { "Name": "BRASNORTE", "Description": "BRASNORTE \/ MT" }, "geometry": { "type": "LineString", "coordinates": [ [ -57.732372657971723, -12.209437667914017 ], [ -57.641533668743762, -12.260349557885718 ], [ -57.625569359738115, -12.339869705922126 ], [ -57.49480977694958, -12.413290668929163 ], [ -57.442853649076589, -12.46505683390569 ], [ -57.441342184594077, -12.579370081863715 ], [ -57.395716020378018, -12.71063441004992 ], [ -57.410330038700288, -12.763054277832621 ], [ -57.382074744753645, -12.831469058550169 ], [ -57.292486605472448, -12.926556969428532 ], [ -57.317840936509981, -13.024295676104542 ], [ -57.40855823487459, -13.108010032836717 ], [ -57.486360041982323, -13.15358646454365 ], [ -57.671580255724166, -13.164767312861157 ], [ -57.771269128767244, -13.253522050402239 ], [ -57.921406150973041, -13.207610409892482 ], [ -58.059098065123571, -13.244411949551761 ], [ -58.13085382634295, -13.239148755410667 ], [ -58.177767154230764, -13.187134088867081 ], [ -58.178083769550248, -13.078743211130245 ], [ -58.203254034546035, -12.980241525925635 ], [ -58.292259398752208, -12.929061601111982 ], [ -58.398665378304543, -12.796439798457868 ], [ -58.417487855080424, -12.617507648958792 ], [ -58.446784200630297, -12.545244313074534 ], [ -58.425354967857459, -12.515380100511209 ], [ -58.469230943453226, -12.361785912589765 ], [ -58.526056830058614, -12.27805463061668 ], [ -58.47388114260059, -12.145709548456864 ], [ -58.485544455612114, -12.025089099582258 ], [ -58.448592764244616, -11.923219237477781 ], [ -58.390871325551181, -11.777916140517448 ], [ -58.419533006043359, -11.636563334530194 ], [ -58.381718213724525, -11.53060553211958 ], [ -58.33773900944766, -11.504869812991444 ], [ -58.334320557747503, -11.327746310743578 ], [ -58.37464744882066, -11.24195710743453 ], [ -58.337485876372057, -11.154756900210714 ], [ -58.342750889841625, -11.096877926375157 ], [ -58.385458062439568, -10.993543562385469 ], [ -58.34912449220149, -10.939680434704258 ], [ -58.251767278836773, -11.049448515336678 ], [ -58.249950414479997, -11.131740699473653 ], [ -58.277142073048189, -11.163875604875216 ], [ -58.179288856595399, -11.287152155547517 ], [ -58.126787945507253, -11.284035298690014 ], [ -58.155667943620635, -11.418828860663325 ], [ -58.126567620599189, -11.562131609086464 ], [ -58.075924889621945, -11.601309362636925 ], [ -58.076277395085704, -11.692941901047845 ], [ -58.033697498141009, -11.770323306575278 ], [ -57.863042009980738, -11.986391348381972 ], [ -57.847260320907019, -12.113605324326214 ], [ -57.732372657971723, -12.209437667914017 ] ] } }
]
}
