{
"type": "FeatureCollection",
"features": [
{ "type": "Feature", "properties": { "Name": "CAMPO VERDE", "Description": "CAMPO VERDE \/ MT" }, "geometry": { "type": "LineString", "coordinates": [ [ -54.552502101590676, -15.364099813655457 ], [ -54.708017412273705, -15.392901567153556 ], [ -54.844839429296201, -15.463984986218064 ], [ -54.973316970701603, -15.554376280341044 ], [ -54.975792706268344, -15.628250850596258 ], [ -55.082179684944435, -15.608796700807034 ], [ -55.08911597332348, -15.6602037008401 ], [ -55.24531299979509, -15.749298123109838 ], [ -55.246482392748192, -15.788943986375839 ], [ -55.302718565109672, -15.896653114149844 ], [ -55.301278658783012, -15.849623640618461 ], [ -55.409830805647118, -15.820297062559346 ], [ -55.42432979888104, -15.77534935858597 ], [ -55.383051875643503, -15.63421470294611 ], [ -55.440016657142962, -15.612456163621005 ], [ -55.403029945275705, -15.509998052268259 ], [ -55.311967993428134, -15.51333576373446 ], [ -55.265077792506077, -15.402108628410417 ], [ -55.333993299551082, -15.352317717288768 ], [ -55.165764113922705, -15.202529953994144 ], [ -55.100933810546906, -15.106754392701019 ], [ -55.018237563712539, -15.08360254092446 ], [ -54.86062355643196, -15.069373284949108 ], [ -54.735089266756233, -14.973793188604702 ], [ -54.666076729157673, -14.960593015155494 ], [ -54.561614930084886, -14.973087817049075 ], [ -54.503888592784278, -15.035484330137706 ], [ -54.458428339995855, -15.042832070943291 ], [ -54.441238333282399, -15.11116184054646 ], [ -54.491419810975451, -15.129015048705471 ], [ -54.45680093221722, -15.206364158678923 ], [ -54.536942640390514, -15.246502667863806 ], [ -54.520300983603477, -15.284279514188198 ], [ -54.552502101590676, -15.364099813655457 ] ] } }
]
}
