{
"type": "FeatureCollection",
"features": [
{ "type": "Feature", "properties": { "Name": "CASTANHEIRA", "Description": "CASTANHEIRA \/ MT" }, "geometry": { "type": "LineString", "coordinates": [ [ -58.34912449220149, -10.939680434704258 ], [ -58.385458062439568, -10.993543562385469 ], [ -58.342750889841625, -11.096877926375157 ], [ -58.337485876372057, -11.154756900210714 ], [ -58.37464744882066, -11.24195710743453 ], [ -58.43070723445129, -11.304404025725146 ], [ -58.49931526059077, -11.339007464023211 ], [ -58.612634879995653, -11.259005748816207 ], [ -58.776441670146937, -11.227773965096388 ], [ -58.852646214750955, -11.19793897060697 ], [ -58.900038402849979, -11.145015177608286 ], [ -58.808524224213556, -11.054366628816807 ], [ -58.953476094546083, -10.973903174691714 ], [ -58.971678616474939, -10.865408019664358 ], [ -58.868024942796808, -10.836378528146497 ], [ -58.907683350706009, -10.788364380611654 ], [ -58.835416069495977, -10.717773931221927 ], [ -58.683623942191154, -10.665109308447768 ], [ -58.548216770087834, -10.621600181603071 ], [ -58.496745064732913, -10.631044651289585 ], [ -58.418539605918063, -10.568428272846461 ], [ -58.385451382275441, -10.616918765188814 ], [ -58.355943014358559, -10.759050944345574 ], [ -58.331850153361863, -10.79189638610927 ], [ -58.34912449220149, -10.939680434704258 ] ] } }
]
}
