{
"type": "FeatureCollection",
"features": [
{ "type": "Feature", "properties": { "Name": "COLÃDER", "Description": "COLÃDER \/ MT" }, "geometry": { "type": "LineString", "coordinates": [ [ -55.33233046567841, -10.503664556174272 ], [ -55.239899497463796, -10.573448327178482 ], [ -55.160585036070522, -10.700990615024807 ], [ -55.165423999318079, -10.723848062038371 ], [ -55.172716720500205, -10.780115066756878 ], [ -55.227341279876093, -10.81840074859565 ], [ -55.296224130739006, -10.903764160687444 ], [ -55.390791909718814, -10.91249418375952 ], [ -55.432652143081889, -10.974056282471395 ], [ -55.523442794649213, -11.014956914929655 ], [ -55.556034499892235, -10.955749935610982 ], [ -55.614419249748551, -10.95869635115565 ], [ -55.648387549945426, -10.903742453751192 ], [ -55.667031212720239, -10.721306448433779 ], [ -55.62400437610102, -10.525727145491317 ], [ -55.662771011772747, -10.387216290699198 ], [ -55.657893185222292, -10.344761801515858 ], [ -55.707560167967351, -10.29734868889085 ], [ -55.69060208741638, -10.249487576290562 ], [ -55.593710486349835, -10.223108835604251 ], [ -55.567983670509932, -10.113180547943898 ], [ -55.467165461217007, -10.225978997632581 ], [ -55.482116801748987, -10.246551622559309 ], [ -55.419300629920087, -10.447118615032025 ], [ -55.33233046567841, -10.503664556174272 ] ] } }
]
}
