{
"type": "FeatureCollection",
"features": [
{ "type": "Feature", "properties": { "Name": "INDIAVAÃ", "Description": "INDIAVAÃ \/ MT" }, "geometry": { "type": "LineString", "coordinates": [ [ -58.484038652361903, -15.515711108880508 ], [ -58.583214469372244, -15.50892487058627 ], [ -58.655791997802389, -15.349033072118516 ], [ -58.696283503480863, -15.313519608043407 ], [ -58.730483182153073, -15.23155830966823 ], [ -58.726326668540878, -15.154283280448965 ], [ -58.602473551712983, -15.184766152835664 ], [ -58.490542302085537, -15.350698043679701 ], [ -58.484038652361903, -15.515711108880508 ] ] } }
]
}
