{
"type": "FeatureCollection",
"features": [
{ "type": "Feature", "properties": { "Name": "LAMBARI D'OESTE", "Description": "LAMBARI D'OESTE \/ MT" }, "geometry": { "type": "LineString", "coordinates": [ [ -57.513085333721108, -15.47783998212941 ], [ -57.714055518347436, -15.453028095170396 ], [ -57.695540951453715, -15.547611489078918 ], [ -57.711577766500675, -15.63657838568389 ], [ -57.759546535144459, -15.681283797908918 ], [ -57.799294190874143, -15.764831662251366 ], [ -57.801510818269605, -15.651342292212972 ], [ -57.830253719233724, -15.524590738671632 ], [ -57.892246672346005, -15.469252270475863 ], [ -58.018074157196573, -15.359050963031448 ], [ -58.096987793451888, -15.401181056860251 ], [ -58.0806657098546, -15.331182233673077 ], [ -58.015571727952818, -15.255220736247905 ], [ -57.951637115160672, -15.229727849360698 ], [ -57.837649639419276, -15.199145480479503 ], [ -57.823312129351223, -15.141929811511545 ], [ -57.68199010895632, -15.140572518706733 ], [ -57.62461315647198, -15.183277170504994 ], [ -57.602359758895709, -15.329975631270317 ], [ -57.513085333721108, -15.47783998212941 ] ] } }
]
}
