{
"type": "FeatureCollection",
"features": [
{ "type": "Feature", "properties": { "Name": "LUCIARA", "Description": "LUCIARA \/ MT" }, "geometry": { "type": "LineString", "coordinates": [ [ -50.603486102701424, -10.660586219478375 ], [ -50.570587733137359, -10.752504128962357 ], [ -50.612198384847545, -10.810321465063508 ], [ -50.600789122220192, -10.900683777634185 ], [ -50.632619291447099, -10.931861499508557 ], [ -50.609457426618917, -11.067445654593257 ], [ -50.664481443263973, -11.151598891275739 ], [ -50.654732350717381, -11.215029756018396 ], [ -50.699908482490457, -11.313105415282621 ], [ -51.516109268427954, -11.169471542777444 ], [ -51.463765021938173, -11.0815202442638 ], [ -51.395221682234819, -11.023807996641663 ], [ -51.274918514178069, -11.003199438403328 ], [ -51.230716733990043, -10.94764822928232 ], [ -51.073562347724135, -10.883293286855633 ], [ -51.009183297171376, -10.763907494735063 ], [ -50.972408606771744, -10.777432955666312 ], [ -50.790157120754486, -10.651507749582947 ], [ -50.69985377403242, -10.654478229186907 ], [ -50.637005906497336, -10.686524303154044 ], [ -50.603486102701424, -10.660586219478375 ] ] } }
]
}
