{
"type": "FeatureCollection",
"features": [
{ "type": "Feature", "properties": { "Name": "NOVA CANAÃ DO NORTE", "Description": "NOVA CANAÃ DO NORTE \/ MT" }, "geometry": { "type": "LineString", "coordinates": [ [ -55.69060208741638, -10.249487576290562 ], [ -55.707560167967351, -10.29734868889085 ], [ -55.657893185222292, -10.344761801515858 ], [ -55.662771011772747, -10.387216290699198 ], [ -55.62400437610102, -10.525727145491317 ], [ -55.667031212720239, -10.721306448433779 ], [ -55.648387549945426, -10.903742453751192 ], [ -55.614419249748551, -10.95869635115565 ], [ -55.648218332609929, -10.951056422415888 ], [ -55.770416148286579, -10.984900115248081 ], [ -55.811265790983434, -10.968440730355383 ], [ -55.88115429343582, -10.874821594041293 ], [ -56.078916471318053, -10.958249210932308 ], [ -56.185177491847753, -11.041052058006017 ], [ -56.248967109644354, -11.041560610233944 ], [ -56.323006859279076, -11.092134202231591 ], [ -56.50869723498937, -11.095112613855974 ], [ -56.591758729781532, -11.024882969773216 ], [ -56.570574749325203, -10.950203564742651 ], [ -56.4991052009442, -10.86891832002442 ], [ -56.403151990272079, -10.799409673217779 ], [ -56.432149885009153, -10.683419590741494 ], [ -56.33660290979639, -10.577045935521483 ], [ -56.26447019324479, -10.57884844759775 ], [ -56.232916384783266, -10.531937125198112 ], [ -56.281219665255321, -10.404246482489157 ], [ -56.202578013664379, -10.396481581259934 ], [ -56.06115682772537, -10.347482521401218 ], [ -56.020641764305928, -10.39196244031433 ], [ -55.925218586168796, -10.388629713790237 ], [ -55.814168368175615, -10.239943574136587 ], [ -55.69060208741638, -10.249487576290562 ] ] } }
]
}
