{
"type": "FeatureCollection",
"features": [
{ "type": "Feature", "properties": { "Name": "NOVA BANDEIRANTES", "Description": "NOVA BANDEIRANTES \/ MT" }, "geometry": { "type": "LineString", "coordinates": [ [ -57.622107953719031, -9.729089231982412 ], [ -57.618466435077892, -9.772026434971963 ], [ -57.698341318896723, -9.86956557399202 ], [ -57.65218772478363, -9.892051105474081 ], [ -57.659002369064005, -9.963847315501141 ], [ -57.583991106104634, -10.093715215085069 ], [ -57.600375367928841, -10.249052352084332 ], [ -57.60429063480489, -10.299419724140932 ], [ -57.741946428584747, -10.354236328343859 ], [ -58.000591279064224, -10.4328979655686 ], [ -58.070272628978614, -10.383868061661644 ], [ -58.167005612119283, -10.420234729648996 ], [ -58.197721780335819, -10.407597430177191 ], [ -58.295329835303619, -10.451921034328223 ], [ -58.332994090105153, -10.422568736557878 ], [ -58.353031639998164, -10.324275920697119 ], [ -58.345006869771169, -10.225911697766605 ], [ -58.302525097854925, -10.127726933651045 ], [ -58.236365588401156, -9.993896606742965 ], [ -58.204755067792114, -9.845305584784853 ], [ -58.236305160254915, -9.683142592556578 ], [ -58.260931892992396, -9.641008833091121 ], [ -58.248175375792925, -9.551613707206796 ], [ -58.297368662233907, -9.457571677291014 ], [ -58.429128106776652, -9.454394281670716 ], [ -58.586401140600117, -9.354535747926377 ], [ -58.66065298364822, -9.191807230519203 ], [ -58.61378039954576, -9.09900353918192 ], [ -58.60256596964377, -9.006372726320194 ], [ -58.553388058911764, -8.940976134241168 ], [ -58.520750418996613, -8.968697670660902 ], [ -58.405606392620882, -8.961678004336362 ], [ -58.35870752313366, -9.021694654984287 ], [ -58.302936019681503, -9.032532517161883 ], [ -58.289080738685122, -9.086350160731286 ], [ -58.168144490176012, -9.146921733551094 ], [ -58.168437414654925, -9.188148654436816 ], [ -58.096146750172345, -9.247916904241663 ], [ -58.071225870777255, -9.348780886328768 ], [ -58.013813515581262, -9.364214937968939 ], [ -57.997566449831766, -9.412942488904719 ], [ -57.895332106891203, -9.48932019617007 ], [ -57.737547731142847, -9.502946880294246 ], [ -57.713209351630205, -9.553499791482125 ], [ -57.733248709160527, -9.618159298312946 ], [ -57.703799935718393, -9.70536022049771 ], [ -57.622107953719031, -9.729089231982412 ] ] } }
]
}
