{
"type": "FeatureCollection",
"features": [
{ "type": "Feature", "properties": { "Name": "PEIXOTO DE AZEVEDO", "Description": "PEIXOTO DE AZEVEDO \/ MT" }, "geometry": { "type": "LineString", "coordinates": [ [ -53.58844280319277, -9.611050305027502 ], [ -53.000471745774405, -9.655268935812671 ], [ -52.619259335050224, -9.682253145965888 ], [ -52.661066714357332, -9.78422862265279 ], [ -52.786512931626476, -9.839388943245067 ], [ -52.899290837202329, -9.995133722243452 ], [ -52.980793447159833, -10.059083125285952 ], [ -53.001960848614203, -10.128744411325499 ], [ -53.000147067133412, -10.219194834973621 ], [ -52.958219016794146, -10.277579363596715 ], [ -52.992740951333815, -10.313717352873482 ], [ -53.04801986102774, -10.370500486608137 ], [ -53.080863019412782, -10.496312909613039 ], [ -53.069652016827092, -10.589276825964701 ], [ -53.09038086748302, -10.646793052857049 ], [ -53.097085568743978, -10.777102479096072 ], [ -53.125456306863043, -10.774650419081523 ], [ -53.312546485431938, -10.64645640783692 ], [ -53.66231244066654, -10.514944572733782 ], [ -53.921714607543038, -10.566360817797431 ], [ -54.032171085926848, -10.491962692823961 ], [ -54.077366805833378, -10.44329150959544 ], [ -54.242841430087879, -10.429665014328918 ], [ -54.346165296291353, -10.451257671903987 ], [ -54.416578929973582, -10.538469529844861 ], [ -54.537750199212269, -10.5980367865684 ], [ -54.609189960248443, -10.595532483137561 ], [ -54.642300415132013, -10.541623985558431 ], [ -54.668844345989726, -10.425556651318345 ], [ -54.70976355484413, -10.416986622134857 ], [ -54.765643845686895, -10.334323807597571 ], [ -54.839629141371745, -10.337431137037299 ], [ -55.033084208769196, -10.304604518983297 ], [ -55.158773566746675, -10.223188825803618 ], [ -55.104782732636977, -10.180259247266406 ], [ -54.979261739437675, -10.136114071307304 ], [ -54.979951141731753, -10.194566407913328 ], [ -54.853073497843575, -10.24042765491231 ], [ -54.658452395561532, -10.350458579499787 ], [ -54.529739306423835, -10.385631026950307 ], [ -54.427715052307796, -10.321612347331893 ], [ -54.356936743535869, -10.32231439679191 ], [ -54.266226138825225, -10.240147080823078 ], [ -54.110043725437549, -10.24064827659663 ], [ -54.035051725057023, -10.287387109927124 ], [ -54.000024269004768, -10.259297999902742 ], [ -54.082526564449317, -10.191667494559169 ], [ -54.110455101421735, -10.092952623264921 ], [ -54.05517959835975, -9.9972893926913 ], [ -54.004739800301479, -9.975900885717238 ], [ -53.94016098424197, -9.848630225504451 ], [ -53.84068139782817, -9.844042504957599 ], [ -53.761592966642063, -9.757188881161881 ], [ -53.741093755172642, -9.710124316084261 ], [ -53.59956646002405, -9.650495477384311 ], [ -53.58844280319277, -9.611050305027502 ] ] } }
]
}
