{
"type": "FeatureCollection",
"features": [
{ "type": "Feature", "properties": { "Name": "PONTE BRANCA", "Description": "PONTE BRANCA \/ MT" }, "geometry": { "type": "LineString", "coordinates": [ [ -52.942374073904318, -16.565563482168898 ], [ -52.93646656677862, -16.614941748362924 ], [ -52.76842493746085, -16.603417745732315 ], [ -52.734955378787674, -16.586846484277771 ], [ -52.715132357672132, -16.6360956680806 ], [ -52.759868093237856, -16.703300325549549 ], [ -52.915583566928035, -16.812165172084974 ], [ -52.937562069633771, -16.768323180969958 ], [ -52.995837681363859, -16.75670963194392 ], [ -53.018206956585743, -16.708834710253655 ], [ -53.08873034802707, -16.666174603674961 ], [ -53.082894196709788, -16.623885537587455 ], [ -53.164510379350475, -16.537717610878985 ], [ -53.16407124309336, -16.536911643857252 ], [ -53.071034621050899, -16.529186844297385 ], [ -53.034924343483624, -16.558935969719187 ], [ -52.942374073904318, -16.565563482168898 ] ] } }
]
}
