{
"type": "FeatureCollection",
"features": [
{ "type": "Feature", "properties": { "Name": "PORTO ESPERIDIÃO", "Description": "PORTO ESPERIDIÃO \/ MT" }, "geometry": { "type": "LineString", "coordinates": [ [ -58.856930482455766, -15.598519656756707 ], [ -58.735400439478667, -15.65642393661534 ], [ -58.720973769723621, -15.687796264585868 ], [ -58.561157617729862, -15.693859751026649 ], [ -58.52799731432458, -15.77677264993781 ], [ -58.388635400503283, -15.884690174911611 ], [ -58.497875826408233, -15.94293547499211 ], [ -58.565442167821736, -15.941903672016792 ], [ -58.69481064779314, -16.031657014059931 ], [ -58.717318074169725, -16.143539382836195 ], [ -58.761202721928044, -16.17198545356581 ], [ -58.79603669963393, -16.254648715965399 ], [ -58.786069401881377, -16.30688711944498 ], [ -59.469192837179662, -16.279579555352143 ], [ -59.472685343553728, -16.147390611687342 ], [ -59.519346951200809, -16.108649164227529 ], [ -59.488291879766393, -16.04774974985105 ], [ -59.413622262057679, -16.068735079959936 ], [ -59.39223223972607, -16.006419221669717 ], [ -59.316234414186845, -15.958498091014064 ], [ -59.196896846412301, -15.764739740746393 ], [ -59.152865260223557, -15.724132871834513 ], [ -59.154675200699891, -15.66778891662517 ], [ -59.117262712903823, -15.592777674350145 ], [ -59.08764193692582, -15.47842907674044 ], [ -59.050195575265548, -15.491012457358977 ], [ -58.993835238005772, -15.56749550761157 ], [ -58.856930482455766, -15.598519656756707 ] ] } }
]
}
