{
"type": "FeatureCollection",
"features": [
{ "type": "Feature", "properties": { "Name": "POXORÃU", "Description": "POXORÃU \/ MT" }, "geometry": { "type": "LineString", "coordinates": [ [ -53.733812417608902, -15.341921433027698 ], [ -53.910271480044692, -15.4902343333478 ], [ -53.909852978731891, -15.6474702476538 ], [ -53.876615993733097, -15.768181955233 ], [ -53.772577614365403, -15.890351314561499 ], [ -53.812426567931702, -16.0013466820037 ], [ -53.878905094794199, -16.003073178884101 ], [ -53.809792638919099, -16.0907962267644 ], [ -53.849288737185397, -16.138094936632001 ], [ -53.804105616780802, -16.2088190486601 ], [ -53.886610177617598, -16.189463105737701 ], [ -53.952127938953197, -16.3067717373258 ], [ -53.950230900935303, -16.359608993959899 ], [ -54.025803907424297, -16.372216920674301 ], [ -54.064077241571397, -16.3341466957134 ], [ -54.179426943798397, -16.296288583051599 ], [ -54.224001447109103, -16.322488978283701 ], [ -54.337551123885198, -16.325186342775499 ], [ -54.393435453583301, -16.303327949025601 ], [ -54.462713948589801, -16.237005003078401 ], [ -54.416111621553995, -16.145851528125501 ], [ -54.480892863314899, -16.069954950060801 ], [ -54.463450163294297, -15.918293802716802 ], [ -54.571722996918702, -15.884206514119303 ], [ -54.580993975691399, -15.8823441557581 ], [ -54.675332345711098, -15.848170141039098 ], [ -54.561076528458997, -15.577170768516098 ], [ -54.518980723081896, -15.399411772035599 ], [ -54.3856635052665, -15.374903144564399 ], [ -54.318672390918003, -15.332733710792098 ], [ -54.260598144588592, -15.333608634231 ], [ -54.281634352943001, -15.421160211074799 ], [ -54.355474047489302, -15.453357948510501 ], [ -54.428941945214497, -15.5576128180771 ], [ -54.360498624511898, -15.6032029329689 ], [ -54.230509440558201, -15.558002595943 ], [ -54.170218341103492, -15.629262806433299 ], [ -54.043289817171299, -15.616624885530001 ], [ -54.031716862643101, -15.469455632371499 ], [ -54.056370798973099, -15.391422389231799 ], [ -54.009514426049897, -15.306395696803898 ], [ -53.897359532116702, -15.261730089472 ], [ -53.810307123974603, -15.269605772788099 ], [ -53.733812417608902, -15.341921433027698 ] ] } }
]
}
