{
"type": "FeatureCollection",
"features": [
{ "type": "Feature", "properties": { "Name": "SANTA CARMEM", "Description": "SANTA CARMEM \/ MT" }, "geometry": { "type": "LineString", "coordinates": [ [ -54.286179831434026, -11.8715162381838 ], [ -54.401629345817639, -11.993650280236182 ], [ -54.501386471108731, -12.00438920619689 ], [ -54.656025436524658, -12.069253890654466 ], [ -54.712931870009754, -12.06378121652989 ], [ -54.834724075255849, -12.127366029918278 ], [ -54.931313431269814, -12.130670916129814 ], [ -55.010536955915768, -12.237052917957726 ], [ -55.054975417881167, -12.15435298030576 ], [ -55.125725767630058, -12.177403370569039 ], [ -55.134936088929294, -12.127425708029932 ], [ -55.280756143181407, -12.115174207823371 ], [ -55.306264696258665, -12.135998838075862 ], [ -55.407830710718649, -12.083534714655286 ], [ -55.379602323588294, -12.044739259309324 ], [ -55.378891601965783, -11.96825655079914 ], [ -55.272388415592843, -11.902119831964626 ], [ -55.200415838620017, -11.808121675474922 ], [ -55.104862616716332, -11.786466787512211 ], [ -55.065982923672941, -11.696312339742631 ], [ -54.987568939954592, -11.6599286691727 ], [ -54.956617735719867, -11.693504362236467 ], [ -54.81213660202252, -11.773531191011614 ], [ -54.728286471943079, -11.650026186459286 ], [ -54.658509910803673, -11.707050096584624 ], [ -54.579063199606935, -11.678583105825624 ], [ -54.587188194779344, -11.75564130400295 ], [ -54.569397761097775, -11.865510329038386 ], [ -54.472613329541502, -11.881810826208607 ], [ -54.286179831434026, -11.8715162381838 ] ] } }
]
}
