{
"type": "FeatureCollection",
"features": [
{ "type": "Feature", "properties": { "Name": "TAPURAH", "Description": "TAPURAH \/ MT" }, "geometry": { "type": "LineString", "coordinates": [ [ -56.058654331032528, -12.42828736586921 ], [ -56.092732533779376, -12.517983758343744 ], [ -56.068264960359606, -12.566835585693696 ], [ -56.114578688655513, -12.63815884405534 ], [ -56.175401094085203, -12.686267650631521 ], [ -56.269311712365599, -12.704192962834895 ], [ -56.336668613365759, -12.782170004641955 ], [ -56.379113533762506, -12.880165461466845 ], [ -56.513976244607989, -12.898190156850205 ], [ -56.771901046595985, -12.835453083992604 ], [ -56.845014901016839, -12.677766461852684 ], [ -56.902724174580946, -12.628533238318253 ], [ -56.937245267355131, -12.548527249532865 ], [ -56.953978826761386, -12.298543705827342 ], [ -56.854297517016732, -12.368253927576632 ], [ -56.784767585955308, -12.365883758928305 ], [ -56.689683473813197, -12.314102148095628 ], [ -56.631882624083801, -12.356224791940576 ], [ -56.52730286363618, -12.345872123899369 ], [ -56.464994360901009, -12.308883354383227 ], [ -56.415117000649047, -12.247572127851354 ], [ -56.355198889617043, -12.269170792897739 ], [ -56.320011157289059, -12.343954063329305 ], [ -56.242421274522137, -12.441452175277618 ], [ -56.188738141651868, -12.38307948802793 ], [ -56.105817266653503, -12.435534533691737 ], [ -56.058654331032528, -12.42828736586921 ] ] } }
]
}
