{
"type": "FeatureCollection",
"features": [
{ "type": "Feature", "properties": { "Name": "TORIXORÃU", "Description": "TORIXORÃU \/ MT" }, "geometry": { "type": "LineString", "coordinates": [ [ -52.470768676533169, -16.126593481803695 ], [ -52.54880982831088, -16.166743517599226 ], [ -52.545056412423435, -16.223129049366094 ], [ -52.587408001178289, -16.269245863905439 ], [ -52.680117960675318, -16.302651714604906 ], [ -52.722280701692966, -16.309952245499687 ], [ -52.780368218418516, -16.384744745673402 ], [ -52.777936666543894, -16.434380946423516 ], [ -52.836893251222527, -16.457396572493792 ], [ -52.942374073904318, -16.565563482168898 ], [ -53.034924343483624, -16.558935969719187 ], [ -53.071034621050899, -16.529186844297385 ], [ -53.16407124309336, -16.536911643857252 ], [ -53.211065079190007, -16.4576642997676 ], [ -53.153018900701682, -16.392980685710029 ], [ -53.170294462619324, -16.283136861476919 ], [ -53.141010026791264, -16.223327103463021 ], [ -53.005239795679984, -16.162187942419564 ], [ -52.98246528054824, -16.134159577102764 ], [ -52.898132826069002, -16.1269718877424 ], [ -52.879955989677114, -16.062777362785027 ], [ -52.819241973238434, -16.027782566512201 ], [ -52.779305832198361, -16.071365206638916 ], [ -52.615976401289856, -16.117144312260166 ], [ -52.558515715627713, -16.072900773851586 ], [ -52.470768676533169, -16.126593481803695 ] ] } }
]
}
