{
"type": "FeatureCollection",
"features": [
{ "type": "Feature", "properties": { "Name": "VÃRZEA GRANDE", "Description": "VÃRZEA GRANDE \/ MT" }, "geometry": { "type": "LineString", "coordinates": [ [ -56.14518739058559, -15.768337510067965 ], [ -56.244906383722586, -15.76030743204228 ], [ -56.276727805243979, -15.68612077365475 ], [ -56.370742167516987, -15.625181186562488 ], [ -56.367088796710561, -15.587577235800723 ], [ -56.52305490965631, -15.565352439363551 ], [ -56.508201213914845, -15.51056157375757 ], [ -56.46406858529695, -15.456266195928153 ], [ -56.355060189875815, -15.412090974518833 ], [ -56.279426820891047, -15.339647489140246 ], [ -56.244114223992199, -15.364262387698998 ], [ -56.245669263325794, -15.458152443880124 ], [ -56.183973968723642, -15.50794506910961 ], [ -56.127819122054802, -15.629036606254317 ], [ -56.070691380702613, -15.643231322867223 ], [ -56.14518739058559, -15.768337510067965 ] ] } }
]
}
