{
"type": "FeatureCollection",
"features": [
{ "type": "Feature", "properties": { "Name": "VITÃRIA DO JARI", "Description": "VITÃRIA DO JARI \/ AP" }, "geometry": { "type": "LineString", "coordinates": [ [ -52.455517873451072, -0.830266130477469 ], [ -52.372239740071905, -0.798500208817529 ], [ -52.286564137325058, -0.79782799796368 ], [ -52.19920992479814, -0.834225701554828 ], [ -52.134175230702283, -0.914496060444776 ], [ -52.084920339801776, -0.908754054655844 ], [ -52.063580445680998, -0.922689868142868 ], [ -51.984332031398083, -0.877668274970858 ], [ -51.937984576726819, -0.870301075534144 ], [ -51.882011113422095, -0.88004478743693 ], [ -51.82330433792481, -0.909335183971507 ], [ -51.809400101433482, -0.862636795851415 ], [ -51.729658712079868, -0.858180812494481 ], [ -51.719939660486887, -0.808155755683515 ], [ -51.683507056905114, -0.79552235387348 ], [ -51.69558946568128, -0.924718987790982 ], [ -51.685646870506616, -1.012862288863516 ], [ -51.700426963933182, -1.063210867787291 ], [ -51.778399377828968, -1.140412274906509 ], [ -51.809096334727997, -1.15710113351048 ], [ -51.882012645866887, -1.166347014003463 ], [ -51.922900707601507, -1.132963426021263 ], [ -51.94942560071086, -1.168766937644023 ], [ -51.987039104071357, -1.16451928763496 ], [ -52.055064267901621, -1.176949977759193 ], [ -52.047563214270895, -1.214284161584715 ], [ -52.070459020967007, -1.235984112776521 ], [ -52.110987366473751, -1.21499924401985 ], [ -52.120262264491885, -1.146197958069251 ], [ -52.17893194835068, -1.129595107028535 ], [ -52.214732667578517, -1.134957847126884 ], [ -52.332987922854329, -1.115891486802638 ], [ -52.358155553735799, -1.062584450412032 ], [ -52.416791243221269, -1.025611804840878 ], [ -52.41873858751574, -0.972183202592703 ], [ -52.43867906548644, -0.943611565821072 ], [ -52.404715835667218, -0.912737661913525 ], [ -52.412399796113675, -0.862659914723224 ], [ -52.455517873451072, -0.830266130477469 ] ] } }
]
}
