{
"type": "FeatureCollection",
"features": [
{ "type": "Feature", "properties": { "Name": "AMARAJI", "Description": "AMARAJI \/ PE" }, "geometry": { "type": "LineString", "coordinates": [ [ -35.405593823795869, -8.428117183461211 ], [ -35.445466414243583, -8.451794347231269 ], [ -35.505534909908135, -8.431794335040479 ], [ -35.547954646589631, -8.339112890347565 ], [ -35.509748418954302, -8.300530868404792 ], [ -35.466508544633598, -8.261121337079999 ], [ -35.373531307523756, -8.380865402915958 ], [ -35.405593823795869, -8.428117183461211 ] ] } }
]
}
