{
"type": "FeatureCollection",
"features": [
{ "type": "Feature", "properties": { "Name": "BARRA DE GUABIRABA", "Description": "BARRA DE GUABIRABA \/ PE" }, "geometry": { "type": "LineString", "coordinates": [ [ -35.57843951097459, -8.431094874728615 ], [ -35.666600249901592, -8.493515555298586 ], [ -35.685884499769827, -8.440839500342634 ], [ -35.67822191261115, -8.391659197413958 ], [ -35.699915125182827, -8.372882046469215 ], [ -35.628033492151872, -8.374282122721752 ], [ -35.549342795133839, -8.35164548984744 ], [ -35.597030662335158, -8.412708749009537 ], [ -35.57843951097459, -8.431094874728615 ] ] } }
]
}
