{
"type": "FeatureCollection",
"features": [
{ "type": "Feature", "properties": { "Name": "BELÃM DE MARIA", "Description": "BELÃM DE MARIA \/ PE" }, "geometry": { "type": "LineString", "coordinates": [ [ -35.800156429275773, -8.594850914338167 ], [ -35.759494587505174, -8.673357186484907 ], [ -35.810159271832902, -8.672943243835562 ], [ -35.807274209836862, -8.649861808075912 ], [ -35.853020426351577, -8.606414983564605 ], [ -35.849942940014614, -8.593142848163893 ], [ -35.838708303245539, -8.578825833645283 ], [ -35.855616086513123, -8.538939547422103 ], [ -35.825188469372335, -8.525019767947867 ], [ -35.800156429275773, -8.594850914338167 ] ] } }
]
}
