{
"type": "FeatureCollection",
"features": [
{ "type": "Feature", "properties": { "Name": "CAMARAGIBE", "Description": "CAMARAGIBE \/ PE" }, "geometry": { "type": "LineString", "coordinates": [ [ -35.000114442427552, -7.92919947627479 ], [ -35.003718750719713, -7.95955175001319 ], [ -34.962074285399915, -7.974092404340922 ], [ -34.96554426105876, -8.019809477425383 ], [ -34.996138322025899, -8.036853793068076 ], [ -35.016796320493768, -7.990233074896423 ], [ -35.008738654864999, -7.972026795600073 ], [ -35.034660265658715, -7.941448789330138 ], [ -35.029088568982218, -7.933360984721616 ], [ -35.000114442427552, -7.92919947627479 ] ] } }
]
}
