{
"type": "FeatureCollection",
"features": [
{ "type": "Feature", "properties": { "Name": "CAPOEIRAS", "Description": "CAPOEIRAS \/ PE" }, "geometry": { "type": "LineString", "coordinates": [ [ -36.48721224195134, -8.703889790481412 ], [ -36.514695232299061, -8.732494803792122 ], [ -36.515951962912702, -8.770203468914927 ], [ -36.487024713519645, -8.7956842140552 ], [ -36.540075200310184, -8.783849334679019 ], [ -36.628280843286234, -8.756096437100837 ], [ -36.702222323101694, -8.723862039701316 ], [ -36.690014624375351, -8.670190955048497 ], [ -36.687317180743264, -8.632931269262599 ], [ -36.661556557588987, -8.594248436915791 ], [ -36.61392482427118, -8.557653274578909 ], [ -36.603411254925447, -8.594308957692192 ], [ -36.567673050271026, -8.636934055462234 ], [ -36.48721224195134, -8.703889790481412 ] ] } }
]
}
