{
"type": "FeatureCollection",
"features": [
{ "type": "Feature", "properties": { "Name": "CARNAUBEIRA DA PENHA", "Description": "CARNAUBEIRA DA PENHA \/ PE" }, "geometry": { "type": "LineString", "coordinates": [ [ -38.549452400307985, -8.288317969798412 ], [ -38.629016407381243, -8.621084180690332 ], [ -38.629240581387698, -8.621028178107906 ], [ -38.666532318111933, -8.596193892634005 ], [ -38.757080463892237, -8.575135292959374 ], [ -38.798891996268594, -8.514041560269732 ], [ -38.829403780959694, -8.505495879331306 ], [ -38.848945781922282, -8.468776892039898 ], [ -38.850190916677434, -8.425846296369457 ], [ -38.870201598425012, -8.408820080482258 ], [ -38.888575220869711, -8.347571907217684 ], [ -38.911163738215919, -8.330450958544871 ], [ -38.839962754377552, -8.27577832411032 ], [ -38.812534396045521, -8.235205345250449 ], [ -38.739305711689205, -8.24502253536167 ], [ -38.650109256836679, -8.290848193489294 ], [ -38.628561501512017, -8.310831133849717 ], [ -38.549452400307985, -8.288317969798412 ] ] } }
]
}
