{
"type": "FeatureCollection",
"features": [
{ "type": "Feature", "properties": { "Name": "CASINHAS", "Description": "CASINHAS \/ PE" }, "geometry": { "type": "LineString", "coordinates": [ [ -35.679888907646948, -7.703581298038443 ], [ -35.666151665367011, -7.737050956536393 ], [ -35.63964227477112, -7.757830206099071 ], [ -35.670991088168137, -7.77577115211693 ], [ -35.705750209904231, -7.775563708198546 ], [ -35.707980917085585, -7.831402959379034 ], [ -35.752323914217243, -7.809251762558745 ], [ -35.789906851420021, -7.740436160300532 ], [ -35.695354362713601, -7.693973956632759 ], [ -35.679888907646948, -7.703581298038443 ] ] } }
]
}
