{
"type": "FeatureCollection",
"features": [
{ "type": "Feature", "properties": { "Name": "CUMARU", "Description": "CUMARU \/ PE" }, "geometry": { "type": "LineString", "coordinates": [ [ -35.654179337206585, -7.944311728003812 ], [ -35.61042318368294, -8.011405478380084 ], [ -35.639865321927005, -8.042232622937149 ], [ -35.649827364940904, -8.10529356684458 ], [ -35.835755451253014, -8.114443551728471 ], [ -35.84015676482278, -8.071312075391914 ], [ -35.760062387069468, -8.01230902184386 ], [ -35.757756366163335, -7.97493652869781 ], [ -35.654179337206585, -7.944311728003812 ] ] } }
]
}
