{
"type": "FeatureCollection",
"features": [
{ "type": "Feature", "properties": { "Name": "CUSTÃDIA", "Description": "CUSTÃDIA \/ PE" }, "geometry": { "type": "LineString", "coordinates": [ [ -37.541011189314872, -7.978828388918942 ], [ -37.511266541617545, -8.057221483184833 ], [ -37.530348471904396, -8.090734915284088 ], [ -37.532925525092878, -8.135304117990586 ], [ -37.516979462432175, -8.186297914616999 ], [ -37.541017849693958, -8.235018127084857 ], [ -37.599383908040863, -8.31815060266814 ], [ -37.691216997066704, -8.395519532800165 ], [ -37.787705648796589, -8.413513898547535 ], [ -37.801372029895219, -8.372898409633875 ], [ -37.871842733655171, -8.407577559157005 ], [ -37.894040435317777, -8.392876510742326 ], [ -37.858258623436654, -8.345388474698325 ], [ -37.858696121129071, -8.29590673250965 ], [ -37.841966822710674, -8.244671545255585 ], [ -37.798746793729492, -8.199735277061336 ], [ -37.811443897218055, -8.080989440710084 ], [ -37.784427433779001, -8.031649002699282 ], [ -37.704611057154523, -8.003796444050579 ], [ -37.69151934554133, -7.983859384403047 ], [ -37.670251497908282, -7.968508734090732 ], [ -37.630486996977311, -7.900238727135502 ], [ -37.616525391833306, -7.895886264739261 ], [ -37.585245721013166, -7.890819068844905 ], [ -37.55157446149218, -7.923711305931989 ], [ -37.577748395072319, -7.960876306596219 ], [ -37.541011189314872, -7.978828388918942 ] ] } }
]
}
