{
"type": "FeatureCollection",
"features": [
{ "type": "Feature", "properties": { "Name": "EXU", "Description": "EXU \/ PE" }, "geometry": { "type": "LineString", "coordinates": [ [ -39.54585280965938, -7.483941731825439 ], [ -39.56097000046509, -7.544774047784017 ], [ -39.553644887501484, -7.568490176480395 ], [ -39.60166895545791, -7.610396134074279 ], [ -39.615982146059139, -7.638163194176002 ], [ -39.605046184034109, -7.673073367841596 ], [ -39.615669392428458, -7.703913991437502 ], [ -39.678636724105502, -7.675325299922632 ], [ -39.711587240858421, -7.684060332218507 ], [ -39.765740867546981, -7.666630162452008 ], [ -39.814619821147801, -7.69053695731469 ], [ -39.903979592883843, -7.707006580089568 ], [ -39.904559650207659, -7.338343358659017 ], [ -39.857696798568384, -7.325428692979756 ], [ -39.82869576879466, -7.332370195627959 ], [ -39.741322101233948, -7.326816613995503 ], [ -39.706188891204306, -7.337761184331157 ], [ -39.645718304156389, -7.380878059274949 ], [ -39.626624578361543, -7.427035212904685 ], [ -39.571590503698758, -7.429831283386988 ], [ -39.54585280965938, -7.483941731825439 ] ] } }
]
}
