{
"type": "FeatureCollection",
"features": [
{ "type": "Feature", "properties": { "Name": "FLORESTA", "Description": "FLORESTA \/ PE" }, "geometry": { "type": "LineString", "coordinates": [ [ -38.178669080213865, -8.27666562941522 ], [ -38.194242008761648, -8.318607237933634 ], [ -38.167760598772588, -8.397873425518128 ], [ -38.082106653499238, -8.421132233665617 ], [ -38.046427403901532, -8.456592281608437 ], [ -38.022388760333001, -8.45023140375622 ], [ -37.966651228771127, -8.458582453417421 ], [ -37.930649775466748, -8.438270703829858 ], [ -37.894040435317777, -8.392876510742326 ], [ -37.871842733655171, -8.407577559157005 ], [ -37.801372029895219, -8.372898409633875 ], [ -37.787705648796589, -8.413513898547535 ], [ -37.852922570720011, -8.594982429395543 ], [ -37.932037251318036, -8.617625585052679 ], [ -37.975094824966163, -8.657535727591721 ], [ -38.024733524032847, -8.652310121514859 ], [ -38.065455416234443, -8.684415957230613 ], [ -38.153628779844261, -8.695844462651792 ], [ -38.190323481843166, -8.676924002041005 ], [ -38.259873603583912, -8.707893413949876 ], [ -38.268789966183931, -8.753862222563498 ], [ -38.305306778684837, -8.754417647456421 ], [ -38.374533208340836, -8.78992522996532 ], [ -38.457484608128141, -8.840667219116824 ], [ -38.46980712060207, -8.86574227558549 ], [ -38.512406703706347, -8.830585950281316 ], [ -38.570428631076425, -8.830369085964492 ], [ -38.607585714109341, -8.893264037505276 ], [ -38.61027693892953, -8.957328346026316 ], [ -38.635376999249047, -8.986729251253905 ], [ -38.674382300602645, -8.971756387247408 ], [ -38.693628089164918, -8.918704407582311 ], [ -38.662098593874987, -8.898494845260871 ], [ -38.663738217144953, -8.806613105610268 ], [ -38.652628549268108, -8.728678370610281 ], [ -38.629464065614115, -8.683715765769932 ], [ -38.629016407381243, -8.621084180690332 ], [ -38.549452400307985, -8.288317969798412 ], [ -38.499520604991858, -8.320193811994784 ], [ -38.517425909078376, -8.400506571221229 ], [ -38.51501390936437, -8.438503593166217 ], [ -38.468979912492898, -8.402003408230655 ], [ -38.44992801236782, -8.367120861738329 ], [ -38.417533358477669, -8.341517413098074 ], [ -38.40660956787724, -8.305795862988646 ], [ -38.367676348084956, -8.280788079406307 ], [ -38.314321450674356, -8.291694394380727 ], [ -38.264809502056835, -8.253908663653872 ], [ -38.206693885114646, -8.285449582132458 ], [ -38.178669080213865, -8.27666562941522 ] ] } }
]
}
