{
"type": "FeatureCollection",
"features": [
{ "type": "Feature", "properties": { "Name": "IGARASSU", "Description": "IGARASSU \/ PE" }, "geometry": { "type": "LineString", "coordinates": [ [ -34.889422103347329, -7.804712685442041 ], [ -34.84770310761229, -7.816015799289687 ], [ -34.840785503548091, -7.844447562704828 ], [ -34.866236135788995, -7.891118123102842 ], [ -34.902160378698454, -7.885914759958154 ], [ -34.977235897318735, -7.900025091384806 ], [ -35.054105737889472, -7.880037624736531 ], [ -35.03633288145727, -7.867768685776184 ], [ -35.032245769426652, -7.824932643926331 ], [ -35.039209932292522, -7.767443461446532 ], [ -35.099517033384359, -7.722814011357514 ], [ -35.098127210302493, -7.715181233127338 ], [ -35.045204138560109, -7.744480244267834 ], [ -34.971749195568862, -7.729088360939044 ], [ -34.961972787014474, -7.70831893197311 ], [ -34.924161899551962, -7.691893523467285 ], [ -34.922720951810447, -7.69166114584516 ], [ -34.943205507028495, -7.741591186583947 ], [ -34.926147658387663, -7.805410520678947 ], [ -34.889422103347329, -7.804712685442041 ] ] } }
]
}
