{
"type": "FeatureCollection",
"features": [
{ "type": "Feature", "properties": { "Name": "INGAZEIRA", "Description": "INGAZEIRA \/ PE" }, "geometry": { "type": "LineString", "coordinates": [ [ -37.376972900179169, -7.626498963856021 ], [ -37.347016306557236, -7.650638514955459 ], [ -37.350420102006062, -7.679863333825722 ], [ -37.323663905964452, -7.720185144628658 ], [ -37.355507822228162, -7.769473612617105 ], [ -37.392874078575794, -7.773140334758579 ], [ -37.453411244233507, -7.796069187043316 ], [ -37.481574324395524, -7.750231430336214 ], [ -37.52167186496456, -7.709835223117011 ], [ -37.475504988764158, -7.669342868478565 ], [ -37.433115608698358, -7.664811394230411 ], [ -37.416513819756915, -7.642807307611122 ], [ -37.376972900179169, -7.626498963856021 ] ] } }
]
}
