{
"type": "FeatureCollection",
"features": [
{ "type": "Feature", "properties": { "Name": "JOAQUIM NABUCO", "Description": "JOAQUIM NABUCO \/ PE" }, "geometry": { "type": "LineString", "coordinates": [ [ -35.500224324193141, -8.498052672792596 ], [ -35.487703211733788, -8.505992433703796 ], [ -35.521238951516352, -8.556621624488342 ], [ -35.51267776806452, -8.635298679690266 ], [ -35.537637776961787, -8.658697413354901 ], [ -35.570849253590154, -8.629829601954498 ], [ -35.587736787722513, -8.517626420722706 ], [ -35.542561412279326, -8.485175283112767 ], [ -35.500224324193141, -8.498052672792596 ] ] } }
]
}
