{
"type": "FeatureCollection",
"features": [
{ "type": "Feature", "properties": { "Name": "JUPI", "Description": "JUPI \/ PE" }, "geometry": { "type": "LineString", "coordinates": [ [ -36.328752122812148, -8.799297022739381 ], [ -36.341980593429575, -8.801446931230828 ], [ -36.400249854147432, -8.791735171341031 ], [ -36.400653550820664, -8.777714002299319 ], [ -36.448222904463421, -8.657788730265622 ], [ -36.382480635472916, -8.63497608477843 ], [ -36.38240664734883, -8.635267759199678 ], [ -36.369005419664347, -8.687506415388725 ], [ -36.371695079664164, -8.743943712132534 ], [ -36.328752122812148, -8.799297022739381 ] ] } }
]
}
