{
"type": "FeatureCollection",
"features": [
{ "type": "Feature", "properties": { "Name": "JUREMA", "Description": "JUREMA \/ PE" }, "geometry": { "type": "LineString", "coordinates": [ [ -36.075460087512965, -8.770532248464461 ], [ -36.090711422094387, -8.776868028037029 ], [ -36.120982358449055, -8.836800724273985 ], [ -36.175891406663027, -8.784005426409237 ], [ -36.216690034417525, -8.793344393928578 ], [ -36.186887083671934, -8.711930413957418 ], [ -36.181744333933807, -8.664825025954144 ], [ -36.124196173014923, -8.715403778261702 ], [ -36.076028983350845, -8.720908275796262 ], [ -36.075460087512965, -8.770532248464461 ] ] } }
]
}
