{
"type": "FeatureCollection",
"features": [
{ "type": "Feature", "properties": { "Name": "LAGOA DE ITAENGA", "Description": "LAGOA DE ITAENGA \/ PE" }, "geometry": { "type": "LineString", "coordinates": [ [ -35.241365020479293, -7.888304347667486 ], [ -35.254459131483713, -7.946444800287281 ], [ -35.304459397583116, -7.941645899138905 ], [ -35.355428571671212, -7.890627427813513 ], [ -35.336532166126517, -7.895329176999894 ], [ -35.289442215885515, -7.874385626695244 ], [ -35.241365020479293, -7.888304347667486 ] ] } }
]
}
