{
"type": "FeatureCollection",
"features": [
{ "type": "Feature", "properties": { "Name": "LAGOA GRANDE", "Description": "LAGOA GRANDE \/ PE" }, "geometry": { "type": "LineString", "coordinates": [ [ -40.196591115787328, -8.512610328803589 ], [ -40.165349373874449, -8.548770479174209 ], [ -40.165245862806273, -8.573801259320589 ], [ -40.131984981921335, -8.607446891760617 ], [ -40.073954043344372, -8.632328272931431 ], [ -40.06805814107031, -8.74980291127531 ], [ -40.096973391708616, -8.95694780060046 ], [ -40.036911924245885, -8.979006671220873 ], [ -40.024115270303412, -9.057834592192647 ], [ -40.004935085485783, -9.059798351812447 ], [ -40.065563054791085, -9.063065193104137 ], [ -40.129894920614049, -9.110304606172576 ], [ -40.163086733565876, -9.10730896983307 ], [ -40.208827533463875, -9.063782298114518 ], [ -40.242848684119451, -9.00167774543155 ], [ -40.297415295679286, -8.994731407128709 ], [ -40.296339662445405, -8.938764465707493 ], [ -40.273103791506742, -8.901371289053714 ], [ -40.311350043469702, -8.862353563566046 ], [ -40.348625133742871, -8.862560151329888 ], [ -40.368698974877759, -8.812360428191141 ], [ -40.391654391337056, -8.802903712436319 ], [ -40.401887904603086, -8.754315186796362 ], [ -40.393082584893364, -8.692365647556528 ], [ -40.429482051155674, -8.644514056078776 ], [ -40.44627522931836, -8.619115801253201 ], [ -40.41712056206427, -8.559683330421306 ], [ -40.351253843090319, -8.508938475130492 ], [ -40.34087353888264, -8.51771322688387 ], [ -40.212853670560371, -8.503614881621445 ], [ -40.196591115787328, -8.512610328803589 ] ] } }
]
}
