{
"type": "FeatureCollection",
"features": [
{ "type": "Feature", "properties": { "Name": "LAGOA DO CARRO", "Description": "LAGOA DO CARRO \/ PE" }, "geometry": { "type": "LineString", "coordinates": [ [ -35.289442215885515, -7.874385626695244 ], [ -35.336532166126517, -7.895329176999894 ], [ -35.355428571671212, -7.890627427813513 ], [ -35.369711573830045, -7.860286929797951 ], [ -35.405634975873397, -7.8250436112736 ], [ -35.376263120546525, -7.818391112959432 ], [ -35.29144087369729, -7.828643774590489 ], [ -35.289442215885515, -7.874385626695244 ] ] } }
]
}
