{
"type": "FeatureCollection",
"features": [
{ "type": "Feature", "properties": { "Name": "MACAPARANA", "Description": "MACAPARANA \/ PE" }, "geometry": { "type": "LineString", "coordinates": [ [ -35.434396652883208, -7.47080365206682 ], [ -35.415995240487916, -7.495351728299568 ], [ -35.405216370239259, -7.55484249498511 ], [ -35.428895959480883, -7.616389083089643 ], [ -35.450149078017489, -7.602729397443681 ], [ -35.465956213408504, -7.550912256195602 ], [ -35.489691467087482, -7.555944390221384 ], [ -35.501926944972467, -7.512511148170916 ], [ -35.494312128002264, -7.482205559139175 ], [ -35.450369810318413, -7.453411424697435 ], [ -35.434396652883208, -7.47080365206682 ] ] } }
]
}
