{
"type": "FeatureCollection",
"features": [
{ "type": "Feature", "properties": { "Name": "PESQUEIRA", "Description": "PESQUEIRA \/ PE" }, "geometry": { "type": "LineString", "coordinates": [ [ -36.605953880267293, -8.212365637364201 ], [ -36.560338854154736, -8.283179577275632 ], [ -36.602790440326544, -8.312467467399642 ], [ -36.627575369207868, -8.345342157814287 ], [ -36.583431454997594, -8.462713367827632 ], [ -36.557986044220513, -8.506471227365182 ], [ -36.61392482427118, -8.557653274578909 ], [ -36.661556557588987, -8.594248436915791 ], [ -36.687317180743264, -8.632931269262599 ], [ -36.690014624375351, -8.670190955048497 ], [ -36.724934129406506, -8.648346030444882 ], [ -36.729174495806319, -8.607337954183208 ], [ -36.759076944845106, -8.599010804005331 ], [ -36.713107326841623, -8.533337894328326 ], [ -36.677006565000909, -8.52587680297205 ], [ -36.701662248713774, -8.42108708590024 ], [ -36.821166624540069, -8.417741581808514 ], [ -36.85933713290234, -8.452743346028569 ], [ -36.900923411186447, -8.439817728405387 ], [ -36.948433798081282, -8.396644354453372 ], [ -36.944919106331668, -8.373464035536756 ], [ -36.909637215884743, -8.295677099618388 ], [ -36.908263467285167, -8.253093111657734 ], [ -36.861702339990927, -8.222426828835012 ], [ -36.787836646943674, -8.189833583053371 ], [ -36.816005046595592, -8.234382043796245 ], [ -36.802826397520164, -8.276794462694227 ], [ -36.772987911862572, -8.259820648504103 ], [ -36.64003018454531, -8.277781462344592 ], [ -36.605953880267293, -8.212365637364201 ] ] } }
]
}
