{
"type": "FeatureCollection",
"features": [
{ "type": "Feature", "properties": { "Name": "RECIFE", "Description": "RECIFE \/ PE" }, "geometry": { "type": "LineString", "coordinates": [ [ -34.913871043713641, -7.979362309223119 ], [ -34.872895996852719, -8.017307437588101 ], [ -34.86057599978249, -8.044467000251814 ], [ -34.908867821992374, -8.155123269323383 ], [ -34.952993473669835, -8.138614363262207 ], [ -34.973901069978353, -8.078296280548841 ], [ -35.016695028952363, -8.055808150925373 ], [ -34.996138322025899, -8.036853793068076 ], [ -34.96554426105876, -8.019809477425383 ], [ -34.962074285399915, -7.974092404340922 ], [ -35.003718750719713, -7.95955175001319 ], [ -35.000114442427552, -7.92919947627479 ], [ -34.967758203078574, -7.941791414841872 ], [ -34.948411827144071, -7.92953750894884 ], [ -34.909248553577868, -7.944014573114032 ], [ -34.913871043713641, -7.979362309223119 ] ] } }
]
}
