{
"type": "FeatureCollection",
"features": [
{ "type": "Feature", "properties": { "Name": "SANTA MARIA DA BOA VISTA", "Description": "SANTA MARIA DA BOA VISTA \/ PE" }, "geometry": { "type": "LineString", "coordinates": [ [ -39.672329965655365, -8.456582338703925 ], [ -39.643344365549979, -8.519080376258328 ], [ -39.646005655536555, -8.659692583345986 ], [ -39.68883592194021, -8.66085040022574 ], [ -39.693036593164209, -8.680511980443498 ], [ -39.67382403724946, -8.745461408916867 ], [ -39.673300376411191, -8.784903966944455 ], [ -39.695128744495946, -8.799571361828839 ], [ -39.747785344418048, -8.794041013282083 ], [ -39.788796213074704, -8.819109593732719 ], [ -39.819970395217524, -8.813488401968129 ], [ -39.89295772222107, -8.828793991749251 ], [ -39.901259274096162, -8.864158783501011 ], [ -39.879418612279096, -8.901908555735188 ], [ -39.874428620484416, -8.936738524263431 ], [ -39.888819125801945, -8.96583675815981 ], [ -39.968091037571291, -9.053197059096931 ], [ -40.004935085485783, -9.059798351812447 ], [ -40.024115270303412, -9.057834592192647 ], [ -40.036911924245885, -8.979006671220873 ], [ -40.096973391708616, -8.95694780060046 ], [ -40.06805814107031, -8.74980291127531 ], [ -40.073954043344372, -8.632328272931431 ], [ -40.131984981921335, -8.607446891760617 ], [ -40.165245862806273, -8.573801259320589 ], [ -40.165349373874449, -8.548770479174209 ], [ -40.196591115787328, -8.512610328803589 ], [ -40.197140054769648, -8.460887411324904 ], [ -40.108724085548083, -8.348091486033184 ], [ -40.082407952065296, -8.371443323650396 ], [ -40.01108273677886, -8.356301466239643 ], [ -39.963693262833772, -8.377703129395854 ], [ -39.940032821057798, -8.364365898367453 ], [ -39.898048609855437, -8.373698788268428 ], [ -39.851090877941601, -8.335618746308057 ], [ -39.808312649908828, -8.329994690202739 ], [ -39.747204148552555, -8.347929409314759 ], [ -39.713676266146706, -8.409547865841262 ], [ -39.672329965655365, -8.456582338703925 ] ] } }
]
}
