{
"type": "FeatureCollection",
"features": [
{ "type": "Feature", "properties": { "Name": "SANTA TEREZINHA", "Description": "SANTA TEREZINHA \/ PE" }, "geometry": { "type": "LineString", "coordinates": [ [ -37.43182225948965, -7.356656261577143 ], [ -37.410501252031111, -7.379904212209567 ], [ -37.36786605127719, -7.379253317986183 ], [ -37.364209999591765, -7.40947555515271 ], [ -37.376356388836257, -7.473755277384099 ], [ -37.42524108820561, -7.504590585087385 ], [ -37.449987197850874, -7.535530594561237 ], [ -37.451337606345419, -7.510476280955572 ], [ -37.489327281728606, -7.46296040280032 ], [ -37.521706305401608, -7.439478328961684 ], [ -37.487626196092037, -7.389419525990263 ], [ -37.496038044420175, -7.364822269432125 ], [ -37.43182225948965, -7.356656261577143 ] ] } }
]
}
