{
"type": "FeatureCollection",
"features": [
{ "type": "Feature", "properties": { "Name": "SÃO BENTO DO UNA", "Description": "SÃO BENTO DO UNA \/ PE" }, "geometry": { "type": "LineString", "coordinates": [ [ -36.361140539004623, -8.389197316802665 ], [ -36.355674223986227, -8.425673773126107 ], [ -36.32063805350333, -8.488035671309149 ], [ -36.30686727280635, -8.531546999694228 ], [ -36.327773694600296, -8.571005074624452 ], [ -36.331891976233692, -8.614740241568825 ], [ -36.382480635472916, -8.63497608477843 ], [ -36.448222904463421, -8.657788730265622 ], [ -36.48721224195134, -8.703889790481412 ], [ -36.567673050271026, -8.636934055462234 ], [ -36.603411254925447, -8.594308957692192 ], [ -36.61392482427118, -8.557653274578909 ], [ -36.557986044220513, -8.506471227365182 ], [ -36.508570872547693, -8.453943409460749 ], [ -36.510735530820057, -8.402060546656855 ], [ -36.469981999569598, -8.390530068008161 ], [ -36.361140539004623, -8.389197316802665 ] ] } }
]
}
