{
"type": "FeatureCollection",
"features": [
{ "type": "Feature", "properties": { "Name": "SERTÃNIA", "Description": "SERTÃNIA \/ PE" }, "geometry": { "type": "LineString", "coordinates": [ [ -37.35021872491415, -7.948597487683855 ], [ -37.340288957669202, -7.979683277261415 ], [ -37.291779347538807, -7.965310855511517 ], [ -37.219588774901979, -7.972793435268785 ], [ -37.151794607335198, -8.009414828131753 ], [ -37.156845222429013, -8.064534518253367 ], [ -37.142557824384028, -8.117944797714188 ], [ -37.160225323439875, -8.170400442326525 ], [ -37.126451708479522, -8.173683989424546 ], [ -37.1229148466428, -8.209066411485651 ], [ -37.082226827406089, -8.261887406578522 ], [ -37.040283610899905, -8.266179554143037 ], [ -37.020647666756361, -8.28967247740286 ], [ -37.048078683484391, -8.348141422688457 ], [ -37.102188599524197, -8.384377015386917 ], [ -37.149041178207767, -8.403459575199179 ], [ -37.187300324650202, -8.420454400250321 ], [ -37.223392089673148, -8.405275634662758 ], [ -37.280787668016444, -8.38805905028488 ], [ -37.363095911347216, -8.405674019040703 ], [ -37.368543093289077, -8.418407570253123 ], [ -37.383501155353997, -8.413325326902282 ], [ -37.434791348741726, -8.455079891723585 ], [ -37.539771027810609, -8.43117914839894 ], [ -37.580131478884596, -8.404745125487125 ], [ -37.619175779338718, -8.412932415798309 ], [ -37.618735878657844, -8.368299919705464 ], [ -37.599383908040863, -8.31815060266814 ], [ -37.541017849693958, -8.235018127084857 ], [ -37.516979462432175, -8.186297914616999 ], [ -37.532925525092878, -8.135304117990586 ], [ -37.530348471904396, -8.090734915284088 ], [ -37.511266541617545, -8.057221483184833 ], [ -37.541011189314872, -7.978828388918942 ], [ -37.473875084467522, -7.965480410992142 ], [ -37.425440709820855, -7.940433991635359 ], [ -37.403153480648598, -7.957527852728163 ], [ -37.35021872491415, -7.948597487683855 ] ] } }
]
}
