{
"type": "FeatureCollection",
"features": [
{ "type": "Feature", "properties": { "Name": "TUPANATINGA", "Description": "TUPANATINGA \/ PE" }, "geometry": { "type": "LineString", "coordinates": [ [ -37.223392089673148, -8.405275634662758 ], [ -37.301898107311786, -8.642438278703535 ], [ -37.288807037814479, -8.696950757371496 ], [ -37.258375216343097, -8.741509784249102 ], [ -37.21233504832378, -8.743221400047503 ], [ -37.160840343706866, -8.766528138462775 ], [ -37.084427422587453, -8.854858907712355 ], [ -37.081296639728123, -8.918348789564959 ], [ -37.101227932023392, -8.960279653882878 ], [ -37.169371715532179, -8.941058546314821 ], [ -37.227325980609464, -8.866918446728903 ], [ -37.254984300085312, -8.812266608217326 ], [ -37.346750413900445, -8.832886162466366 ], [ -37.365307342459857, -8.81247416545034 ], [ -37.411686848968884, -8.814909184211444 ], [ -37.390514421203534, -8.510886192643625 ], [ -37.368543093289077, -8.418407570253123 ], [ -37.363095911347216, -8.405674019040703 ], [ -37.280787668016444, -8.38805905028488 ], [ -37.223392089673148, -8.405275634662758 ] ] } }
]
}
