{
"type": "FeatureCollection",
"features": [
{ "type": "Feature", "properties": { "Name": "VICÃNCIA", "Description": "VICÃNCIA \/ PE" }, "geometry": { "type": "LineString", "coordinates": [ [ -35.272880823591095, -7.591261374013128 ], [ -35.25737338187605, -7.643538201027127 ], [ -35.259530602755092, -7.675645905534054 ], [ -35.296150303093953, -7.711071325081547 ], [ -35.356034782179393, -7.709613548326558 ], [ -35.412838803567865, -7.740480629077694 ], [ -35.419118071541732, -7.721279302098083 ], [ -35.445672623392795, -7.692718492264532 ], [ -35.450149078017489, -7.602729397443681 ], [ -35.428895959480883, -7.616389083089643 ], [ -35.307351083085962, -7.612168075496242 ], [ -35.272880823591095, -7.591261374013128 ] ] } }
]
}
