{
"type": "FeatureCollection",
"features": [
{ "type": "Feature", "properties": { "Name": "ALOÃNDIA", "Description": "ALOÃNDIA \/ GO" }, "geometry": { "type": "LineString", "coordinates": [ [ -49.411688367324246, -17.655017773351517 ], [ -49.419643447287221, -17.710487241293094 ], [ -49.459339468441669, -17.750894214296522 ], [ -49.508760245588803, -17.750597979413158 ], [ -49.513299299323137, -17.671072288854987 ], [ -49.443061333813489, -17.634114262663047 ], [ -49.411688367324246, -17.655017773351517 ] ] } }
]
}
