{
"type": "FeatureCollection",
"features": [
{ "type": "Feature", "properties": { "Name": "AMARALINA", "Description": "AMARALINA \/ GO" }, "geometry": { "type": "LineString", "coordinates": [ [ -49.719591924527656, -13.728109364955174 ], [ -49.681945603107067, -13.746342748019345 ], [ -49.659421342321025, -13.72514162288752 ], [ -49.574895471548757, -13.76692582486686 ], [ -49.526556005055568, -13.834511278672551 ], [ -49.462449541712942, -13.813756255946428 ], [ -49.410584781362495, -13.816781546531104 ], [ -49.360283717219716, -13.771830623884114 ], [ -49.294972335005241, -13.787698901483054 ], [ -49.334135979991458, -13.870122865977464 ], [ -49.224498772300478, -13.865300584254497 ], [ -49.258450023150033, -13.899654484067128 ], [ -49.257468739590593, -13.940755269639908 ], [ -49.29538476049828, -13.992437191523152 ], [ -49.320884692674383, -13.998509652298594 ], [ -49.369610601448073, -13.95929774609408 ], [ -49.41032765619633, -13.953292459279508 ], [ -49.45958155244665, -13.986643641091121 ], [ -49.522551837497247, -13.986557918613016 ], [ -49.586442798995961, -13.936814585224909 ], [ -49.624528959943518, -13.885208103870866 ], [ -49.676648265305168, -13.83914381333625 ], [ -49.729871296023468, -13.861329073777711 ], [ -49.75897075839373, -13.848244060315096 ], [ -49.834144508162467, -13.904213142122783 ], [ -49.86542428510262, -13.912976758470563 ], [ -49.936598839664669, -13.884526889904008 ], [ -49.943094654494644, -13.914603388335649 ], [ -49.974955939365088, -13.882477112828438 ], [ -49.941505315917539, -13.834768396644163 ], [ -49.920728249009414, -13.77143626846896 ], [ -49.947672104783749, -13.753636727353012 ], [ -49.963172258392945, -13.702751370079625 ], [ -49.910867087446093, -13.68155042840948 ], [ -49.885390990002122, -13.694631120629651 ], [ -49.825977430114278, -13.687625177959546 ], [ -49.78317443745027, -13.727079725748693 ], [ -49.719591924527656, -13.728109364955174 ] ] } }
]
}
