{
"type": "FeatureCollection",
"features": [
{ "type": "Feature", "properties": { "Name": "APARECIDA DO RIO DOCE", "Description": "APARECIDA DO RIO DOCE \/ GO" }, "geometry": { "type": "LineString", "coordinates": [ [ -51.15542196964816, -18.132029427216253 ], [ -51.123382672971957, -18.182507418582475 ], [ -51.124498085917878, -18.282731854991084 ], [ -51.146439357590225, -18.300562009928797 ], [ -51.179717621471013, -18.296866759493298 ], [ -51.237911535189141, -18.357500535721101 ], [ -51.300135369451709, -18.305374621241754 ], [ -51.364109430106055, -18.280935788355919 ], [ -51.455358524576184, -18.223787650379734 ], [ -51.434749674957516, -18.161382251089947 ], [ -51.365610217837229, -18.199011297433401 ], [ -51.332299310364817, -18.19872587689764 ], [ -51.326305590630447, -18.135351317809011 ], [ -51.284500947061019, -18.084204650823949 ], [ -51.15542196964816, -18.132029427216253 ] ] } }
]
}
