{
"type": "FeatureCollection",
"features": [
{ "type": "Feature", "properties": { "Name": "AURILÃNDIA", "Description": "AURILÃNDIA \/ GO" }, "geometry": { "type": "LineString", "coordinates": [ [ -50.555818331750565, -16.519071847287876 ], [ -50.512817725657492, -16.619802887992819 ], [ -50.484007228950418, -16.637358471815958 ], [ -50.47882156806088, -16.672136799473662 ], [ -50.38948277121289, -16.630232158487274 ], [ -50.364260631522882, -16.651325026828488 ], [ -50.361362490686361, -16.699232274649717 ], [ -50.406987923753661, -16.721239133878893 ], [ -50.449181703972435, -16.797156936843123 ], [ -50.546374439428796, -16.818760099399015 ], [ -50.576176625750634, -16.847939691363592 ], [ -50.641215806564155, -16.834980701697987 ], [ -50.61488049593811, -16.745840243132648 ], [ -50.585400945896879, -16.696295195866526 ], [ -50.607128401954121, -16.634570667002603 ], [ -50.660907302729811, -16.611908337799488 ], [ -50.616786239393377, -16.589306071617841 ], [ -50.594489778680327, -16.505757268383206 ], [ -50.555818331750565, -16.519071847287876 ] ] } }
]
}
