{
"type": "FeatureCollection",
"features": [
{ "type": "Feature", "properties": { "Name": "BONFINÃPOLIS", "Description": "BONFINÃPOLIS \/ GO" }, "geometry": { "type": "LineString", "coordinates": [ [ -49.011752613891979, -16.658457042758243 ], [ -49.01239126294638, -16.66008157270636 ], [ -49.062238506701703, -16.641578803119216 ], [ -49.078018883664527, -16.593485143824292 ], [ -49.021583747092222, -16.524933383768598 ], [ -49.006060864017627, -16.562593576332461 ], [ -48.971191155347526, -16.564493356383252 ], [ -48.948841538406214, -16.603116274096749 ], [ -48.959910547933418, -16.633231125016376 ], [ -49.011752613891979, -16.658457042758243 ] ] } }
]
}
