{
"type": "FeatureCollection",
"features": [
{ "type": "Feature", "properties": { "Name": "BRITÃNIA", "Description": "BRITÃNIA \/ GO" }, "geometry": { "type": "LineString", "coordinates": [ [ -51.058789684496276, -15.263653734831962 ], [ -51.031932337207536, -15.344942076815355 ], [ -50.964763014101777, -15.373629849338045 ], [ -50.958741265197197, -15.420812276865036 ], [ -50.926821525293121, -15.449293914882219 ], [ -51.11910438575876, -15.436619546255031 ], [ -51.18601798484206, -15.449850734623679 ], [ -51.231713616290335, -15.484166177626948 ], [ -51.292888236702709, -15.470715752529884 ], [ -51.306769833660837, -15.32342391368263 ], [ -51.213270552693814, -15.308029313501947 ], [ -51.23077288136335, -15.270752190760959 ], [ -51.272409241093548, -15.275820813879418 ], [ -51.380274870688709, -15.243621088042746 ], [ -51.379884134145414, -15.181578301697241 ], [ -51.404767860748109, -15.124524529583312 ], [ -51.396712663758365, -15.041771934826896 ], [ -51.357285317763171, -15.002493814238107 ], [ -51.337797347169783, -14.973368724786779 ], [ -51.301926305454572, -14.986529895538183 ], [ -51.29451843867497, -15.030926385244413 ], [ -51.242604043841482, -15.035397143563275 ], [ -51.149187520287796, -14.982558534348811 ], [ -51.127069906850693, -14.937102732305219 ], [ -51.084055980898761, -14.916448296951273 ], [ -51.119350240621088, -14.962604669070174 ], [ -51.134657101144285, -15.008973345943105 ], [ -51.109181642218971, -15.069708768944507 ], [ -51.128991565608203, -15.125003717147763 ], [ -51.176930833790891, -15.203731281873102 ], [ -51.078013838967479, -15.234420041451697 ], [ -51.058789684496276, -15.263653734831962 ] ] } }
]
}
