{
"type": "FeatureCollection",
"features": [
{ "type": "Feature", "properties": { "Name": "CACHOEIRA ALTA", "Description": "CACHOEIRA ALTA \/ GO" }, "geometry": { "type": "LineString", "coordinates": [ [ -50.858823119891042, -18.29929716203435 ], [ -50.823798514689656, -18.359059140866631 ], [ -50.77235008468864, -18.376684905983552 ], [ -50.754933963231792, -18.4156238796383 ], [ -50.862047243385518, -18.453574294218242 ], [ -50.960582846521106, -18.53234693836049 ], [ -50.864048515526513, -18.604362266405413 ], [ -50.826463078208462, -18.647779242418039 ], [ -50.784236490721412, -18.655664238214001 ], [ -50.83896695336216, -18.744914374498762 ], [ -50.8195803858261, -18.870819726249291 ], [ -50.834685688493664, -18.916669502395564 ], [ -50.909737336408909, -18.881834386147943 ], [ -50.986381381495505, -18.791799028402409 ], [ -50.992047364893949, -18.741912370059765 ], [ -51.113169800046187, -18.563250506405723 ], [ -51.14341519925199, -18.5434994661274 ], [ -51.169939258689787, -18.490579930519345 ], [ -51.21033090724552, -18.454252547616932 ], [ -51.237911535189141, -18.357500535721101 ], [ -51.179717621471013, -18.296866759493298 ], [ -51.146439357590225, -18.300562009928797 ], [ -51.09655799535517, -18.347857742141059 ], [ -51.056744256542174, -18.32583665743573 ], [ -51.00552222187298, -18.33302840723513 ], [ -50.940494537093173, -18.314182747735572 ], [ -50.88764926120438, -18.320779805543566 ], [ -50.858823119891042, -18.29929716203435 ] ] } }
]
}
