{
"type": "FeatureCollection",
"features": [
{ "type": "Feature", "properties": { "Name": "CAMPOS BELOS", "Description": "CAMPOS BELOS \/ GO" }, "geometry": { "type": "LineString", "coordinates": [ [ -46.29591531434022, -13.063941113991177 ], [ -46.449416775863483, -13.05508960060456 ], [ -46.451105927496542, -13.054991411724243 ], [ -46.454279007270316, -13.020612667240755 ], [ -46.487918010807505, -13.004924431217489 ], [ -46.539223609581882, -13.017087507382541 ], [ -46.623059433246226, -13.064821277779686 ], [ -46.672619679054883, -13.060664997991239 ], [ -46.713534495620422, -13.103191914075524 ], [ -46.854558510366928, -13.067307426596415 ], [ -46.822560891871603, -13.007050325112345 ], [ -46.750610975116388, -12.969155007497534 ], [ -46.454649870595006, -12.971152609505282 ], [ -46.407286124455027, -12.846173758212331 ], [ -46.366194420236241, -12.864853403761515 ], [ -46.370166544950052, -12.988867129614277 ], [ -46.318085616358076, -12.981310770375728 ], [ -46.111639367163036, -12.925593331467041 ], [ -46.125843750588558, -12.961477605806806 ], [ -46.220444546378644, -13.004119554174052 ], [ -46.273379005336771, -13.014953493508868 ], [ -46.29591531434022, -13.063941113991177 ] ] } }
]
}
