{
"type": "FeatureCollection",
"features": [
{ "type": "Feature", "properties": { "Name": "CAVALCANTE", "Description": "CAVALCANTE \/ GO" }, "geometry": { "type": "LineString", "coordinates": [ [ -47.392409101898465, -13.262353016078803 ], [ -47.346536232061389, -13.320037081645976 ], [ -47.350763606854912, -13.348945009104852 ], [ -47.284399372133286, -13.428636093081195 ], [ -47.247196473138672, -13.447662062154393 ], [ -47.259622383366263, -13.532752176571648 ], [ -47.319651718052285, -13.628709141013985 ], [ -47.306095426562649, -13.66440241643835 ], [ -47.333873408930621, -13.706905731614199 ], [ -47.305872650102685, -13.746699029736362 ], [ -47.353233042670752, -13.807624376064041 ], [ -47.317261792197876, -13.837929717782231 ], [ -47.309482758122726, -13.891185776102645 ], [ -47.333566743710207, -13.926529503034089 ], [ -47.263950904010983, -13.97681443693665 ], [ -47.505350657107101, -13.960036708227449 ], [ -47.561457753372565, -14.037194212243037 ], [ -47.6990381434955, -14.068918137362116 ], [ -47.729453707922225, -14.096764496983894 ], [ -47.765290249845123, -14.09861167658755 ], [ -47.847397537866016, -14.169784542222772 ], [ -47.899325473791521, -14.170231653667827 ], [ -47.914154476847614, -14.145891873011465 ], [ -47.897718346624345, -14.053627276677446 ], [ -47.923147520141924, -13.9713209111311 ], [ -47.960824616362913, -13.933758481168921 ], [ -47.954852345459358, -13.860595973425404 ], [ -48.027573140388085, -13.811217909578829 ], [ -48.016292046440753, -13.780958766933509 ], [ -48.09320963381748, -13.676651040612967 ], [ -48.119660341851272, -13.627527676461057 ], [ -48.108068743477702, -13.540390036870633 ], [ -48.192769358818794, -13.443682707790686 ], [ -48.14843030701303, -13.440672794713635 ], [ -48.14856799591621, -13.379423898394121 ], [ -48.170635783314708, -13.367378495820901 ], [ -48.169810007825561, -13.299349597106184 ], [ -48.082707894153941, -13.285064926704933 ], [ -48.062458810225849, -13.235397076114111 ], [ -48.022567798065381, -13.279836003029061 ], [ -47.988372727519334, -13.276308952795885 ], [ -47.883579369991878, -13.320508772461835 ], [ -47.823990719296205, -13.311866300189536 ], [ -47.67898604616903, -13.467712663908287 ], [ -47.623124127576375, -13.370196820926479 ], [ -47.650128496932552, -13.351248553278083 ], [ -47.662207767974046, -13.303847867485045 ], [ -47.640763813299316, -13.264202176888887 ], [ -47.654625471388322, -13.22033456318951 ], [ -47.646675639868818, -13.120605114534383 ], [ -47.617982276260989, -13.104707000127917 ], [ -47.568974698023851, -13.117479635876464 ], [ -47.563074357595497, -13.184229495394845 ], [ -47.484601965608185, -13.182454877590487 ], [ -47.43484601742972, -13.268225268880997 ], [ -47.392409101898465, -13.262353016078803 ] ] } }
]
}
