{
"type": "FeatureCollection",
"features": [
{ "type": "Feature", "properties": { "Name": "CERES", "Description": "CERES \/ GO" }, "geometry": { "type": "LineString", "coordinates": [ [ -49.592340315553088, -15.354470740132513 ], [ -49.645891165344949, -15.352144236267463 ], [ -49.672199318243877, -15.30918152310875 ], [ -49.747465125315216, -15.292675149538468 ], [ -49.771496184001649, -15.288499585587372 ], [ -49.746679993786643, -15.240195112614288 ], [ -49.645746272872138, -15.250048497739956 ], [ -49.584614672429154, -15.18912789443675 ], [ -49.54965874755311, -15.183925904556814 ], [ -49.565316082870879, -15.243088874651789 ], [ -49.555948086135224, -15.277942940514263 ], [ -49.589517217745367, -15.311764436279645 ], [ -49.592340315553088, -15.354470740132513 ] ] } }
]
}
