{
"type": "FeatureCollection",
"features": [
{ "type": "Feature", "properties": { "Name": "COCALZINHO DE GOIÃS", "Description": "COCALZINHO DE GOIÃS \/ GO" }, "geometry": { "type": "LineString", "coordinates": [ [ -48.59274715016079, -15.364252680416824 ], [ -48.569828097788445, -15.376435985032629 ], [ -48.555240342367881, -15.46042875927975 ], [ -48.582048066864722, -15.483047431793523 ], [ -48.598690440411474, -15.532631668816409 ], [ -48.546777171529186, -15.606240877914159 ], [ -48.480159828013598, -15.619017896059008 ], [ -48.401270890738999, -15.652461831248443 ], [ -48.384686594510697, -15.611377711911812 ], [ -48.340912303460016, -15.631586874034953 ], [ -48.309131456651357, -15.621680547619119 ], [ -48.252023848421793, -15.659199351468828 ], [ -48.299126968334853, -15.709068856142778 ], [ -48.349073540411496, -15.725823108049951 ], [ -48.350937313406234, -15.791811588034307 ], [ -48.379350343943202, -15.820977040857715 ], [ -48.419293163348755, -15.914300226474213 ], [ -48.458190587425634, -15.887110719084376 ], [ -48.470246458107511, -15.827353266539999 ], [ -48.543194580065801, -15.800669772591901 ], [ -48.572665512803148, -15.76651081612124 ], [ -48.621189552555791, -15.753815879099475 ], [ -48.667887322841636, -15.768535613627646 ], [ -48.700136243392869, -15.807259966773984 ], [ -48.664607672506058, -15.844238082021832 ], [ -48.717805323456844, -15.865163148560383 ], [ -48.762965184695474, -15.854244623490558 ], [ -48.783419055045329, -15.81931788521217 ], [ -48.837528687798674, -15.831026184111066 ], [ -48.856495075886983, -15.803341653894165 ], [ -48.816470189747406, -15.748364417283993 ], [ -48.833938874779221, -15.726464463164406 ], [ -48.810384305691116, -15.668961637969174 ], [ -48.824384429697602, -15.615517276001411 ], [ -48.795662909215821, -15.590048093444691 ], [ -48.811387346548763, -15.512463388974195 ], [ -48.731197115454449, -15.462365220878212 ], [ -48.713861783694313, -15.404535270886015 ], [ -48.661801061070086, -15.369416014737224 ], [ -48.59274715016079, -15.364252680416824 ] ] } }
]
}
