{
"type": "FeatureCollection",
"features": [
{ "type": "Feature", "properties": { "Name": "CRISTALINA", "Description": "CRISTALINA \/ GO" }, "geometry": { "type": "LineString", "coordinates": [ [ -47.511215641588528, -17.325580654823341 ], [ -47.4995430979356, -17.302007790826849 ], [ -47.528205936754546, -17.251441926703535 ], [ -47.598291919536393, -17.166959591212105 ], [ -47.638457349027419, -17.146636963425067 ], [ -47.663683153454713, -17.087312853705214 ], [ -47.712378722699839, -17.055041674033987 ], [ -47.684546244113847, -16.944467731600469 ], [ -47.73068227446737, -16.929283351545394 ], [ -47.893935068748362, -16.918226817413654 ], [ -47.889325209590709, -16.739237609528004 ], [ -47.867770316346991, -16.680309539653479 ], [ -47.819962199895542, -16.633473093908094 ], [ -47.801352885826986, -16.565432795387153 ], [ -47.736844505569422, -16.551743666836728 ], [ -47.717490881998572, -16.521655041047264 ], [ -47.719100842030173, -16.470803718616651 ], [ -47.649177616753541, -16.380269671508074 ], [ -47.654295337459814, -16.327039028028647 ], [ -47.640908291184644, -16.284483340833443 ], [ -47.666130233023807, -16.242148815815138 ], [ -47.65848415022333, -16.167260866096058 ], [ -47.732042715798627, -16.16613597879234 ], [ -47.724540892348266, -16.094435763299771 ], [ -47.682749044332866, -16.050263068086053 ], [ -47.308386987269614, -16.050264261486404 ], [ -47.344514991373728, -16.161077310269604 ], [ -47.322462053580864, -16.231316142725746 ], [ -47.378418439659242, -16.346872951625357 ], [ -47.427176526175685, -16.394161325584662 ], [ -47.42727536886315, -16.434134305553698 ], [ -47.460069754315668, -16.505096763105087 ], [ -47.4290357090307, -16.552379466838886 ], [ -47.29468054137385, -16.626563968652192 ], [ -47.245701961776092, -16.700971006806466 ], [ -47.23598870451508, -16.755385544806984 ], [ -47.20100915894551, -16.82795519337742 ], [ -47.202515517077408, -16.892695026754041 ], [ -47.163960793156036, -16.923528715677659 ], [ -47.15834938241801, -16.964698463962915 ], [ -47.126129355285457, -16.979503340906433 ], [ -47.140678956068939, -17.017338455205504 ], [ -47.198094321295855, -17.072259988707458 ], [ -47.264711822192794, -17.098626513902445 ], [ -47.283423804664835, -17.130578170745935 ], [ -47.348487687156982, -17.176223017478208 ], [ -47.384227317236878, -17.247782927040419 ], [ -47.411069033409142, -17.249232506474925 ], [ -47.43786850302893, -17.317878159349505 ], [ -47.486793196149051, -17.349503752596032 ], [ -47.511215641588528, -17.325580654823341 ] ] } }
]
}
