{
"type": "FeatureCollection",
"features": [
{ "type": "Feature", "properties": { "Name": "CUMARI", "Description": "CUMARI \/ GO" }, "geometry": { "type": "LineString", "coordinates": [ [ -48.062360733760833, -18.264360556394532 ], [ -48.050352463295489, -18.294218960236776 ], [ -47.967300084031592, -18.293334181127534 ], [ -47.9391031713742, -18.330776243129094 ], [ -47.940770690714771, -18.381029628814247 ], [ -47.977294830891708, -18.383649732549088 ], [ -48.028462533918734, -18.435691510055108 ], [ -48.116041650701554, -18.426410294299615 ], [ -48.15939332604114, -18.377031181843506 ], [ -48.226811049989919, -18.345725902828121 ], [ -48.175328711051122, -18.326246002750793 ], [ -48.194243074258445, -18.278348157341554 ], [ -48.261191009457491, -18.289366820122606 ], [ -48.271885837161619, -18.330880260515585 ], [ -48.341636952883043, -18.369706394434502 ], [ -48.354606948451874, -18.319578597274411 ], [ -48.322661560782365, -18.299142991256019 ], [ -48.319738859460756, -18.24927932228286 ], [ -48.268604693052112, -18.221379787547107 ], [ -48.223797225761295, -18.199371225901302 ], [ -48.143606796816186, -18.224410120630523 ], [ -48.062360733760833, -18.264360556394532 ] ] } }
]
}
