{
"type": "FeatureCollection",
"features": [
{ "type": "Feature", "properties": { "Name": "DAVINÃPOLIS", "Description": "DAVINÃPOLIS \/ GO" }, "geometry": { "type": "LineString", "coordinates": [ [ -47.408226543520129, -18.141991699557252 ], [ -47.489899169411103, -18.192430639662234 ], [ -47.540571977314862, -18.193377851506565 ], [ -47.607440145346402, -18.246937911255543 ], [ -47.629382143670959, -18.21033677652099 ], [ -47.71151732236649, -18.131453377271498 ], [ -47.667909746737394, -18.058246494280237 ], [ -47.634044775945597, -18.06056474506687 ], [ -47.593828705630244, -17.996973753336022 ], [ -47.56158922526248, -17.98351820749923 ], [ -47.497214495052845, -18.02946722743053 ], [ -47.47668019023854, -18.079283952692208 ], [ -47.408226543520129, -18.141991699557252 ] ] } }
]
}
