{
"type": "FeatureCollection",
"features": [
{ "type": "Feature", "properties": { "Name": "FLORES DE GOIÃS", "Description": "FLORES DE GOIÃS \/ GO" }, "geometry": { "type": "LineString", "coordinates": [ [ -46.938037465956256, -14.103000028228678 ], [ -46.932704929588795, -14.122646041181781 ], [ -46.98301028079976, -14.17846934108718 ], [ -46.975986429929769, -14.226773246588039 ], [ -46.923061049627677, -14.315935451659698 ], [ -46.898984089544058, -14.329613611179184 ], [ -46.871957308183191, -14.401199262036243 ], [ -46.846395820110956, -14.541300126299745 ], [ -46.759648468302146, -14.576253091506942 ], [ -46.680728909111842, -14.649131574462556 ], [ -46.687702510362499, -14.677852567042292 ], [ -46.658812157455088, -14.771504899131742 ], [ -46.618756275281839, -14.818317406722882 ], [ -46.565502368139732, -14.973663840014181 ], [ -46.560198277328595, -15.028618814806405 ], [ -46.526134635505002, -15.056368366906552 ], [ -46.577454403098159, -15.08406411706528 ], [ -46.625443417279818, -15.089514539264544 ], [ -46.681669215062186, -15.058620423993318 ], [ -46.78586234617029, -15.018351674090468 ], [ -46.856898981602683, -15.010265990982644 ], [ -46.925060140912706, -15.057505521862309 ], [ -46.984344725428684, -14.910573031420199 ], [ -47.054703366467152, -14.902866969235218 ], [ -47.072811963201502, -14.810120068286494 ], [ -47.114429157479606, -14.770833548029771 ], [ -47.096872902762186, -14.727822400083653 ], [ -47.109230664163761, -14.676812798771607 ], [ -47.079466042523784, -14.609195960425209 ], [ -47.092589006477397, -14.547409738968211 ], [ -47.14537205287791, -14.537971771380114 ], [ -47.157232356088343, -14.46626468866441 ], [ -47.189200894105909, -14.40306795432258 ], [ -47.187704615575512, -14.33116574300459 ], [ -47.171653878123941, -14.267498174001503 ], [ -47.138999417289249, -14.254361090691759 ], [ -47.127339269891365, -14.198142205098632 ], [ -47.085404642809969, -14.170718453993402 ], [ -47.084290603128807, -14.142373431088913 ], [ -47.032112464118882, -14.089508542784984 ], [ -46.994962438965331, -14.082200099654813 ], [ -46.938037465956256, -14.103000028228678 ] ] } }
]
}
