{
"type": "FeatureCollection",
"features": [
{ "type": "Feature", "properties": { "Name": "GUARANI DE GOIÃS", "Description": "GUARANI DE GOIÃS \/ GO" }, "geometry": { "type": "LineString", "coordinates": [ [ -46.235514290751894, -13.708160785891494 ], [ -46.227632212356696, -13.774200166604373 ], [ -46.266603131729084, -13.784079860497116 ], [ -46.269564098304443, -13.828853888296235 ], [ -46.237087632188434, -13.859572636667792 ], [ -46.262168064804314, -13.902616171898785 ], [ -46.266725308226341, -13.946290916992155 ], [ -46.218725196410617, -13.974045217512753 ], [ -46.213857681486786, -14.026052453857631 ], [ -46.248417369565914, -14.056536565510044 ], [ -46.285635677544462, -14.05274605348751 ], [ -46.298108793186202, -14.021981349759413 ], [ -46.430704285274487, -14.039359285102876 ], [ -46.450004872227055, -13.994919861762183 ], [ -46.529057585938801, -14.01180333995211 ], [ -46.570644861571047, -13.986898936136924 ], [ -46.582977449149894, -13.947222294473249 ], [ -46.621002586600071, -13.942747401071642 ], [ -46.699195273243213, -13.90728424776978 ], [ -46.759653833657467, -13.824764575624613 ], [ -46.731063662757776, -13.835208640866028 ], [ -46.656533984056068, -13.808150660224724 ], [ -46.602173318144082, -13.820942463224071 ], [ -46.538697161744551, -13.79445515098439 ], [ -46.496332260325516, -13.812801211007013 ], [ -46.456645553449505, -13.806490506331782 ], [ -46.423034079059448, -13.774030373702715 ], [ -46.377588310751889, -13.758066275138447 ], [ -46.304439332409224, -13.701573358024005 ], [ -46.235514290751894, -13.708160785891494 ] ] } }
]
}
