{
"type": "FeatureCollection",
"features": [
{ "type": "Feature", "properties": { "Name": "IPAMERI", "Description": "IPAMERI \/ GO" }, "geometry": { "type": "LineString", "coordinates": [ [ -47.511215641588528, -17.325580654823341 ], [ -47.523662647213364, -17.412456875884057 ], [ -47.554797217817281, -17.356296261862951 ], [ -47.657157496421291, -17.297263136784295 ], [ -47.691347773580844, -17.258047394071923 ], [ -47.67654260885427, -17.230918459619144 ], [ -47.716684526469692, -17.150490717572495 ], [ -47.737099117130526, -17.190091464549425 ], [ -47.793047921924028, -17.212036975625889 ], [ -47.845978224215628, -17.260911976706325 ], [ -47.884059058478726, -17.261632623246896 ], [ -47.889127573678529, -17.378152140209068 ], [ -47.937350148090843, -17.473021183980393 ], [ -47.944825846235801, -17.532434348166589 ], [ -47.965521027173622, -17.551015135739874 ], [ -47.964051155436437, -17.625420399531777 ], [ -47.941936027725433, -17.663890788628919 ], [ -47.926960664503042, -17.739989357123079 ], [ -47.942107198388442, -17.802870573318273 ], [ -47.983468388954918, -17.897779689081347 ], [ -48.034798527529972, -17.918621383070331 ], [ -48.085630546012851, -17.912357910788899 ], [ -48.173327114254903, -17.969628012122996 ], [ -48.208992260684219, -17.996359353601232 ], [ -48.262270730110053, -17.98766931348797 ], [ -48.315220123210054, -17.943588755616531 ], [ -48.378612584203381, -17.9464515683851 ], [ -48.4110531790609, -17.86340679109048 ], [ -48.446076795008018, -17.843527184631796 ], [ -48.512272662253508, -17.878449400219608 ], [ -48.512670621252141, -17.853742644907069 ], [ -48.56196493843111, -17.821548673832183 ], [ -48.500382362156245, -17.741414048719321 ], [ -48.494717784398169, -17.711972167681324 ], [ -48.454412874554464, -17.686131871788401 ], [ -48.466390497923101, -17.601426638428563 ], [ -48.402271434179283, -17.587657641986535 ], [ -48.364526784483473, -17.513400559488161 ], [ -48.285769794840121, -17.528346059822752 ], [ -48.223711190319136, -17.595382577344026 ], [ -48.211429136545348, -17.575831033675229 ], [ -48.110713569575516, -17.533440870299899 ], [ -48.104215088255671, -17.472337853908812 ], [ -48.046764126962834, -17.394653908351131 ], [ -48.076875216917699, -17.363709229597248 ], [ -48.092241070269154, -17.290057704699279 ], [ -48.119124461924343, -17.274305678863922 ], [ -48.071404612133108, -17.210001665044782 ], [ -48.031525052838902, -17.19331840921717 ], [ -48.002297495532957, -17.145113727716307 ], [ -47.995040753527917, -17.098925454845812 ], [ -47.919490990916472, -17.004275983249954 ], [ -47.893935068748362, -16.918226817413654 ], [ -47.73068227446737, -16.929283351545394 ], [ -47.684546244113847, -16.944467731600469 ], [ -47.712378722699839, -17.055041674033987 ], [ -47.663683153454713, -17.087312853705214 ], [ -47.638457349027419, -17.146636963425067 ], [ -47.598291919536393, -17.166959591212105 ], [ -47.528205936754546, -17.251441926703535 ], [ -47.4995430979356, -17.302007790826849 ], [ -47.511215641588528, -17.325580654823341 ] ] } }
]
}
