{
"type": "FeatureCollection",
"features": [
{ "type": "Feature", "properties": { "Name": "IPIRANGA DE GOIÃS", "Description": "IPIRANGA DE GOIÃS \/ GO" }, "geometry": { "type": "LineString", "coordinates": [ [ -49.584614672429154, -15.18912789443675 ], [ -49.645746272872138, -15.250048497739956 ], [ -49.746679993786643, -15.240195112614288 ], [ -49.770728261899706, -15.22865867685641 ], [ -49.667337441169934, -15.068297298281664 ], [ -49.60871407599376, -15.043019358356673 ], [ -49.630004731333258, -15.124291049392353 ], [ -49.584614672429154, -15.18912789443675 ] ] } }
]
}
