{
"type": "FeatureCollection",
"features": [
{ "type": "Feature", "properties": { "Name": "ITABERAÃ", "Description": "ITABERAÃ \/ GO" }, "geometry": { "type": "LineString", "coordinates": [ [ -49.69308867360337, -15.806024223638984 ], [ -49.689504758337876, -15.827094623318146 ], [ -49.68058408618657, -15.865720020462504 ], [ -49.671503811351783, -15.913891390175481 ], [ -49.687729963367069, -16.005582677698385 ], [ -49.681032095155047, -16.042081350873616 ], [ -49.643474522431234, -16.115860100163445 ], [ -49.73614892813049, -16.191971937255062 ], [ -49.755646034936539, -16.221816866555116 ], [ -49.738150228150459, -16.283991830758339 ], [ -49.724872610482521, -16.33167049159988 ], [ -49.737563337777772, -16.376944868910527 ], [ -49.716258670101524, -16.43658405161267 ], [ -49.768068616773171, -16.433945506379985 ], [ -49.81497943375382, -16.398104673791636 ], [ -49.800563497407438, -16.362563622113438 ], [ -49.743786790228171, -16.362416812286028 ], [ -49.769280098897404, -16.306768537537948 ], [ -49.821427698729273, -16.275633002860729 ], [ -49.87197977354765, -16.26646715843259 ], [ -49.874282949898202, -16.228381009176189 ], [ -49.940594459166903, -16.224156421381679 ], [ -50.032371209263829, -16.182478741400757 ], [ -50.039426939301791, -16.128816415245293 ], [ -50.030506675442666, -16.056866328518197 ], [ -50.04176120341674, -16.030370605818746 ], [ -49.962342750717312, -15.972737150499029 ], [ -49.863867359890719, -15.976929958950393 ], [ -49.796090164329598, -15.884706542572813 ], [ -49.824509611529322, -15.809495202041886 ], [ -49.793565388731672, -15.788890083710326 ], [ -49.69308867360337, -15.806024223638984 ] ] } }
]
}
