{
"type": "FeatureCollection",
"features": [
{ "type": "Feature", "properties": { "Name": "ITAGUARI", "Description": "ITAGUARI \/ GO" }, "geometry": { "type": "LineString", "coordinates": [ [ -49.608196025126404, -15.881803104729443 ], [ -49.552003607480458, -15.968195020183998 ], [ -49.651033308939986, -15.984769213428422 ], [ -49.687729963367069, -16.005582677698385 ], [ -49.671503811351783, -15.913891390175481 ], [ -49.68058408618657, -15.865720020462504 ], [ -49.664283222992303, -15.888746138923123 ], [ -49.608196025126404, -15.881803104729443 ] ] } }
]
}
