{
"type": "FeatureCollection",
"features": [
{ "type": "Feature", "properties": { "Name": "JARAGUÃ", "Description": "JARAGUÃ \/ GO" }, "geometry": { "type": "LineString", "coordinates": [ [ -49.186723946752693, -15.602467730001704 ], [ -49.128697303337844, -15.624283825038447 ], [ -49.217347259968051, -15.856015486625379 ], [ -49.266042022521276, -15.828154135305056 ], [ -49.305040877534452, -15.825689172717089 ], [ -49.340179899882457, -15.856976751276022 ], [ -49.36260551852979, -15.901974079839873 ], [ -49.394418290371789, -15.905586812081651 ], [ -49.470368587640166, -15.949641018917816 ], [ -49.466506092981767, -16.004528661468498 ], [ -49.533195967719678, -15.97736901876516 ], [ -49.552003607480458, -15.968195020183998 ], [ -49.608196025126404, -15.881803104729443 ], [ -49.584889133826429, -15.842287577509637 ], [ -49.577754311112528, -15.788679024517307 ], [ -49.545591238045176, -15.754816382969635 ], [ -49.535840537510751, -15.71574739072946 ], [ -49.556779586708501, -15.689168035576357 ], [ -49.556834830263142, -15.635425383774418 ], [ -49.55714382202973, -15.547460464129074 ], [ -49.575647135706724, -15.499199958111545 ], [ -49.545187928080388, -15.468069606227289 ], [ -49.520753548637344, -15.502840674557431 ], [ -49.453697886348316, -15.532386676403972 ], [ -49.422642643143426, -15.492676016984545 ], [ -49.396976816626761, -15.502472853639231 ], [ -49.331922888730276, -15.484043410275092 ], [ -49.283976888222753, -15.437387101433558 ], [ -49.21989335039774, -15.486661020189899 ], [ -49.229059877411373, -15.54918583146093 ], [ -49.186723946752693, -15.602467730001704 ] ] } }
]
}
