{
"type": "FeatureCollection",
"features": [
{ "type": "Feature", "properties": { "Name": "JUSSARA", "Description": "JUSSARA \/ GO" }, "geometry": { "type": "LineString", "coordinates": [ [ -51.357285317763171, -15.002493814238107 ], [ -51.396712663758365, -15.041771934826896 ], [ -51.404767860748109, -15.124524529583312 ], [ -51.379884134145414, -15.181578301697241 ], [ -51.380274870688709, -15.243621088042746 ], [ -51.272409241093548, -15.275820813879418 ], [ -51.23077288136335, -15.270752190760959 ], [ -51.213270552693814, -15.308029313501947 ], [ -51.306769833660837, -15.32342391368263 ], [ -51.292888236702709, -15.470715752529884 ], [ -51.231713616290335, -15.484166177626948 ], [ -51.243571306970182, -15.541456197145751 ], [ -51.21860276620464, -15.604340632014496 ], [ -51.172792781461681, -15.65183855880241 ], [ -51.242328107556084, -15.677404292574009 ], [ -51.368517870803025, -15.598259619585745 ], [ -51.388324995502103, -15.627661226284543 ], [ -51.444995332668434, -15.607632257722457 ], [ -51.429631035144098, -15.673241536767476 ], [ -51.377433478871922, -15.727487308892137 ], [ -51.356969489350433, -15.726202356653403 ], [ -51.283451223295287, -15.784751945046194 ], [ -51.238021626596776, -15.807450079857231 ], [ -51.15718961410937, -15.798266673468165 ], [ -51.134354136634045, -15.841178031740753 ], [ -51.118940108399215, -15.907864222855551 ], [ -51.056766504870268, -15.879683355002783 ], [ -51.045795739981372, -15.8000118366769 ], [ -51.004603758656515, -15.77777451178423 ], [ -50.998181000252941, -15.714924765565456 ], [ -50.953113620796898, -15.721654997679934 ], [ -50.888363281540194, -15.783862447194108 ], [ -50.816097201824384, -15.795051625931762 ], [ -50.786318994126248, -15.829992184091962 ], [ -50.764652565163708, -15.894822855290499 ], [ -50.773374311775001, -15.924591752307492 ], [ -50.796716523948362, -15.999902481414322 ], [ -50.873793653754092, -16.011882661555546 ], [ -50.885546641764044, -16.043914687212975 ], [ -50.921986479492375, -16.051380125892024 ], [ -50.940297410197275, -16.020910986153066 ], [ -50.995102797156335, -16.026577332877537 ], [ -51.042573773960441, -15.982338037470413 ], [ -51.148905889495154, -15.953137013762102 ], [ -51.257440000455631, -15.969382770998038 ], [ -51.300411447830008, -15.959610586559277 ], [ -51.331353641757111, -15.925398649228212 ], [ -51.360216926869612, -15.939816767329885 ], [ -51.423968605866435, -15.875716382505004 ], [ -51.462940688961567, -15.85355245578114 ], [ -51.53727331990774, -15.766057112645569 ], [ -51.533965742025316, -15.717254953952931 ], [ -51.574725330209787, -15.704361896284468 ], [ -51.575967654583565, -15.61279740237819 ], [ -51.644379474732943, -15.554831491080392 ], [ -51.647992807721835, -15.507437546605443 ], [ -51.69878779302217, -15.484961943638723 ], [ -51.708413743199628, -15.45647500411809 ], [ -51.672018290611554, -15.361583683240326 ], [ -51.689244426688902, -15.319828285646791 ], [ -51.648129951635894, -15.270674909319553 ], [ -51.668022876154794, -15.246343798127725 ], [ -51.652096862979818, -15.17987321317821 ], [ -51.594830782514578, -15.1523549289368 ], [ -51.532542433586393, -15.065570575421646 ], [ -51.477747910437699, -15.056719635802494 ], [ -51.430515833139168, -15.010398095995297 ], [ -51.357285317763171, -15.002493814238107 ] ] } }
]
}
