{
"type": "FeatureCollection",
"features": [
{ "type": "Feature", "properties": { "Name": "LEOPOLDO DE BULHÃES", "Description": "LEOPOLDO DE BULHÃES \/ GO" }, "geometry": { "type": "LineString", "coordinates": [ [ -48.85315698220893, -16.657095406227995 ], [ -48.902939706801988, -16.664854889041862 ], [ -48.920030673876454, -16.692364467845891 ], [ -48.975386592517168, -16.692919483547257 ], [ -49.011752613891979, -16.658457042758243 ], [ -48.959910547933418, -16.633231125016376 ], [ -48.948841538406214, -16.603116274096749 ], [ -48.971191155347526, -16.564493356383252 ], [ -49.006060864017627, -16.562593576332461 ], [ -49.021583747092222, -16.524933383768598 ], [ -48.996472955162687, -16.485598075290905 ], [ -48.900962290976906, -16.417746302549801 ], [ -48.864698108830623, -16.449977099063801 ], [ -48.785776215000283, -16.587699558687632 ], [ -48.717971483996735, -16.629248043862106 ], [ -48.723471625215268, -16.686502319826161 ], [ -48.785717776154392, -16.631512258883618 ], [ -48.85315698220893, -16.657095406227995 ] ] } }
]
}
