{
"type": "FeatureCollection",
"features": [
{ "type": "Feature", "properties": { "Name": "MAURILÃNDIA", "Description": "MAURILÃNDIA \/ GO" }, "geometry": { "type": "LineString", "coordinates": [ [ -50.345381968702831, -17.942337045917895 ], [ -50.325818647512499, -17.984551706595937 ], [ -50.252844331001029, -18.031937292771772 ], [ -50.227262809630922, -18.012916752905767 ], [ -50.187650866993863, -18.060401807697247 ], [ -50.283815496587863, -18.0795939786791 ], [ -50.342713248517555, -18.132134530084443 ], [ -50.355152036137497, -18.158880912723873 ], [ -50.379010612949401, -18.15343971217294 ], [ -50.42774168832824, -18.094160641400435 ], [ -50.438101824339697, -18.051013299224337 ], [ -50.480768195595715, -18.000324212692192 ], [ -50.467624349384153, -17.951865944857445 ], [ -50.398415048215838, -17.928576969851235 ], [ -50.345381968702831, -17.942337045917895 ] ] } }
]
}
