{
"type": "FeatureCollection",
"features": [
{ "type": "Feature", "properties": { "Name": "MINAÃU", "Description": "MINAÃU \/ GO" }, "geometry": { "type": "LineString", "coordinates": [ [ -48.169810007825561, -13.299349597106184 ], [ -48.170635783314708, -13.367378495820901 ], [ -48.14856799591621, -13.379423898394121 ], [ -48.14843030701303, -13.440672794713635 ], [ -48.192769358818794, -13.443682707790686 ], [ -48.108068743477702, -13.540390036870633 ], [ -48.119660341851272, -13.627527676461057 ], [ -48.143378271889674, -13.655497460839115 ], [ -48.137852754500955, -13.753495512208076 ], [ -48.195376702073077, -13.788962747532707 ], [ -48.247874757813804, -13.857948742540373 ], [ -48.285257564385063, -13.831061275157651 ], [ -48.345883220634107, -13.862644257626357 ], [ -48.375797626159454, -13.803556976273399 ], [ -48.436154475948285, -13.757850650087391 ], [ -48.444629834399279, -13.698182969668265 ], [ -48.465439584469209, -13.667941868322544 ], [ -48.466413780471555, -13.613781388800021 ], [ -48.56285988257747, -13.591870946786742 ], [ -48.582358997569656, -13.622705672628626 ], [ -48.661324740544273, -13.644209060799483 ], [ -48.701708070371126, -13.638941276518665 ], [ -48.698862509297328, -13.637006145916871 ], [ -48.684800808710293, -13.596938083325824 ], [ -48.647895233678071, -13.580977591942256 ], [ -48.584328046102428, -13.501917048732764 ], [ -48.561524143824158, -13.453511284218337 ], [ -48.578075617495699, -13.408059932919514 ], [ -48.560521895269233, -13.389535011231715 ], [ -48.57820421874964, -13.314765845767111 ], [ -48.553609879592216, -13.30198171668286 ], [ -48.555044585139456, -13.208234278589032 ], [ -48.531111074116723, -13.193106879578806 ], [ -48.506635011996138, -13.129427950339618 ], [ -48.468627106455749, -13.162366304661191 ], [ -48.475793123953451, -13.23074940136371 ], [ -48.443437468264506, -13.287825295900632 ], [ -48.385683091001795, -13.266073122876264 ], [ -48.249683998617627, -13.19608968888798 ], [ -48.232739477145117, -13.171786078064997 ], [ -48.172905005761379, -13.150733614464684 ], [ -48.153737423143518, -13.27919493569766 ], [ -48.169810007825561, -13.299349597106184 ] ] } }
]
}
