{
"type": "FeatureCollection",
"features": [
{ "type": "Feature", "properties": { "Name": "MORRO AGUDO DE GOIÃS", "Description": "MORRO AGUDO DE GOIÃS \/ GO" }, "geometry": { "type": "LineString", "coordinates": [ [ -49.896562151721866, -15.326342753315373 ], [ -49.90850954707787, -15.37091010251919 ], [ -50.089484419370422, -15.366162540968446 ], [ -50.13950869287185, -15.400401026286261 ], [ -50.132288227719471, -15.339301891369132 ], [ -50.101846446256445, -15.314549397436679 ], [ -50.084627611774806, -15.246575720692931 ], [ -50.06686001098069, -15.228914941371386 ], [ -49.98814505025382, -15.271661414342757 ], [ -49.92489263798484, -15.247112868663919 ], [ -49.896562151721866, -15.326342753315373 ] ] } }
]
}
