{
"type": "FeatureCollection",
"features": [
{ "type": "Feature", "properties": { "Name": "MUNDO NOVO", "Description": "MUNDO NOVO \/ GO" }, "geometry": { "type": "LineString", "coordinates": [ [ -50.255014648707004, -13.54735646782666 ], [ -50.234924971410237, -13.621800924972661 ], [ -50.186782279278695, -13.643551560156311 ], [ -50.101485578896302, -13.661585266746613 ], [ -50.059537720988999, -13.704718405030349 ], [ -50.032390758726471, -13.679886423619507 ], [ -49.963172258392945, -13.702751370079625 ], [ -49.947672104783749, -13.753636727353012 ], [ -49.920728249009414, -13.77143626846896 ], [ -49.941505315917539, -13.834768396644163 ], [ -49.974955939365088, -13.882477112828438 ], [ -49.943094654494644, -13.914603388335649 ], [ -49.920667739924227, -13.932673141552186 ], [ -49.951066703765321, -14.021771211472185 ], [ -50.158542233337357, -14.004683767042193 ], [ -50.286399735359453, -13.995016885121117 ], [ -50.34295690273882, -13.967985322064919 ], [ -50.386139730364221, -13.87780527958995 ], [ -50.372788173135625, -13.852819849556338 ], [ -50.424743014978105, -13.823000362076982 ], [ -50.474177461820375, -13.712733896052441 ], [ -50.458846076784994, -13.698780023279426 ], [ -50.457043602480212, -13.594231990014293 ], [ -50.468320079308171, -13.564463128070884 ], [ -50.446899527691009, -13.546941780538702 ], [ -50.401761556850317, -13.56178859556718 ], [ -50.255014648707004, -13.54735646782666 ] ] } }
]
}
