{
"type": "FeatureCollection",
"features": [
{ "type": "Feature", "properties": { "Name": "NAZÃRIO", "Description": "NAZÃRIO \/ GO" }, "geometry": { "type": "LineString", "coordinates": [ [ -49.833370186484899, -16.517625390299486 ], [ -49.802512232953113, -16.518236175658956 ], [ -49.776992357411302, -16.558508283630317 ], [ -49.730925626116687, -16.579691925941574 ], [ -49.730507989052391, -16.638042423319121 ], [ -49.886564546816309, -16.640148754261531 ], [ -49.910671696241756, -16.614447013318966 ], [ -49.972792277541544, -16.590199122691331 ], [ -50.006692611474818, -16.62058465156036 ], [ -49.983403269545192, -16.569711887493554 ], [ -49.913326967065814, -16.529927920736895 ], [ -49.833370186484899, -16.517625390299486 ] ] } }
]
}
