{
"type": "FeatureCollection",
"features": [
{ "type": "Feature", "properties": { "Name": "NOVA VENEZA", "Description": "NOVA VENEZA \/ GO" }, "geometry": { "type": "LineString", "coordinates": [ [ -49.307945284846994, -16.311186628859787 ], [ -49.230589992034481, -16.321021335066519 ], [ -49.280612161122292, -16.399113380378139 ], [ -49.296757760861901, -16.443343060233985 ], [ -49.367611392351819, -16.3786661380318 ], [ -49.365224328140187, -16.333943574836042 ], [ -49.336811373146304, -16.292584035424852 ], [ -49.307945284846994, -16.311186628859787 ] ] } }
]
}
