{
"type": "FeatureCollection",
"features": [
{ "type": "Feature", "properties": { "Name": "NOVA ROMA", "Description": "NOVA ROMA \/ GO" }, "geometry": { "type": "LineString", "coordinates": [ [ -46.851350197853321, -13.615465020394311 ], [ -46.798954842891646, -13.69697730525837 ], [ -46.837591933920578, -13.764530578623237 ], [ -46.818088406854429, -13.798942203220065 ], [ -46.825586900115297, -13.844611202145245 ], [ -46.866721111689905, -13.88078058495597 ], [ -46.837176975936643, -13.912410629846645 ], [ -46.850840720223005, -13.987433754863842 ], [ -46.827009597015262, -14.030334294292174 ], [ -46.883975369567622, -14.041592080510043 ], [ -46.889093831315222, -14.070567515578318 ], [ -46.938037465956256, -14.103000028228678 ], [ -46.994962438965331, -14.082200099654813 ], [ -46.986510452095672, -14.051677542884249 ], [ -47.02897922521106, -14.035244369631926 ], [ -47.114657389227091, -14.09709996659012 ], [ -47.147867727313724, -14.021984590916077 ], [ -47.19329123200469, -13.966611860349019 ], [ -47.171897172616355, -13.914125779980735 ], [ -47.198151583828462, -13.861298781013886 ], [ -47.194231908475722, -13.722870169222858 ], [ -47.157865630794163, -13.671304295856544 ], [ -47.161261572463559, -13.629020318133144 ], [ -47.137945773378704, -13.566659098038883 ], [ -47.143362737200505, -13.510422729625247 ], [ -47.126761552603504, -13.439182555130742 ], [ -47.072487060629328, -13.444053374163841 ], [ -47.080264207926803, -13.494932852569034 ], [ -47.022622566977816, -13.543292391930322 ], [ -46.942626954570244, -13.566465530659684 ], [ -46.851350197853321, -13.615465020394311 ] ] } }
]
}
