{
"type": "FeatureCollection",
"features": [
{ "type": "Feature", "properties": { "Name": "NOVO BRASIL", "Description": "NOVO BRASIL \/ GO" }, "geometry": { "type": "LineString", "coordinates": [ [ -50.506234754830011, -16.008314007785202 ], [ -50.475326624524087, -16.068181152438171 ], [ -50.477961379114333, -16.119949641262902 ], [ -50.490460775644237, -16.147968152708017 ], [ -50.557430147083608, -16.20158120860583 ], [ -50.594933878295819, -16.233955644837067 ], [ -50.651320293196932, -16.108956118130322 ], [ -50.674684176333642, -16.112740570520881 ], [ -50.810515913878298, -16.08843809104502 ], [ -50.822383649086078, -16.069309333059209 ], [ -50.796716523948362, -15.999902481414322 ], [ -50.773374311775001, -15.924591752307492 ], [ -50.742240116188377, -15.899901396132462 ], [ -50.684125812256411, -15.909884623576486 ], [ -50.683431649850718, -15.952116841718805 ], [ -50.622208444464093, -15.962527822700791 ], [ -50.584879629591171, -16.038228727173987 ], [ -50.506234754830011, -16.008314007785202 ] ] } }
]
}
