{
"type": "FeatureCollection",
"features": [
{ "type": "Feature", "properties": { "Name": "PALESTINA DE GOIÃS", "Description": "PALESTINA DE GOIÃS \/ GO" }, "geometry": { "type": "LineString", "coordinates": [ [ -51.220932981571814, -16.729954264177877 ], [ -51.256942287756317, -16.783565394627203 ], [ -51.347776924265588, -16.801982054128473 ], [ -51.413276669482684, -16.826559753130084 ], [ -51.418862612319685, -16.85270577355254 ], [ -51.491136660028815, -16.890512822708558 ], [ -51.609717192894095, -16.888528439835568 ], [ -51.657000916459083, -16.921535210981176 ], [ -51.658694680714916, -16.795383641941498 ], [ -51.633336857609834, -16.758467712115191 ], [ -51.58872067881623, -16.733802064813403 ], [ -51.604249989345476, -16.668301554273285 ], [ -51.572842702928369, -16.656932223343404 ], [ -51.502995727570742, -16.570562274729127 ], [ -51.508686141951841, -16.541285661204256 ], [ -51.456192058516642, -16.528955937066765 ], [ -51.378682442940367, -16.465228067621183 ], [ -51.342605033795223, -16.480559786305037 ], [ -51.303049756540986, -16.530551223759915 ], [ -51.287879757544715, -16.599013096577096 ], [ -51.258325481036081, -16.627680390637462 ], [ -51.220932981571814, -16.729954264177877 ] ] } }
]
}
