{
"type": "FeatureCollection",
"features": [
{ "type": "Feature", "properties": { "Name": "PILAR DE GOIÃS", "Description": "PILAR DE GOIÃS \/ GO" }, "geometry": { "type": "LineString", "coordinates": [ [ -49.424079499868981, -14.268897415683114 ], [ -49.41594666620562, -14.393034355850773 ], [ -49.369947754585155, -14.514758851140014 ], [ -49.442084976740254, -14.55216272702819 ], [ -49.452533406391517, -14.588933779670128 ], [ -49.434978362161644, -14.619571116913448 ], [ -49.460696023802427, -14.659931261318604 ], [ -49.532003213077758, -14.730311082290541 ], [ -49.530946274051246, -14.765655472921708 ], [ -49.438864035047111, -14.810261568516522 ], [ -49.409119220075922, -14.848617109691816 ], [ -49.453770646897794, -14.871521555275535 ], [ -49.529978984842209, -14.814678052749912 ], [ -49.637919842726546, -14.817388473599124 ], [ -49.645725016496272, -14.840675460204293 ], [ -49.656393972503793, -14.730582218894257 ], [ -49.701779409791868, -14.641689233071588 ], [ -49.732419438706074, -14.605616968947912 ], [ -49.635052940740593, -14.578515614903665 ], [ -49.643587217376137, -14.63025125419199 ], [ -49.624871331846464, -14.676556783368822 ], [ -49.566815069259974, -14.644799980834419 ], [ -49.542894043525223, -14.534494708164232 ], [ -49.547948704668947, -14.480413350995319 ], [ -49.473593502538051, -14.462485696057968 ], [ -49.497062074854853, -14.255185706954761 ], [ -49.561643450384906, -14.232836519889418 ], [ -49.560388247719402, -14.200333023749977 ], [ -49.484202632045765, -14.239673656214222 ], [ -49.45958573339481, -14.28992799518079 ], [ -49.424079499868981, -14.268897415683114 ] ] } }
]
}
