{
"type": "FeatureCollection",
"features": [
{ "type": "Feature", "properties": { "Name": "PIRACANJUBA", "Description": "PIRACANJUBA \/ GO" }, "geometry": { "type": "LineString", "coordinates": [ [ -48.800276612975267, -17.177743631663247 ], [ -48.809695332373622, -17.223995755499686 ], [ -48.785217138859821, -17.287239112495001 ], [ -48.804191726067245, -17.315755736837726 ], [ -48.794141823786106, -17.353838599971368 ], [ -48.806917178185188, -17.417507169919926 ], [ -48.757363183564053, -17.480915383438173 ], [ -48.702744908650573, -17.496425696688505 ], [ -48.764201953956956, -17.570577113343063 ], [ -48.801809123392275, -17.573736232041426 ], [ -48.902310853163328, -17.529966497855526 ], [ -48.928192697734744, -17.599081943077181 ], [ -48.962228479460684, -17.570972279946716 ], [ -49.02491456525496, -17.558203405162999 ], [ -49.082060626696546, -17.524159807429101 ], [ -49.156776273506182, -17.545336810045683 ], [ -49.224477898136456, -17.507119241060082 ], [ -49.256559851455961, -17.519323553838888 ], [ -49.30195240957601, -17.507020023355324 ], [ -49.277168192957674, -17.472823546269581 ], [ -49.236894575923884, -17.450932284097576 ], [ -49.223307646330795, -17.400314652299301 ], [ -49.248645709531843, -17.344440470551206 ], [ -49.200055458092891, -17.353402051963087 ], [ -49.172754673988948, -17.26765990837805 ], [ -49.216863349164214, -17.146515184428154 ], [ -49.224810072626724, -17.084271815092166 ], [ -49.20636379215523, -17.11583011386864 ], [ -49.136776098538057, -17.126780838265006 ], [ -49.083557693033072, -17.061140361738236 ], [ -49.055248453253455, -17.053870277391354 ], [ -48.983249299515535, -17.092166917469228 ], [ -48.93921843638168, -17.090427624135486 ], [ -48.925724717022035, -17.024250665136037 ], [ -48.880942613310935, -17.016225837352465 ], [ -48.849422987181072, -17.055297350392379 ], [ -48.800276612975267, -17.177743631663247 ] ] } }
]
}
