{
"type": "FeatureCollection",
"features": [
{ "type": "Feature", "properties": { "Name": "POSSE", "Description": "POSSE \/ GO" }, "geometry": { "type": "LineString", "coordinates": [ [ -46.248417369565914, -14.056536565510044 ], [ -46.254864390778948, -14.104898756972034 ], [ -46.197861896209474, -14.126528756197104 ], [ -46.185643992875953, -14.151857021284455 ], [ -46.11814145476427, -14.160364740939995 ], [ -46.091385844181332, -14.205681192133284 ], [ -46.052598095125965, -14.204841179476828 ], [ -46.117939472428645, -14.225159052548177 ], [ -46.191531871398688, -14.295232365681102 ], [ -46.279919239481274, -14.37179822730627 ], [ -46.361367587943789, -14.381010756441183 ], [ -46.432219210348251, -14.42268117979256 ], [ -46.42528131218279, -14.385483130841747 ], [ -46.520699492787344, -14.389173765057192 ], [ -46.650614819917962, -14.369113634986206 ], [ -46.731231063462758, -14.392054128994799 ], [ -46.783145984399596, -14.390542552996351 ], [ -46.815351610688253, -14.350325122006721 ], [ -46.771902828352779, -14.342429092428631 ], [ -46.772348651069358, -14.304162095804031 ], [ -46.740858560474123, -14.286627700907616 ], [ -46.720924280630982, -14.188562544825515 ], [ -46.632168188710921, -14.127542013353207 ], [ -46.552135214868201, -14.108929228800831 ], [ -46.518897498720548, -14.068955583333434 ], [ -46.430704285274487, -14.039359285102876 ], [ -46.298108793186202, -14.021981349759413 ], [ -46.285635677544462, -14.05274605348751 ], [ -46.248417369565914, -14.056536565510044 ] ] } }
]
}
