{
"type": "FeatureCollection",
"features": [
{ "type": "Feature", "properties": { "Name": "RIO QUENTE", "Description": "RIO QUENTE \/ GO" }, "geometry": { "type": "LineString", "coordinates": [ [ -48.718475616056821, -17.844656719631871 ], [ -48.708395202476595, -17.901055842852827 ], [ -48.76536055864284, -17.934583541796997 ], [ -48.846966164356957, -17.907828486995012 ], [ -48.850643626202327, -17.877005321038666 ], [ -48.821222416081582, -17.787775942905398 ], [ -48.838665014478806, -17.721472236154739 ], [ -48.75245807068336, -17.708668718586466 ], [ -48.721792029778328, -17.733489917125947 ], [ -48.753004642650069, -17.792083679318296 ], [ -48.718475616056821, -17.844656719631871 ] ] } }
]
}
