{
"type": "FeatureCollection",
"features": [
{ "type": "Feature", "properties": { "Name": "SENADOR CANEDO", "Description": "SENADOR CANEDO \/ GO" }, "geometry": { "type": "LineString", "coordinates": [ [ -49.078018883664527, -16.593485143824292 ], [ -49.062238506701703, -16.641578803119216 ], [ -49.01239126294638, -16.66008157270636 ], [ -49.066580501888602, -16.738004276576078 ], [ -49.060928129729341, -16.787717846001726 ], [ -49.086945161290146, -16.7721501137367 ], [ -49.134441373070842, -16.827583765278519 ], [ -49.156039360927707, -16.824180527409339 ], [ -49.160405707057684, -16.790269737058679 ], [ -49.144290506201855, -16.740445453894548 ], [ -49.194309738103868, -16.691670483505959 ], [ -49.166524107001919, -16.650860449649997 ], [ -49.078018883664527, -16.593485143824292 ] ] } }
]
}
