{
"type": "FeatureCollection",
"features": [
{ "type": "Feature", "properties": { "Name": "SERRANÃPOLIS", "Description": "SERRANÃPOLIS \/ GO" }, "geometry": { "type": "LineString", "coordinates": [ [ -51.639364060003345, -18.493859536788136 ], [ -51.727196159674975, -18.473001619029446 ], [ -51.798306674413425, -18.48943046024749 ], [ -51.799421947964504, -18.54150303683565 ], [ -51.846256168787136, -18.572039008793183 ], [ -51.90017473787384, -18.585847866785571 ], [ -51.896611666195383, -18.633069881569725 ], [ -52.01561418524642, -18.564640655042126 ], [ -52.071920656712905, -18.50493700713713 ], [ -52.112031878668226, -18.526271515218184 ], [ -52.159561756569758, -18.494976881477839 ], [ -52.252865968289768, -18.509959202754938 ], [ -52.312274306713846, -18.501829085943541 ], [ -52.465592886602387, -18.409141506075628 ], [ -52.491347749598894, -18.345910302518405 ], [ -52.565976802487398, -18.296804102827025 ], [ -52.606618295298063, -18.24141411786718 ], [ -52.664426592313355, -18.204204015302992 ], [ -52.765092607537781, -18.105977348176054 ], [ -52.784619668063215, -18.071375605100059 ], [ -52.716313153129477, -17.975996973081806 ], [ -52.661423778484561, -17.961072042940373 ], [ -52.543371519080324, -17.904517681445782 ], [ -52.496948307318462, -17.912276144428461 ], [ -52.430395229356293, -17.872275835861103 ], [ -52.395266927826412, -17.830498413870657 ], [ -52.350895630828632, -17.848659350248795 ], [ -52.314175369197869, -17.830724383823224 ], [ -52.262029591392491, -17.843950794993134 ], [ -52.223421987334795, -17.812678210830711 ], [ -52.187646955442574, -17.829059226102345 ], [ -52.188643360202889, -17.954035695091193 ], [ -52.166223865039285, -17.954798961402901 ], [ -52.15708187332973, -18.022342877321876 ], [ -52.132820760869379, -18.020924695917927 ], [ -52.035287680581973, -18.08590719785883 ], [ -52.020281140562133, -18.144087637934092 ], [ -51.978692650845112, -18.160992886012821 ], [ -51.924254068570342, -18.157632009809333 ], [ -51.859811160756408, -18.134558429627759 ], [ -51.824584959028577, -18.211153806103198 ], [ -51.679945626489427, -18.26305082873273 ], [ -51.63950545950928, -18.332286014188185 ], [ -51.665609583215655, -18.339190739061337 ], [ -51.639364060003345, -18.493859536788136 ] ] } }
]
}
