{
"type": "FeatureCollection",
"features": [
{ "type": "Feature", "properties": { "Name": "TERESINA DE GOIÃS", "Description": "TERESINA DE GOIÃS \/ GO" }, "geometry": { "type": "LineString", "coordinates": [ [ -47.126761552603504, -13.439182555130742 ], [ -47.143362737200505, -13.510422729625247 ], [ -47.137945773378704, -13.566659098038883 ], [ -47.161261572463559, -13.629020318133144 ], [ -47.157865630794163, -13.671304295856544 ], [ -47.194231908475722, -13.722870169222858 ], [ -47.198151583828462, -13.861298781013886 ], [ -47.244515015855256, -13.878529086348237 ], [ -47.242645158946914, -13.938828990165746 ], [ -47.263950904010983, -13.97681443693665 ], [ -47.333566743710207, -13.926529503034089 ], [ -47.309482758122726, -13.891185776102645 ], [ -47.317261792197876, -13.837929717782231 ], [ -47.353233042670752, -13.807624376064041 ], [ -47.305872650102685, -13.746699029736362 ], [ -47.333873408930621, -13.706905731614199 ], [ -47.306095426562649, -13.66440241643835 ], [ -47.319651718052285, -13.628709141013985 ], [ -47.259622383366263, -13.532752176571648 ], [ -47.247196473138672, -13.447662062154393 ], [ -47.197803974273931, -13.452104452258595 ], [ -47.147727475342663, -13.41301865438737 ], [ -47.126761552603504, -13.439182555130742 ] ] } }
]
}
