{
"type": "FeatureCollection",
"features": [
{ "type": "Feature", "properties": { "Name": "ARAGUATINS", "Description": "ARAGUATINS \/ TO" }, "geometry": { "type": "LineString", "coordinates": [ [ -48.250627515147642, -5.31881277498951 ], [ -48.208266320734083, -5.372920475999138 ], [ -48.076294000367795, -5.439948460752816 ], [ -47.937100568236588, -5.56770612183999 ], [ -47.869090374521136, -5.664455807189711 ], [ -47.839353867486977, -5.648900707701443 ], [ -47.765555773779909, -5.740960123710693 ], [ -47.861426680297022, -5.755339829969103 ], [ -47.851732567803708, -5.868653315997676 ], [ -47.880020881258638, -5.94443145784544 ], [ -47.932462621452771, -5.972924662942773 ], [ -48.017213904597952, -5.892020347660889 ], [ -48.079068797387031, -5.882235434217876 ], [ -48.069693785040101, -5.95275208434117 ], [ -48.16384577865972, -6.008977401885545 ], [ -48.223730020324126, -6.005471239306188 ], [ -48.231629287461601, -5.946138860320104 ], [ -48.291969841534922, -5.836837416313642 ], [ -48.275710027895457, -5.726513365799121 ], [ -48.175983123422384, -5.712295749748988 ], [ -48.13815199401926, -5.602690143335394 ], [ -48.194735315482376, -5.56309334348299 ], [ -48.278689116709302, -5.540423277412287 ], [ -48.393510383597281, -5.394212593636269 ], [ -48.441785450538077, -5.408159693614948 ], [ -48.440047150955195, -5.320753076693109 ], [ -48.407737849022453, -5.284977656293734 ], [ -48.353380541178979, -5.275345924374847 ], [ -48.250627515147642, -5.31881277498951 ] ] } }
]
}
