{
"type": "FeatureCollection",
"features": [
{ "type": "Feature", "properties": { "Name": "ARAGUANÃ", "Description": "ARAGUANÃ \/ TO" }, "geometry": { "type": "LineString", "coordinates": [ [ -48.387121017920599, -6.851364050010829 ], [ -48.31724007247135, -6.925373633686206 ], [ -48.424207864801069, -6.977777994458847 ], [ -48.498421948014425, -6.984268300941267 ], [ -48.546074004211903, -6.950044356761623 ], [ -48.56451904182029, -6.857007052133724 ], [ -48.646267554304131, -6.806919368334149 ], [ -48.664856367427376, -6.662763259516794 ], [ -48.66454908167475, -6.567674152540064 ], [ -48.631879389022515, -6.487883510915253 ], [ -48.634382120438488, -6.582707547215477 ], [ -48.514041403887632, -6.668326579907671 ], [ -48.461834990192578, -6.674795980749877 ], [ -48.468653890064957, -6.753379700712571 ], [ -48.432106546479872, -6.831513292004785 ], [ -48.387121017920599, -6.851364050010829 ] ] } }
]
}
