{
"type": "FeatureCollection",
"features": [
{ "type": "Feature", "properties": { "Name": "ARAGOMINAS", "Description": "ARAGOMINAS \/ TO" }, "geometry": { "type": "LineString", "coordinates": [ [ -48.424207864801069, -6.977777994458847 ], [ -48.468712350494513, -7.082606452525738 ], [ -48.426529105833538, -7.151850447739946 ], [ -48.48790181991302, -7.211545411791291 ], [ -48.483987371420028, -7.257795494166657 ], [ -48.560905750200163, -7.282773430149631 ], [ -48.550714515862182, -7.237394508449768 ], [ -48.564386328865957, -7.080386503034617 ], [ -48.621381486766154, -7.023850467025397 ], [ -48.870360873555455, -6.855493648712866 ], [ -48.839878556050508, -6.750642042096501 ], [ -48.76909815815344, -6.73070156142785 ], [ -48.664856367427376, -6.662763259516794 ], [ -48.646267554304131, -6.806919368334149 ], [ -48.56451904182029, -6.857007052133724 ], [ -48.546074004211903, -6.950044356761623 ], [ -48.498421948014425, -6.984268300941267 ], [ -48.424207864801069, -6.977777994458847 ] ] } }
]
}
