{
"type": "FeatureCollection",
"features": [
{ "type": "Feature", "properties": { "Name": "BREJINHO DE NAZARÃ", "Description": "BREJINHO DE NAZARÃ \/ TO" }, "geometry": { "type": "LineString", "coordinates": [ [ -48.458188644890008, -10.928076591161698 ], [ -48.513045742866723, -10.953998426785914 ], [ -48.558302342379136, -11.031887575151416 ], [ -48.496689505716063, -11.206567673359416 ], [ -48.45382594910825, -11.263837524681946 ], [ -48.457824528279332, -11.301359031893753 ], [ -48.478967773044246, -11.363344087159874 ], [ -48.542524955662145, -11.383351993599604 ], [ -48.566111164698441, -11.313873453397091 ], [ -48.629916186982427, -11.278907819440292 ], [ -48.656908849863498, -11.182030806276657 ], [ -48.717291199928866, -11.164431023472901 ], [ -48.762802857965482, -11.127596333903625 ], [ -48.857493906118805, -11.104890983831808 ], [ -48.830268126372907, -11.050655328180824 ], [ -48.853558444066891, -10.967685810651574 ], [ -48.809186122741316, -10.928717849149393 ], [ -48.788785364552893, -10.796223308658739 ], [ -48.72488751784465, -10.802990656693396 ], [ -48.625048981425323, -10.867053036168612 ], [ -48.567747848084707, -10.853671628642701 ], [ -48.496018504450369, -10.780359223699179 ], [ -48.415991837553236, -10.755743802634354 ], [ -48.397407791736157, -10.817956879206577 ], [ -48.458188644890008, -10.928076591161698 ] ] } }
]
}
