{
"type": "FeatureCollection",
"features": [
{ "type": "Feature", "properties": { "Name": "CARIRI DO TOCANTINS", "Description": "CARIRI DO TOCANTINS \/ TO" }, "geometry": { "type": "LineString", "coordinates": [ [ -49.001437885549933, -11.962458919243657 ], [ -49.098938239508129, -12.088833268340636 ], [ -49.150145007286199, -12.07201988151229 ], [ -49.246108957662216, -12.141420953214379 ], [ -49.407071870270556, -12.156994178538467 ], [ -49.353578911637442, -12.127101075254359 ], [ -49.323281276209912, -12.041339007189379 ], [ -49.259261330346078, -11.967501232695668 ], [ -49.278441130253896, -11.916889648838151 ], [ -49.406520250409187, -11.761103797801979 ], [ -49.172180062060193, -11.739694940069398 ], [ -49.116139595665743, -11.750676638915706 ], [ -49.080248019730277, -11.808786872516121 ], [ -49.105660283295379, -11.865681800074981 ], [ -49.001437885549933, -11.962458919243657 ] ] } }
]
}
