{
"type": "FeatureCollection",
"features": [
{ "type": "Feature", "properties": { "Name": "FÃTIMA", "Description": "FÃTIMA \/ TO" }, "geometry": { "type": "LineString", "coordinates": [ [ -48.788785364552893, -10.796223308658739 ], [ -48.809186122741316, -10.928717849149393 ], [ -48.853558444066891, -10.967685810651574 ], [ -48.884882089936468, -10.853182926251007 ], [ -48.997082007528604, -10.843383137122032 ], [ -49.021600268537497, -10.780811712190712 ], [ -48.966949716056483, -10.757119163718357 ], [ -48.906909828725588, -10.715848052845331 ], [ -48.8360533508814, -10.728572222330172 ], [ -48.791636772119318, -10.689316711596916 ], [ -48.769770885218122, -10.749693366255826 ], [ -48.788785364552893, -10.796223308658739 ] ] } }
]
}
