{
"type": "FeatureCollection",
"features": [
{ "type": "Feature", "properties": { "Name": "FORTALEZA DO TABOCÃO", "Description": "FORTALEZA DO TABOCÃO \/ TO" }, "geometry": { "type": "LineString", "coordinates": [ [ -48.395685219497238, -8.97512042996385 ], [ -48.367673908923734, -9.074789210353742 ], [ -48.496325347736551, -9.062563640299684 ], [ -48.564981237593997, -9.215816513021593 ], [ -48.732802671506022, -9.183776796361997 ], [ -48.659831212140659, -9.115581365687433 ], [ -48.659584155784103, -8.997250249899082 ], [ -48.617545423182712, -9.0103256091395 ], [ -48.455653946172617, -8.932736572634667 ], [ -48.395685219497238, -8.97512042996385 ] ] } }
]
}
