{
"type": "FeatureCollection",
"features": [
{ "type": "Feature", "properties": { "Name": "IPUEIRAS", "Description": "IPUEIRAS \/ TO" }, "geometry": { "type": "LineString", "coordinates": [ [ -48.324429131499187, -11.079812759051549 ], [ -48.31835564729522, -11.134941849786514 ], [ -48.218234743538517, -11.210981232098163 ], [ -48.255837151962965, -11.285300929893936 ], [ -48.282911645955664, -11.297824742118109 ], [ -48.45382594910825, -11.263837524681946 ], [ -48.496689505716063, -11.206567673359416 ], [ -48.558302342379136, -11.031887575151416 ], [ -48.513045742866723, -10.953998426785914 ], [ -48.458188644890008, -10.928076591161698 ], [ -48.409240018112314, -11.005788529017366 ], [ -48.327581186022883, -11.040937419626175 ], [ -48.324429131499187, -11.079812759051549 ] ] } }
]
}
