{
"type": "FeatureCollection",
"features": [
{ "type": "Feature", "properties": { "Name": "LAJEADO", "Description": "LAJEADO \/ TO" }, "geometry": { "type": "LineString", "coordinates": [ [ -48.22626034024244, -9.949278852337102 ], [ -48.222260759226629, -9.95931454443064 ], [ -48.371028711106078, -9.918071751410139 ], [ -48.332215379036484, -9.860407063535092 ], [ -48.376355454940267, -9.787725914319424 ], [ -48.365597457056936, -9.695469623224483 ], [ -48.252957741306659, -9.77385395539568 ], [ -48.23083204206506, -9.868850201975192 ], [ -48.185743624768399, -9.906230012005381 ], [ -48.22626034024244, -9.949278852337102 ] ] } }
]
}
