{
"type": "FeatureCollection",
"features": [
{ "type": "Feature", "properties": { "Name": "MONTE SANTO DO TOCANTINS", "Description": "MONTE SANTO DO TOCANTINS \/ TO" }, "geometry": { "type": "LineString", "coordinates": [ [ -48.893903677712494, -10.062122652138612 ], [ -48.949946316868989, -10.134105573113686 ], [ -49.005161267678318, -10.122457707756951 ], [ -49.109549965358553, -10.148967953608121 ], [ -49.211388023838197, -10.073300068643221 ], [ -49.300551538322786, -10.036139997163104 ], [ -49.398194793654731, -9.960331315237966 ], [ -49.3367713344295, -9.925385437587806 ], [ -49.241611881583026, -9.92596417021025 ], [ -49.141972302179965, -9.971294747054912 ], [ -49.047691824218248, -9.940992173450013 ], [ -49.056777771976556, -9.86613732957403 ], [ -48.966888706048906, -9.853524485366677 ], [ -48.88594363439119, -9.841217845027472 ], [ -48.853746038149097, -9.886055998985114 ], [ -48.893903677712494, -10.062122652138612 ] ] } }
]
}
