{
"type": "FeatureCollection",
"features": [
{ "type": "Feature", "properties": { "Name": "PINDORAMA DO TOCANTINS", "Description": "PINDORAMA DO TOCANTINS \/ TO" }, "geometry": { "type": "LineString", "coordinates": [ [ -47.333031604824669, -11.005260701620045 ], [ -47.317193499480368, -11.162529444777988 ], [ -47.353012948888413, -11.179528959793629 ], [ -47.409616336924387, -11.267954101200758 ], [ -47.453897387854113, -11.243197457796384 ], [ -47.482076522713328, -11.318248178510601 ], [ -47.575312135946263, -11.368964920094925 ], [ -47.622128605950358, -11.44282985411445 ], [ -47.597767728098113, -11.382321009007342 ], [ -47.621012631827455, -11.303596836524719 ], [ -47.668372152053109, -11.321667852389453 ], [ -47.74406220530647, -11.306009836284886 ], [ -47.768850929326902, -11.267994067072493 ], [ -47.803630087058821, -11.21069453362577 ], [ -47.695879134514421, -11.057726549040979 ], [ -47.726664426422076, -10.951227042693802 ], [ -47.634791293283513, -10.970798107946278 ], [ -47.565833726745041, -11.013324398102439 ], [ -47.446595463010169, -11.025219438526221 ], [ -47.333031604824669, -11.005260701620045 ] ] } }
]
}
