{
"type": "FeatureCollection",
"features": [
{ "type": "Feature", "properties": { "Name": "PIRAQUÃ", "Description": "PIRAQUÃ \/ TO" }, "geometry": { "type": "LineString", "coordinates": [ [ -48.120119191247625, -6.593882826031574 ], [ -48.12920911490869, -6.623333209260124 ], [ -48.129879186275389, -7.032702613534751 ], [ -48.183102816841476, -7.015083858633147 ], [ -48.257599071340053, -6.990915515738436 ], [ -48.292599672736685, -6.9423674856709 ], [ -48.31724007247135, -6.925373633686206 ], [ -48.387121017920599, -6.851364050010829 ], [ -48.369727302173196, -6.788549971803718 ], [ -48.387173741574884, -6.64626388626931 ], [ -48.373160422715273, -6.587825317384443 ], [ -48.312834155272007, -6.570700426083761 ], [ -48.280987684933677, -6.507790332657692 ], [ -48.287485130234529, -6.449931736560359 ], [ -48.214937064493881, -6.451441113716385 ], [ -48.138927519889073, -6.53150343873267 ], [ -48.120119191247625, -6.593882826031574 ] ] } }
]
}
