{
"type": "FeatureCollection",
"features": [
{ "type": "Feature", "properties": { "Name": "SAMPAIO", "Description": "SAMPAIO \/ TO" }, "geometry": { "type": "LineString", "coordinates": [ [ -47.827540944159182, -5.386588162013993 ], [ -47.869678572508057, -5.417258712119803 ], [ -47.934015432266328, -5.400115560984318 ], [ -47.978295373432672, -5.423359243434277 ], [ -47.933871160325737, -5.353423906987643 ], [ -48.01465931917221, -5.238030089417066 ], [ -47.928104067048992, -5.241235520502812 ], [ -47.872923550381529, -5.272358116633711 ], [ -47.867624059602626, -5.342815892639294 ], [ -47.827540944159182, -5.386588162013993 ] ] } }
]
}
