{
"type": "FeatureCollection",
"features": [
{ "type": "Feature", "properties": { "Name": "TUPIRATINS", "Description": "TUPIRATINS \/ TO" }, "geometry": { "type": "LineString", "coordinates": [ [ -48.154048140709101, -8.155327971208862 ], [ -48.12641138787518, -8.369708909138808 ], [ -48.082825226902685, -8.41645521403683 ], [ -48.089653552569359, -8.490610518460585 ], [ -48.132931037437402, -8.544908767825348 ], [ -48.180489459820649, -8.584835289716807 ], [ -48.293234499672394, -8.523272375319834 ], [ -48.282571355983237, -8.337313212035042 ], [ -48.333710947102475, -8.238954055884903 ], [ -48.29699795289315, -8.145378003392068 ], [ -48.238347058569843, -8.124278617664004 ], [ -48.154048140709101, -8.155327971208862 ] ] } }
]
}
