{
"type": "FeatureCollection",
"features": [
{ "type": "Feature", "properties": { "Name": "ÃGUAS DA PRATA", "Description": "ÃGUAS DA PRATA \/ SP" }, "geometry": { "type": "LineString", "coordinates": [ [ -46.690714491880271, -21.837634903128219 ], [ -46.67653020290652, -21.850625512957038 ], [ -46.66673105319552, -21.849053961171307 ], [ -46.663176188730063, -21.860441569922443 ], [ -46.657038370624257, -21.871104595800432 ], [ -46.657160902353723, -21.878100806007353 ], [ -46.647536461238644, -21.880460833900315 ], [ -46.653167807248451, -21.896012576219391 ], [ -46.663784893058335, -21.898105300419218 ], [ -46.673778465403814, -21.911052689729786 ], [ -46.664641118692657, -21.923425141557004 ], [ -46.66797531470894, -21.930578176441657 ], [ -46.662099129171452, -21.937906473005281 ], [ -46.653273314811599, -21.944104227328182 ], [ -46.65382340222817, -21.95334317494752 ], [ -46.644208146788515, -21.974554747503532 ], [ -46.638680635602782, -21.980038764777131 ], [ -46.630999218439115, -21.981176600519632 ], [ -46.622013355332058, -21.995265363505666 ], [ -46.614668772945492, -21.996971153495906 ], [ -46.612461099200345, -22.004865445583786 ], [ -46.613262381653556, -22.01496269087545 ], [ -46.617826503989932, -22.017531537750244 ], [ -46.628081476878606, -22.015464871406664 ], [ -46.640342908298514, -22.008884329648026 ], [ -46.649920102630574, -22.009548156122435 ], [ -46.664228077164012, -22.001156130650884 ], [ -46.674460884462178, -21.990332682807036 ], [ -46.69009455951624, -21.981817711917813 ], [ -46.702189331272564, -21.978069999530817 ], [ -46.70468581689687, -21.971173650943168 ], [ -46.713189225202534, -21.968138039738676 ], [ -46.72275230917171, -21.952668454085824 ], [ -46.731980361504441, -21.951369376195714 ], [ -46.730928979388864, -21.941011137753772 ], [ -46.734871267295091, -21.930303192538247 ], [ -46.732450994717567, -21.925607023645171 ], [ -46.730755533441084, -21.909707779690223 ], [ -46.73665902599322, -21.898791107223758 ], [ -46.731958134760077, -21.874186480721448 ], [ -46.745753088334311, -21.859261885127864 ], [ -46.751300349531448, -21.851118148084026 ], [ -46.758107472781596, -21.847300345234714 ], [ -46.755879375432812, -21.836855804251911 ], [ -46.750515048930311, -21.834171300065407 ], [ -46.73586762259265, -21.822914803475328 ], [ -46.734306582083036, -21.819044994630758 ], [ -46.721043998381788, -21.820744927336477 ], [ -46.708547095671861, -21.828847384599101 ], [ -46.705171432815341, -21.839862599379387 ], [ -46.690714491880271, -21.837634903128219 ] ] } }
]
}
