{
"type": "FeatureCollection",
"features": [
{ "type": "Feature", "properties": { "Name": "ÃLVARES MACHADO", "Description": "ÃLVARES MACHADO \/ SP" }, "geometry": { "type": "LineString", "coordinates": [ [ -51.467712732756354, -21.958716804037238 ], [ -51.461538725032078, -21.968810361209137 ], [ -51.455692999532282, -21.970056584144004 ], [ -51.453689967418029, -21.977033800669346 ], [ -51.444155274146567, -21.983087419748585 ], [ -51.443787084506305, -21.988028000991392 ], [ -51.422124109839729, -22.000497085871757 ], [ -51.40824866694237, -22.003817522260817 ], [ -51.40308528765587, -22.000742038714066 ], [ -51.392595892986037, -22.001414618289971 ], [ -51.395686228836325, -22.013886393042583 ], [ -51.404390332547784, -22.025053748831397 ], [ -51.40256616569593, -22.029729191948604 ], [ -51.417657103492502, -22.045916175790804 ], [ -51.412260959875368, -22.067304029857041 ], [ -51.41758335099081, -22.076622448766951 ], [ -51.425212723488357, -22.073647635330072 ], [ -51.433578046289767, -22.079196298570253 ], [ -51.439340356971854, -22.086978912846519 ], [ -51.441203604762507, -22.095707541969432 ], [ -51.4482510664335, -22.112326839811768 ], [ -51.467288589996372, -22.114600633512396 ], [ -51.475684089549077, -22.121748378584751 ], [ -51.483807983051918, -22.123858095474702 ], [ -51.483947851911807, -22.177324287585748 ], [ -51.477005273674422, -22.188243120223774 ], [ -51.476189536417905, -22.197797308099268 ], [ -51.482961285734682, -22.218427236927425 ], [ -51.488206135504697, -22.219920026088289 ], [ -51.493987157481286, -22.228613465638887 ], [ -51.500003014027811, -22.229233792805246 ], [ -51.509559707414496, -22.242110580838585 ], [ -51.513261440163319, -22.250600664788806 ], [ -51.521673828983978, -22.258188342018343 ], [ -51.528488746658297, -22.256276763761601 ], [ -51.553297031832528, -22.261137329624034 ], [ -51.555733798875679, -22.264492381817945 ], [ -51.570004188942107, -22.260871490926547 ], [ -51.574510653943491, -22.265068313951474 ], [ -51.58330178235132, -22.266429892025826 ], [ -51.587834701809982, -22.273327110257863 ], [ -51.594090572122184, -22.273199029711407 ], [ -51.600233982212444, -22.281126317025837 ], [ -51.603507124154419, -22.285805343042114 ], [ -51.611897005642277, -22.279978693961539 ], [ -51.620662639169439, -22.284589132282576 ], [ -51.6094713056562, -22.191049866558046 ], [ -51.607340681327344, -22.168958162589092 ], [ -51.603962686528746, -22.160314236113038 ], [ -51.605137584232068, -22.151898005388603 ], [ -51.600230661016148, -22.142386275406238 ], [ -51.593172006382929, -22.141571210842642 ], [ -51.578105504065718, -22.134688003148767 ], [ -51.573312996197778, -22.118421544418709 ], [ -51.574627123343014, -22.110678652297903 ], [ -51.564767492425794, -22.106900434007798 ], [ -51.551953972597744, -22.108913863184171 ], [ -51.54102187675818, -22.106879856620026 ], [ -51.536646276604358, -22.09975748232193 ], [ -51.529161176946729, -22.098023715322142 ], [ -51.527614678474599, -22.089605487203414 ], [ -51.474969715779707, -21.95226029677525 ], [ -51.467712732756354, -21.958716804037238 ] ] } }
]
}
