{
"type": "FeatureCollection",
"features": [
{ "type": "Feature", "properties": { "Name": "ÃLVARES FLORENCE", "Description": "ÃLVARES FLORENCE \/ SP" }, "geometry": { "type": "LineString", "coordinates": [ [ -49.812450071613448, -20.194725302630559 ], [ -49.819363999249106, -20.201439747146594 ], [ -49.838031119940176, -20.207511412921349 ], [ -49.843213049542548, -20.212020104644068 ], [ -49.84543894714966, -20.221434411069197 ], [ -49.843475241489159, -20.226599312907922 ], [ -49.846738308326223, -20.245982183331023 ], [ -49.85158535647895, -20.251748060724367 ], [ -49.859774685553241, -20.267999642869199 ], [ -49.865509394243126, -20.283331157406963 ], [ -49.867027744834502, -20.297010437481674 ], [ -49.86081463998363, -20.316164680455586 ], [ -49.853310939648111, -20.320731733682521 ], [ -49.861753071746818, -20.337209257900891 ], [ -49.858316248695871, -20.34154164652972 ], [ -49.86332108559958, -20.347996436985909 ], [ -49.860729574010577, -20.35708156636116 ], [ -49.852486869273541, -20.35276129969418 ], [ -49.832010866608186, -20.358164135166646 ], [ -49.818245319066193, -20.365471851644596 ], [ -49.810509147579069, -20.366188211116992 ], [ -49.799693241449916, -20.374687103027327 ], [ -49.803080257347972, -20.38459484497605 ], [ -49.825649648812202, -20.398345261424652 ], [ -49.833388007450537, -20.406928151812735 ], [ -49.843136900347638, -20.4138554946353 ], [ -49.852273651707605, -20.416651991396236 ], [ -49.857679870429649, -20.413793170718236 ], [ -49.867932571630831, -20.414226132230169 ], [ -49.871701551185595, -20.411204416450627 ], [ -49.889135094309097, -20.408784988336492 ], [ -49.892509423471097, -20.395942263024949 ], [ -49.937905320773893, -20.391345484506473 ], [ -49.939318144916399, -20.381102541848804 ], [ -49.944643066724097, -20.377217863613453 ], [ -49.951700261757651, -20.35986241042184 ], [ -49.950922335597284, -20.355421389085791 ], [ -49.962725278248968, -20.350498361709978 ], [ -49.984978685717749, -20.347662650011216 ], [ -49.996941088960057, -20.338679050497717 ], [ -49.999565078665398, -20.332314243507483 ], [ -50.007508287577366, -20.331818369921791 ], [ -50.011079954975912, -20.32396110472115 ], [ -50.003048585523743, -20.316692418820026 ], [ -49.999632376732734, -20.304993801122976 ], [ -49.999549896310612, -20.29192596830876 ], [ -50.001823081170244, -20.278811718785732 ], [ -50.010852836589095, -20.266252177396041 ], [ -50.015807997640934, -20.239226086714496 ], [ -50.011247741490024, -20.22152144655746 ], [ -50.013353438410434, -20.204492607347902 ], [ -50.024845120305997, -20.196071588632886 ], [ -50.027745241449679, -20.181659594015002 ], [ -50.009181679490894, -20.187181568074834 ], [ -49.991942475364908, -20.186090015042112 ], [ -49.982419699909201, -20.179811776792008 ], [ -49.971505457410899, -20.177842453966036 ], [ -49.964491177126092, -20.172264456639311 ], [ -49.954793345036819, -20.177095511248808 ], [ -49.942072701793734, -20.174911693819581 ], [ -49.942612009936283, -20.185118895620516 ], [ -49.934394089615516, -20.187186978396312 ], [ -49.932320230494213, -20.19948128363427 ], [ -49.925264356564753, -20.204703984900959 ], [ -49.921305709990463, -20.214606763491304 ], [ -49.912937203589017, -20.218222512059242 ], [ -49.900137792325211, -20.21682045819756 ], [ -49.896644208563316, -20.210323869051251 ], [ -49.880830226633634, -20.197898500215558 ], [ -49.853209103117592, -20.19201857529697 ], [ -49.848103801149477, -20.197007898895379 ], [ -49.841742934089098, -20.190096858982827 ], [ -49.826719000281571, -20.187232938249451 ], [ -49.812450071613448, -20.194725302630559 ] ] } }
]
}
