{
"type": "FeatureCollection",
"features": [
{ "type": "Feature", "properties": { "Name": "AMERICANA", "Description": "AMERICANA \/ SP" }, "geometry": { "type": "LineString", "coordinates": [ [ -47.194211242954452, -22.729787377585353 ], [ -47.200924803436855, -22.730340082928418 ], [ -47.210808380602259, -22.742946178623185 ], [ -47.220116195605897, -22.733725902728168 ], [ -47.228611067546694, -22.732902780239041 ], [ -47.231542000362992, -22.747742999639684 ], [ -47.242622999651644, -22.759080999088781 ], [ -47.267730500062498, -22.76661299929043 ], [ -47.28756538863172, -22.753682284309946 ], [ -47.301332000071682, -22.757135999326863 ], [ -47.313491999656037, -22.764407999229718 ], [ -47.319495000393886, -22.762450998914399 ], [ -47.326410354354323, -22.771613308107643 ], [ -47.332689656502396, -22.773692476826284 ], [ -47.342523642352148, -22.783223004438071 ], [ -47.351201291606287, -22.785031764104588 ], [ -47.360474999821349, -22.76676699919761 ], [ -47.361283000210221, -22.746154000106969 ], [ -47.354474761800759, -22.744703860394793 ], [ -47.354859005238836, -22.734818837119576 ], [ -47.362910673288923, -22.725732603376912 ], [ -47.367954000276825, -22.707982998916233 ], [ -47.378993000326652, -22.709661999901353 ], [ -47.388062076803351, -22.699270343551461 ], [ -47.380758999927878, -22.687557999502019 ], [ -47.370536999782637, -22.681878999316325 ], [ -47.36188099990818, -22.68085099957392 ], [ -47.360141999753466, -22.688303999729783 ], [ -47.349604000324291, -22.69736100011005 ], [ -47.346502000267037, -22.7042379997838 ], [ -47.335314999687455, -22.712944999312242 ], [ -47.322720999874207, -22.71050400005953 ], [ -47.322616000428013, -22.696185999883937 ], [ -47.311188000425823, -22.687060999965123 ], [ -47.297166000410527, -22.688499999775104 ], [ -47.291788999762502, -22.692812999919965 ], [ -47.27793221689825, -22.67864474855628 ], [ -47.279055115800929, -22.663484720343547 ], [ -47.27017964177702, -22.670271744645273 ], [ -47.257516905880429, -22.671107032263706 ], [ -47.254982490449549, -22.674357220809043 ], [ -47.254947703773496, -22.68834542969779 ], [ -47.2395007243789, -22.680423119231531 ], [ -47.21884171417372, -22.691710051577559 ], [ -47.212953496606531, -22.692262430466769 ], [ -47.204258957185061, -22.698270706627738 ], [ -47.202911368065145, -22.708964030665413 ], [ -47.198781812530569, -22.710756362416134 ], [ -47.194102547294676, -22.720571718809708 ], [ -47.194211242954452, -22.729787377585353 ] ] } }
]
}
