{
"type": "FeatureCollection",
"features": [
{ "type": "Feature", "properties": { "Name": "ANGATUBA", "Description": "ANGATUBA \/ SP" }, "geometry": { "type": "LineString", "coordinates": [ [ -48.360145787498027, -23.303005254688685 ], [ -48.37989371252479, -23.315900725238237 ], [ -48.378501907337125, -23.324655237748971 ], [ -48.385607870806552, -23.331498606375529 ], [ -48.384295046778959, -23.344318441243043 ], [ -48.369350168775213, -23.343258146845983 ], [ -48.363351808539107, -23.350867189269309 ], [ -48.358896270346577, -23.369822757614145 ], [ -48.356071799274048, -23.375321527366566 ], [ -48.361424304188233, -23.384269316775487 ], [ -48.363093097868102, -23.393432119696513 ], [ -48.367909079840096, -23.399125303989535 ], [ -48.370147210025664, -23.408309475701685 ], [ -48.353818604544927, -23.411851339567647 ], [ -48.346245773323744, -23.418906534508888 ], [ -48.332156374517012, -23.423962827922139 ], [ -48.324866786572898, -23.431628075275398 ], [ -48.32139661216388, -23.42270322847116 ], [ -48.307902805569988, -23.416613022273111 ], [ -48.299601617020976, -23.419633774878776 ], [ -48.300939197585876, -23.426057982090128 ], [ -48.292639227618224, -23.436625429819685 ], [ -48.29708300897363, -23.440844717010009 ], [ -48.288948029527887, -23.44823318631245 ], [ -48.278532652659749, -23.446128100031729 ], [ -48.267348897733427, -23.450127530860811 ], [ -48.261636140595385, -23.466745136179043 ], [ -48.251547155576695, -23.468827009159096 ], [ -48.242532461104126, -23.476601189593168 ], [ -48.234042276429875, -23.471175974491587 ], [ -48.226556162336969, -23.471600083976625 ], [ -48.22083639768158, -23.479753412290108 ], [ -48.207239223911017, -23.486753875391003 ], [ -48.192842689538452, -23.490207213591987 ], [ -48.194740340893986, -23.499292999472289 ], [ -48.209325199598254, -23.499760810612884 ], [ -48.219919780773239, -23.511877807314931 ], [ -48.236859209384988, -23.519135650090107 ], [ -48.243762517825871, -23.531299028427384 ], [ -48.249601069433766, -23.5315608345648 ], [ -48.251655956457171, -23.539121140028556 ], [ -48.261140858763554, -23.551875867577166 ], [ -48.262790850317458, -23.564448639792829 ], [ -48.274673189615953, -23.572042381150936 ], [ -48.293701326954647, -23.569091479787915 ], [ -48.294168013942624, -23.573726644069325 ], [ -48.303691474681784, -23.590365083981396 ], [ -48.316033754254306, -23.589458493614529 ], [ -48.318594705980843, -23.586576799579575 ], [ -48.3312019429153, -23.594387845022993 ], [ -48.335790200357394, -23.591941296053903 ], [ -48.334333793269877, -23.581342381945319 ], [ -48.343329491362908, -23.575219237178032 ], [ -48.348051600301055, -23.582416087932074 ], [ -48.353869076296803, -23.574516685896295 ], [ -48.366093425970803, -23.574531220739175 ], [ -48.380247682984134, -23.578319452980335 ], [ -48.383785084414058, -23.58623871024821 ], [ -48.381646242979684, -23.60327880717119 ], [ -48.373401582217184, -23.620455610937654 ], [ -48.370926141628104, -23.631531770075071 ], [ -48.379911797891111, -23.63577388295829 ], [ -48.386959771276395, -23.62609620467606 ], [ -48.396640324691191, -23.618171419275541 ], [ -48.403202137168876, -23.597237162564966 ], [ -48.398924177308913, -23.586048011706339 ], [ -48.397938273932134, -23.57675817415037 ], [ -48.403766318760567, -23.56626935414732 ], [ -48.411136607368519, -23.56359959344644 ], [ -48.40758526284958, -23.553229643133477 ], [ -48.411867639280096, -23.549531975320349 ], [ -48.414153831034412, -23.534878268117552 ], [ -48.437363881537863, -23.535091102572267 ], [ -48.445401155039235, -23.52566503841075 ], [ -48.469522490370593, -23.529157130197348 ], [ -48.475882051615372, -23.52530763703777 ], [ -48.487286935443649, -23.525114694687375 ], [ -48.494115562383229, -23.530366238111355 ], [ -48.505429624577459, -23.517559546835571 ], [ -48.520136425955229, -23.509327078182082 ], [ -48.53643335551493, -23.512486402825171 ], [ -48.53926281602611, -23.517800597519511 ], [ -48.53241549397984, -23.52673957087444 ], [ -48.530829542249535, -23.535778763778861 ], [ -48.534923391101586, -23.541139165639947 ], [ -48.538410317182347, -23.543933640724902 ], [ -48.533762920322488, -23.55600711743449 ], [ -48.547969874010448, -23.558649153835347 ], [ -48.556129138748702, -23.553447717937786 ], [ -48.568152900935615, -23.567345528773103 ], [ -48.563456505413342, -23.572997739953678 ], [ -48.57710318596321, -23.576302070384202 ], [ -48.589432487419344, -23.570576803676488 ], [ -48.600078289481417, -23.57437275659737 ], [ -48.597036890240247, -23.584918307633757 ], [ -48.609533604092519, -23.581782591093656 ], [ -48.607468214786245, -23.574670793722134 ], [ -48.614841638430846, -23.56240388633023 ], [ -48.627641874372955, -23.561756892466573 ], [ -48.63049440968922, -23.546500197026432 ], [ -48.622817929803603, -23.542644998567763 ], [ -48.624735044286808, -23.537303491462922 ], [ -48.634160807175476, -23.53908338648904 ], [ -48.642412947599375, -23.544307240686578 ], [ -48.651379371860457, -23.539258376572775 ], [ -48.647332406465353, -23.522096338774986 ], [ -48.637019045992133, -23.526294077309782 ], [ -48.632623973717379, -23.520779616186303 ], [ -48.632706446944951, -23.50840990459335 ], [ -48.624537885914663, -23.497118706762873 ], [ -48.629722017057418, -23.488545927452549 ], [ -48.62451699196555, -23.48226188138068 ], [ -48.632612510059232, -23.473808732586914 ], [ -48.642741049959454, -23.471891840236193 ], [ -48.650146071284091, -23.437009148952995 ], [ -48.652990331038893, -23.428888019066786 ], [ -48.649539461476934, -23.421806907462781 ], [ -48.656314916000554, -23.414057475472077 ], [ -48.653845457701664, -23.408157736690153 ], [ -48.64185673310169, -23.409792871443813 ], [ -48.633123771045177, -23.397875059286491 ], [ -48.634680840148633, -23.384751842623416 ], [ -48.631821733486156, -23.365940369052737 ], [ -48.627933165683032, -23.356370441242802 ], [ -48.632340103612876, -23.344286286882607 ], [ -48.647460604823031, -23.329077814889217 ], [ -48.62478777873298, -23.325611607389703 ], [ -48.60365264405425, -23.316211545326496 ], [ -48.592709859772185, -23.31538468075837 ], [ -48.584406932833637, -23.308027265046178 ], [ -48.57985983376426, -23.297432360115295 ], [ -48.566548896214556, -23.295728417332555 ], [ -48.554097614313434, -23.279363810191626 ], [ -48.547574043707129, -23.280598966069363 ], [ -48.537061823344402, -23.273195662449837 ], [ -48.514493272746279, -23.27185139092893 ], [ -48.503287423275935, -23.26897919823136 ], [ -48.491538866225653, -23.261133308555316 ], [ -48.485732494159208, -23.263670019056065 ], [ -48.46525574055994, -23.266245309573321 ], [ -48.451863363103648, -23.272535296566616 ], [ -48.421754817330907, -23.265861359314215 ], [ -48.406044701701596, -23.267630832996474 ], [ -48.401122798478298, -23.275080611780766 ], [ -48.402863607169706, -23.28528164872904 ], [ -48.391190559896359, -23.289593813403712 ], [ -48.378179602906293, -23.290117013789086 ], [ -48.361040557175954, -23.300076532406024 ], [ -48.360145787498027, -23.303005254688685 ] ] } }
]
}
