{
"type": "FeatureCollection",
"features": [
{ "type": "Feature", "properties": { "Name": "ARAÃATUBA", "Description": "ARAÃATUBA \/ SP" }, "geometry": { "type": "LineString", "coordinates": [ [ -50.358189763446774, -21.043547731342699 ], [ -50.353450147406363, -21.046669432847978 ], [ -50.350980454384398, -21.056618731569188 ], [ -50.346979824759039, -21.060273677987823 ], [ -50.348659021796379, -21.066784862231543 ], [ -50.343004905851664, -21.076709723674753 ], [ -50.349587571808968, -21.0848192118371 ], [ -50.347271756386419, -21.093120912100346 ], [ -50.354472581244579, -21.098514297496763 ], [ -50.353209842260355, -21.111644538764381 ], [ -50.361816550293497, -21.120075841227045 ], [ -50.356258120415873, -21.12637142739942 ], [ -50.368994274266299, -21.143856040323953 ], [ -50.37061913336629, -21.148858162174406 ], [ -50.380442862448085, -21.154045459830058 ], [ -50.387169437019843, -21.165357492254429 ], [ -50.393452322966311, -21.183633974428346 ], [ -50.390234170970189, -21.189773753056215 ], [ -50.392847921894031, -21.215119249153986 ], [ -50.403428255109816, -21.222953582541777 ], [ -50.403571884035159, -21.232557839272829 ], [ -50.394577967499174, -21.248072875762546 ], [ -50.39044351695469, -21.251682154607693 ], [ -50.466550821463215, -21.297108862683842 ], [ -50.462447316590321, -21.301206709921701 ], [ -50.4657163189529, -21.307725674200469 ], [ -50.472126128018367, -21.317447225908722 ], [ -50.484068008731583, -21.340712780770161 ], [ -50.484066288328499, -21.351045029704323 ], [ -50.512235468591939, -21.374098951605276 ], [ -50.523241229698954, -21.389597433374831 ], [ -50.526908142496715, -21.412422484110323 ], [ -50.532168272647596, -21.413953963004928 ], [ -50.539078613786955, -21.424379366414598 ], [ -50.54208257515068, -21.43409573712853 ], [ -50.539261173464354, -21.437167281644687 ], [ -50.548114766083529, -21.4484946942747 ], [ -50.553786745262016, -21.449887742325416 ], [ -50.574307884001598, -21.455400438979041 ], [ -50.581676020531859, -21.441754901467505 ], [ -50.615876229804144, -21.44627372765035 ], [ -50.622271116418858, -21.451718949969518 ], [ -50.624563819264779, -21.442609453463433 ], [ -50.613325562724519, -21.426086337214652 ], [ -50.607617634945882, -21.42511917391073 ], [ -50.604090368875404, -21.415953894256745 ], [ -50.601879844279324, -21.387707548564492 ], [ -50.603118463446265, -21.364693924385051 ], [ -50.599918071261925, -21.347471562762394 ], [ -50.589440785963461, -21.332738446322193 ], [ -50.589190248331249, -21.322104372318901 ], [ -50.580712261161864, -21.312266830549731 ], [ -50.573027977858828, -21.295896776215216 ], [ -50.55862728052454, -21.292430295321822 ], [ -50.554267967992303, -21.282694754659133 ], [ -50.544144463396208, -21.270862301653835 ], [ -50.544895001602974, -21.25222245020586 ], [ -50.550987765472939, -21.248605659323687 ], [ -50.56108623024528, -21.232196370266252 ], [ -50.56411917136262, -21.218991813521313 ], [ -50.577209429671427, -21.20288359230392 ], [ -50.572009822994914, -21.191682122531859 ], [ -50.573738552891882, -21.182720735373607 ], [ -50.582950605386088, -21.18096763205051 ], [ -50.595040959672531, -21.163678123446573 ], [ -50.593283325564983, -21.153923740188418 ], [ -50.602317864477811, -21.142982446082954 ], [ -50.59947298868741, -21.13363656007914 ], [ -50.605496138735759, -21.130456749779114 ], [ -50.615352817178746, -21.134915729677118 ], [ -50.622860552772238, -21.128781194996119 ], [ -50.616604592527892, -21.106035509431194 ], [ -50.625505214294151, -21.086587412978702 ], [ -50.63187213559052, -21.081515753748988 ], [ -50.639101452769808, -21.071350689682561 ], [ -50.638491786166981, -21.06208462480555 ], [ -50.64075799138817, -21.046718043003239 ], [ -50.653225302805424, -21.040936860048021 ], [ -50.664058093706046, -21.04159960104073 ], [ -50.670314647502948, -21.037484176553448 ], [ -50.686930595370654, -21.039999708020048 ], [ -50.694696121628681, -21.0318624766719 ], [ -50.707943384479563, -21.02641972748836 ], [ -50.797304758807506, -20.985221180213273 ], [ -50.800030908799386, -20.979756586497214 ], [ -50.797904472613254, -20.963546517957411 ], [ -50.850188983434805, -20.935912714899814 ], [ -50.899600769160145, -20.909771386240433 ], [ -50.882097323532605, -20.884378959921037 ], [ -50.870687363031323, -20.862713636225294 ], [ -50.87013099025296, -20.855655433051766 ], [ -50.86392679318692, -20.84483739193206 ], [ -50.866600026170204, -20.830515911380186 ], [ -50.851969819151805, -20.838241594074248 ], [ -50.837167273250991, -20.851005906597265 ], [ -50.820094585796483, -20.853547308861152 ], [ -50.810135368452443, -20.860634673451386 ], [ -50.805341293965512, -20.870906741552858 ], [ -50.794567034540989, -20.873144029972934 ], [ -50.786415536347867, -20.879762861267011 ], [ -50.778715062550077, -20.882104515111223 ], [ -50.763389235324894, -20.891988030223388 ], [ -50.746262295368581, -20.892258768427382 ], [ -50.735336277147439, -20.888243826091639 ], [ -50.729690563568624, -20.89329887394382 ], [ -50.714369024310997, -20.895188577091119 ], [ -50.703172104209216, -20.891016708454288 ], [ -50.684194841518661, -20.889478419893123 ], [ -50.677621314472049, -20.892362123912847 ], [ -50.666713290785708, -20.906832164372815 ], [ -50.645522564514692, -20.93221134098053 ], [ -50.634358898644223, -20.950460344369333 ], [ -50.613141852814238, -20.968503695289257 ], [ -50.573266907941381, -20.976909202497666 ], [ -50.558919431586446, -20.988194811041637 ], [ -50.55497266145909, -20.997571553684224 ], [ -50.544941344567341, -21.002679434008655 ], [ -50.539596908370584, -21.010607617047864 ], [ -50.529603082416259, -21.019183241813096 ], [ -50.526429463049226, -21.033304628605663 ], [ -50.521151809608284, -21.03606511651185 ], [ -50.509084603871315, -21.036201468123235 ], [ -50.497032242344055, -21.040059574989357 ], [ -50.478837834998046, -21.040556404554366 ], [ -50.468032563352097, -21.044816019143919 ], [ -50.456304941619692, -21.045328074231179 ], [ -50.438662551635389, -21.032864521980056 ], [ -50.425499174847005, -21.035265549965118 ], [ -50.409954076719202, -21.046351787804724 ], [ -50.39497130038518, -21.063030773651235 ], [ -50.385399332013485, -21.063638422175416 ], [ -50.374262782501376, -21.044501360749166 ], [ -50.367486957457054, -21.041724426041355 ], [ -50.358189763446774, -21.043547731342699 ] ] } }
]
}
