{
"type": "FeatureCollection",
"features": [
{ "type": "Feature", "properties": { "Name": "ARAÃARIGUAMA", "Description": "ARAÃARIGUAMA \/ SP" }, "geometry": { "type": "LineString", "coordinates": [ [ -47.037522999586706, -23.435568999809448 ], [ -47.029317999825764, -23.442486000428516 ], [ -47.010655999874473, -23.44636999967571 ], [ -47.013953999977048, -23.45781599960867 ], [ -47.012935999796525, -23.467800999616372 ], [ -47.01717800026443, -23.47307600005729 ], [ -47.008930000319197, -23.494664000043542 ], [ -47.000872000142635, -23.50566200000128 ], [ -46.995035999911408, -23.506993000226714 ], [ -47.031046000372555, -23.516266999822165 ], [ -47.043937000392191, -23.516099000168651 ], [ -47.050652999836018, -23.497503999709746 ], [ -47.04937900044046, -23.493758999678047 ], [ -47.066885000142577, -23.478100999761292 ], [ -47.082839000219622, -23.476605000020697 ], [ -47.089786999570322, -23.481834000138974 ], [ -47.108741000396833, -23.482665999836001 ], [ -47.112967000126893, -23.486746000027836 ], [ -47.120638000443307, -23.480899000188685 ], [ -47.121898000092578, -23.471644999716943 ], [ -47.126632999912992, -23.46233700035225 ], [ -47.139354000186927, -23.456177999614965 ], [ -47.140681000227914, -23.447467999948174 ], [ -47.133876000277148, -23.433794999839332 ], [ -47.126746999774184, -23.424514999967244 ], [ -47.138372999913997, -23.411531000155488 ], [ -47.139311696077861, -23.397187528481595 ], [ -47.142260448960485, -23.393102244772706 ], [ -47.133502390422962, -23.380632475508321 ], [ -47.128784060435976, -23.381600690119679 ], [ -47.117305032001582, -23.377371806263795 ], [ -47.121622939746828, -23.403526705692855 ], [ -47.105239765202953, -23.401776368684406 ], [ -47.097908032329769, -23.3992317585388 ], [ -47.091104718607816, -23.402805992602453 ], [ -47.082920190114635, -23.400953653588203 ], [ -47.080654403977519, -23.393888424011489 ], [ -47.083153967081898, -23.380931709630659 ], [ -47.090443421027032, -23.386295090945623 ], [ -47.101632945104313, -23.386129673245762 ], [ -47.102610101674827, -23.369484699759028 ], [ -47.092373260017894, -23.362717716849087 ], [ -47.087812807814771, -23.353230359393535 ], [ -47.081277504653087, -23.357833343234173 ], [ -47.072383686258092, -23.35904396740511 ], [ -47.048943883253571, -23.355011628583725 ], [ -47.042914712244112, -23.352261253553991 ], [ -47.039343694156116, -23.367187896903886 ], [ -47.030601696610972, -23.371749964289393 ], [ -47.042665553272627, -23.387567998564236 ], [ -47.036123667073525, -23.399084722981513 ], [ -47.040744373853727, -23.423805991553195 ], [ -47.036404996593262, -23.425884713308843 ], [ -47.037522999586706, -23.435568999809448 ] ] } }
]
}
