{
"type": "FeatureCollection",
"features": [
{ "type": "Feature", "properties": { "Name": "ARANDU", "Description": "ARANDU \/ SP" }, "geometry": { "type": "LineString", "coordinates": [ [ -49.012634653666282, -23.262184933487845 ], [ -49.022093592545218, -23.259216869462929 ], [ -49.032853586024146, -23.259617869968679 ], [ -49.052890361600873, -23.256717254197895 ], [ -49.060643423255328, -23.257566740312765 ], [ -49.077723343957125, -23.264519575318104 ], [ -49.089660480746545, -23.265764174077333 ], [ -49.114726721161219, -23.262544070552394 ], [ -49.135110844589747, -23.264293926423534 ], [ -49.151320560595366, -23.260066126250702 ], [ -49.15009291225806, -23.240523248449108 ], [ -49.139787087204297, -23.225818634222549 ], [ -49.143788578380168, -23.216533101721208 ], [ -49.144439133559104, -23.201351767669905 ], [ -49.141425927164789, -23.193442613385852 ], [ -49.143173206478252, -23.183240865073795 ], [ -49.139478659312658, -23.175858408638589 ], [ -49.14283540492994, -23.158615736726802 ], [ -49.137334746601255, -23.153367421869007 ], [ -49.134253914786314, -23.134011848567923 ], [ -49.136110607418573, -23.126725486491978 ], [ -49.122625180707473, -23.112216967638915 ], [ -49.121901873972263, -23.096745906198574 ], [ -49.092450429543639, -23.09639323615886 ], [ -49.09032943605456, -23.102417795444865 ], [ -49.077183105915537, -23.098758131182763 ], [ -49.067643878262338, -23.093184327394738 ], [ -49.037726089487421, -23.096123163453168 ], [ -49.02826883413934, -23.088637818280631 ], [ -48.992879009758433, -23.086997907227612 ], [ -48.985069849294064, -23.095485466780815 ], [ -48.982335461512314, -23.10329500765846 ], [ -48.973620904980741, -23.10741237288266 ], [ -48.985582273103368, -23.121626299913771 ], [ -48.983280157053571, -23.137365458249235 ], [ -48.979038763628012, -23.143708579887004 ], [ -48.985924185452745, -23.165774890598698 ], [ -48.988204910228376, -23.180043844447823 ], [ -48.992572955177707, -23.185135583740134 ], [ -49.001356281966821, -23.186519848112482 ], [ -48.998797318641323, -23.193660545197986 ], [ -48.991966489262033, -23.20148605713581 ], [ -48.989163890601048, -23.22494517128257 ], [ -48.997987253408951, -23.236028676082469 ], [ -48.99973580166585, -23.242036087995015 ], [ -49.012634653666282, -23.262184933487845 ] ] } }
]
}
