{
"type": "FeatureCollection",
"features": [
{ "type": "Feature", "properties": { "Name": "ARARAQUARA", "Description": "ARARAQUARA \/ SP" }, "geometry": { "type": "LineString", "coordinates": [ [ -48.166465912971489, -21.606017102007623 ], [ -48.17044199470223, -21.654547473886737 ], [ -48.165962287229718, -21.658782340032928 ], [ -48.16675506119708, -21.667026305619459 ], [ -48.180528692744922, -21.68412404998486 ], [ -48.158690513056683, -21.693235831668233 ], [ -48.145831343641525, -21.701569796908529 ], [ -48.147824511991587, -21.707477775279074 ], [ -48.144923502317738, -21.720265884762739 ], [ -48.131142620435526, -21.731855786115599 ], [ -48.130100000414643, -21.74112999974966 ], [ -48.109502358147267, -21.764760162251658 ], [ -48.101962820727579, -21.770412269110864 ], [ -48.094353768411622, -21.766008938361779 ], [ -48.082871421478899, -21.763200101103731 ], [ -48.073400813896399, -21.758421119039383 ], [ -48.044063076149996, -21.758149312440764 ], [ -48.039429801344227, -21.749412073208589 ], [ -48.027697734262965, -21.740478447222529 ], [ -47.967682372343575, -21.741613184800595 ], [ -47.959586356924774, -21.746319443187698 ], [ -47.952471994686789, -21.75432688977412 ], [ -47.947542286247483, -21.763854408254304 ], [ -47.947182829024307, -21.783191378179538 ], [ -47.970794268540594, -21.807555939654833 ], [ -47.968853857119768, -21.820007869967185 ], [ -47.974222497670098, -21.83742762108778 ], [ -47.991183945282785, -21.848153237082158 ], [ -47.992687138700425, -21.85842805081387 ], [ -47.982922860201768, -21.857669594975789 ], [ -47.97855771286811, -21.869831320359083 ], [ -47.988854774028539, -21.872884401793669 ], [ -47.998030572153141, -21.882658856121278 ], [ -48.012467599400168, -21.887285778116109 ], [ -48.023674700726815, -21.880961606992514 ], [ -48.032839803214294, -21.868387360788006 ], [ -48.039661821036191, -21.872785624756716 ], [ -48.047413494137402, -21.893910642961771 ], [ -48.046393607179191, -21.905067377757234 ], [ -48.068410173690488, -21.90549113290939 ], [ -48.060782117800443, -21.920464415100639 ], [ -48.064768524647661, -21.927899873979982 ], [ -48.063461833996428, -21.935276392191724 ], [ -48.069840491445461, -21.952930138814793 ], [ -48.095597109019309, -21.953777546596427 ], [ -48.103460148766828, -21.951784494258956 ], [ -48.110594403109189, -21.957970761541389 ], [ -48.120339839911651, -21.961048051826083 ], [ -48.128465881894897, -21.959091985007035 ], [ -48.143577539172043, -21.960843890433122 ], [ -48.165975518955008, -21.971789341205067 ], [ -48.174078354832147, -21.963484421368889 ], [ -48.181949995695675, -21.967168770222543 ], [ -48.188059436593676, -21.965990559416753 ], [ -48.190766524555443, -21.959148916589186 ], [ -48.19661254143557, -21.956031061484282 ], [ -48.19573930152751, -21.947334811552253 ], [ -48.201303336879448, -21.943321399862668 ], [ -48.202097226905437, -21.932588166610572 ], [ -48.211367800983162, -21.930781981703035 ], [ -48.221615340975177, -21.922090106972803 ], [ -48.229668358907588, -21.925147581595581 ], [ -48.232048523520518, -21.916079840612099 ], [ -48.237192131211827, -21.911526448087045 ], [ -48.239945082799295, -21.901716531692557 ], [ -48.246174844893119, -21.893518547542897 ], [ -48.25442678746623, -21.8931451310429 ], [ -48.258491643974139, -21.886885025823229 ], [ -48.263288918248918, -21.871839930968008 ], [ -48.277965238005265, -21.866752122612297 ], [ -48.29024621978715, -21.870497808826769 ], [ -48.294750232337321, -21.865982009761922 ], [ -48.3015806660149, -21.870261445409312 ], [ -48.313073676209164, -21.867738638427397 ], [ -48.321180588713162, -21.859358334719332 ], [ -48.344737849472146, -21.853202408764105 ], [ -48.364833588199467, -21.855992817114782 ], [ -48.377588750120701, -21.8544224560315 ], [ -48.392139628840766, -21.858283868805469 ], [ -48.396582124165654, -21.854154062360067 ], [ -48.392535630914608, -21.847822471829545 ], [ -48.396010122069413, -21.835809309052308 ], [ -48.388578019459992, -21.820948409741277 ], [ -48.381452438179451, -21.816878502640748 ], [ -48.379233211743269, -21.810454023834097 ], [ -48.368455144589227, -21.796511578746333 ], [ -48.364105959322501, -21.779547485328123 ], [ -48.365714104522283, -21.775027665394418 ], [ -48.359919943450564, -21.763345851529778 ], [ -48.360948890179088, -21.754048411105259 ], [ -48.342676249009628, -21.747387743349634 ], [ -48.340042806530278, -21.726367781248086 ], [ -48.332413011351377, -21.713213115293001 ], [ -48.330823452440306, -21.697300795195474 ], [ -48.325276940378437, -21.696923731944651 ], [ -48.316801388573197, -21.690723212206422 ], [ -48.306125905286244, -21.690625767964775 ], [ -48.299471871829383, -21.675586218329272 ], [ -48.283242716078462, -21.662408810318311 ], [ -48.274377059054018, -21.651665448901323 ], [ -48.272095726336659, -21.645116353736679 ], [ -48.273809163262229, -21.616277652491647 ], [ -48.28524278042994, -21.596778059959433 ], [ -48.277923306215541, -21.577958333310391 ], [ -48.274123870220365, -21.575635358385057 ], [ -48.260162669771375, -21.5515219182019 ], [ -48.259516550048716, -21.539326017681503 ], [ -48.209511836801767, -21.594257514772437 ], [ -48.196698610152673, -21.605859890621389 ], [ -48.196907364383321, -21.612958998558895 ], [ -48.191807978155623, -21.618439351994478 ], [ -48.179040181658991, -21.618704657394005 ], [ -48.173871966717854, -21.616521627770847 ], [ -48.166465912971489, -21.606017102007623 ] ] } }
]
}
