{
"type": "FeatureCollection",
"features": [
{ "type": "Feature", "properties": { "Name": "ARUJÃ", "Description": "ARUJÃ \/ SP" }, "geometry": { "type": "LineString", "coordinates": [ [ -46.247678000039627, -23.405621000109022 ], [ -46.249830576819647, -23.41526354367755 ], [ -46.255510085122296, -23.417782443105239 ], [ -46.26036261284429, -23.426469308611672 ], [ -46.270599189201164, -23.429883076642621 ], [ -46.284646224543565, -23.435272577867124 ], [ -46.302993999573403, -23.42457900022066 ], [ -46.311275603586182, -23.423150277862987 ], [ -46.322318102898066, -23.425512557658347 ], [ -46.34899799955798, -23.419970999961606 ], [ -46.35445899958313, -23.422665000089633 ], [ -46.358420999729333, -23.437278000379365 ], [ -46.366790999904644, -23.430137000222317 ], [ -46.367191405958572, -23.422850728078572 ], [ -46.377606999563334, -23.401525000078664 ], [ -46.368580999713345, -23.394220999599384 ], [ -46.370912000188639, -23.384159999684186 ], [ -46.369964999684953, -23.365082000333985 ], [ -46.357395285164216, -23.357088438380682 ], [ -46.347201000325867, -23.3480120000537 ], [ -46.339864285208535, -23.335107261990512 ], [ -46.336536000436006, -23.33475999957426 ], [ -46.334536999982504, -23.331968000322888 ], [ -46.305400801205963, -23.321478754940529 ], [ -46.29923885159166, -23.32447529689739 ], [ -46.294512999675128, -23.333550000432126 ], [ -46.291725999755045, -23.345994999669472 ], [ -46.294336999652778, -23.36939899976397 ], [ -46.274708000074092, -23.388530999805766 ], [ -46.26102999973466, -23.39966000040863 ], [ -46.256206000306634, -23.406249000291098 ], [ -46.247678000039627, -23.405621000109022 ] ] } }
]
}
