{
"type": "FeatureCollection",
"features": [
{ "type": "Feature", "properties": { "Name": "BADY BASSITT", "Description": "BADY BASSITT \/ SP" }, "geometry": { "type": "LineString", "coordinates": [ [ -49.346019000076744, -20.931584000001578 ], [ -49.360634999605509, -20.939238000433306 ], [ -49.372320999814235, -20.952009000315059 ], [ -49.37503408895202, -20.960292046840433 ], [ -49.387315100411513, -20.961085169744763 ], [ -49.400797268878819, -20.971655330728876 ], [ -49.420174551814057, -20.97502310203447 ], [ -49.428278963303455, -20.97476619810152 ], [ -49.434529296489814, -20.979604450884665 ], [ -49.441554624046603, -20.980323704375394 ], [ -49.445925262640735, -20.985236708807008 ], [ -49.452439563934654, -20.975500204071125 ], [ -49.467430674286163, -20.96834830682883 ], [ -49.482189571591384, -20.949422940416298 ], [ -49.497507057604594, -20.942329214921301 ], [ -49.506491607701491, -20.944991013024772 ], [ -49.503750305931817, -20.932579751854007 ], [ -49.504624126801957, -20.924312062151898 ], [ -49.510411136464711, -20.917407512646548 ], [ -49.509378357724984, -20.902683280608869 ], [ -49.497320999564408, -20.898243000314149 ], [ -49.476668000427814, -20.887761999916336 ], [ -49.466123999822685, -20.889286000048795 ], [ -49.457236000041348, -20.882626999636273 ], [ -49.436669282761159, -20.879250817870911 ], [ -49.437790999954643, -20.885339999741177 ], [ -49.429616999824638, -20.893647999755331 ], [ -49.417018999826951, -20.900583000305176 ], [ -49.42074900006628, -20.911250000287225 ], [ -49.416628999828447, -20.918096000330081 ], [ -49.403832999693115, -20.907066999842126 ], [ -49.382016999984501, -20.911192000310507 ], [ -49.379383999971594, -20.917080000241754 ], [ -49.346019000076744, -20.931584000001578 ] ] } }
]
}
