{
"type": "FeatureCollection",
"features": [
{ "type": "Feature", "properties": { "Name": "BARBOSA", "Description": "BARBOSA \/ SP" }, "geometry": { "type": "LineString", "coordinates": [ [ -49.856483571559522, -21.260312405992693 ], [ -49.845610924504513, -21.27278598658398 ], [ -49.831628710496545, -21.274952520842135 ], [ -49.829110169898399, -21.289478547696774 ], [ -49.818055265338153, -21.303103942193161 ], [ -49.818260776613499, -21.31260152044376 ], [ -49.823433277723552, -21.317906819943744 ], [ -49.823976474534611, -21.330333077309604 ], [ -49.832981511187768, -21.337738863058064 ], [ -49.836262346829812, -21.34745996150798 ], [ -49.843200711743407, -21.355330367602335 ], [ -49.856759673320191, -21.354243670908659 ], [ -49.865267513484923, -21.351340636860868 ], [ -49.879908451214021, -21.34255089520758 ], [ -49.883751487241284, -21.336683622850842 ], [ -49.895147305903379, -21.341822405679409 ], [ -49.913205064861813, -21.340943700591254 ], [ -49.920414565479746, -21.342229141161905 ], [ -49.922598872140213, -21.333170807986335 ], [ -49.933995799666377, -21.325588943974537 ], [ -49.941049010703239, -21.332282223845478 ], [ -49.942188141469501, -21.341966478869836 ], [ -49.966875488512926, -21.349284031233022 ], [ -49.978073108287276, -21.349739473997488 ], [ -49.979559110264688, -21.335863544566905 ], [ -49.9841467390807, -21.331814249927675 ], [ -49.985780171417723, -21.319071281914091 ], [ -50.00239419113899, -21.307223249952983 ], [ -50.01499500061874, -21.295280265771623 ], [ -50.013829942397876, -21.286512544018649 ], [ -50.025037218193006, -21.272810404076836 ], [ -50.020540970389447, -21.262668278118497 ], [ -50.00643422096249, -21.251508536889446 ], [ -50.000019364901732, -21.23443384304738 ], [ -49.991567491346586, -21.226666124242172 ], [ -49.977985939699295, -21.229746929077464 ], [ -49.962060943657605, -21.227712205753676 ], [ -49.936651830417588, -21.232700074249006 ], [ -49.926611000497246, -21.226175106995527 ], [ -49.92112114842223, -21.225940023313399 ], [ -49.914574429266452, -21.238168303924056 ], [ -49.882501283007741, -21.249535392844052 ], [ -49.87057201438693, -21.259924547279979 ], [ -49.856483571559522, -21.260312405992693 ] ] } }
]
}
