{
"type": "FeatureCollection",
"features": [
{ "type": "Feature", "properties": { "Name": "BARRETOS", "Description": "BARRETOS \/ SP" }, "geometry": { "type": "LineString", "coordinates": [ [ -48.510056295661457, -20.298709361148042 ], [ -48.508185533135816, -20.315581202110764 ], [ -48.500610044417954, -20.330991575500775 ], [ -48.483744676775359, -20.344458615572588 ], [ -48.48190625297115, -20.351388156338317 ], [ -48.486193358936305, -20.386389863001739 ], [ -48.483455894573808, -20.407360292243652 ], [ -48.477905209657649, -20.428081460890667 ], [ -48.46811502618749, -20.439851741964276 ], [ -48.45910591110885, -20.445905381727925 ], [ -48.446583961380668, -20.45955383034493 ], [ -48.437531384765578, -20.475584163078622 ], [ -48.433041012232877, -20.478474942964226 ], [ -48.417040447058923, -20.499508078335111 ], [ -48.415769423520032, -20.511516686046207 ], [ -48.404439569230703, -20.525194015491365 ], [ -48.38846993713787, -20.529307805011172 ], [ -48.38365494442013, -20.537161398279864 ], [ -48.382558531451025, -20.544854061465738 ], [ -48.370301325046057, -20.551084297502257 ], [ -48.359517419493272, -20.559568820944264 ], [ -48.351461583984872, -20.560973125809081 ], [ -48.344597603796331, -20.575283836979452 ], [ -48.363590412167746, -20.58069487336968 ], [ -48.379915865524708, -20.579769353173045 ], [ -48.398783574602248, -20.564937498366817 ], [ -48.407820180157152, -20.568463904685416 ], [ -48.409862680818037, -20.575496516750775 ], [ -48.422173175651494, -20.571952721141145 ], [ -48.432305462127317, -20.561101959987411 ], [ -48.442146973504009, -20.569142762428498 ], [ -48.460746504747362, -20.578591308741863 ], [ -48.478139460567604, -20.583156619981992 ], [ -48.493633749697715, -20.607689186506715 ], [ -48.509810051392719, -20.61002715852652 ], [ -48.521213777793548, -20.620644583380791 ], [ -48.525663769867037, -20.635135935075311 ], [ -48.537594151848566, -20.645326618128873 ], [ -48.549982980330242, -20.652670498144914 ], [ -48.56645497281869, -20.653595786316426 ], [ -48.569960165029556, -20.662363678940608 ], [ -48.568764172828246, -20.677916422205101 ], [ -48.583948988155214, -20.687700445319251 ], [ -48.595218967381413, -20.697240539019617 ], [ -48.606110947162449, -20.70092861736174 ], [ -48.61069435995671, -20.698620247426444 ], [ -48.625365101218392, -20.700381419466908 ], [ -48.630771321739068, -20.697391339138957 ], [ -48.631219509672576, -20.686813417005567 ], [ -48.651772389084442, -20.690080268189774 ], [ -48.662347442380508, -20.688944934361189 ], [ -48.672055505157402, -20.692570895630297 ], [ -48.675938997186897, -20.697079482132324 ], [ -48.690325201047131, -20.703866464165969 ], [ -48.698457735236275, -20.711621234532288 ], [ -48.719275185301505, -20.719752704823406 ], [ -48.721592638389495, -20.724992879018089 ], [ -48.738788892693201, -20.729149014915038 ], [ -48.746722680307414, -20.73932238332128 ], [ -48.753669278514337, -20.74286001317904 ], [ -48.768235353978355, -20.738812885905929 ], [ -48.774096908445529, -20.739688302173363 ], [ -48.783095699307012, -20.728943985676381 ], [ -48.792419062689532, -20.725305018411802 ], [ -48.798085662123583, -20.715590880714498 ], [ -48.791441612940048, -20.707384969940392 ], [ -48.790065860650877, -20.695480395803596 ], [ -48.786551147317539, -20.689390232772951 ], [ -48.789054940832784, -20.677152408556761 ], [ -48.794283190017154, -20.669436460124473 ], [ -48.792942273866799, -20.661329176200468 ], [ -48.799384512485233, -20.654136575642383 ], [ -48.805002606984658, -20.652600693667011 ], [ -48.810338952880329, -20.658323676096757 ], [ -48.81547734720175, -20.654886632711904 ], [ -48.828829191314071, -20.658664489474575 ], [ -48.831735131970731, -20.653605985527747 ], [ -48.840689471142127, -20.651862267529566 ], [ -48.839877372542674, -20.637552865772076 ], [ -48.845710503936573, -20.625036856066 ], [ -48.843158240560285, -20.620568387421088 ], [ -48.84180361514467, -20.604337424032849 ], [ -48.837140554792704, -20.599971872903552 ], [ -48.838317553312379, -20.592425762339015 ], [ -48.831129826180472, -20.57089680464378 ], [ -48.843615088065803, -20.551901129233666 ], [ -48.852233558331989, -20.544795007483572 ], [ -48.859206568728098, -20.533199313597379 ], [ -48.867364643663336, -20.531224035460806 ], [ -48.869390227177178, -20.524293097148643 ], [ -48.867829344048971, -20.51051697268008 ], [ -48.875366432614726, -20.506756857742744 ], [ -48.887262582801895, -20.490299871341961 ], [ -48.887712537903269, -20.479730902858819 ], [ -48.891498138728082, -20.475990270834298 ], [ -48.894441299626237, -20.46210458196083 ], [ -48.892384275813633, -20.454763513225487 ], [ -48.885143328601707, -20.451722869414823 ], [ -48.882089248919669, -20.441013411539643 ], [ -48.886457935085616, -20.436889086462145 ], [ -48.878606856321312, -20.42966915460778 ], [ -48.871585888677771, -20.417102680344385 ], [ -48.867063182819606, -20.398867805304917 ], [ -48.860635434977318, -20.394256676304508 ], [ -48.836322968530112, -20.383344647937118 ], [ -48.816589363408355, -20.389664296370142 ], [ -48.8065132971509, -20.382239394632336 ], [ -48.803430562370522, -20.384536785644116 ], [ -48.78525222411082, -20.379304025460382 ], [ -48.76692334383722, -20.384392759218429 ], [ -48.752018082768238, -20.37821243645476 ], [ -48.736032616312166, -20.377199047098316 ], [ -48.731859207136665, -20.36595399528062 ], [ -48.714463067716338, -20.358338840165288 ], [ -48.707251107452578, -20.359992969499899 ], [ -48.704148181992927, -20.369182590204332 ], [ -48.681921544643501, -20.361726237375933 ], [ -48.670384323777448, -20.35248703614775 ], [ -48.662544740147609, -20.339974776614607 ], [ -48.656566883554774, -20.335007975637495 ], [ -48.642388560683514, -20.331037709822397 ], [ -48.634334148801877, -20.325169455406012 ], [ -48.622053301918299, -20.319723081055315 ], [ -48.615878982129281, -20.326136700548258 ], [ -48.606657858173548, -20.327814272510636 ], [ -48.587397443936823, -20.327868171578814 ], [ -48.577766793003029, -20.321977520446183 ], [ -48.569670296446986, -20.313812778836621 ], [ -48.560902714088961, -20.313067014231247 ], [ -48.560135439498872, -20.297831165076161 ], [ -48.556717450949577, -20.29384196403538 ], [ -48.546149236098302, -20.300654372601173 ], [ -48.53721412083496, -20.29859357433395 ], [ -48.527178178729912, -20.302362490936162 ], [ -48.514309776874654, -20.302636232875784 ], [ -48.510056295661457, -20.298709361148042 ] ] } }
]
}
