{
"type": "FeatureCollection",
"features": [
{ "type": "Feature", "properties": { "Name": "BORACÃIA", "Description": "BORACÃIA \/ SP" }, "geometry": { "type": "LineString", "coordinates": [ [ -48.714487938467528, -22.180240641492389 ], [ -48.716885687524439, -22.186029779850401 ], [ -48.733704029617229, -22.198780207740352 ], [ -48.736918551050223, -22.205562527688468 ], [ -48.736952968104958, -22.21683861510996 ], [ -48.745393869931092, -22.22391353578098 ], [ -48.756633041081955, -22.217546555129385 ], [ -48.764527943809519, -22.216188255083861 ], [ -48.771539734770897, -22.226993279416263 ], [ -48.782643190131068, -22.231295916673162 ], [ -48.803190466766573, -22.232413509575736 ], [ -48.817065820631051, -22.225458767108364 ], [ -48.82522436051579, -22.213390742089018 ], [ -48.821477234486736, -22.207595639427154 ], [ -48.823389423383155, -22.1982116482489 ], [ -48.819135024861446, -22.191945778374929 ], [ -48.827169323405485, -22.181205114924069 ], [ -48.850656212214403, -22.168211102060638 ], [ -48.856038942443199, -22.16689293875805 ], [ -48.854171564066405, -22.155825136121109 ], [ -48.849351656553665, -22.148110520484067 ], [ -48.844120789442854, -22.129050701828358 ], [ -48.817818847261947, -22.107394570103278 ], [ -48.807805952082958, -22.107942073767617 ], [ -48.802201778189435, -22.11969037810843 ], [ -48.79426568381421, -22.125334231889269 ], [ -48.783174280268781, -22.122138821049699 ], [ -48.776181653860192, -22.105290401131072 ], [ -48.766954262529168, -22.104837614064593 ], [ -48.756543151145479, -22.121825218459037 ], [ -48.753893863510932, -22.13940007475361 ], [ -48.754234224529796, -22.153735718728399 ], [ -48.747281332867196, -22.16123231082241 ], [ -48.720885559021269, -22.172935931448023 ], [ -48.714487938467528, -22.180240641492389 ] ] } }
]
}
