{
"type": "FeatureCollection",
"features": [
{ "type": "Feature", "properties": { "Name": "BOTUCATU", "Description": "BOTUCATU \/ SP" }, "geometry": { "type": "LineString", "coordinates": [ [ -48.246377642014515, -22.619038722059312 ], [ -48.243833258498057, -22.638328794138488 ], [ -48.240097989130845, -22.649097214264998 ], [ -48.245179447373566, -22.657360214901928 ], [ -48.245209255402756, -22.664817106424266 ], [ -48.25001618929565, -22.678029160817061 ], [ -48.24961997588116, -22.707824054536442 ], [ -48.247477252073509, -22.72257172470529 ], [ -48.248217128817366, -22.732754432570967 ], [ -48.259026172220047, -22.738172472881274 ], [ -48.284508731292874, -22.736352272039653 ], [ -48.284888634602737, -22.743501647582946 ], [ -48.289440145746077, -22.752414898528684 ], [ -48.280641200431035, -22.758982419902733 ], [ -48.272866327518955, -22.760452324914809 ], [ -48.263790590663177, -22.766846840109562 ], [ -48.261308094892627, -22.785024470602764 ], [ -48.263213599128278, -22.789874430760335 ], [ -48.259223033815935, -22.801949251057067 ], [ -48.25721881369725, -22.828465338004889 ], [ -48.253005614017809, -22.833062333260045 ], [ -48.258774507737314, -22.838130425778502 ], [ -48.260045953957558, -22.846188134574732 ], [ -48.254050513820111, -22.849032093955941 ], [ -48.260423964194551, -22.858396162452891 ], [ -48.260348670254871, -22.8664775009359 ], [ -48.26709873242055, -22.870672904830656 ], [ -48.281908159933607, -22.871765385963727 ], [ -48.293217695839928, -22.876789868557523 ], [ -48.296242323624313, -22.893973813840375 ], [ -48.302109327983032, -22.904513969843773 ], [ -48.301713870898368, -22.914132072537086 ], [ -48.31037719395232, -22.924291545518372 ], [ -48.306553582381866, -22.931976748827879 ], [ -48.295512994129346, -22.93864494930494 ], [ -48.29495954055033, -22.953198439656202 ], [ -48.291337474244983, -22.958249130293098 ], [ -48.291272732050906, -22.970884451256378 ], [ -48.296107826415039, -22.981723028394981 ], [ -48.306736472110458, -22.990868563433423 ], [ -48.32024915457481, -22.995868292187879 ], [ -48.321308894090123, -23.001806742287272 ], [ -48.33735716020476, -23.003612980254786 ], [ -48.349614492514775, -23.011258445221017 ], [ -48.361007062825649, -23.0109467617836 ], [ -48.386110706044235, -23.003894309774523 ], [ -48.400609896229696, -23.010105314708479 ], [ -48.411010668107792, -23.000404171315381 ], [ -48.416887570404981, -22.999014097322686 ], [ -48.424072319881589, -23.00875590895799 ], [ -48.432549588492691, -23.036411710332118 ], [ -48.445089638875686, -23.055597597750875 ], [ -48.445545352336126, -23.063101768431807 ], [ -48.450094391243105, -23.072803124964196 ], [ -48.458850050389451, -23.080615667778773 ], [ -48.476342947868716, -23.081649196553141 ], [ -48.48005291750809, -23.076221447162027 ], [ -48.496065026379824, -23.068681021212111 ], [ -48.501886572707122, -23.063286236470617 ], [ -48.515251027113152, -23.063514028449614 ], [ -48.519912858991233, -23.056905488997071 ], [ -48.525689630771808, -23.059677454950528 ], [ -48.546710556047287, -23.052386764437585 ], [ -48.566266471320546, -23.0365255348255 ], [ -48.575080208684653, -23.039068395789794 ], [ -48.586068296314807, -23.035309080349748 ], [ -48.599865937063328, -23.03632637546184 ], [ -48.607195625777472, -23.040522020374908 ], [ -48.617107168261157, -23.038742118154175 ], [ -48.627758310497597, -23.030532040820958 ], [ -48.636331176142846, -23.020634963033046 ], [ -48.636505207549249, -22.992653730285383 ], [ -48.640609305974635, -22.988633093442445 ], [ -48.642983580927478, -22.978965397634965 ], [ -48.640196214083971, -22.970285089085564 ], [ -48.645141963730616, -22.966450104688533 ], [ -48.66137340915548, -22.963155122710702 ], [ -48.673613202886941, -22.952628022165467 ], [ -48.688249588247857, -22.946871012087513 ], [ -48.694425195866074, -22.947576608473639 ], [ -48.70541685290538, -22.943301538135412 ], [ -48.720038139548478, -22.944438930512206 ], [ -48.7324256334362, -22.952181524058059 ], [ -48.748765081143517, -22.953195951232146 ], [ -48.751783129487812, -22.95684645859717 ], [ -48.760814668262299, -22.955446907548719 ], [ -48.765965046949297, -22.96132195454453 ], [ -48.777645921921703, -22.965544972122697 ], [ -48.788070660732387, -22.961872074336725 ], [ -48.793762706483676, -22.963585495973803 ], [ -48.826913563410187, -22.948975387903769 ], [ -48.846913873276598, -22.948748086055275 ], [ -48.846695340717361, -22.93980416283182 ], [ -48.852213051990702, -22.931724703032557 ], [ -48.84091930638084, -22.922279262078234 ], [ -48.837919827238174, -22.91472833384546 ], [ -48.827603913589712, -22.911580892843858 ], [ -48.830282582075483, -22.896997226640678 ], [ -48.828944140859392, -22.892233812740244 ], [ -48.821012074547582, -22.888327021974419 ], [ -48.816842597208051, -22.882551406721973 ], [ -48.79942847224617, -22.873402098128281 ], [ -48.792089433280694, -22.873643552607803 ], [ -48.799438575229999, -22.857041390447762 ], [ -48.803292550610706, -22.85453771924028 ], [ -48.802567961442207, -22.845333694993997 ], [ -48.793113566837569, -22.847092159175759 ], [ -48.778812570143941, -22.853026049712355 ], [ -48.772541914078026, -22.852358111537566 ], [ -48.752547237564897, -22.870624922402214 ], [ -48.742717197040974, -22.873383264526012 ], [ -48.721969798767134, -22.86608291889155 ], [ -48.710358609562149, -22.865759799674947 ], [ -48.704703402739824, -22.872353344731039 ], [ -48.697754252256914, -22.869284911869158 ], [ -48.690327635511949, -22.874346100292254 ], [ -48.679724694239212, -22.859023260614943 ], [ -48.663641284417679, -22.847426024391496 ], [ -48.66054671006259, -22.831661819936983 ], [ -48.643051132603659, -22.838695969843116 ], [ -48.637360406157768, -22.838877783982522 ], [ -48.62470218755589, -22.851054593694471 ], [ -48.605444247354114, -22.851378471039538 ], [ -48.591997767582882, -22.856059319082249 ], [ -48.567314909055767, -22.853444713802446 ], [ -48.555315439355979, -22.852932618245688 ], [ -48.547748253179293, -22.858932242928631 ], [ -48.542051901474046, -22.855598913858728 ], [ -48.541460836448373, -22.84898076964674 ], [ -48.536075454118873, -22.845198878525363 ], [ -48.541490074307433, -22.837410610211464 ], [ -48.532335230386536, -22.814134719441707 ], [ -48.526642984985692, -22.806856138300077 ], [ -48.514964329540135, -22.804767587853856 ], [ -48.50081752790652, -22.804825654380409 ], [ -48.48694869142895, -22.794754535293517 ], [ -48.485188191182033, -22.787225106253629 ], [ -48.474460620061507, -22.773441660404274 ], [ -48.477145386850054, -22.761629132778182 ], [ -48.475198784496278, -22.748436458775529 ], [ -48.475171454099261, -22.727046492201794 ], [ -48.446431857244363, -22.723530586367414 ], [ -48.444993790930653, -22.71381810971792 ], [ -48.433745140026133, -22.710706787288359 ], [ -48.428351168271774, -22.697574826516984 ], [ -48.419770626912843, -22.686503923916916 ], [ -48.413117874989894, -22.68327935435866 ], [ -48.411257963684022, -22.67716943322273 ], [ -48.419566277561614, -22.662843904822296 ], [ -48.410908059059629, -22.655874265984547 ], [ -48.413709105490796, -22.648056122192255 ], [ -48.405632642232604, -22.642128979268932 ], [ -48.414012772371507, -22.631592255977804 ], [ -48.40577842863155, -22.623075040380741 ], [ -48.378833454999892, -22.617587442906142 ], [ -48.365381351767951, -22.608871234319963 ], [ -48.351036107530319, -22.614112244884154 ], [ -48.342123183038439, -22.622411653674817 ], [ -48.3340840596316, -22.625387588566298 ], [ -48.324540906437619, -22.621003788394091 ], [ -48.314947337249748, -22.610702787303751 ], [ -48.278171537086735, -22.595684632539701 ], [ -48.269540110287835, -22.596686406252616 ], [ -48.261479890584432, -22.605432155769336 ], [ -48.257147835604087, -22.614123102399219 ], [ -48.246377642014515, -22.619038722059312 ] ] } }
]
}
