{
"type": "FeatureCollection",
"features": [
{ "type": "Feature", "properties": { "Name": "BRODOWSKI", "Description": "BRODOWSKI \/ SP" }, "geometry": { "type": "LineString", "coordinates": [ [ -47.540638494770683, -21.034553416406993 ], [ -47.537656000224217, -21.051617000024464 ], [ -47.524724000112485, -21.060485999828984 ], [ -47.521196000195225, -21.072941999573573 ], [ -47.518114000160949, -21.097933000007913 ], [ -47.540309000260095, -21.104523999982572 ], [ -47.547076000257164, -21.109535999986349 ], [ -47.558957999611948, -21.107621999855382 ], [ -47.568128999853393, -21.11443300008284 ], [ -47.584187000229861, -21.122561999936295 ], [ -47.589822000185109, -21.128512000028707 ], [ -47.596116999999481, -21.12812200003026 ], [ -47.598618000220483, -21.137571999648003 ], [ -47.610964000288334, -21.141030999980615 ], [ -47.616674000104979, -21.138113000314657 ], [ -47.622921000403778, -21.140997000211371 ], [ -47.628204000314327, -21.148316999629799 ], [ -47.63538100033287, -21.151025000403422 ], [ -47.646682000773694, -21.148149998223801 ], [ -47.649658000416366, -21.141488000370884 ], [ -47.659147000033954, -21.133299999595238 ], [ -47.667249999587789, -21.118561999836402 ], [ -47.688883999896632, -21.131438000063611 ], [ -47.696885000142565, -21.13170299969363 ], [ -47.719052999896007, -21.120072000222592 ], [ -47.712173000083851, -21.111863000277197 ], [ -47.698847999835266, -21.103242000218074 ], [ -47.68974700012393, -21.09016899989939 ], [ -47.690999000303577, -21.08123599984145 ], [ -47.680808999835449, -21.081210000441104 ], [ -47.673983999861662, -21.074751000258402 ], [ -47.672472000282539, -21.062808999935328 ], [ -47.683065000449346, -21.039171999887856 ], [ -47.679504999955725, -21.025953000030881 ], [ -47.688375999852497, -21.018337999598941 ], [ -47.686864000273374, -21.002747000073953 ], [ -47.726034999915271, -20.974217000114436 ], [ -47.723048999811454, -20.966579000420495 ], [ -47.709927999977197, -20.95592800027697 ], [ -47.711013999696263, -20.949203999564872 ], [ -47.71747199983286, -20.94487899976599 ], [ -47.718502784775637, -20.938363005947906 ], [ -47.706417266143887, -20.943106149129449 ], [ -47.689766697974676, -20.941798222809666 ], [ -47.674505700177853, -20.936406825814288 ], [ -47.665806466295344, -20.944344826752285 ], [ -47.65882003081969, -20.946866544655279 ], [ -47.643696889200044, -20.963175661827279 ], [ -47.612129005449219, -20.961940527533272 ], [ -47.61219147505647, -20.968509328642536 ], [ -47.60691446553011, -20.985102524561796 ], [ -47.601578772542261, -20.990383557655036 ], [ -47.584480739494495, -20.998029535234821 ], [ -47.570946061411576, -21.014676632920214 ], [ -47.566967815012617, -21.025191464014824 ], [ -47.571923922151257, -21.038430101467952 ], [ -47.553731338630314, -21.038088074904692 ], [ -47.540638494770683, -21.034553416406993 ] ] } }
]
}
