{
"type": "FeatureCollection",
"features": [
{ "type": "Feature", "properties": { "Name": "CAÃAPAVA", "Description": "CAÃAPAVA \/ SP" }, "geometry": { "type": "LineString", "coordinates": [ [ -45.725088035784154, -22.969445782396917 ], [ -45.719798247790827, -22.978184574758245 ], [ -45.717693933128487, -22.988230323970242 ], [ -45.712180505326046, -22.989470025920923 ], [ -45.713192205755654, -23.008118985702595 ], [ -45.702964238608672, -23.007048858118253 ], [ -45.701589748068379, -23.01770568856665 ], [ -45.696906836081553, -23.0269397825449 ], [ -45.683577491208212, -23.035825965695722 ], [ -45.673068085723507, -23.037456602040489 ], [ -45.663302717246552, -23.033666574752601 ], [ -45.644769007383729, -23.060765220938151 ], [ -45.638296533558162, -23.066309142952548 ], [ -45.637812694700074, -23.073469553177286 ], [ -45.630959569328638, -23.081307261720724 ], [ -45.636172405032426, -23.089946523413289 ], [ -45.62927032596474, -23.100945362438495 ], [ -45.628968683457913, -23.116223268389092 ], [ -45.62402552655675, -23.120888217317315 ], [ -45.611556162886586, -23.123362576921348 ], [ -45.593763282149716, -23.134081505556992 ], [ -45.594946126262698, -23.14509031086908 ], [ -45.605484272281267, -23.156339125450241 ], [ -45.609479421438095, -23.16350270668454 ], [ -45.620187795630216, -23.173801856070781 ], [ -45.616143129801571, -23.180951399787205 ], [ -45.624182482535502, -23.184361521966594 ], [ -45.624638523349113, -23.189680126936253 ], [ -45.633833745031268, -23.196233443518565 ], [ -45.640750188070683, -23.196031613168373 ], [ -45.647720632701009, -23.19693662792298 ], [ -45.656642628654367, -23.204362024287946 ], [ -45.663608819491401, -23.20568754314553 ], [ -45.679327359969648, -23.214818394952939 ], [ -45.689571548188383, -23.223602018518307 ], [ -45.704474546563006, -23.227931975380329 ], [ -45.721280011263445, -23.237949007440704 ], [ -45.731614000385768, -23.227661999801398 ], [ -45.737549999832595, -23.216760999820224 ], [ -45.738874999781387, -23.203963999638802 ], [ -45.747566000370568, -23.199050999703843 ], [ -45.750910999942676, -23.192613999636308 ], [ -45.752086489399915, -23.178076389513706 ], [ -45.759925000138587, -23.166656999620784 ], [ -45.756614000335787, -23.157954000276845 ], [ -45.760185000437389, -23.143350000402162 ], [ -45.75616700040672, -23.136634000059018 ], [ -45.760415000252003, -23.128689999743642 ], [ -45.754809999881552, -23.112560999690345 ], [ -45.765780000346687, -23.11180599994691 ], [ -45.772574999836301, -23.107159999734165 ], [ -45.784442000298043, -23.11171700033924 ], [ -45.800237000237296, -23.098679999882052 ], [ -45.802492999951937, -23.091290999979606 ], [ -45.841784999777872, -23.041192000010767 ], [ -45.828091773016865, -23.031984182424026 ], [ -45.820275739034052, -23.029327535637208 ], [ -45.809433507050642, -23.012198533535468 ], [ -45.804095055842083, -23.014657150507045 ], [ -45.782941687408879, -23.006399432487797 ], [ -45.774930067068901, -22.997775425995087 ], [ -45.76565673387114, -22.995318763250282 ], [ -45.761621311274439, -22.990598465546721 ], [ -45.749329536728681, -22.989764811996451 ], [ -45.743718129587982, -22.984438378428361 ], [ -45.739958902281501, -22.974294980828628 ], [ -45.725088035784154, -22.969445782396917 ] ] } }
]
}
