{
"type": "FeatureCollection",
"features": [
{ "type": "Feature", "properties": { "Name": "CAIEIRAS", "Description": "CAIEIRAS \/ SP" }, "geometry": { "type": "LineString", "coordinates": [ [ -46.670187000329747, -23.363095999580651 ], [ -46.667708000223968, -23.373680000231786 ], [ -46.660619877505319, -23.374821349625563 ], [ -46.658866340709039, -23.390178271809759 ], [ -46.654962052756495, -23.395531308223269 ], [ -46.664302302709075, -23.406877210015182 ], [ -46.669751374126577, -23.41859296429385 ], [ -46.677816999654794, -23.415585000047656 ], [ -46.684727999997158, -23.419309000010287 ], [ -46.685398000317434, -23.425468999894406 ], [ -46.700414000305841, -23.422486999975035 ], [ -46.708468000297955, -23.416493999698275 ], [ -46.710647000058941, -23.406521000243913 ], [ -46.719884999792839, -23.403656000324133 ], [ -46.721658999763008, -23.396349999752658 ], [ -46.73048200014415, -23.393864000223399 ], [ -46.735457000240331, -23.388117999645942 ], [ -46.753484999732905, -23.38926600042555 ], [ -46.760466999752168, -23.386042000138161 ], [ -46.770213999576356, -23.388711000012616 ], [ -46.77077300017379, -23.397164999565007 ], [ -46.784097000376221, -23.399750000062394 ], [ -46.786, -23.40500799971937 ], [ -46.8014449999867, -23.395627999732366 ], [ -46.807531000055576, -23.399264000133424 ], [ -46.822973044870075, -23.401033976536723 ], [ -46.823673990861948, -23.330977197439662 ], [ -46.818635000404925, -23.337182999795573 ], [ -46.81153600038607, -23.33622899986841 ], [ -46.792446999629306, -23.345685999809007 ], [ -46.781114000410753, -23.348999999750163 ], [ -46.778792000350499, -23.337840999562445 ], [ -46.765300999641397, -23.33453499999024 ], [ -46.752088000061114, -23.326488000320921 ], [ -46.74176399970878, -23.34130800026395 ], [ -46.743613000439552, -23.35326000014885 ], [ -46.726258999653048, -23.357128999603617 ], [ -46.716007999969179, -23.355410000371194 ], [ -46.70650299961369, -23.363211000387309 ], [ -46.699214999872311, -23.361582999955427 ], [ -46.688560999590436, -23.368294000067976 ], [ -46.68156900000929, -23.367994999769394 ], [ -46.670187000329747, -23.363095999580651 ] ] } }
]
}
