{
"type": "FeatureCollection",
"features": [
{ "type": "Feature", "properties": { "Name": "CAIUÃ", "Description": "CAIUÃ \/ SP" }, "geometry": { "type": "LineString", "coordinates": [ [ -51.86001053056151, -21.580719905798954 ], [ -51.849912704307826, -21.598086455725308 ], [ -51.847902189834137, -21.606125012559232 ], [ -51.842771634003668, -21.612276694613737 ], [ -51.847375614293128, -21.63133465077345 ], [ -51.852527536216769, -21.639897035719571 ], [ -51.858812039144254, -21.660425921219257 ], [ -51.865235281383093, -21.672215594374109 ], [ -51.88319822032156, -21.687131102318457 ], [ -51.886505640822627, -21.700770583795361 ], [ -51.899335324165861, -21.720673153543146 ], [ -51.901491049472327, -21.730517136256761 ], [ -51.89619458221415, -21.744326880081417 ], [ -51.889632216653411, -21.747031765603481 ], [ -51.887865589325422, -21.7635047230645 ], [ -51.893378932591645, -21.774491946446119 ], [ -51.900003517748132, -21.780081593590634 ], [ -51.902696540313059, -21.796169885831546 ], [ -51.906662794252497, -21.799491463460242 ], [ -51.914692171706292, -21.822048038685978 ], [ -51.931166023992773, -21.825825339667631 ], [ -51.934914277771668, -21.831559185907679 ], [ -51.936517946146239, -21.845254044938201 ], [ -51.947308651473065, -21.856306665220359 ], [ -51.963473785386839, -21.906485597832045 ], [ -51.98152578688552, -21.912224283323951 ], [ -51.987928437347477, -21.910708497599046 ], [ -52.00280574658791, -21.912367446400481 ], [ -52.017113603310122, -21.927764094337419 ], [ -52.024964857442164, -21.939116338148434 ], [ -52.023081285872593, -21.948670122228293 ], [ -52.029853000115793, -21.969702000347013 ], [ -52.031799999969962, -21.989991999830863 ], [ -52.027622999801565, -22.003910000446126 ], [ -52.033453999802191, -22.007730000339222 ], [ -52.038416000198197, -22.026935000150104 ], [ -52.029907999954219, -22.034945999957866 ], [ -52.031218000110584, -22.047906999608298 ], [ -52.046951999934834, -22.038805999896908 ], [ -52.059108000234005, -22.029873999885123 ], [ -52.063828000261935, -22.021576000332118 ], [ -52.067689000247128, -22.008417999690892 ], [ -52.0777740003698, -22.005043999680822 ], [ -52.081480000401648, -21.994434999675434 ], [ -52.08837800014453, -21.987443000094341 ], [ -52.098168000153066, -21.987730999885684 ], [ -52.110569000059286, -21.981169000349041 ], [ -52.121642999924461, -21.992738999705011 ], [ -52.127055000387934, -21.990919000311578 ], [ -52.143937000092421, -21.998494999844297 ], [ -52.125974766222441, -21.88145629437247 ], [ -52.125599480031951, -21.875750355894183 ], [ -52.111167999803286, -21.880528999813464 ], [ -52.108580419150996, -21.876195292778505 ], [ -52.099707495604378, -21.873888643246232 ], [ -52.091250022870206, -21.863478196461529 ], [ -52.082724319471708, -21.844812545262695 ], [ -52.074246999599325, -21.841799999870034 ], [ -52.066957999811784, -21.829451999709988 ], [ -52.015462000171112, -21.801677000393227 ], [ -51.977519999648216, -21.766918000065626 ], [ -51.941076588913397, -21.547039098175787 ], [ -51.925411516728047, -21.552097918683955 ], [ -51.922818518559723, -21.560683805613106 ], [ -51.912952674226517, -21.55797528053472 ], [ -51.908706234704937, -21.564573193597937 ], [ -51.90027370916431, -21.564046559601021 ], [ -51.893215711036191, -21.571102358886719 ], [ -51.885796045151324, -21.570092190002526 ], [ -51.880500805467761, -21.581427710920082 ], [ -51.873537073377179, -21.575272705870645 ], [ -51.869988979907475, -21.5804559853554 ], [ -51.86001053056151, -21.580719905798954 ] ] } }
]
}
