{
"type": "FeatureCollection",
"features": [
{ "type": "Feature", "properties": { "Name": "CAJAMAR", "Description": "CAJAMAR \/ SP" }, "geometry": { "type": "LineString", "coordinates": [ [ -46.838063999753729, -23.287843999800714 ], [ -46.842841999758434, -23.291971000361343 ], [ -46.840821000089022, -23.302327000390733 ], [ -46.833017999980648, -23.310439000359509 ], [ -46.821728000047123, -23.314073999815207 ], [ -46.825402000401937, -23.324504999705937 ], [ -46.823673990861948, -23.330977197439662 ], [ -46.822973044870075, -23.401033976536723 ], [ -46.826190999914672, -23.408907999704354 ], [ -46.819670999616903, -23.417898999739009 ], [ -46.823310471401101, -23.422374528061994 ], [ -46.833922000300049, -23.429090999649873 ], [ -46.8422926893561, -23.421171214479898 ], [ -46.8628151438038, -23.419514891698839 ], [ -46.869292598074878, -23.415008192873756 ], [ -46.867262999987418, -23.405151000018574 ], [ -46.881880061615504, -23.395930175537103 ], [ -46.894941787133739, -23.399972399706428 ], [ -46.909560000793363, -23.395750133961485 ], [ -46.914086526072253, -23.386848429411426 ], [ -46.918945394014656, -23.390186268581374 ], [ -46.928830257210564, -23.387537915342477 ], [ -46.931901754062665, -23.3791417179159 ], [ -46.920751238978426, -23.37686543489184 ], [ -46.90234218864105, -23.366431648002106 ], [ -46.902941792729507, -23.358497142728936 ], [ -46.911609109672611, -23.353020628499166 ], [ -46.917259005998289, -23.356318922680085 ], [ -46.927467507319591, -23.3562120130739 ], [ -46.932806581758314, -23.363297191412187 ], [ -46.940883333698814, -23.351893634983242 ], [ -46.938456235266983, -23.347895435326052 ], [ -46.937943737713283, -23.321853315378178 ], [ -46.930895613241887, -23.311669450984311 ], [ -46.922823383991954, -23.308133910251684 ], [ -46.901913271380351, -23.307582920815094 ], [ -46.887043348271845, -23.29617172014872 ], [ -46.886130454556792, -23.291001149883126 ], [ -46.877819454404232, -23.288091616434883 ], [ -46.86746400026334, -23.277938999884896 ], [ -46.848984999757874, -23.285639999786099 ], [ -46.844371000121498, -23.282006000376555 ], [ -46.838063999753729, -23.287843999800714 ] ] } }
]
}
