{
"type": "FeatureCollection",
"features": [
{ "type": "Feature", "properties": { "Name": "CAJURU", "Description": "CAJURU \/ SP" }, "geometry": { "type": "LineString", "coordinates": [ [ -47.308752371924356, -21.101874170956194 ], [ -47.296743980050621, -21.110495518153584 ], [ -47.292237020422135, -21.110501530121496 ], [ -47.290405932387841, -21.120968244788628 ], [ -47.283020876012579, -21.137837654883811 ], [ -47.272420016670367, -21.14161460423054 ], [ -47.264694704496947, -21.139390725601459 ], [ -47.253401704425073, -21.155126547452141 ], [ -47.243853640932741, -21.159352748630397 ], [ -47.230472674973953, -21.189688679888604 ], [ -47.223283951393228, -21.200837545616196 ], [ -47.214214739118852, -21.201572593900039 ], [ -47.207168859355306, -21.207091653257123 ], [ -47.189542798361401, -21.212230330865054 ], [ -47.183030680621357, -21.215507163624636 ], [ -47.183444121448979, -21.228046472066978 ], [ -47.193916639441341, -21.232572805790312 ], [ -47.196283959936743, -21.240287723599522 ], [ -47.202814870809618, -21.246023122968722 ], [ -47.196972385567108, -21.25110066196595 ], [ -47.199850521884059, -21.258491122367332 ], [ -47.21425101687089, -21.261288412330313 ], [ -47.220805722006446, -21.265319968741494 ], [ -47.231762936810071, -21.267450780129366 ], [ -47.234485468829291, -21.273396358255297 ], [ -47.220865985576722, -21.27801295873104 ], [ -47.2181020622603, -21.290110349313125 ], [ -47.212380896461177, -21.292270191715943 ], [ -47.212339651753489, -21.308615868127788 ], [ -47.218421059883944, -21.318991344774702 ], [ -47.224306460774528, -21.321726027534108 ], [ -47.229214924529117, -21.329983308482838 ], [ -47.226831925253123, -21.341298181865564 ], [ -47.208288195144064, -21.348095856838256 ], [ -47.198905820946827, -21.343139720022005 ], [ -47.191856637074125, -21.348014884579243 ], [ -47.187020301645589, -21.358777640775426 ], [ -47.191929161101882, -21.363461704793792 ], [ -47.203963597342124, -21.383505837724211 ], [ -47.204830974569802, -21.392937233066789 ], [ -47.209617299598676, -21.401436664570383 ], [ -47.208221334147197, -21.413376308669683 ], [ -47.217196256102277, -21.419545779314205 ], [ -47.214922584709484, -21.426994522079497 ], [ -47.22401219630575, -21.428149355907976 ], [ -47.227652195092674, -21.420144324900605 ], [ -47.233647691887427, -21.427233873044766 ], [ -47.232830919511287, -21.436949259900359 ], [ -47.241321101487586, -21.443311468749243 ], [ -47.251063411347332, -21.445369216516095 ], [ -47.264195427876643, -21.451316429609506 ], [ -47.275492721311991, -21.450805915060869 ], [ -47.289274558274201, -21.446069615720148 ], [ -47.298131508062625, -21.448330349466005 ], [ -47.300923983055327, -21.460998966928742 ], [ -47.309217261167646, -21.458262035864209 ], [ -47.303180962131648, -21.438552095502757 ], [ -47.306961779462483, -21.432402137448662 ], [ -47.315742808483776, -21.427275523346676 ], [ -47.325253111242034, -21.425762870859785 ], [ -47.332869970572631, -21.414762929265748 ], [ -47.349840484250933, -21.408789647524145 ], [ -47.356946912669855, -21.409051981563664 ], [ -47.365848329436794, -21.398315258042658 ], [ -47.379748928170443, -21.395327051002539 ], [ -47.384012686835995, -21.382646996861354 ], [ -47.391430950677773, -21.373268216355029 ], [ -47.40544520573161, -21.369399130565395 ], [ -47.411241761697902, -21.361075548897418 ], [ -47.405336450716561, -21.351638905111315 ], [ -47.404546298273033, -21.343990136035924 ], [ -47.415078298324772, -21.343209288877514 ], [ -47.409866507633183, -21.331801076658337 ], [ -47.397650284233173, -21.325420324688196 ], [ -47.393952315147203, -21.319109534577304 ], [ -47.368461137871179, -21.294248118355938 ], [ -47.375951848399041, -21.287068606530909 ], [ -47.39187936703911, -21.290926602780473 ], [ -47.403984308329143, -21.29075438530657 ], [ -47.397889147765909, -21.273459338677469 ], [ -47.387611196299645, -21.274063163284321 ], [ -47.382274953826027, -21.266460887360036 ], [ -47.378698391417572, -21.255371975835995 ], [ -47.382664836912625, -21.250164168241724 ], [ -47.384424696842245, -21.239730277929933 ], [ -47.38857335757433, -21.23103771341971 ], [ -47.395136009119476, -21.225071342968079 ], [ -47.400087223946173, -21.213251288016465 ], [ -47.404093991444483, -21.209723020101251 ], [ -47.420663913808539, -21.224173936477939 ], [ -47.437572217783554, -21.219048555346486 ], [ -47.452273616034518, -21.221864386632092 ], [ -47.460121093913301, -21.212256512827764 ], [ -47.469931513028882, -21.203988232271058 ], [ -47.478283647272463, -21.205332144063163 ], [ -47.472159820819051, -21.183389655608096 ], [ -47.454230886146426, -21.17541052327698 ], [ -47.43739449016357, -21.164082722139881 ], [ -47.4285969783678, -21.153733205323135 ], [ -47.400692653842839, -21.143520943037061 ], [ -47.395715862297152, -21.138389314315361 ], [ -47.388701718709285, -21.137774648381249 ], [ -47.385395035652323, -21.14483873851691 ], [ -47.371097005822094, -21.147046911385814 ], [ -47.358527474763093, -21.136958828387151 ], [ -47.349774465918813, -21.135523476227377 ], [ -47.342251270079998, -21.127165706831871 ], [ -47.344453546094257, -21.121194712965575 ], [ -47.337178644978451, -21.117994195775452 ], [ -47.339038120113116, -21.110191886346453 ], [ -47.32724610152632, -21.107647573876363 ], [ -47.3253077108821, -21.100785100052292 ], [ -47.308752371924356, -21.101874170956194 ] ] } }
]
}
