{
"type": "FeatureCollection",
"features": [
{ "type": "Feature", "properties": { "Name": "CAMPOS DO JORDÃO", "Description": "CAMPOS DO JORDÃO \/ SP" }, "geometry": { "type": "LineString", "coordinates": [ [ -45.399985899529611, -22.653680297008066 ], [ -45.402160355915662, -22.665013371769646 ], [ -45.412178593067551, -22.675255965490347 ], [ -45.420584384461726, -22.676937254350772 ], [ -45.426883619183627, -22.687010520119372 ], [ -45.427663364672526, -22.695240753058272 ], [ -45.438811438097332, -22.702656936768165 ], [ -45.44482994404666, -22.70520440945586 ], [ -45.447971428838336, -22.715217656269772 ], [ -45.457688259105851, -22.71923858898964 ], [ -45.465700895679731, -22.714587007584271 ], [ -45.482883164626287, -22.726528996216132 ], [ -45.493234628475307, -22.737056612072934 ], [ -45.495133565861352, -22.74249640248695 ], [ -45.503846930791156, -22.74429304558754 ], [ -45.515670098296368, -22.751425288146493 ], [ -45.524543987714821, -22.753428412890912 ], [ -45.538196565119328, -22.768085519531041 ], [ -45.564978204780289, -22.777948383511045 ], [ -45.579726703224708, -22.776913277325832 ], [ -45.5815326749929, -22.788536428413408 ], [ -45.585600774456111, -22.792981176540025 ], [ -45.598802486645411, -22.790177045434231 ], [ -45.614251523688836, -22.7971683741211 ], [ -45.629391387302626, -22.793362133855339 ], [ -45.640136674168161, -22.79356263860484 ], [ -45.644790940949122, -22.787151342960044 ], [ -45.656943818802169, -22.790606553549537 ], [ -45.673189186631589, -22.790538838196767 ], [ -45.676313614881394, -22.787584901621869 ], [ -45.658646709378104, -22.759042352522496 ], [ -45.65922093999432, -22.738193348843936 ], [ -45.640743267787514, -22.730356643044612 ], [ -45.630680513295033, -22.7308740032326 ], [ -45.620922789954761, -22.727450524322194 ], [ -45.626808426467676, -22.721604490354878 ], [ -45.620716354176345, -22.714998050819361 ], [ -45.61936634408147, -22.708362879743049 ], [ -45.611820917901014, -22.69478790933448 ], [ -45.611701065251907, -22.685723466164973 ], [ -45.602069136381488, -22.68208225689062 ], [ -45.591214795926014, -22.673800957747968 ], [ -45.588795356120727, -22.661776207206174 ], [ -45.580408309295983, -22.652909852307801 ], [ -45.574613659892456, -22.656926459288627 ], [ -45.544790648869309, -22.650838756803125 ], [ -45.539908218689277, -22.652579787627076 ], [ -45.533046955352681, -22.646754255504447 ], [ -45.524931015453944, -22.646874655840634 ], [ -45.516459647294823, -22.641430203341145 ], [ -45.501065839416924, -22.626326242462085 ], [ -45.488800490550148, -22.628785224558442 ], [ -45.481185828263335, -22.61195602405121 ], [ -45.477381752665728, -22.608669926475894 ], [ -45.473856576619653, -22.588894225887771 ], [ -45.458029646251134, -22.600089719664766 ], [ -45.451708492353013, -22.606350420235685 ], [ -45.437492915065945, -22.611741765070349 ], [ -45.435547153578227, -22.618320716827554 ], [ -45.412931697040165, -22.622215529523032 ], [ -45.408796201483483, -22.633489441484468 ], [ -45.411739174423296, -22.641063771875508 ], [ -45.410521091275314, -22.65167102629675 ], [ -45.399985899529611, -22.653680297008066 ] ] } }
]
}
