{
"type": "FeatureCollection",
"features": [
{ "type": "Feature", "properties": { "Name": "CAMPINAS", "Description": "CAMPINAS \/ SP" }, "geometry": { "type": "LineString", "coordinates": [ [ -46.858385024948916, -22.83617720981033 ], [ -46.859283999856636, -22.847602000132156 ], [ -46.856851000073554, -22.857366999887063 ], [ -46.849053000195731, -22.862688999797456 ], [ -46.850675000350911, -22.876648999651593 ], [ -46.834777000158397, -22.880151000168496 ], [ -46.83124500005664, -22.873640000285715 ], [ -46.824139999761144, -22.874983000165287 ], [ -46.81536399974874, -22.887675000001192 ], [ -46.816880999558457, -22.897785000377439 ], [ -46.826164999615003, -22.901773999970089 ], [ -46.828983000065364, -22.906425000413375 ], [ -46.852329000183147, -22.902413999806186 ], [ -46.860140999807243, -22.904791999750955 ], [ -46.864423000321153, -22.898706999728233 ], [ -46.87077199992779, -22.902720999574399 ], [ -46.889156999695729, -22.909384000171428 ], [ -46.891234000148927, -22.917452999955913 ], [ -46.886336000006338, -22.924355999929389 ], [ -46.878453999852177, -22.927069000034294 ], [ -46.878488946607547, -22.92745972128904 ], [ -46.895286999994994, -22.93465700012041 ], [ -46.90578500027749, -22.925808000338918 ], [ -46.915823000031367, -22.924839999766107 ], [ -46.921997999707855, -22.930965999880925 ], [ -46.939682000423936, -22.927936999592816 ], [ -46.941270999956657, -22.920882999850502 ], [ -46.950795000288963, -22.909745999778011 ], [ -46.962530000059417, -22.911548000140044 ], [ -46.968488999667557, -22.905435999771555 ], [ -46.98209999961523, -22.9041980002375 ], [ -46.988873999935095, -22.910894999704453 ], [ -46.991897999992659, -22.919559999993965 ], [ -46.991616999624796, -22.928198999983803 ], [ -47.008363000252245, -22.937744000385234 ], [ -47.016460910542548, -22.945570759682766 ], [ -47.028932000011764, -22.969558999847948 ], [ -47.056087999561498, -22.989246000302614 ], [ -47.064356665028015, -22.992009198765459 ], [ -47.068435999721544, -23.007124000072505 ], [ -47.074615999628634, -23.012866999612299 ], [ -47.072242999914465, -23.023466000055805 ], [ -47.056567000066934, -23.034436999667776 ], [ -47.055052000349519, -23.041797000031465 ], [ -47.048561999636547, -23.051381999579572 ], [ -47.070168999599609, -23.047636000401042 ], [ -47.076237999783814, -23.053585999594134 ], [ -47.088319000221645, -23.055536999632803 ], [ -47.101948000100094, -23.054085000122598 ], [ -47.10861099979774, -23.061191999611026 ], [ -47.117069000433958, -23.056010999907699 ], [ -47.124242000268055, -23.060072000122656 ], [ -47.129578999970818, -23.054005000030656 ], [ -47.138040999892205, -23.053622000355006 ], [ -47.143829999754644, -23.057819999693209 ], [ -47.1502499999375, -23.05106900043398 ], [ -47.150280000421617, -23.042265000029658 ], [ -47.181678000439319, -23.029927000330758 ], [ -47.188476000067283, -23.033048000364886 ], [ -47.2044890001672, -23.031784999677935 ], [ -47.210000999846216, -23.024114000260852 ], [ -47.228013000399578, -23.013219999703153 ], [ -47.233134000034056, -23.007244000210392 ], [ -47.225119000041779, -23.001249999887534 ], [ -47.206729000043254, -22.99537599970256 ], [ -47.201747999670431, -22.98428900013721 ], [ -47.205275000440849, -22.973309000110248 ], [ -47.214159467685249, -22.9646920308125 ], [ -47.220802617546724, -22.964272640070245 ], [ -47.227579973237141, -22.955029266887095 ], [ -47.214405999737039, -22.950369999875534 ], [ -47.209897000446176, -22.951686000308598 ], [ -47.203049000311069, -22.940880000211791 ], [ -47.201835000085161, -22.930025999700089 ], [ -47.23699600006529, -22.921092999642156 ], [ -47.246767000096952, -22.909478000009642 ], [ -47.223510194739674, -22.905736131417314 ], [ -47.215663668343552, -22.913269945551519 ], [ -47.192619999613271, -22.910581999659481 ], [ -47.178591000174492, -22.911736999862622 ], [ -47.166898692120924, -22.903671096443873 ], [ -47.157376000302122, -22.888198999883912 ], [ -47.159990613675859, -22.87846292232598 ], [ -47.155768490923087, -22.871673414096733 ], [ -47.157707927478839, -22.86089281984772 ], [ -47.162825250684705, -22.853531291535827 ], [ -47.154004646996839, -22.830312274791595 ], [ -47.15815600029913, -22.823438000063618 ], [ -47.163681999724474, -22.805526999671255 ], [ -47.150380999683364, -22.809991999631048 ], [ -47.137685999709049, -22.807301999687468 ], [ -47.11994399991562, -22.810270999906663 ], [ -47.108838000373389, -22.817015999788509 ], [ -47.110090999699821, -22.801226000079794 ], [ -47.103024000257392, -22.796677999889766 ], [ -47.101715000147124, -22.787089000157206 ], [ -47.095427999802325, -22.7802359997915 ], [ -47.095969234292681, -22.769857520308278 ], [ -47.10499617303492, -22.764969177985108 ], [ -47.108293441988735, -22.754371990574839 ], [ -47.10128712430128, -22.750415065303002 ], [ -47.089724576727797, -22.747932185521901 ], [ -47.075549664085706, -22.736974581311813 ], [ -47.069038433976516, -22.729569487142101 ], [ -47.058761943908564, -22.738721534171418 ], [ -47.048549192391242, -22.7396715707863 ], [ -47.031130064500815, -22.731895266153572 ], [ -47.017252000079679, -22.737265000279475 ], [ -47.011715000147092, -22.734153999807177 ], [ -47.004894000357801, -22.739455999694599 ], [ -46.99589499995426, -22.738689000297086 ], [ -46.990499000228624, -22.745456000294155 ], [ -46.975739000354565, -22.744203000068353 ], [ -46.966466999952047, -22.745340000340718 ], [ -46.964862999727586, -22.735452000309522 ], [ -46.957425000263527, -22.729225000033694 ], [ -46.941869999700657, -22.74074299968964 ], [ -46.904928221560112, -22.762843731053295 ], [ -46.905292215863028, -22.766622711968523 ], [ -46.898408103451175, -22.778367450497399 ], [ -46.90467026542035, -22.783610022284677 ], [ -46.896361233883788, -22.793702792549766 ], [ -46.894824082964988, -22.806976145632571 ], [ -46.890802527014955, -22.817070752313327 ], [ -46.883243806156713, -22.818582046823963 ], [ -46.867965805777253, -22.817437046182704 ], [ -46.867585000447377, -22.825924999638971 ], [ -46.861406021270795, -22.825619615053139 ], [ -46.858385024948916, -22.83617720981033 ] ] } }
]
}
