{
"type": "FeatureCollection",
"features": [
{ "type": "Feature", "properties": { "Name": "CAMPO LIMPO PAULISTA", "Description": "CAMPO LIMPO PAULISTA \/ SP" }, "geometry": { "type": "LineString", "coordinates": [ [ -46.711125182181377, -23.211457304710791 ], [ -46.716452259664038, -23.21631974206241 ], [ -46.713284243073304, -23.230461618109132 ], [ -46.704246512466511, -23.237000137246469 ], [ -46.704060404064357, -23.25212406217571 ], [ -46.715947763378551, -23.253644923674244 ], [ -46.725748942859404, -23.248514832793262 ], [ -46.730212939175772, -23.252743951372221 ], [ -46.743755694969309, -23.250279243292425 ], [ -46.756834000388778, -23.253416000348068 ], [ -46.766154000306813, -23.259221000049077 ], [ -46.778846000142778, -23.256649000151185 ], [ -46.783686000308649, -23.265377999794794 ], [ -46.791277999679892, -23.266709000020285 ], [ -46.793563999878643, -23.260705000135601 ], [ -46.802599000143687, -23.257115000057183 ], [ -46.807257000010502, -23.255091000249422 ], [ -46.80503700015737, -23.242174999976214 ], [ -46.796720999774266, -23.229963999838674 ], [ -46.797015999888458, -23.223713000254691 ], [ -46.806850000127383, -23.20574099974732 ], [ -46.799159999834096, -23.187953999677287 ], [ -46.79079106085873, -23.183436669066964 ], [ -46.793946665006558, -23.176136516786755 ], [ -46.786431995640044, -23.153234435520744 ], [ -46.787010672504493, -23.155507612286439 ], [ -46.772857804943726, -23.175450541809028 ], [ -46.75688667547962, -23.177485081671136 ], [ -46.733663188205526, -23.187483299914334 ], [ -46.72524028900807, -23.187466562631695 ], [ -46.715346337263611, -23.191665684323823 ], [ -46.711125182181377, -23.211457304710791 ] ] } }
]
}
