{
"type": "FeatureCollection",
"features": [
{ "type": "Feature", "properties": { "Name": "CÃNDIDO MOTA", "Description": "CÃNDIDO MOTA \/ SP" }, "geometry": { "type": "LineString", "coordinates": [ [ -50.262160628410243, -22.701300430870159 ], [ -50.273448822505081, -22.713199029011946 ], [ -50.277420860883979, -22.726342301455986 ], [ -50.283119361968943, -22.731636699374121 ], [ -50.282503002611456, -22.740484037208489 ], [ -50.29115272162079, -22.755292532124596 ], [ -50.288863260830794, -22.760697612304909 ], [ -50.290473132728835, -22.774083339274625 ], [ -50.298757111851209, -22.779888433404437 ], [ -50.30564264878916, -22.79129715104261 ], [ -50.315488170242809, -22.793625356425025 ], [ -50.328968334121264, -22.805366566014186 ], [ -50.339562471031172, -22.841893602907419 ], [ -50.334013937293321, -22.857408907395097 ], [ -50.33328749821942, -22.864894355989691 ], [ -50.32564292897797, -22.879578231849848 ], [ -50.33270038751283, -22.880329283569548 ], [ -50.344197681178002, -22.900422899896853 ], [ -50.346191090546363, -22.909127596261499 ], [ -50.344004394387241, -22.919283951293266 ], [ -50.347835232909624, -22.928441841217932 ], [ -50.359249489472347, -22.91605881516216 ], [ -50.379074598813645, -22.90540557121011 ], [ -50.387142821583893, -22.907831557180597 ], [ -50.398191277105688, -22.90718929015355 ], [ -50.416426447122774, -22.912771656386777 ], [ -50.420150761848163, -22.917570794956191 ], [ -50.418277361610933, -22.931287626222908 ], [ -50.425712601954956, -22.944185550122995 ], [ -50.432580449228283, -22.946196141938344 ], [ -50.448352994894776, -22.941527438340586 ], [ -50.459425027942643, -22.945201243542499 ], [ -50.482739450165468, -22.936934536799409 ], [ -50.493026172719681, -22.938368432057473 ], [ -50.499675454158812, -22.94362826453272 ], [ -50.511019185886653, -22.944638844407109 ], [ -50.523120516398649, -22.939064742044138 ], [ -50.530010386270241, -22.919149545814832 ], [ -50.540493502772904, -22.912128920813018 ], [ -50.554399892241179, -22.91164881953733 ], [ -50.567334519272606, -22.905656917332802 ], [ -50.577242804411867, -22.904007089455547 ], [ -50.573107574155188, -22.897083792682849 ], [ -50.578357900796441, -22.882659555593985 ], [ -50.574247970267542, -22.874551808519129 ], [ -50.557206875097165, -22.852305402272464 ], [ -50.552267436892635, -22.84061074069308 ], [ -50.543638976057878, -22.834832509312832 ], [ -50.534825733320872, -22.83575596736398 ], [ -50.524435406168998, -22.832893837180787 ], [ -50.525554661918079, -22.824282235936376 ], [ -50.523326040264521, -22.813285410493279 ], [ -50.52141311752132, -22.782311673744687 ], [ -50.517324686185297, -22.764600770708967 ], [ -50.507841507879213, -22.75436469077783 ], [ -50.503149943515041, -22.735639461292067 ], [ -50.509002765565128, -22.721750952144703 ], [ -50.507115463607697, -22.712489467514843 ], [ -50.508241922926345, -22.702481132797967 ], [ -50.503778372673708, -22.693854287145598 ], [ -50.494987377365533, -22.698954198577383 ], [ -50.482102836276852, -22.696020539915931 ], [ -50.473841429238519, -22.698385708333717 ], [ -50.460331477115915, -22.696848812822395 ], [ -50.451107436658837, -22.698207642568605 ], [ -50.44928084073814, -22.702254111537968 ], [ -50.436701162628538, -22.705087835735014 ], [ -50.433712558987331, -22.711534918101961 ], [ -50.419906734408244, -22.704797217117854 ], [ -50.405754738290511, -22.702640018721866 ], [ -50.402097414064372, -22.70463650287229 ], [ -50.367877131024727, -22.688074177980866 ], [ -50.325030929533739, -22.67738646661212 ], [ -50.298193939298812, -22.677075024192956 ], [ -50.2761167054216, -22.672989777356293 ], [ -50.267224417672708, -22.679652919146861 ], [ -50.262160628410243, -22.701300430870159 ] ] } }
]
}
