{
"type": "FeatureCollection",
"features": [
{ "type": "Feature", "properties": { "Name": "CAPIVARI", "Description": "CAPIVARI \/ SP" }, "geometry": { "type": "LineString", "coordinates": [ [ -47.396209782555388, -22.904528007361588 ], [ -47.393681570647914, -22.915679161863807 ], [ -47.386665632912582, -22.919044979841885 ], [ -47.389630044790685, -22.925014452954599 ], [ -47.38797361768826, -22.954193600654094 ], [ -47.396248505564017, -22.954355895907838 ], [ -47.406154090938514, -22.965328824565574 ], [ -47.401023861561896, -22.973511419516342 ], [ -47.38876559035964, -22.983644147559289 ], [ -47.382602247695559, -22.988036761087585 ], [ -47.389744576151202, -22.993534744832573 ], [ -47.389317496205422, -22.999632456772414 ], [ -47.407956513981901, -23.012643795974384 ], [ -47.410243613152204, -23.004812665971713 ], [ -47.427053072641172, -23.002293480559615 ], [ -47.435415508618803, -23.014780386405675 ], [ -47.44555941793277, -23.02227993007466 ], [ -47.462745159161727, -23.026479411495586 ], [ -47.46024205452715, -23.033476838485281 ], [ -47.453486710643119, -23.033579962844954 ], [ -47.450160904402196, -23.042198970006439 ], [ -47.437063440725176, -23.050010068509835 ], [ -47.434046208965349, -23.063185852345157 ], [ -47.433725115921334, -23.074963817226319 ], [ -47.426071182938699, -23.088723104587586 ], [ -47.420944199215398, -23.092730728240497 ], [ -47.428210466839516, -23.101092737939439 ], [ -47.433942491952394, -23.106110230103013 ], [ -47.451012330354729, -23.106088768681673 ], [ -47.465300216731571, -23.109886260342591 ], [ -47.469390011439828, -23.123976979354097 ], [ -47.47865414187509, -23.124991233858339 ], [ -47.485169656354508, -23.11698816517162 ], [ -47.488807457198334, -23.107492996204765 ], [ -47.501250565161399, -23.094323248618991 ], [ -47.508614490166558, -23.091630296201174 ], [ -47.509229606660995, -23.083514536166884 ], [ -47.518176168495359, -23.075507209190334 ], [ -47.530399778926601, -23.051545503522107 ], [ -47.534449413509606, -23.048018227559112 ], [ -47.534181816637499, -23.039954892604154 ], [ -47.528617296550976, -23.037836124937144 ], [ -47.520114296537486, -23.020599125049557 ], [ -47.524368275975121, -23.010097823355807 ], [ -47.530473296705225, -23.00427212485863 ], [ -47.52843297420236, -22.999977488869941 ], [ -47.54795720725928, -23.002917002117897 ], [ -47.545249495168036, -23.008727983209834 ], [ -47.561321460217187, -23.014190733315672 ], [ -47.566357398375203, -23.01196713167775 ], [ -47.576265707796146, -23.017540576636236 ], [ -47.581426595960579, -23.00892305335617 ], [ -47.588261856299596, -23.007595665707356 ], [ -47.603766466049528, -23.011893336907914 ], [ -47.601892494742799, -23.006165554796496 ], [ -47.609815257568016, -22.998988372215535 ], [ -47.617308454721353, -22.999278287562902 ], [ -47.62330635630326, -22.994218595611642 ], [ -47.603959435379572, -22.98835542596208 ], [ -47.601602896856143, -22.979064209745445 ], [ -47.57220172093264, -22.968204046179721 ], [ -47.561675278691098, -22.972291164505574 ], [ -47.558786217409988, -22.967586720051031 ], [ -47.546445859688617, -22.964974713811952 ], [ -47.536783899757147, -22.967196450255926 ], [ -47.525085276664129, -22.963419567459027 ], [ -47.525585274540731, -22.958289684321411 ], [ -47.518898013832256, -22.949728575513287 ], [ -47.520833543733033, -22.935514626898453 ], [ -47.515583340298861, -22.923082662434865 ], [ -47.515009999112124, -22.914272972919321 ], [ -47.509673476050004, -22.906788080105741 ], [ -47.510045705444895, -22.89605807631915 ], [ -47.519342966005013, -22.887061225295266 ], [ -47.520540139915511, -22.872175340119782 ], [ -47.509908483289848, -22.861205684994331 ], [ -47.507111617806856, -22.852547689524215 ], [ -47.500619925469152, -22.85453319654971 ], [ -47.485212831007281, -22.849686913720063 ], [ -47.481925458193302, -22.85835875695102 ], [ -47.465057584140141, -22.858204386523198 ], [ -47.45619453784758, -22.848163771540783 ], [ -47.448743520696894, -22.863766176267973 ], [ -47.449827853072918, -22.871267641788165 ], [ -47.441773461875691, -22.880474378389806 ], [ -47.441672086697395, -22.88868133147821 ], [ -47.428216895193543, -22.899696646982648 ], [ -47.417440057412705, -22.903154714718255 ], [ -47.411849242948165, -22.908265909044417 ], [ -47.40190736813048, -22.902911047906514 ], [ -47.396209782555388, -22.904528007361588 ] ] } }
]
}
