{
"type": "FeatureCollection",
"features": [
{ "type": "Feature", "properties": { "Name": "CASA BRANCA", "Description": "CASA BRANCA \/ SP" }, "geometry": { "type": "LineString", "coordinates": [ [ -47.037556486742403, -21.623474948410092 ], [ -47.032503365238078, -21.632554401264542 ], [ -47.029084113141266, -21.6467553564745 ], [ -47.021490545352314, -21.650191314377594 ], [ -47.014095742124766, -21.646928868072731 ], [ -47.009311968472502, -21.651864035396898 ], [ -46.997476382229195, -21.654247353932192 ], [ -46.98188131147333, -21.650335045825667 ], [ -46.977355266432369, -21.652150549508235 ], [ -46.982911308609964, -21.664364191853906 ], [ -46.992944740707173, -21.667366049703389 ], [ -46.996238416869403, -21.679510741927174 ], [ -46.989588742426463, -21.682792089283449 ], [ -46.985965616719788, -21.693524326086731 ], [ -46.979633645776062, -21.700013333948164 ], [ -46.98010321329263, -21.709711531162213 ], [ -46.986552025955177, -21.721217402561024 ], [ -47.004430718203025, -21.725659723417436 ], [ -47.010884644410794, -21.733480308869101 ], [ -46.99670289422312, -21.737168299077723 ], [ -46.99495177480452, -21.74367772784484 ], [ -46.98568620815194, -21.742548452748849 ], [ -46.981661206899162, -21.753954017363981 ], [ -46.967727677690107, -21.760752625832993 ], [ -46.966391902963892, -21.771427673848052 ], [ -46.95627966147714, -21.786551625756882 ], [ -46.954321648525195, -21.799039426428351 ], [ -46.960062486094841, -21.803824803571782 ], [ -46.962671396867442, -21.816716878281284 ], [ -46.960668765850812, -21.834608618792686 ], [ -46.968162290357384, -21.837548103262293 ], [ -46.978067025872519, -21.845739681541033 ], [ -46.988194018938763, -21.84754230873051 ], [ -46.982278386438331, -21.86963065373163 ], [ -46.98689348414694, -21.876337176119762 ], [ -46.99416694994477, -21.877750572231093 ], [ -46.994257443326319, -21.896056713146777 ], [ -46.999834124944869, -21.902101467608588 ], [ -47.003873861589398, -21.918428048715441 ], [ -46.996045782087151, -21.939623017987856 ], [ -46.995254572040835, -21.949812290904443 ], [ -46.987493957879792, -21.963851150510152 ], [ -46.982156177565514, -21.967687694331573 ], [ -46.99245306875406, -21.974490972080673 ], [ -46.997689937040946, -21.973035239484659 ], [ -47.008901806573078, -21.977335997158491 ], [ -47.008690540535952, -21.996888333130016 ], [ -47.015621512123055, -22.00857370471266 ], [ -47.032898167616281, -22.008108043851109 ], [ -47.030889683811836, -22.001707326032204 ], [ -47.037806217682771, -21.990585692675552 ], [ -47.048180420889651, -21.991234205494152 ], [ -47.056720416314135, -21.987248628721204 ], [ -47.064723333914685, -21.991273714510271 ], [ -47.068400595211244, -21.985602533030431 ], [ -47.084256397414777, -21.986440265905514 ], [ -47.090789948697136, -21.98180797765599 ], [ -47.10712297704373, -21.975717090671139 ], [ -47.113831258505741, -21.980392029268671 ], [ -47.122632381978796, -21.979545258207054 ], [ -47.158369664828115, -21.983847274032428 ], [ -47.177057130881842, -21.974560730693099 ], [ -47.186694417013712, -21.975944465364762 ], [ -47.195489117528716, -21.973734851781956 ], [ -47.182832813583445, -21.956462084957195 ], [ -47.162268532566657, -21.956834876428331 ], [ -47.159918036588067, -21.947409757454295 ], [ -47.173569011400723, -21.930280620454198 ], [ -47.175837625905672, -21.932415619984852 ], [ -47.194632629292357, -21.914497940327635 ], [ -47.197837008171348, -21.90668602973642 ], [ -47.194783730684598, -21.892506095280055 ], [ -47.189816707574948, -21.893071857879871 ], [ -47.187137562448527, -21.870512796927979 ], [ -47.193360528365638, -21.857324311068055 ], [ -47.185471431661192, -21.84747890113033 ], [ -47.189967517586801, -21.801130626277313 ], [ -47.185376873344012, -21.797552369546167 ], [ -47.186590513841111, -21.790424131668317 ], [ -47.194611706564956, -21.78626302881565 ], [ -47.196529259018064, -21.781033195925204 ], [ -47.205827055574105, -21.773415822182415 ], [ -47.211262209083657, -21.756132865139591 ], [ -47.240948549236123, -21.757853752048959 ], [ -47.241077735948693, -21.750043332533721 ], [ -47.229930232694016, -21.732140470106572 ], [ -47.207832612984646, -21.716927309947323 ], [ -47.203068925690332, -21.705589779044995 ], [ -47.197444322797196, -21.698834544878306 ], [ -47.189340923944428, -21.697180268954185 ], [ -47.18614513179233, -21.688272432826466 ], [ -47.177125747355319, -21.673379088673983 ], [ -47.164972739100563, -21.666062571430473 ], [ -47.161730657044131, -21.658186978945874 ], [ -47.1637888256937, -21.644405463940984 ], [ -47.157198260091604, -21.633695794725099 ], [ -47.148501529022326, -21.629176221205626 ], [ -47.147445111602565, -21.622963425721476 ], [ -47.13780456003235, -21.621361511924192 ], [ -47.133400199559503, -21.624897434868672 ], [ -47.123567655322972, -21.62363270478545 ], [ -47.121918004612155, -21.615867440230144 ], [ -47.124679781246869, -21.601520419831445 ], [ -47.1240180627833, -21.59230446607819 ], [ -47.105662554483274, -21.578349871149612 ], [ -47.097543034383477, -21.577389334050508 ], [ -47.097463099942047, -21.567877844187137 ], [ -47.084635741346339, -21.572307814653868 ], [ -47.088886029066941, -21.584199390889125 ], [ -47.087869737598282, -21.590126939406673 ], [ -47.070298186312186, -21.596381486816142 ], [ -47.08127204756692, -21.609992414818066 ], [ -47.068418921595928, -21.619020331123352 ], [ -47.062820639161146, -21.625139292244512 ], [ -47.052201139570911, -21.618727452509859 ], [ -47.044195756928616, -21.623557187813898 ], [ -47.037556486742403, -21.623474948410092 ] ] } }
]
}
