{
"type": "FeatureCollection",
"features": [
{ "type": "Feature", "properties": { "Name": "CHARQUEADA", "Description": "CHARQUEADA \/ SP" }, "geometry": { "type": "LineString", "coordinates": [ [ -47.669226619512813, -22.53994652001586 ], [ -47.665314596491385, -22.553972558886414 ], [ -47.676553940312033, -22.553590097005326 ], [ -47.689555826739991, -22.567047230145533 ], [ -47.686957487498034, -22.583283376326733 ], [ -47.705051310169772, -22.593328952868831 ], [ -47.704278356360987, -22.597190442085203 ], [ -47.715897125951585, -22.605663357977562 ], [ -47.720588801831695, -22.594835407228231 ], [ -47.733478893536073, -22.590601336982047 ], [ -47.744623646663911, -22.59150407825058 ], [ -47.751823466080047, -22.58808808889415 ], [ -47.762595079699111, -22.588199072429177 ], [ -47.769981395125228, -22.578825483709068 ], [ -47.77722548097114, -22.58180092307407 ], [ -47.786193414294587, -22.579850589433136 ], [ -47.803290198184072, -22.581831664599573 ], [ -47.809380633709225, -22.57810485695353 ], [ -47.813092115108986, -22.569535546328382 ], [ -47.81229666745719, -22.562331275268093 ], [ -47.819110425006045, -22.548255288950372 ], [ -47.830913032210617, -22.54300280573483 ], [ -47.824047839735954, -22.539360031640111 ], [ -47.812075787667425, -22.518685673604921 ], [ -47.809751086043718, -22.49871758285013 ], [ -47.799977236959876, -22.492963917350835 ], [ -47.791666753018205, -22.483520413536212 ], [ -47.787393802382041, -22.474018453788574 ], [ -47.794602229209488, -22.460745191537342 ], [ -47.792928786034615, -22.448189161100856 ], [ -47.774644692898221, -22.450391037816075 ], [ -47.776669820455815, -22.44412357434345 ], [ -47.766607582174117, -22.444316252293163 ], [ -47.758559645411246, -22.452500963348712 ], [ -47.757005238301076, -22.460300477684822 ], [ -47.744721209616102, -22.469157246709528 ], [ -47.742809169107829, -22.475996652923129 ], [ -47.748485004579265, -22.483762124322539 ], [ -47.723820988647674, -22.492788467713577 ], [ -47.722966146170677, -22.488296197611362 ], [ -47.709827435987329, -22.488327691869415 ], [ -47.693666100809878, -22.482512768149661 ], [ -47.687906847822717, -22.489532043269151 ], [ -47.678664415330445, -22.494701269947594 ], [ -47.668557716365456, -22.510079867591799 ], [ -47.671323132556495, -22.516151118779078 ], [ -47.6696829463109, -22.52536153090989 ], [ -47.672311146642073, -22.532798649937718 ], [ -47.669226619512813, -22.53994652001586 ] ] } }
]
}
