{
"type": "FeatureCollection",
"features": [
{ "type": "Feature", "properties": { "Name": "CRISTAIS PAULISTA", "Description": "CRISTAIS PAULISTA \/ SP" }, "geometry": { "type": "LineString", "coordinates": [ [ -47.276728718955155, -20.291637967618044 ], [ -47.281402393105907, -20.304363802647345 ], [ -47.281823360359731, -20.312582803953205 ], [ -47.285819972713512, -20.316286499022681 ], [ -47.284960022986638, -20.331990197089851 ], [ -47.290289175205203, -20.333728446310715 ], [ -47.298208134797562, -20.348435715335938 ], [ -47.29335147469078, -20.364345648632707 ], [ -47.295217468111609, -20.369614301658657 ], [ -47.288031192485505, -20.393177774934315 ], [ -47.291754273340985, -20.398027878084065 ], [ -47.285455653755378, -20.405739966626129 ], [ -47.293456581156249, -20.418655153912198 ], [ -47.310767025977434, -20.41833579116377 ], [ -47.312507126902346, -20.424333021851453 ], [ -47.33011828253268, -20.423858023329046 ], [ -47.338277819765551, -20.425619014605786 ], [ -47.351349568227931, -20.436686750692957 ], [ -47.365899850697524, -20.43876662897668 ], [ -47.372346565241742, -20.436562868181792 ], [ -47.384507060352519, -20.439312843912543 ], [ -47.393454702272663, -20.436482894170183 ], [ -47.398136898399109, -20.441891942159373 ], [ -47.412688286135449, -20.449637509763193 ], [ -47.41406783266433, -20.459376132402554 ], [ -47.462924438112282, -20.463118784304413 ], [ -47.483118609436247, -20.459759729228097 ], [ -47.491456126099301, -20.465483203586924 ], [ -47.500043620116912, -20.456363827128882 ], [ -47.507305025106795, -20.456437671361414 ], [ -47.512877683158536, -20.451931699188549 ], [ -47.521531608297039, -20.450225518892523 ], [ -47.524242290848974, -20.431679261688544 ], [ -47.527561740681733, -20.42390703458193 ], [ -47.518900122742416, -20.407039004046737 ], [ -47.517108070680877, -20.395240475267656 ], [ -47.529488646983452, -20.391323926857691 ], [ -47.509330746216897, -20.364778408696566 ], [ -47.50436868017038, -20.360501384131506 ], [ -47.501845107865392, -20.342055929237688 ], [ -47.496746698301422, -20.334037331957234 ], [ -47.501692343626701, -20.324432614773283 ], [ -47.498295103336318, -20.316164262270828 ], [ -47.481730352973386, -20.313615834503135 ], [ -47.465117979910808, -20.30759300101613 ], [ -47.444991354867113, -20.310770083672367 ], [ -47.439855094636862, -20.316364919005764 ], [ -47.427203253127573, -20.320401583566195 ], [ -47.421304969448727, -20.318683683305267 ], [ -47.389586808084687, -20.294122483265937 ], [ -47.380747284459567, -20.291238027412987 ], [ -47.370310362533189, -20.292380263538291 ], [ -47.373326691373677, -20.281807579955796 ], [ -47.362913348771997, -20.274723087800226 ], [ -47.351254249084256, -20.277067507959089 ], [ -47.346329238703333, -20.26981281281104 ], [ -47.332935264051173, -20.271286258454037 ], [ -47.327130252659003, -20.275486836148502 ], [ -47.301924945579742, -20.273329020817584 ], [ -47.294012103175987, -20.277885743532181 ], [ -47.280121149671288, -20.292333558147163 ], [ -47.276728718955155, -20.291637967618044 ] ] } }
]
}
