{
"type": "FeatureCollection",
"features": [
{ "type": "Feature", "properties": { "Name": "DOURADO", "Description": "DOURADO \/ SP" }, "geometry": { "type": "LineString", "coordinates": [ [ -48.298584749986162, -22.063737350997879 ], [ -48.286763117623764, -22.056431911603397 ], [ -48.278874949918986, -22.067444230566764 ], [ -48.27802177838231, -22.073732333480336 ], [ -48.265942631447217, -22.077202764196159 ], [ -48.273795838007459, -22.091986790358021 ], [ -48.262678795689844, -22.100335839927027 ], [ -48.255446751766158, -22.116528794368318 ], [ -48.250802192267315, -22.120884877435113 ], [ -48.25197602067675, -22.130271541398486 ], [ -48.249754135844626, -22.141123645239986 ], [ -48.255953641147585, -22.154640507753186 ], [ -48.25503448095651, -22.163034181682121 ], [ -48.24459850331823, -22.177631403366547 ], [ -48.256401199555683, -22.177375820537634 ], [ -48.270921677593321, -22.182488529322143 ], [ -48.274285249064974, -22.192289509153454 ], [ -48.283971316223244, -22.189316043800318 ], [ -48.29874302077377, -22.192181284738467 ], [ -48.308571324706797, -22.192156539892377 ], [ -48.314323158287095, -22.19873415615632 ], [ -48.322980156409074, -22.189525826855398 ], [ -48.332600510105408, -22.187114828986125 ], [ -48.342312332048436, -22.181040104617068 ], [ -48.343238274027101, -22.173565001823306 ], [ -48.353011181520742, -22.17091574746371 ], [ -48.362570531504787, -22.164740618284839 ], [ -48.371243049227303, -22.168218661761784 ], [ -48.375922376516428, -22.162260759326553 ], [ -48.387864491053392, -22.159062723365935 ], [ -48.385987810988638, -22.153051385013384 ], [ -48.392745079421843, -22.145399183225663 ], [ -48.397609486288729, -22.131891377784822 ], [ -48.396189137518661, -22.12175134544816 ], [ -48.401651000892912, -22.10405890819203 ], [ -48.41570775700734, -22.089343452638161 ], [ -48.422472978145379, -22.09414559314456 ], [ -48.435928636397421, -22.08405334898282 ], [ -48.436190176335515, -22.078556777173503 ], [ -48.4462070492159, -22.070988308563528 ], [ -48.444863050189554, -22.063153961685941 ], [ -48.441325080388083, -22.061085692750453 ], [ -48.425260676838718, -22.066736918274103 ], [ -48.407847762364327, -22.049470739882679 ], [ -48.394467372870906, -22.043406193141266 ], [ -48.378748014908922, -22.049453448617726 ], [ -48.368569065310055, -22.055585471492293 ], [ -48.366236656496483, -22.052411495993681 ], [ -48.348211560914763, -22.046950905160088 ], [ -48.339030864182966, -22.06102278607267 ], [ -48.332138851226944, -22.065262174010055 ], [ -48.322715529098332, -22.07812111409811 ], [ -48.298584749986162, -22.063737350997879 ] ] } }
]
}
