{
"type": "FeatureCollection",
"features": [
{ "type": "Feature", "properties": { "Name": "DUMONT", "Description": "DUMONT \/ SP" }, "geometry": { "type": "LineString", "coordinates": [ [ -47.989154000056999, -21.309372000117662 ], [ -47.994660000358692, -21.304699999605248 ], [ -47.99149199995577, -21.297396000025344 ], [ -48.00188199975446, -21.294492000105663 ], [ -48.005812000223614, -21.285652999885997 ], [ -48.01652000029776, -21.283026000149732 ], [ -48.027935999746546, -21.276568000013128 ], [ -48.028946999604322, -21.268679999582272 ], [ -48.037195000448889, -21.251246999649254 ], [ -48.044121999730464, -21.245907999854236 ], [ -48.052276999883588, -21.228717000289294 ], [ -48.050081000237924, -21.216493999598356 ], [ -48.04202658925567, -21.203469200243376 ], [ -48.033751999954802, -21.205937000192364 ], [ -48.024408999875384, -21.215337000202339 ], [ -48.010354000136942, -21.211770000285242 ], [ -48.000908999850424, -21.217386000263673 ], [ -47.989069999780611, -21.217409999571771 ], [ -47.98543600037106, -21.213840000415644 ], [ -47.972777000258297, -21.210645999713048 ], [ -47.9648580001965, -21.205252000079668 ], [ -47.960443999890629, -21.187989999938509 ], [ -47.952052999646185, -21.185897999692884 ], [ -47.943423000071334, -21.20029599996036 ], [ -47.93176200011618, -21.2037300000394 ], [ -47.925899000438505, -21.223300999641367 ], [ -47.92143499962549, -21.22830099999112 ], [ -47.921974000199896, -21.242057000330249 ], [ -47.912030000284233, -21.252874000035035 ], [ -47.907835000185059, -21.260484000236374 ], [ -47.91700100019596, -21.262064000253361 ], [ -47.926372999814021, -21.267287000094939 ], [ -47.93182300023124, -21.274479999952003 ], [ -47.948285000352428, -21.283632000216585 ], [ -47.964916000173218, -21.297058999772958 ], [ -47.989154000056999, -21.309372000117662 ] ] } }
]
}
