{
"type": "FeatureCollection",
"features": [
{ "type": "Feature", "properties": { "Name": "ESPÃRITO SANTO DO TURVO", "Description": "ESPÃRITO SANTO DO TURVO \/ SP" }, "geometry": { "type": "LineString", "coordinates": [ [ -49.351007028651395, -22.642557498129975 ], [ -49.361638821074678, -22.654916501495279 ], [ -49.343544584714778, -22.665364412237807 ], [ -49.339689729797151, -22.665905769935307 ], [ -49.337030213273692, -22.677283648021898 ], [ -49.353569043376574, -22.68023258976217 ], [ -49.356538529229681, -22.687760168896656 ], [ -49.368976020926588, -22.702123726029072 ], [ -49.371334365288696, -22.707329852790451 ], [ -49.383130994699627, -22.708511373101317 ], [ -49.382956163795882, -22.717827563491195 ], [ -49.376913487667252, -22.722973498627994 ], [ -49.379812208566527, -22.73392789225835 ], [ -49.393138158499191, -22.742917541511304 ], [ -49.396804779916636, -22.738929890901716 ], [ -49.417393242803882, -22.738754341439687 ], [ -49.466617784283301, -22.731622288637649 ], [ -49.483876685360713, -22.725086089751187 ], [ -49.495144132095959, -22.727206209099219 ], [ -49.498294907783702, -22.722476835437533 ], [ -49.502489688448343, -22.703309325664804 ], [ -49.500144392349796, -22.697109167454073 ], [ -49.506949759223971, -22.683420003830062 ], [ -49.499794425672178, -22.670720099852701 ], [ -49.498094180002333, -22.656054650201895 ], [ -49.506696993071728, -22.646174795330523 ], [ -49.505415087736083, -22.638055532436852 ], [ -49.495053837464582, -22.62622120254639 ], [ -49.497269455820685, -22.613583797853948 ], [ -49.492374106879481, -22.609700141248481 ], [ -49.477600957118455, -22.608215160900897 ], [ -49.470437334515331, -22.600202624151734 ], [ -49.469858729596638, -22.591111152757435 ], [ -49.458625418428248, -22.58849709246681 ], [ -49.453609128658343, -22.583967584136644 ], [ -49.444351000298404, -22.60049806763169 ], [ -49.438745786788608, -22.604437088300926 ], [ -49.424722144611223, -22.607085276064595 ], [ -49.418948338794735, -22.621208845511774 ], [ -49.382579046585704, -22.629847876078596 ], [ -49.363947124460189, -22.632782205634211 ], [ -49.351007028651395, -22.642557498129975 ] ] } }
]
}
