{
"type": "FeatureCollection",
"features": [
{ "type": "Feature", "properties": { "Name": "FERNANDO PRESTES", "Description": "FERNANDO PRESTES \/ SP" }, "geometry": { "type": "LineString", "coordinates": [ [ -48.619296976973885, -21.286933096685004 ], [ -48.631993203623381, -21.302995253727943 ], [ -48.641763393365856, -21.300836639799059 ], [ -48.648736098891789, -21.295477892690542 ], [ -48.653024187815959, -21.300423811409701 ], [ -48.653949411236283, -21.315292485359862 ], [ -48.662632236988088, -21.325139189422032 ], [ -48.662514493249205, -21.334067580454416 ], [ -48.669743923743056, -21.337653362712501 ], [ -48.670030661785574, -21.354365850103875 ], [ -48.676796954915517, -21.361695511838377 ], [ -48.684605877059539, -21.382988299470412 ], [ -48.684723511081131, -21.388336767327928 ], [ -48.690816993509429, -21.394330128232809 ], [ -48.70239311005394, -21.392955041441947 ], [ -48.71366601567405, -21.397540844634246 ], [ -48.720550407775079, -21.412938692266778 ], [ -48.725739400652799, -21.420047338413895 ], [ -48.732960766026508, -21.417618614007775 ], [ -48.740333374885324, -21.422741170368678 ], [ -48.754297106026563, -21.420693893408384 ], [ -48.75238498637799, -21.406284086841083 ], [ -48.745125051779667, -21.392425002611731 ], [ -48.749002605585751, -21.3751516683148 ], [ -48.746266483911086, -21.355838374841085 ], [ -48.737536477026765, -21.342341316298644 ], [ -48.734356314192496, -21.333547937787046 ], [ -48.735486579442068, -21.323598132747573 ], [ -48.730918226694769, -21.316044352764607 ], [ -48.733753021085022, -21.309342364758265 ], [ -48.732529416099617, -21.294713974370381 ], [ -48.735270459763854, -21.287998147596397 ], [ -48.733622730904244, -21.278982585278015 ], [ -48.736301787897162, -21.266088043728185 ], [ -48.734187056387498, -21.260980216463793 ], [ -48.742962009589007, -21.254047223200754 ], [ -48.741383191281216, -21.245616673470632 ], [ -48.723304893605921, -21.241754760673643 ], [ -48.712784807772607, -21.232140650070903 ], [ -48.698753066300924, -21.228082135582042 ], [ -48.695541352551345, -21.220914269078207 ], [ -48.686718913347136, -21.218619019352218 ], [ -48.673408590034342, -21.223286533146961 ], [ -48.668194346891539, -21.228582023741353 ], [ -48.653639358269743, -21.231095577598808 ], [ -48.653205130512333, -21.239825310189872 ], [ -48.64530935724099, -21.242668608569375 ], [ -48.631319293950241, -21.25551091659548 ], [ -48.62988297322061, -21.268649844414767 ], [ -48.619296976973885, -21.286933096685004 ] ] } }
]
}
