{
"type": "FeatureCollection",
"features": [
{ "type": "Feature", "properties": { "Name": "FLÃRIDA PAULISTA", "Description": "FLÃRIDA PAULISTA \/ SP" }, "geometry": { "type": "LineString", "coordinates": [ [ -51.144970959841885, -21.37440567528165 ], [ -51.133004647246651, -21.374951584448009 ], [ -51.122436035794351, -21.381594291843044 ], [ -51.10788696830889, -21.375788555597296 ], [ -51.099945009454586, -21.36991931462461 ], [ -51.0899257003108, -21.372276699410122 ], [ -51.085985637327269, -21.384098963995939 ], [ -51.074816219392972, -21.39115946044069 ], [ -51.063479646268604, -21.394522257596066 ], [ -51.058755719800558, -21.398550927183521 ], [ -51.061191184625443, -21.405160371353983 ], [ -51.072346230494077, -21.414796546823137 ], [ -51.072931087499626, -21.41890393047197 ], [ -51.086529370134258, -21.430953289162915 ], [ -51.087656592078019, -21.439101190967165 ], [ -51.082624248510228, -21.450004191040534 ], [ -51.08695146243997, -21.457845663246697 ], [ -51.087500561501656, -21.468606453524956 ], [ -51.096313504764396, -21.476903913484762 ], [ -51.099732535627986, -21.484436307589476 ], [ -51.101712609849017, -21.507514660473134 ], [ -51.106730548975634, -21.518666165710954 ], [ -51.103825981583718, -21.524480087585914 ], [ -51.108685254221086, -21.529339686677133 ], [ -51.101774840236658, -21.542438370734203 ], [ -51.105398010010106, -21.56367417102615 ], [ -51.092839908434996, -21.572862636101718 ], [ -51.090393170608309, -21.580613386498555 ], [ -51.080129468899827, -21.591239773097016 ], [ -51.080197498115972, -21.61489507075089 ], [ -51.085333715178756, -21.619200101103729 ], [ -51.089607296239699, -21.632094588694258 ], [ -51.100523403931895, -21.636916478312799 ], [ -51.109820600640148, -21.63669563359656 ], [ -51.110274738488329, -21.646931022848378 ], [ -51.130261659248106, -21.651645446180339 ], [ -51.135728912259417, -21.65661530395306 ], [ -51.162110403072575, -21.661331434198303 ], [ -51.163143466897452, -21.671744351420614 ], [ -51.17255205183568, -21.675883415487192 ], [ -51.172503161091981, -21.680619841632335 ], [ -51.179157778208832, -21.688298350388493 ], [ -51.177310666953701, -21.692428281839682 ], [ -51.18345493769516, -21.6941512542769 ], [ -51.189346183279667, -21.701007940064354 ], [ -51.208326276136681, -21.702228727473766 ], [ -51.218167128310256, -21.708766776265691 ], [ -51.235608435280994, -21.724372146956966 ], [ -51.241751939800167, -21.736343426507855 ], [ -51.247496308108104, -21.735512708344743 ], [ -51.253064576568931, -21.74117264110447 ], [ -51.260797467329212, -21.743756896963191 ], [ -51.271002704111481, -21.742666475277588 ], [ -51.275913438654243, -21.73271011328103 ], [ -51.274983737509444, -21.727464641180177 ], [ -51.283561171710687, -21.721668610417964 ], [ -51.280527849280759, -21.7160602115095 ], [ -51.285359113432321, -21.709470716999931 ], [ -51.279010944799211, -21.703844134699011 ], [ -51.279370348063082, -21.696603880864359 ], [ -51.271420217968625, -21.691094290469096 ], [ -51.2650061407208, -21.675153820692227 ], [ -51.263341394889437, -21.668075221794027 ], [ -51.255199251444246, -21.664954966398511 ], [ -51.245368828708415, -21.653925978501036 ], [ -51.244967670821325, -21.6380117743239 ], [ -51.238330008622931, -21.629173828109629 ], [ -51.232698663512451, -21.628779178616124 ], [ -51.23697802631483, -21.611508566567068 ], [ -51.245699106528491, -21.593047489549974 ], [ -51.238951255795769, -21.586815929711346 ], [ -51.235610336447849, -21.576555643628012 ], [ -51.230669698547729, -21.57579417056445 ], [ -51.232477050775231, -21.563569101432847 ], [ -51.232728504816578, -21.542691507407081 ], [ -51.236022313179149, -21.532920652166293 ], [ -51.23285301145728, -21.5267072451432 ], [ -51.236196891373424, -21.519608064360625 ], [ -51.232898280631105, -21.510678330640417 ], [ -51.232283560737692, -21.500459377398329 ], [ -51.23503134571996, -21.494038406846926 ], [ -51.232000066549801, -21.486829717417489 ], [ -51.236464561090592, -21.480075790864987 ], [ -51.234915937520441, -21.466350347690366 ], [ -51.238196080684531, -21.460330079969197 ], [ -51.234939029412658, -21.450312975063696 ], [ -51.224795818871875, -21.439453724309885 ], [ -51.220540164896647, -21.431740816485444 ], [ -51.211559402744172, -21.423967488608639 ], [ -51.207000469496052, -21.415188915635895 ], [ -51.210678552772947, -21.407273262850762 ], [ -51.209929681009953, -21.392717815574656 ], [ -51.212826175187779, -21.381942032698589 ], [ -51.218778256311452, -21.374558298326747 ], [ -51.219903575289713, -21.360786609314513 ], [ -51.214148784738597, -21.354788967636694 ], [ -51.199705470331139, -21.361477357893705 ], [ -51.195404647906116, -21.371839741310964 ], [ -51.189726484089924, -21.377086842084054 ], [ -51.183442484782795, -21.376225421066295 ], [ -51.171814614053176, -21.383567999763329 ], [ -51.164116883187546, -21.384022312079992 ], [ -51.15745873713098, -21.378571169523809 ], [ -51.144970959841885, -21.37440567528165 ] ] } }
]
}
