{
"type": "FeatureCollection",
"features": [
{ "type": "Feature", "properties": { "Name": "FRANCO DA ROCHA", "Description": "FRANCO DA ROCHA \/ SP" }, "geometry": { "type": "LineString", "coordinates": [ [ -46.783686000308649, -23.265377999794794 ], [ -46.773819000346521, -23.281399000263605 ], [ -46.764839999965993, -23.289971999907834 ], [ -46.757846000292659, -23.292769000289066 ], [ -46.751496999786696, -23.301647999655412 ], [ -46.717780999893193, -23.302351999744928 ], [ -46.711454000401766, -23.294572999844036 ], [ -46.705448696500127, -23.295885325647191 ], [ -46.697574999786347, -23.289624000047525 ], [ -46.688700999751291, -23.29030099979127 ], [ -46.676896000350098, -23.273542000362966 ], [ -46.66860052969065, -23.270054614728622 ], [ -46.651983999961601, -23.267516000363056 ], [ -46.638446999829114, -23.257666000285667 ], [ -46.637107000087951, -23.258079999592265 ], [ -46.647552999771108, -23.275272000102689 ], [ -46.656030000384192, -23.278369999975496 ], [ -46.659031000280379, -23.283397999817794 ], [ -46.647454999748383, -23.287618000170539 ], [ -46.645828000261986, -23.296126999561352 ], [ -46.638713000404607, -23.300316000283146 ], [ -46.637196999741718, -23.306508999890411 ], [ -46.645394000033036, -23.311920000307737 ], [ -46.645337000102408, -23.318601999982263 ], [ -46.66261700017435, -23.32446699975219 ], [ -46.66082300018126, -23.334829000058278 ], [ -46.670187000329747, -23.363095999580651 ], [ -46.68156900000929, -23.367994999769394 ], [ -46.688560999590436, -23.368294000067976 ], [ -46.699214999872311, -23.361582999955427 ], [ -46.70650299961369, -23.363211000387309 ], [ -46.716007999969179, -23.355410000371194 ], [ -46.726258999653048, -23.357128999603617 ], [ -46.743613000439552, -23.35326000014885 ], [ -46.74176399970878, -23.34130800026395 ], [ -46.752088000061114, -23.326488000320921 ], [ -46.765300999641397, -23.33453499999024 ], [ -46.778792000350499, -23.337840999562445 ], [ -46.781114000410753, -23.348999999750163 ], [ -46.792446999629306, -23.345685999809007 ], [ -46.81153600038607, -23.33622899986841 ], [ -46.818635000404925, -23.337182999795573 ], [ -46.823673990861948, -23.330977197439662 ], [ -46.825402000401937, -23.324504999705937 ], [ -46.821728000047123, -23.314073999815207 ], [ -46.833017999980648, -23.310439000359509 ], [ -46.840821000089022, -23.302327000390733 ], [ -46.842841999758434, -23.291971000361343 ], [ -46.838063999753729, -23.287843999800714 ], [ -46.832080999938171, -23.279062000410931 ], [ -46.814245000306471, -23.282108999730497 ], [ -46.814245000306471, -23.277446999679228 ], [ -46.803463000417082, -23.271071999772914 ], [ -46.802599000143687, -23.257115000057183 ], [ -46.793563999878643, -23.260705000135601 ], [ -46.791277999679892, -23.266709000020285 ], [ -46.783686000308649, -23.265377999794794 ] ] } }
]
}
