{
"type": "FeatureCollection",
"features": [
{ "type": "Feature", "properties": { "Name": "FRANCA", "Description": "FRANCA \/ SP" }, "geometry": { "type": "LineString", "coordinates": [ [ -47.293456581156249, -20.418655153912198 ], [ -47.296100198565284, -20.427256029841885 ], [ -47.287289104308677, -20.435149387534178 ], [ -47.286482549130312, -20.442450778180842 ], [ -47.291011293936037, -20.45054989086475 ], [ -47.279061481202348, -20.460509121698578 ], [ -47.259484962460988, -20.468927001779662 ], [ -47.253604532123404, -20.477952285769334 ], [ -47.229601596136717, -20.486903892800342 ], [ -47.211901342872636, -20.499840530715858 ], [ -47.196015865739582, -20.504021794570122 ], [ -47.185680360360323, -20.510859173711879 ], [ -47.1634912652097, -20.518927899203163 ], [ -47.154517381072246, -20.51955319242586 ], [ -47.143459835203203, -20.535323387264441 ], [ -47.144179728111908, -20.540813842784587 ], [ -47.164615201929962, -20.54421705637202 ], [ -47.173096304350906, -20.550960493232139 ], [ -47.176558405545961, -20.541250303558627 ], [ -47.182118385854778, -20.540169599047715 ], [ -47.188327715351761, -20.549512565852179 ], [ -47.19683956469413, -20.545121905651396 ], [ -47.197103750437691, -20.558112101792005 ], [ -47.211227975490658, -20.56042586586096 ], [ -47.212605631644522, -20.575619684300932 ], [ -47.22525029566458, -20.557984315323836 ], [ -47.218949607638251, -20.557059031648919 ], [ -47.213959087941532, -20.546894371378073 ], [ -47.215495681280629, -20.539943399768049 ], [ -47.231288982400592, -20.52795770138675 ], [ -47.239879879452815, -20.523344601971758 ], [ -47.242347614650669, -20.533079438465279 ], [ -47.249415603347359, -20.53482318164447 ], [ -47.243887034558952, -20.543779284386403 ], [ -47.250420928483038, -20.547720858231003 ], [ -47.252808126693651, -20.537001334244106 ], [ -47.267579452629604, -20.537688275993105 ], [ -47.262615110398997, -20.548434424409095 ], [ -47.272629958006114, -20.550583395807053 ], [ -47.27645752929152, -20.542150789327422 ], [ -47.284500436146175, -20.550368266282419 ], [ -47.299358017858196, -20.551964655544396 ], [ -47.301271221189836, -20.541451894689146 ], [ -47.305377795448862, -20.538665858842251 ], [ -47.317335633732455, -20.545835543775294 ], [ -47.319387822789736, -20.550645453524794 ], [ -47.313997536457123, -20.562070320289024 ], [ -47.330950423423239, -20.581630331074848 ], [ -47.331329588389728, -20.590866668861622 ], [ -47.335566308937985, -20.601464975927854 ], [ -47.34322288322943, -20.606641559060677 ], [ -47.358282576779459, -20.623991359113859 ], [ -47.356122443895622, -20.63321270610146 ], [ -47.356358058177818, -20.651302116699298 ], [ -47.347187817863471, -20.670924419925996 ], [ -47.354741458451478, -20.674418743829904 ], [ -47.36132634213692, -20.683034148307229 ], [ -47.361696707237229, -20.693180071203301 ], [ -47.364928741168455, -20.695855262010696 ], [ -47.366865404214991, -20.712502163643876 ], [ -47.372286873640284, -20.713014486729151 ], [ -47.385221128352327, -20.723810323587543 ], [ -47.385301838908674, -20.727841450122753 ], [ -47.398029928538328, -20.728851638792037 ], [ -47.411067232067069, -20.733627688167246 ], [ -47.423893144552949, -20.736161465978853 ], [ -47.437574197191395, -20.730560479282641 ], [ -47.444513706941962, -20.738227021659668 ], [ -47.443952735929997, -20.749725607650646 ], [ -47.452669621705638, -20.759871035919502 ], [ -47.459662071847099, -20.764927501103273 ], [ -47.461707685960903, -20.772992761506714 ], [ -47.471046121980919, -20.768808832961209 ], [ -47.47273770448146, -20.759939266583842 ], [ -47.479066196847441, -20.754029292617702 ], [ -47.494850353660865, -20.748027519454411 ], [ -47.501453241773675, -20.739850804271157 ], [ -47.509128405951117, -20.724853663066028 ], [ -47.505466333304582, -20.71729777866949 ], [ -47.48836326944928, -20.719514256777469 ], [ -47.469106751075678, -20.697696593323087 ], [ -47.468310583966229, -20.688597410242267 ], [ -47.452630967944799, -20.679375212496037 ], [ -47.439237349424104, -20.678852523824844 ], [ -47.433193532955151, -20.676049530361468 ], [ -47.423351106967971, -20.666713889434391 ], [ -47.413018720437549, -20.666301933387444 ], [ -47.420082601031197, -20.643273365173627 ], [ -47.40924109569994, -20.632068100262583 ], [ -47.395860213378107, -20.628133770457111 ], [ -47.398241059677105, -20.61417445678569 ], [ -47.405113966536305, -20.614350053911835 ], [ -47.427730532837757, -20.609533936142213 ], [ -47.44927682046886, -20.598903037645016 ], [ -47.447155129105909, -20.587178302736447 ], [ -47.448423445685421, -20.580502185527394 ], [ -47.456273463249715, -20.571226215517413 ], [ -47.46920271863052, -20.563454344542322 ], [ -47.480662187709747, -20.569147432607906 ], [ -47.493157789100614, -20.558694811216526 ], [ -47.50903062176576, -20.564782068537568 ], [ -47.528674940396108, -20.562724156194804 ], [ -47.545711218797692, -20.552420277273939 ], [ -47.549205024692071, -20.543687170426551 ], [ -47.544321804008007, -20.534542228041346 ], [ -47.546367140231268, -20.524734287457363 ], [ -47.552532761777513, -20.51258228374536 ], [ -47.537402269998722, -20.497350328654704 ], [ -47.52758613029561, -20.497729106912686 ], [ -47.517528012707601, -20.490294204713734 ], [ -47.50884272191405, -20.488167491536444 ], [ -47.506476424847108, -20.474675546539171 ], [ -47.500043620116912, -20.456363827128882 ], [ -47.491456126099301, -20.465483203586924 ], [ -47.483118609436247, -20.459759729228097 ], [ -47.462924438112282, -20.463118784304413 ], [ -47.41406783266433, -20.459376132402554 ], [ -47.412688286135449, -20.449637509763193 ], [ -47.398136898399109, -20.441891942159373 ], [ -47.393454702272663, -20.436482894170183 ], [ -47.384507060352519, -20.439312843912543 ], [ -47.372346565241742, -20.436562868181792 ], [ -47.365899850697524, -20.43876662897668 ], [ -47.351349568227931, -20.436686750692957 ], [ -47.338277819765551, -20.425619014605786 ], [ -47.33011828253268, -20.423858023329046 ], [ -47.312507126902346, -20.424333021851453 ], [ -47.310767025977434, -20.41833579116377 ], [ -47.293456581156249, -20.418655153912198 ] ] } }
]
}
