{
"type": "FeatureCollection",
"features": [
{ "type": "Feature", "properties": { "Name": "GASTÃO VIDIGAL", "Description": "GASTÃO VIDIGAL \/ SP" }, "geometry": { "type": "LineString", "coordinates": [ [ -50.114065319059193, -20.763454234425353 ], [ -50.110180150693338, -20.77868844051909 ], [ -50.116148425909095, -20.78523231961583 ], [ -50.115529927963735, -20.792122407123372 ], [ -50.126615414869434, -20.807335749844924 ], [ -50.123069059789259, -20.814045360504959 ], [ -50.125262641157917, -20.822534493871725 ], [ -50.121288144931896, -20.831116124309631 ], [ -50.150781701014637, -20.852129738996211 ], [ -50.163859663792437, -20.874882876343634 ], [ -50.172268424747983, -20.87070278610463 ], [ -50.187192465459873, -20.868323924609399 ], [ -50.197671574583467, -20.860742310609112 ], [ -50.213269130166168, -20.866096615066681 ], [ -50.22505286239965, -20.857864723777936 ], [ -50.22658252646238, -20.853422103447258 ], [ -50.23542199163154, -20.847178696839364 ], [ -50.239688387109311, -20.837517013899003 ], [ -50.253015244457906, -20.835416984506196 ], [ -50.282334141407432, -20.834398838635423 ], [ -50.290588283722279, -20.835730820021297 ], [ -50.287033294251103, -20.826537680269666 ], [ -50.290586760270742, -20.808821048552485 ], [ -50.282752617539245, -20.799281175186024 ], [ -50.278583937898361, -20.788161134528707 ], [ -50.276126733761714, -20.773789281150357 ], [ -50.267523566359444, -20.760773148561896 ], [ -50.265422786932049, -20.752183168818135 ], [ -50.260199661185368, -20.743012316964837 ], [ -50.250503274306588, -20.736737106732051 ], [ -50.238560404339125, -20.745403395750088 ], [ -50.235676810036693, -20.75367179142 ], [ -50.226698962587022, -20.73909138795716 ], [ -50.21989099667212, -20.746950611881175 ], [ -50.211194962577395, -20.749105888425959 ], [ -50.20087533922549, -20.746963281530157 ], [ -50.192481193152503, -20.749439841775256 ], [ -50.179370101149232, -20.744225216420546 ], [ -50.170895024185995, -20.74807491642423 ], [ -50.165682275716392, -20.754475598270176 ], [ -50.168752270700679, -20.771899131939335 ], [ -50.156705486768772, -20.777377037420308 ], [ -50.142855616993067, -20.779979554912472 ], [ -50.133594758291387, -20.771040695771433 ], [ -50.122601423117146, -20.772388423386985 ], [ -50.114065319059193, -20.763454234425353 ] ] } }
]
}
