{
"type": "FeatureCollection",
"features": [
{ "type": "Feature", "properties": { "Name": "GUARAREMA", "Description": "GUARAREMA \/ SP" }, "geometry": { "type": "LineString", "coordinates": [ [ -45.987384941361938, -23.419775957694242 ], [ -45.979706317492514, -23.418413418244594 ], [ -45.978349738749387, -23.426151662669042 ], [ -45.965324739744915, -23.429593731465502 ], [ -45.959591529325564, -23.442534845306792 ], [ -45.951864649633819, -23.451350177168877 ], [ -45.956904441386818, -23.468607186072745 ], [ -45.964685082550488, -23.478036839428565 ], [ -45.957232208299722, -23.488056249296445 ], [ -45.961913132784787, -23.497051212643328 ], [ -45.975199999979964, -23.503455999894413 ], [ -45.985478000009664, -23.51728099981824 ], [ -45.992664000443199, -23.519915999923398 ], [ -45.997492000055729, -23.519130999695847 ], [ -46.006388000206009, -23.527793999893163 ], [ -46.021209000195135, -23.531197000341251 ], [ -46.034431000190466, -23.525504000409228 ], [ -46.040858999842953, -23.538070999876709 ], [ -46.056635999851494, -23.542171000091514 ], [ -46.071495999840458, -23.537154999903294 ], [ -46.076267000421694, -23.532660000358703 ], [ -46.071793000046853, -23.524666000435499 ], [ -46.077039000049751, -23.514675000151101 ], [ -46.066057999976692, -23.506866999812132 ], [ -46.064117000399222, -23.493795999585643 ], [ -46.053785999724084, -23.489389999648722 ], [ -46.051953999777247, -23.481997999607927 ], [ -46.053775000116104, -23.473508000193988 ], [ -46.059124000372258, -23.465032999673156 ], [ -46.073958000061623, -23.452399999860063 ], [ -46.089866999862124, -23.451847000438644 ], [ -46.10560499987082, -23.455378999641084 ], [ -46.106658999912895, -23.448100000314696 ], [ -46.111771000031581, -23.445827999862271 ], [ -46.114265999975885, -23.438407000282776 ], [ -46.121343999925614, -23.435481000247933 ], [ -46.134120000037903, -23.43700600042655 ], [ -46.139665000339448, -23.440398000367395 ], [ -46.15505000025729, -23.426603000028365 ], [ -46.142145999638103, -23.415925000438392 ], [ -46.148139999960961, -23.401890999869689 ], [ -46.160500999821238, -23.388274999691419 ], [ -46.156348999906356, -23.371929000422995 ], [ -46.153117000149393, -23.366695000074174 ], [ -46.156856999950548, -23.353130000449141 ], [ -46.157484795986477, -23.342808559567345 ], [ -46.140604999621019, -23.328869000403984 ], [ -46.126233999699302, -23.321680999878197 ], [ -46.112701999797423, -23.309723999762749 ], [ -46.101475000071154, -23.308597999997627 ], [ -46.097874000384763, -23.319485000232532 ], [ -46.098992999827033, -23.326003999584884 ], [ -46.079966269028034, -23.341507345787306 ], [ -46.073708770043652, -23.342154613944214 ], [ -46.068276744376192, -23.348289792539845 ], [ -46.067827202063654, -23.354970552049281 ], [ -46.057720399676668, -23.361115666354859 ], [ -46.041286957527007, -23.384357135573282 ], [ -46.029529052024088, -23.391757206130137 ], [ -46.02238252193581, -23.387731303756595 ], [ -46.015354891215217, -23.390884909610858 ], [ -46.01053984273949, -23.384272503972852 ], [ -46.002506605395467, -23.385339393997807 ], [ -45.998332664720635, -23.391375314419179 ], [ -45.997102855312505, -23.402086525972379 ], [ -45.991186689514052, -23.417520065898259 ], [ -45.987384941361938, -23.419775957694242 ] ] } }
]
}
