{
"type": "FeatureCollection",
"features": [
{ "type": "Feature", "properties": { "Name": "GUARÃ", "Description": "GUARÃ \/ SP" }, "geometry": { "type": "LineString", "coordinates": [ [ -47.626620624242378, -20.480357224905958 ], [ -47.641341605230878, -20.487863284163211 ], [ -47.639222704464203, -20.499786591178179 ], [ -47.644779737694705, -20.5152550292961 ], [ -47.654519261454709, -20.523861344325553 ], [ -47.673062998758326, -20.531210226370831 ], [ -47.67921286688027, -20.53800402256752 ], [ -47.692041109509546, -20.54317404964263 ], [ -47.691557623185702, -20.554863953808365 ], [ -47.70317919416442, -20.559520485082256 ], [ -47.711937259896558, -20.558879499589182 ], [ -47.724116556234037, -20.575344784034485 ], [ -47.729434584738271, -20.585488558450152 ], [ -47.74302737521316, -20.595483519348875 ], [ -47.764878914330382, -20.597976423872808 ], [ -47.763136067775285, -20.588652904907576 ], [ -47.774697975031472, -20.579230678153237 ], [ -47.784479331655803, -20.584342009176339 ], [ -47.788340556471439, -20.581043985691334 ], [ -47.778980277717608, -20.568247831771995 ], [ -47.787947094982428, -20.564097183538138 ], [ -47.795650276638924, -20.56884939008722 ], [ -47.795903250534529, -20.556809319594379 ], [ -47.792598490228102, -20.549696241588208 ], [ -47.809078539742757, -20.542791202851674 ], [ -47.816748390725593, -20.551880221794761 ], [ -47.821769848000031, -20.545278783389108 ], [ -47.833001830869762, -20.539996951697901 ], [ -47.836610824629808, -20.535297234979339 ], [ -47.828484210677743, -20.52583672138752 ], [ -47.838132998239246, -20.516329854039498 ], [ -47.84475033396069, -20.517021373337684 ], [ -47.854119236313629, -20.510027813432767 ], [ -47.858036441228762, -20.511346656622834 ], [ -47.864184317352333, -20.49636697395664 ], [ -47.856936185456554, -20.489663721503518 ], [ -47.865131396097006, -20.472209826722061 ], [ -47.869668467725546, -20.467679065636332 ], [ -47.878008918876446, -20.467032318186909 ], [ -47.885388400354373, -20.472459815767817 ], [ -47.890919891939397, -20.464924230868519 ], [ -47.884647981319226, -20.462454277942527 ], [ -47.876486688609752, -20.451678139834254 ], [ -47.882096479668746, -20.446285523358199 ], [ -47.880979351715666, -20.435300382806361 ], [ -47.898477031789525, -20.439870044067217 ], [ -47.901568357793451, -20.4351088937604 ], [ -47.916555644227572, -20.434034975533617 ], [ -47.929456659996838, -20.431939767406277 ], [ -47.925622024536779, -20.420409072021016 ], [ -47.914434832401525, -20.416518678594116 ], [ -47.907858077688104, -20.413633259567234 ], [ -47.891228674163926, -20.390849556062108 ], [ -47.882425017300648, -20.387833267691121 ], [ -47.851604703094551, -20.389270781821097 ], [ -47.840318835545759, -20.388495812631618 ], [ -47.818401039776113, -20.391475822351254 ], [ -47.810464109031386, -20.387867441928847 ], [ -47.80155185093713, -20.392233081191705 ], [ -47.787718418969803, -20.4056175464126 ], [ -47.780380784745375, -20.403911143984086 ], [ -47.771612194247325, -20.4068061515826 ], [ -47.767990038009827, -20.41890840389965 ], [ -47.750719010473908, -20.424522255397733 ], [ -47.743682102347123, -20.434269748050383 ], [ -47.735414954036855, -20.439907534105373 ], [ -47.727181924206377, -20.441253419010025 ], [ -47.698304639347612, -20.454772160206971 ], [ -47.675889371896972, -20.457606705485034 ], [ -47.661690388000977, -20.463318507543022 ], [ -47.647456423175356, -20.463787936563961 ], [ -47.63421637378655, -20.467075825588836 ], [ -47.626620624242378, -20.480357224905958 ] ] } }
]
}
