{
"type": "FeatureCollection",
"features": [
{ "type": "Feature", "properties": { "Name": "GUATAPARÃ", "Description": "GUATAPARÃ \/ SP" }, "geometry": { "type": "LineString", "coordinates": [ [ -47.989154000056999, -21.309372000117662 ], [ -47.981647000108921, -21.314922999796579 ], [ -47.9749519998349, -21.326402000352005 ], [ -47.967282999610688, -21.325143999895655 ], [ -47.963993999923105, -21.330145000291509 ], [ -47.962250999583944, -21.342170999991595 ], [ -47.949889999723666, -21.343085999918912 ], [ -47.94396499988477, -21.345983999561895 ], [ -47.943424000117489, -21.353541000017117 ], [ -47.938733999674298, -21.358925000088618 ], [ -47.929540000170846, -21.356540999867207 ], [ -47.914083999676784, -21.359228999718535 ], [ -47.905990999684832, -21.368057000330282 ], [ -47.907060999565424, -21.370635999651597 ], [ -47.894949000396025, -21.380401000305881 ], [ -47.899123000426073, -21.384829000358025 ], [ -47.896384000021548, -21.400021000368834 ], [ -47.899270000010461, -21.408895000403902 ], [ -47.896484000136468, -21.417042000188133 ], [ -47.898000999946134, -21.42637699989859 ], [ -47.894577000328241, -21.439600999986112 ], [ -47.899793673439262, -21.445206637076581 ], [ -47.90235465394408, -21.460667589237801 ], [ -47.895557803649695, -21.472963742582635 ], [ -47.887428042070439, -21.501033711436605 ], [ -47.891066994945845, -21.514398927568376 ], [ -47.904861531234644, -21.536508159324057 ], [ -47.920334471358728, -21.544019433749838 ], [ -47.919163457827267, -21.555851808514092 ], [ -47.927487230151485, -21.569106067191228 ], [ -47.927176820154102, -21.575967340420391 ], [ -47.936647950242673, -21.58202401 ], [ -47.934148943818684, -21.586091503320176 ], [ -47.945934230979958, -21.59176209124746 ], [ -47.950137960798202, -21.598399496239718 ], [ -47.95730782199837, -21.591579194324307 ], [ -47.964246048416385, -21.598262204836828 ], [ -47.974932094240721, -21.594180353840216 ], [ -47.994090565826916, -21.583219577721309 ], [ -47.990964317349324, -21.565666073130728 ], [ -47.995664560171292, -21.561488270767029 ], [ -48.010078879536593, -21.556786944262001 ], [ -48.006354561213975, -21.5437984946048 ], [ -48.017281750352481, -21.539616803572585 ], [ -48.027270800906706, -21.538904596270072 ], [ -48.02627462637286, -21.531191401561898 ], [ -48.031799131124956, -21.527844001699293 ], [ -48.03121771492556, -21.514881361685468 ], [ -48.040187686112802, -21.516251143375541 ], [ -48.043070053739932, -21.510034091400144 ], [ -48.039402689482465, -21.503991822664432 ], [ -48.051995567841118, -21.499563688613307 ], [ -48.054147999830263, -21.482472000282538 ], [ -48.060206000406531, -21.475304999825823 ], [ -48.067320000217819, -21.479614999832336 ], [ -48.074270013150567, -21.479238514845516 ], [ -48.081595446272786, -21.463750025443289 ], [ -48.086537916091913, -21.459433177099413 ], [ -48.102216784776765, -21.454017908499623 ], [ -48.1093943639587, -21.443321840630404 ], [ -48.10894685591262, -21.42933820119697 ], [ -48.105877220657192, -21.430177980929045 ], [ -48.091602079472352, -21.421726181118345 ], [ -48.075229021402151, -21.405881327261397 ], [ -48.063272685885686, -21.396741241215238 ], [ -48.058279651684522, -21.396758562157856 ], [ -48.05022378919648, -21.388897889426005 ], [ -48.045158122149587, -21.418275275583483 ], [ -48.0365685057319, -21.400334261217154 ], [ -48.019130975014427, -21.386545637970755 ], [ -48.015356608520619, -21.380946022740716 ], [ -48.029909214838369, -21.379695494751218 ], [ -48.032822000235051, -21.358408999675532 ], [ -48.022945999857939, -21.333338000048627 ], [ -48.017545999947913, -21.326417000144374 ], [ -48.009117999795819, -21.32128099981821 ], [ -48.002534000143953, -21.308496000190186 ], [ -47.994660000358692, -21.304699999605248 ], [ -47.989154000056999, -21.309372000117662 ] ] } }
]
}
