{
"type": "FeatureCollection",
"features": [
{ "type": "Feature", "properties": { "Name": "ICÃM", "Description": "ICÃM \/ SP" }, "geometry": { "type": "LineString", "coordinates": [ [ -49.259693129933964, -20.258760114287782 ], [ -49.245200726931955, -20.282142847214573 ], [ -49.235807240711551, -20.294535134488797 ], [ -49.225294014906808, -20.305343066329385 ], [ -49.202999583064241, -20.304671162144356 ], [ -49.192828837980471, -20.307372912629774 ], [ -49.183562520393927, -20.314659812500278 ], [ -49.171279655431704, -20.311745809421495 ], [ -49.170317665927477, -20.3064539772692 ], [ -49.159028737086487, -20.297979733977513 ], [ -49.134011792110471, -20.28446806864639 ], [ -49.120718689016257, -20.27052818572713 ], [ -49.111337492031566, -20.275437056874633 ], [ -49.093630853580976, -20.289555642279026 ], [ -49.094544393009301, -20.297758204877194 ], [ -49.091212461485895, -20.306116827729397 ], [ -49.090003577503062, -20.319148379194303 ], [ -49.090346030344961, -20.338151153852607 ], [ -49.086053818928576, -20.346406005732547 ], [ -49.075516663063524, -20.356044398929836 ], [ -49.077896185560455, -20.370991421816598 ], [ -49.07793878644577, -20.384327998138531 ], [ -49.080066046410877, -20.39446256619442 ], [ -49.085196232619971, -20.399266341668294 ], [ -49.081414033930457, -20.408456510059864 ], [ -49.088959443023839, -20.418981295750143 ], [ -49.099605688451732, -20.416073523174532 ], [ -49.113621192663857, -20.42902725090687 ], [ -49.120637063849351, -20.445653572454376 ], [ -49.123819531646006, -20.457858002145031 ], [ -49.132928865374822, -20.4639729298068 ], [ -49.144512682814025, -20.466623496277293 ], [ -49.165523467334083, -20.459684527019249 ], [ -49.176323310672217, -20.474364421580731 ], [ -49.185847939630662, -20.474587191745456 ], [ -49.19669725017792, -20.468431886322435 ], [ -49.208106814977498, -20.466553139615655 ], [ -49.219606775132547, -20.471894902127985 ], [ -49.224246409943817, -20.456068737082489 ], [ -49.230430027823502, -20.455192463761133 ], [ -49.240934882738593, -20.447773976887504 ], [ -49.227300340338388, -20.435402461254512 ], [ -49.237120537782573, -20.431888949415452 ], [ -49.236723609407022, -20.427683611609325 ], [ -49.224477276704931, -20.422109182792497 ], [ -49.22230977387693, -20.413822438254897 ], [ -49.228311386061591, -20.4123767699719 ], [ -49.250195951881608, -20.426636095679214 ], [ -49.261425498487938, -20.425297542047872 ], [ -49.266829609199078, -20.420993986583142 ], [ -49.269629503598651, -20.4057446826709 ], [ -49.264988491025974, -20.393865598018863 ], [ -49.268102656212591, -20.385116427481076 ], [ -49.274039714161461, -20.377530152294636 ], [ -49.296345076364155, -20.381063209099747 ], [ -49.293294786425236, -20.370328804930352 ], [ -49.281111752505353, -20.358597953732556 ], [ -49.273476943605999, -20.35411947563324 ], [ -49.270837097953681, -20.345835024366863 ], [ -49.273098878510382, -20.340841078253106 ], [ -49.285101197262399, -20.337436771989417 ], [ -49.289381522339333, -20.338750757941057 ], [ -49.299798218512933, -20.328837609268191 ], [ -49.304058087610592, -20.328056246798326 ], [ -49.308314105811291, -20.311485944920378 ], [ -49.299302745125544, -20.306811345367237 ], [ -49.290949433669368, -20.284415862102321 ], [ -49.277475605514724, -20.267203841783839 ], [ -49.259693129933964, -20.258760114287782 ] ] } }
]
}
