{
"type": "FeatureCollection",
"features": [
{ "type": "Feature", "properties": { "Name": "ILHA SOLTEIRA", "Description": "ILHA SOLTEIRA \/ SP" }, "geometry": { "type": "LineString", "coordinates": [ [ -51.038566764544498, -20.37092484860284 ], [ -51.046512748764314, -20.375575550471236 ], [ -51.130624999743929, -20.416920000157859 ], [ -51.134995999865453, -20.422972999604212 ], [ -51.156771000381298, -20.435258999603093 ], [ -51.177258758984514, -20.4340895418988 ], [ -51.203828000361909, -20.439812000023721 ], [ -51.219845999792994, -20.454130000199314 ], [ -51.23138063420884, -20.457213140573913 ], [ -51.238837219062361, -20.456451654919871 ], [ -51.24205602126829, -20.466693307050434 ], [ -51.252634679946482, -20.483178187723126 ], [ -51.264285831425923, -20.488891317180499 ], [ -51.26950725205802, -20.505594326616855 ], [ -51.278547508860413, -20.508823542972095 ], [ -51.275806559624982, -20.513732496857187 ], [ -51.260560179408685, -20.523226777293871 ], [ -51.266763226241835, -20.525457076183102 ], [ -51.274700480742517, -20.534059726475164 ], [ -51.296549789541132, -20.541672795163322 ], [ -51.313852477709645, -20.586867860363441 ], [ -51.31644434543017, -20.603866851973578 ], [ -51.315517823388802, -20.614742889472723 ], [ -51.321797358461303, -20.62348614247145 ], [ -51.32461317445842, -20.64128998504475 ], [ -51.318327020375648, -20.666953309647454 ], [ -51.31543026899169, -20.674320438937059 ], [ -51.324774171990384, -20.67571818774411 ], [ -51.337581637582439, -20.682610999298106 ], [ -51.342769526092695, -20.682200015418346 ], [ -51.347725600855767, -20.66358534228965 ], [ -51.348187200378959, -20.653416644062812 ], [ -51.354065147688345, -20.64363238802423 ], [ -51.357805412789503, -20.632613041758418 ], [ -51.366532084088362, -20.62726338319851 ], [ -51.366075276153026, -20.584748489251353 ], [ -51.385538486611829, -20.58327176018355 ], [ -51.400033552506386, -20.57414423676704 ], [ -51.402013526902692, -20.563848583045623 ], [ -51.39098385462114, -20.555739705522967 ], [ -51.386029967908655, -20.548045151962128 ], [ -51.384761395022338, -20.512866961441091 ], [ -51.379873891766636, -20.505618316032439 ], [ -51.399039991402447, -20.486844686832793 ], [ -51.418847313952313, -20.465035191021229 ], [ -51.409279632648861, -20.459570635976036 ], [ -51.398957894990808, -20.445761071116522 ], [ -51.378083963004428, -20.401780268744346 ], [ -51.372202585680725, -20.393090547890438 ], [ -51.361224449049011, -20.384540341563479 ], [ -51.353980570946526, -20.36859302524789 ], [ -51.342705350471533, -20.354660121067695 ], [ -51.321444984298523, -20.339619178382346 ], [ -51.295684541008711, -20.328482100968127 ], [ -51.239905547103263, -20.316935928250416 ], [ -51.197612142686175, -20.312270802155751 ], [ -51.178059664621799, -20.309285623132951 ], [ -51.16076639685167, -20.305224077928813 ], [ -51.132414333154884, -20.295531508672127 ], [ -51.117582989163566, -20.286944577630095 ], [ -51.109389554684185, -20.280092212185821 ], [ -51.104647999705378, -20.286391999990766 ], [ -51.095506999948043, -20.285029000088226 ], [ -51.088487406468573, -20.293721943213086 ], [ -51.082631452079795, -20.306639431864255 ], [ -51.083268000317901, -20.311208000448801 ], [ -51.078921999550573, -20.328211000337376 ], [ -51.057977999584978, -20.350347000413702 ], [ -51.049630400622441, -20.363460493606851 ], [ -51.038566764544498, -20.37092484860284 ] ] } }
]
}
