{
"type": "FeatureCollection",
"features": [
{ "type": "Feature", "properties": { "Name": "IPIGUÃ", "Description": "IPIGUÃ \/ SP" }, "geometry": { "type": "LineString", "coordinates": [ [ -49.364410880557671, -20.60555550178492 ], [ -49.362918432239837, -20.616200318190067 ], [ -49.358528742407486, -20.627871083883349 ], [ -49.352477000213355, -20.635337000102421 ], [ -49.358359081706226, -20.65216959375169 ], [ -49.356528225696991, -20.658022027294692 ], [ -49.362116927654029, -20.671256135762007 ], [ -49.347304834550407, -20.678188025556889 ], [ -49.347180729007391, -20.684323304876557 ], [ -49.35220403978456, -20.689261750229548 ], [ -49.355066684379949, -20.701566133270376 ], [ -49.362541662167928, -20.717685384672734 ], [ -49.36776400010848, -20.722839000019803 ], [ -49.375560999940149, -20.719508000194025 ], [ -49.380422000175145, -20.713145999987887 ], [ -49.394463000167264, -20.70384500004667 ], [ -49.400303999729765, -20.705843999600859 ], [ -49.412062999707643, -20.71653499979038 ], [ -49.415353000340644, -20.728460000228779 ], [ -49.424834999635493, -20.73063399975922 ], [ -49.428681999874357, -20.725028000241991 ], [ -49.424524999728931, -20.713760999570411 ], [ -49.430146339881617, -20.700377456154627 ], [ -49.446691000289377, -20.695254999618498 ], [ -49.455346000117743, -20.686500999721318 ], [ -49.461184000441222, -20.684896000350079 ], [ -49.465277000333231, -20.681650999993622 ], [ -49.457709803364708, -20.67408712332201 ], [ -49.457730798937177, -20.665939040754097 ], [ -49.448375332455612, -20.64043729644402 ], [ -49.436476062520228, -20.62810811909435 ], [ -49.43141067786047, -20.61932245137001 ], [ -49.424424854823144, -20.615043646147285 ], [ -49.423049373229958, -20.608251114397376 ], [ -49.428405620223145, -20.587978642700136 ], [ -49.443328187845566, -20.572428306021433 ], [ -49.446000479238705, -20.54324275694762 ], [ -49.425721705092599, -20.551062110328076 ], [ -49.424614605479633, -20.557678831812609 ], [ -49.417297304027329, -20.558865640137128 ], [ -49.412929007267842, -20.568959616393158 ], [ -49.403114069958292, -20.572453678594343 ], [ -49.394875868126746, -20.583680186391462 ], [ -49.384821937782135, -20.590375254114633 ], [ -49.378922960726015, -20.590932733958482 ], [ -49.364410880557671, -20.60555550178492 ] ] } }
]
}
