{
"type": "FeatureCollection",
"features": [
{ "type": "Feature", "properties": { "Name": "IPUÃ", "Description": "IPUÃ \/ SP" }, "geometry": { "type": "LineString", "coordinates": [ [ -48.039962152331434, -20.353280846134108 ], [ -48.038597990504798, -20.362571893278187 ], [ -48.027565719182569, -20.365817183216393 ], [ -48.018934099928742, -20.363604272718987 ], [ -48.005256187722864, -20.367633918970114 ], [ -47.996668278218408, -20.363648570625003 ], [ -47.987885946978849, -20.370948870393985 ], [ -47.981924830366609, -20.370366794092206 ], [ -47.978302144428369, -20.376232276798078 ], [ -47.963732739674128, -20.381292526328991 ], [ -47.952424541059649, -20.381022304335829 ], [ -47.935826890798346, -20.369178155647315 ], [ -47.925281908133513, -20.379147415720638 ], [ -47.925111290553559, -20.388132803086364 ], [ -47.931976480330263, -20.398736020450936 ], [ -47.924878832891807, -20.410262752523977 ], [ -47.918747337019965, -20.410450565141446 ], [ -47.914434832401525, -20.416518678594116 ], [ -47.925622024536779, -20.420409072021016 ], [ -47.929456659996838, -20.431939767406277 ], [ -47.916555644227572, -20.434034975533617 ], [ -47.925338902668159, -20.441961795200655 ], [ -47.92698207466298, -20.447178841530274 ], [ -47.927043742075, -20.465038931301592 ], [ -47.950573814529882, -20.472951214327054 ], [ -47.954598790601665, -20.486381834553978 ], [ -47.968089342549092, -20.500894779870123 ], [ -47.986248402941385, -20.518349596456687 ], [ -48.003573357424443, -20.531313991947112 ], [ -48.008058922181476, -20.531488141164743 ], [ -48.029372443683314, -20.516988024677573 ], [ -48.046616554510365, -20.511600322097138 ], [ -48.06322834481221, -20.498264656788418 ], [ -48.079789477202553, -20.502640176003297 ], [ -48.086417551728573, -20.502583511519788 ], [ -48.112271841072577, -20.4939914696306 ], [ -48.133738683493391, -20.493512840545119 ], [ -48.13588535712347, -20.486500971342707 ], [ -48.143074676055392, -20.484179266260071 ], [ -48.148080691071016, -20.475254051633154 ], [ -48.155357853082414, -20.469564360306947 ], [ -48.15855202465616, -20.46111327815521 ], [ -48.176445731085607, -20.4527136363252 ], [ -48.194898909357164, -20.460045347614653 ], [ -48.211350050164633, -20.455011972524456 ], [ -48.201785102800208, -20.442735161798225 ], [ -48.199624174016378, -20.436150134221293 ], [ -48.178833817826387, -20.390023651070578 ], [ -48.189016871931074, -20.340331728326532 ], [ -48.179618666967883, -20.331516930661792 ], [ -48.176361648970889, -20.321824140171884 ], [ -48.164479457161178, -20.30921885386698 ], [ -48.159681218813148, -20.296567033941415 ], [ -48.149788637635481, -20.289554309483776 ], [ -48.145733832850055, -20.298266008869177 ], [ -48.136271022389735, -20.301019434399336 ], [ -48.139217932561507, -20.306881064409534 ], [ -48.131221366872516, -20.316546566770569 ], [ -48.123597475742883, -20.314802768732761 ], [ -48.111436520179211, -20.301306639189988 ], [ -48.10228509008482, -20.310742890871662 ], [ -48.092553221354024, -20.309320254226293 ], [ -48.086643818457382, -20.305067837810441 ], [ -48.084618692698484, -20.316597507069275 ], [ -48.077247537144103, -20.325935345040076 ], [ -48.068641272476725, -20.331763025643056 ], [ -48.074708265374113, -20.342252116342024 ], [ -48.07135114833676, -20.34876607409501 ], [ -48.059462866318199, -20.342296291940272 ], [ -48.055131727746982, -20.349600835610033 ], [ -48.039962152331434, -20.353280846134108 ] ] } }
]
}
