{
"type": "FeatureCollection",
"features": [
{ "type": "Feature", "properties": { "Name": "ITAÃ", "Description": "ITAÃ \/ SP" }, "geometry": { "type": "LineString", "coordinates": [ [ -49.151320560595366, -23.260066126250702 ], [ -49.135110844589747, -23.264293926423534 ], [ -49.114726721161219, -23.262544070552394 ], [ -49.089660480746545, -23.265764174077333 ], [ -49.077723343957125, -23.264519575318104 ], [ -49.060643423255328, -23.257566740312765 ], [ -49.052890361600873, -23.256717254197895 ], [ -49.032853586024146, -23.259617869968679 ], [ -49.022093592545218, -23.259216869462929 ], [ -49.012634653666282, -23.262184933487845 ], [ -49.003388396357366, -23.276584797150633 ], [ -48.984893708977438, -23.287761546358237 ], [ -48.990417236166479, -23.306463105687723 ], [ -48.991539222257245, -23.320113650624421 ], [ -48.99968461045637, -23.345584641717775 ], [ -49.001718357116431, -23.364283237781137 ], [ -49.000889893553676, -23.377551157160156 ], [ -48.995655798776056, -23.388155100277629 ], [ -48.977634628735075, -23.411333782428073 ], [ -48.968829535654493, -23.417819821627404 ], [ -48.953320526421123, -23.438204298489552 ], [ -48.942875431455938, -23.44857534867333 ], [ -48.930862257886872, -23.457443958172064 ], [ -48.930492044771988, -23.466807143534822 ], [ -48.919694326531896, -23.47062973707267 ], [ -48.920661217341262, -23.47736174175094 ], [ -48.91639559168317, -23.483478852966641 ], [ -48.907006870070973, -23.482560962618265 ], [ -48.906630752007572, -23.489351864796671 ], [ -48.89942474885305, -23.496645783875806 ], [ -48.897681146867392, -23.507527834242126 ], [ -48.887048516275961, -23.513876063129771 ], [ -48.875232368878699, -23.523701757230242 ], [ -48.853097181789444, -23.538891539512917 ], [ -48.848065966870813, -23.54963150149257 ], [ -48.849755517802862, -23.557860464588714 ], [ -48.844813769240034, -23.567157053355288 ], [ -48.84232167680392, -23.578658545055756 ], [ -48.825787003367452, -23.590969226048912 ], [ -48.833369567051818, -23.59832058212913 ], [ -48.841122526183597, -23.593522587497375 ], [ -48.849892369437271, -23.596315922241953 ], [ -48.867343314442394, -23.608146519046556 ], [ -48.895946502129334, -23.61466242203312 ], [ -48.905283870654046, -23.621164469164853 ], [ -48.911315718945218, -23.620621592512464 ], [ -48.925153647522791, -23.626425951896124 ], [ -48.935898108810647, -23.62087674456609 ], [ -48.946426668056226, -23.624180759334536 ], [ -48.952148867176447, -23.621102973523364 ], [ -48.96545547808779, -23.623518765678455 ], [ -48.978317758257901, -23.623409320883411 ], [ -48.978587214028664, -23.630957406359187 ], [ -48.99216399747047, -23.64216480805942 ], [ -49.009621896033643, -23.635931115928202 ], [ -49.011955072868254, -23.643669877462852 ], [ -49.025678857693094, -23.650350558731247 ], [ -49.031371282058956, -23.665470771259034 ], [ -49.032792382662308, -23.67759231403403 ], [ -49.054450133167045, -23.686213280818208 ], [ -49.135443807785464, -23.702377843662532 ], [ -49.139997730011203, -23.702015822472163 ], [ -49.135698063214981, -23.697722633492674 ], [ -49.14149402832669, -23.690640939128002 ], [ -49.134986912615886, -23.682000406693362 ], [ -49.135637295125036, -23.672377972865092 ], [ -49.132523792738823, -23.664929927074411 ], [ -49.136337152937244, -23.661573559172382 ], [ -49.126287762370282, -23.653283168783162 ], [ -49.122002840858379, -23.645868567880086 ], [ -49.121649175269162, -23.6266909946936 ], [ -49.134036141254853, -23.623123966897538 ], [ -49.13573521690671, -23.613271262558669 ], [ -49.131538956857355, -23.608714975115959 ], [ -49.123735222002836, -23.609551546066939 ], [ -49.122924846504411, -23.601448838792802 ], [ -49.126735329771634, -23.593380005382869 ], [ -49.126567537861547, -23.581494701019608 ], [ -49.118842035031832, -23.573307975482631 ], [ -49.117594837231934, -23.560199157864815 ], [ -49.130232847168145, -23.558919113226466 ], [ -49.134320523972974, -23.547022454022965 ], [ -49.14209615141624, -23.544714927651739 ], [ -49.151546076390275, -23.546568965485335 ], [ -49.160676038768138, -23.542913650344644 ], [ -49.160732144772624, -23.525081149075731 ], [ -49.164819432171043, -23.517704790943299 ], [ -49.156711264213406, -23.513481313811553 ], [ -49.160620859964695, -23.498937006437643 ], [ -49.166453466154508, -23.498504186119245 ], [ -49.169229608559533, -23.48954764450815 ], [ -49.162423970090117, -23.486359323024317 ], [ -49.157097111142711, -23.479037245272593 ], [ -49.158119811180313, -23.474079844009566 ], [ -49.17236898444105, -23.466052697773762 ], [ -49.188986605947086, -23.441045728977144 ], [ -49.17887383296096, -23.432888209822977 ], [ -49.184562515247819, -23.423497385595848 ], [ -49.190673180123099, -23.429341878125115 ], [ -49.213117081987718, -23.417511680619498 ], [ -49.207900094113995, -23.413255468165289 ], [ -49.206903987928683, -23.404944256672081 ], [ -49.220413498484099, -23.391666000485486 ], [ -49.21793665405329, -23.386756898212241 ], [ -49.208792580413217, -23.386204799911525 ], [ -49.206324756182482, -23.378126965187221 ], [ -49.213804828629911, -23.371653673877915 ], [ -49.209154300330681, -23.363638088426967 ], [ -49.216280244937302, -23.356614173705111 ], [ -49.216538768549299, -23.346067660394169 ], [ -49.211777379022806, -23.333825143515522 ], [ -49.205533189105324, -23.326599666441382 ], [ -49.202004353717882, -23.313986623483856 ], [ -49.203798232302518, -23.307052335197056 ], [ -49.214269145904325, -23.302831553333476 ], [ -49.217337329654015, -23.298523715297161 ], [ -49.199505031631872, -23.291360618797455 ], [ -49.198051326107759, -23.286092726597985 ], [ -49.205664371413548, -23.269403996597134 ], [ -49.207996486148886, -23.250440814591855 ], [ -49.210796152120679, -23.245512264479373 ], [ -49.197754416732892, -23.248539904992583 ], [ -49.184151950452133, -23.257728385356639 ], [ -49.169683922674828, -23.259745135729361 ], [ -49.151320560595366, -23.260066126250702 ] ] } }
]
}
