{
"type": "FeatureCollection",
"features": [
{ "type": "Feature", "properties": { "Name": "ITAJU", "Description": "ITAJU \/ SP" }, "geometry": { "type": "LineString", "coordinates": [ [ -48.678904366843028, -21.927797498755524 ], [ -48.67939688865544, -21.928793798295086 ], [ -48.68443394197282, -21.931894649918092 ], [ -48.685603164954038, -21.94382428546237 ], [ -48.68944739258307, -21.949395831052698 ], [ -48.712558196603425, -21.966633464962396 ], [ -48.714548640907026, -21.976485637801886 ], [ -48.721918933112242, -21.983295318723947 ], [ -48.735611039317973, -21.986386088946801 ], [ -48.748326611284028, -21.996812289155795 ], [ -48.764326733092211, -22.005637977610547 ], [ -48.77252790443918, -22.02072627859485 ], [ -48.790222643959794, -22.019863489708257 ], [ -48.800679418420373, -22.01461554806906 ], [ -48.823283178375959, -22.011574761266161 ], [ -48.832768527645385, -22.012578106094679 ], [ -48.842057101653893, -22.020528955646739 ], [ -48.852147237804729, -22.017108288017027 ], [ -48.86001682551602, -22.017437331067924 ], [ -48.867213111495857, -22.024066347184142 ], [ -48.884875447543834, -22.020131547932522 ], [ -48.889133262589951, -22.013026643864464 ], [ -48.887660811597129, -22.006059630147774 ], [ -48.877318138621149, -21.987803690288047 ], [ -48.864681211468678, -21.971360700935573 ], [ -48.86242428994899, -21.959530105030296 ], [ -48.877918988270665, -21.941064393806698 ], [ -48.903002621573705, -21.933303983791742 ], [ -48.908800415906455, -21.924928107446135 ], [ -48.905788412804952, -21.915701144192379 ], [ -48.896478720016887, -21.911898793494458 ], [ -48.892171000691064, -21.906656957352652 ], [ -48.877615545321135, -21.921046046238015 ], [ -48.870775908881058, -21.914214996524834 ], [ -48.864564446192219, -21.916460325783358 ], [ -48.850033757252049, -21.910927085016908 ], [ -48.832558787757819, -21.894857243267094 ], [ -48.822404454402033, -21.889570621786731 ], [ -48.814885913454077, -21.8923584364926 ], [ -48.794229165943193, -21.891705114099693 ], [ -48.78285616038346, -21.89513246818882 ], [ -48.76927151596766, -21.892881343699003 ], [ -48.761788714077852, -21.884531860656807 ], [ -48.754711742952509, -21.883804953935453 ], [ -48.744773769393873, -21.88842247351829 ], [ -48.726689032572779, -21.890998902577223 ], [ -48.720033104244351, -21.902020497148158 ], [ -48.721120422369552, -21.90763167046515 ], [ -48.708770258440609, -21.909201494653189 ], [ -48.704109385239917, -21.912161389236701 ], [ -48.690754104818041, -21.912281887598965 ], [ -48.678904366843028, -21.927797498755524 ] ] } }
]
}
