{
"type": "FeatureCollection",
"features": [
{ "type": "Feature", "properties": { "Name": "ITAPEVA", "Description": "ITAPEVA \/ SP" }, "geometry": { "type": "LineString", "coordinates": [ [ -48.780956883952967, -23.642802436383306 ], [ -48.77193580249525, -23.654965768855106 ], [ -48.759121255641389, -23.657660385018687 ], [ -48.760505907621507, -23.66935382891603 ], [ -48.767014319255388, -23.677271034830365 ], [ -48.760270378774919, -23.682899578552679 ], [ -48.755631852827712, -23.694759822407832 ], [ -48.74461886746672, -23.697975334893727 ], [ -48.73480965434203, -23.704741130698551 ], [ -48.721240617660328, -23.72053709291248 ], [ -48.729172632710792, -23.723927172800753 ], [ -48.732865825497413, -23.731129922208083 ], [ -48.744844388657555, -23.73600537454837 ], [ -48.749195283535471, -23.746870210991403 ], [ -48.743797727083404, -23.760817856858576 ], [ -48.733542158843534, -23.77026147398777 ], [ -48.712170173314803, -23.779821156720967 ], [ -48.723796311050876, -23.785094557267939 ], [ -48.72690778096927, -23.799168739545621 ], [ -48.734150502543628, -23.804029388145693 ], [ -48.734403834369402, -23.8230660636479 ], [ -48.741120137784094, -23.823830252663981 ], [ -48.744245389812875, -23.829370811213948 ], [ -48.744681550213329, -23.840817895729288 ], [ -48.735592104991611, -23.849783625713712 ], [ -48.734531827681678, -23.854447120438238 ], [ -48.761200343421081, -23.859504158490097 ], [ -48.777115906473853, -23.851247521455885 ], [ -48.792645674758035, -23.849599958071565 ], [ -48.795027968965542, -23.854721378588689 ], [ -48.78406346066015, -23.861683239190082 ], [ -48.779973669549179, -23.87466234039465 ], [ -48.773340946427481, -23.878562464486095 ], [ -48.770163787328897, -23.886014162423635 ], [ -48.771312262950509, -23.893332356003381 ], [ -48.767252416565725, -23.898021475110966 ], [ -48.770335288043043, -23.909515336963182 ], [ -48.774203365692749, -23.914319238342159 ], [ -48.768808705956978, -23.921330074223476 ], [ -48.767510584945512, -23.932757261238578 ], [ -48.772894569728578, -23.93671599324847 ], [ -48.778565905891803, -23.953267618905443 ], [ -48.773866412205102, -23.959112645632047 ], [ -48.776813656924674, -23.969654875472088 ], [ -48.773621355041485, -23.976139762639889 ], [ -48.788256656719284, -23.989269860016009 ], [ -48.785927329882327, -23.992087384724982 ], [ -48.774039512813204, -23.982817417689603 ], [ -48.763251015322055, -23.984548449851044 ], [ -48.748672328665009, -23.979604050086778 ], [ -48.741787018356149, -23.979656170295979 ], [ -48.732054642407775, -23.974122300903446 ], [ -48.728253278266145, -23.962624960473477 ], [ -48.718701036523548, -23.957463990470728 ], [ -48.710298627479631, -23.957161242697168 ], [ -48.710167000906324, -23.965135938672574 ], [ -48.714898547330051, -23.969191256970873 ], [ -48.70667467979257, -23.975744568157268 ], [ -48.7035564352812, -23.981793403742529 ], [ -48.707558936395742, -23.98879213474919 ], [ -48.696837629952597, -23.999811419861089 ], [ -48.692835015523478, -24.010351429274973 ], [ -48.696757210776639, -24.014375917014888 ], [ -48.691391470539884, -24.021716054951924 ], [ -48.677196729645289, -24.031640180749719 ], [ -48.666568587570225, -24.024840361793224 ], [ -48.662006542667768, -24.029892557895209 ], [ -48.649171567713665, -24.019878640187073 ], [ -48.64072577987082, -24.015836846792975 ], [ -48.628389517662072, -24.023148098505885 ], [ -48.623722220603952, -24.014792228478537 ], [ -48.615315705255568, -24.010847793890544 ], [ -48.599728492775682, -23.991868344948102 ], [ -48.581861729135426, -23.982904828195217 ], [ -48.565517089641958, -23.984840020850243 ], [ -48.562219753238985, -23.994738489889357 ], [ -48.552481312262728, -23.995484976650289 ], [ -48.549858643661423, -24.003650745285594 ], [ -48.556934850363007, -24.02519031228303 ], [ -48.568823647693137, -24.027321996912576 ], [ -48.570608495285796, -24.048154099631972 ], [ -48.577703150679838, -24.042643730423777 ], [ -48.582611179162541, -24.050110847237761 ], [ -48.580723589422064, -24.056758515293211 ], [ -48.57343937492714, -24.057622870798809 ], [ -48.575339892422051, -24.076066569316648 ], [ -48.568930098645069, -24.084041078233156 ], [ -48.569352301567449, -24.090608164335265 ], [ -48.576099066818408, -24.093731839852467 ], [ -48.59658639914295, -24.09016112033936 ], [ -48.606371478960568, -24.101595697083724 ], [ -48.61658711280495, -24.101648612293559 ], [ -48.629763528863748, -24.111630281212452 ], [ -48.646206314070071, -24.11719625550273 ], [ -48.649080837810402, -24.12706044418411 ], [ -48.658601095164386, -24.133999431428549 ], [ -48.660838257679416, -24.143282305533944 ], [ -48.673109748016429, -24.146064710817711 ], [ -48.695506484936288, -24.127338873390269 ], [ -48.709196436366419, -24.126262878628893 ], [ -48.713507118058992, -24.12148982669407 ], [ -48.721530523115121, -24.121478335157008 ], [ -48.729780675137988, -24.115729407286267 ], [ -48.748342168656109, -24.120409926177103 ], [ -48.761842429684343, -24.132288229318306 ], [ -48.771420040402518, -24.133794915702765 ], [ -48.784396798873104, -24.130400066709683 ], [ -48.799288389347623, -24.119551883912266 ], [ -48.809579330621538, -24.123145791544967 ], [ -48.815845206790812, -24.128525239248347 ], [ -48.821837481314674, -24.128061637834264 ], [ -48.822279317336609, -24.122992079420897 ], [ -48.812817249716254, -24.118220531152527 ], [ -48.822813815904851, -24.111986677143364 ], [ -48.824629672121603, -24.107131873237332 ], [ -48.83903603518484, -24.097000049012991 ], [ -48.844784927982005, -24.095546599795679 ], [ -48.856837229254666, -24.099698902782109 ], [ -48.983394330483918, -24.101153478849938 ], [ -48.98665087184019, -24.112679805328693 ], [ -48.996704209531629, -24.122327319450164 ], [ -49.002899799186366, -24.132940002179339 ], [ -49.004573075986627, -24.141135644494341 ], [ -49.016121596834182, -24.15036644785323 ], [ -49.015368360661284, -24.154544864453893 ], [ -49.030817025385375, -24.160599416130083 ], [ -49.041137905989501, -24.167797701302845 ], [ -49.05178472338622, -24.182386402810209 ], [ -49.059644820551966, -24.189976045957735 ], [ -49.070899857542372, -24.196131294723443 ], [ -49.08525381980791, -24.197819378861197 ], [ -49.08314956270209, -24.184942053932616 ], [ -49.137037484692144, -24.18582920905072 ], [ -49.138704509405557, -24.181194208445898 ], [ -49.135655809468005, -24.163536762011912 ], [ -49.142260279488255, -24.145597014790383 ], [ -49.153452790214025, -24.134918391070869 ], [ -49.158290055541606, -24.123910916755335 ], [ -49.166687127109185, -24.116907480495794 ], [ -49.183285753134946, -24.112260214936953 ], [ -49.198709332169926, -24.102204008408194 ], [ -49.199626209881615, -24.09794523648344 ], [ -49.186089734953271, -24.094925676378807 ], [ -49.165517461661466, -24.109492000955015 ], [ -49.159015580004962, -24.108610276842739 ], [ -49.146987061303776, -24.116987142442611 ], [ -49.136402944640167, -24.113409011616568 ], [ -49.121342123340291, -24.125399835234191 ], [ -49.114210243208106, -24.118556237280469 ], [ -49.115095849693652, -24.108006242693875 ], [ -49.110815355544162, -24.098804622335418 ], [ -49.103671915526427, -24.090321236535772 ], [ -49.106789113226966, -24.080814399764677 ], [ -49.101975907462133, -24.063458362013762 ], [ -49.09231377576009, -24.057382835449459 ], [ -49.085508865741531, -24.05727495907206 ], [ -49.077791255362108, -24.0471729716553 ], [ -49.061151873859842, -24.043613437909809 ], [ -49.052977503209149, -24.028433561659483 ], [ -49.043953844294435, -24.02602900563403 ], [ -49.038320082705638, -24.018353332440313 ], [ -49.011121628860053, -24.008299582859422 ], [ -49.015652088672937, -24.001993948561847 ], [ -49.015400809999335, -23.982467700124232 ], [ -49.010672797911241, -23.979169657753459 ], [ -49.007948962774371, -23.961584211042464 ], [ -48.998764552741875, -23.963978788190499 ], [ -48.991818026480701, -23.959250194241008 ], [ -48.995119588797934, -23.951263369109142 ], [ -49.008700849064894, -23.930086929468189 ], [ -49.008565862624437, -23.921372265017965 ], [ -49.001679621517269, -23.921773215161693 ], [ -48.997453530056305, -23.908585235620077 ], [ -48.996733424008248, -23.895360599711864 ], [ -49.005897772863875, -23.887100359993553 ], [ -49.003089675747901, -23.876788952847846 ], [ -49.008095305853658, -23.868457645104172 ], [ -49.013982401066919, -23.865602123139411 ], [ -49.018809130836701, -23.857291557359417 ], [ -49.016451377329126, -23.843229536613762 ], [ -48.982814940457104, -23.836244336806654 ], [ -48.975454888832019, -23.84040709441183 ], [ -48.969698296938816, -23.833853054774636 ], [ -48.959923409137957, -23.810000319958757 ], [ -48.948874274628054, -23.799769396740203 ], [ -48.961431379754345, -23.785451531462968 ], [ -48.96903918201258, -23.787055146777561 ], [ -48.976927377596382, -23.78209805578058 ], [ -48.978594990466377, -23.774737967283329 ], [ -48.985928148765026, -23.767357799622683 ], [ -49.000983389771591, -23.767438241281752 ], [ -49.022568656718072, -23.748174580492446 ], [ -49.022624048660873, -23.738991282022027 ], [ -49.031228074915703, -23.731531165530836 ], [ -49.040252752762285, -23.713724252672076 ], [ -49.040450597317147, -23.696357030952186 ], [ -49.054450133167045, -23.686213280818208 ], [ -49.032792382662308, -23.67759231403403 ], [ -49.031371282058956, -23.665470771259034 ], [ -49.025678857693094, -23.650350558731247 ], [ -49.011955072868254, -23.643669877462852 ], [ -49.009621896033643, -23.635931115928202 ], [ -48.99216399747047, -23.64216480805942 ], [ -48.978587214028664, -23.630957406359187 ], [ -48.978317758257901, -23.623409320883411 ], [ -48.96545547808779, -23.623518765678455 ], [ -48.952148867176447, -23.621102973523364 ], [ -48.946426668056226, -23.624180759334536 ], [ -48.935898108810647, -23.62087674456609 ], [ -48.925153647522791, -23.626425951896124 ], [ -48.911315718945218, -23.620621592512464 ], [ -48.905283870654046, -23.621164469164853 ], [ -48.895946502129334, -23.61466242203312 ], [ -48.867343314442394, -23.608146519046556 ], [ -48.849892369437271, -23.596315922241953 ], [ -48.841122526183597, -23.593522587497375 ], [ -48.833369567051818, -23.59832058212913 ], [ -48.818797264681962, -23.608959183319598 ], [ -48.818862540174045, -23.615761148957802 ], [ -48.800169485733136, -23.639294200866626 ], [ -48.793623978863472, -23.641227180290116 ], [ -48.785581217699011, -23.638973405498234 ], [ -48.780956883952967, -23.642802436383306 ] ] } }
]
}
