{
"type": "FeatureCollection",
"features": [
{ "type": "Feature", "properties": { "Name": "ITAPURA", "Description": "ITAPURA \/ SP" }, "geometry": { "type": "LineString", "coordinates": [ [ -51.342769526092695, -20.682200015418346 ], [ -51.360700217141243, -20.684181890981449 ], [ -51.371597589257306, -20.690075649271758 ], [ -51.392704510404769, -20.687939320543137 ], [ -51.419364326102709, -20.681076558036693 ], [ -51.441464006158924, -20.672793488128946 ], [ -51.446721896997929, -20.668386526816732 ], [ -51.457215030149477, -20.667792286284961 ], [ -51.486250766559579, -20.672154620539288 ], [ -51.497137225402582, -20.668532801547485 ], [ -51.506147430459514, -20.660283541652063 ], [ -51.51168539536468, -20.650201103697949 ], [ -51.521592212810333, -20.640389630576919 ], [ -51.530718515846786, -20.636818688931328 ], [ -51.539000852807078, -20.636888085116993 ], [ -51.556390180762207, -20.62865560836957 ], [ -51.575186157215342, -20.623419075529853 ], [ -51.552292421657903, -20.608336517616124 ], [ -51.53300509790688, -20.596993857880193 ], [ -51.500222275037906, -20.5682163087356 ], [ -51.492856135901889, -20.546506288734179 ], [ -51.466147435755488, -20.508246681838841 ], [ -51.463782677428576, -20.501452721965506 ], [ -51.456611706465026, -20.495659846924354 ], [ -51.449229084554588, -20.482815385921299 ], [ -51.435391314257686, -20.473325310714468 ], [ -51.418847313952313, -20.465035191021229 ], [ -51.399039991402447, -20.486844686832793 ], [ -51.379873891766636, -20.505618316032439 ], [ -51.384761395022338, -20.512866961441091 ], [ -51.386029967908655, -20.548045151962128 ], [ -51.39098385462114, -20.555739705522967 ], [ -51.402013526902692, -20.563848583045623 ], [ -51.400033552506386, -20.57414423676704 ], [ -51.385538486611829, -20.58327176018355 ], [ -51.366075276153026, -20.584748489251353 ], [ -51.366532084088362, -20.62726338319851 ], [ -51.357805412789503, -20.632613041758418 ], [ -51.354065147688345, -20.64363238802423 ], [ -51.348187200378959, -20.653416644062812 ], [ -51.347725600855767, -20.66358534228965 ], [ -51.342769526092695, -20.682200015418346 ] ] } }
]
}
