{
"type": "FeatureCollection",
"features": [
{ "type": "Feature", "properties": { "Name": "ITAPORANGA", "Description": "ITAPORANGA \/ SP" }, "geometry": { "type": "LineString", "coordinates": [ [ -49.476407917391434, -23.54087519663295 ], [ -49.468359914978066, -23.542007453880842 ], [ -49.448870919157571, -23.56024142959825 ], [ -49.4438787186279, -23.560019898699291 ], [ -49.434355190439646, -23.551841609702478 ], [ -49.427399631387857, -23.554557759233145 ], [ -49.41948866586921, -23.564344050437512 ], [ -49.420214238895987, -23.571046798371011 ], [ -49.400108163360983, -23.579777356539751 ], [ -49.399537656837367, -23.602390028776767 ], [ -49.402351030275781, -23.61013556400502 ], [ -49.40345868926704, -23.627780578211055 ], [ -49.400653704704666, -23.631668943666796 ], [ -49.389988578010446, -23.635133406481486 ], [ -49.387847993689881, -23.639826768590467 ], [ -49.377986985910638, -23.638077159133559 ], [ -49.370477135111628, -23.641098781383619 ], [ -49.35924365756869, -23.651689880383628 ], [ -49.359429391852927, -23.659556602854877 ], [ -49.355277185093996, -23.663816253417338 ], [ -49.358941995276837, -23.670174352364423 ], [ -49.356665336336164, -23.677132335988457 ], [ -49.349557284640923, -23.679970923719111 ], [ -49.333508332343627, -23.67913000184808 ], [ -49.327410480109506, -23.680770881470949 ], [ -49.317576835102834, -23.700124973588629 ], [ -49.310037011698682, -23.711612791996686 ], [ -49.313080174510389, -23.716955698446668 ], [ -49.305835184845876, -23.727348932207402 ], [ -49.301338875888348, -23.737846820973971 ], [ -49.312132306160947, -23.737363783411809 ], [ -49.316237321894839, -23.741250736032612 ], [ -49.330397407414353, -23.744272525556536 ], [ -49.337538601824974, -23.749343236900813 ], [ -49.342711120022102, -23.758443572912537 ], [ -49.341532173570897, -23.772313967915238 ], [ -49.334206820488305, -23.781545498825665 ], [ -49.350694582588851, -23.772111001721328 ], [ -49.35814765469047, -23.772718420019029 ], [ -49.357620755393498, -23.761073023301321 ], [ -49.367447632102483, -23.762194467100926 ], [ -49.37173526057375, -23.768356355561309 ], [ -49.379013703219812, -23.762059089455363 ], [ -49.38668584837319, -23.759520674739292 ], [ -49.401429440116544, -23.766855941948108 ], [ -49.413867848222587, -23.783494808138812 ], [ -49.42623767402938, -23.785988925848187 ], [ -49.443071712889207, -23.77850491437027 ], [ -49.456015557072249, -23.78001979627652 ], [ -49.469461817408899, -23.770773521880471 ], [ -49.477701665899126, -23.777354694963151 ], [ -49.492182835469464, -23.782963294420483 ], [ -49.508209268742689, -23.791966424510861 ], [ -49.503103124109828, -23.796587111505971 ], [ -49.509345661073375, -23.804292831948597 ], [ -49.52974047564237, -23.800170481782288 ], [ -49.536511602628309, -23.793662352535478 ], [ -49.547239616215279, -23.79053135743618 ], [ -49.559681764601692, -23.793608374326993 ], [ -49.564566402617345, -23.785101055769076 ], [ -49.566545168324808, -23.771929205568313 ], [ -49.560911802437708, -23.760996605209126 ], [ -49.573066723550426, -23.754492879942404 ], [ -49.564572116010311, -23.751674604299524 ], [ -49.567323638575026, -23.736778604449 ], [ -49.561475201619196, -23.731661684139336 ], [ -49.551324113017358, -23.738734030950692 ], [ -49.54882376030826, -23.732420665181508 ], [ -49.55468232003301, -23.725359660619802 ], [ -49.553044926182338, -23.711087781276035 ], [ -49.549199109451308, -23.704016460591163 ], [ -49.563500355257133, -23.687942487355883 ], [ -49.575853235138652, -23.680405310656511 ], [ -49.574671460319614, -23.67604107343675 ], [ -49.554305942964845, -23.665239507896899 ], [ -49.544019419160804, -23.651994879160327 ], [ -49.538957017552264, -23.653418341383311 ], [ -49.495780456402876, -23.652361986916105 ], [ -49.491995521975696, -23.648608567431381 ], [ -49.505549160465364, -23.640459495609207 ], [ -49.49026053909256, -23.629677698966589 ], [ -49.497238306902311, -23.626311000552164 ], [ -49.506036816046162, -23.628380140930688 ], [ -49.507296126814765, -23.621569687491046 ], [ -49.517120775003718, -23.617749873757646 ], [ -49.515102555138746, -23.61011858030821 ], [ -49.529207435774481, -23.603545953482922 ], [ -49.535790173677526, -23.596663524601919 ], [ -49.529364918755959, -23.589816849168187 ], [ -49.53619433170303, -23.578001866392981 ], [ -49.54155337109114, -23.575050339101836 ], [ -49.540551889657934, -23.567949338990729 ], [ -49.545348372529304, -23.560428494879091 ], [ -49.548969521526146, -23.546860222621149 ], [ -49.554796568107065, -23.541163253980926 ], [ -49.552256097540806, -23.526178264415307 ], [ -49.548584741192826, -23.520026559877806 ], [ -49.559730917947491, -23.510882005100427 ], [ -49.567909950683656, -23.508618475362312 ], [ -49.575089547944231, -23.501788315078613 ], [ -49.566674400003535, -23.494164405063199 ], [ -49.548519659954309, -23.495660080148525 ], [ -49.528331554557553, -23.510839877258491 ], [ -49.513618822150875, -23.50772815463057 ], [ -49.500911291922534, -23.518274697619177 ], [ -49.486035478254671, -23.526896654556936 ], [ -49.476407917391434, -23.54087519663295 ] ] } }
]
}
