{
"type": "FeatureCollection",
"features": [
{ "type": "Feature", "properties": { "Name": "ITARIRI", "Description": "ITARIRI \/ SP" }, "geometry": { "type": "LineString", "coordinates": [ [ -47.067417000394187, -24.201515999863432 ], [ -47.059314999987237, -24.21116999989556 ], [ -47.039449000271077, -24.222052999945959 ], [ -47.030468999844402, -24.223420000032945 ], [ -47.031276000187226, -24.231722999816554 ], [ -47.038141000206963, -24.23344900027109 ], [ -47.046049999807622, -24.24468899969753 ], [ -47.044452999905957, -24.248916000373072 ], [ -47.05504199988831, -24.258167999853239 ], [ -47.057046999719205, -24.264335000060157 ], [ -47.048798999773965, -24.276701000150979 ], [ -47.039871999992783, -24.27382599977005 ], [ -47.033434999925248, -24.279165999611166 ], [ -47.027894999854311, -24.278074999661438 ], [ -47.02114799988027, -24.283452000309524 ], [ -47.026529999859576, -24.30090999959674 ], [ -47.034558999598119, -24.321465999656141 ], [ -47.044991000434266, -24.334389000252088 ], [ -47.063772999624177, -24.342789000012317 ], [ -47.07399000043813, -24.342902999873498 ], [ -47.086255000367942, -24.347959000107721 ], [ -47.090393999683272, -24.35240400004454 ], [ -47.102225000283511, -24.354070999576948 ], [ -47.107723000216254, -24.350809000235131 ], [ -47.120766000050821, -24.364765999950915 ], [ -47.133540000070916, -24.366969999965477 ], [ -47.146873609529386, -24.364337958629847 ], [ -47.154591341317314, -24.366835984792825 ], [ -47.170911109160329, -24.365625480231699 ], [ -47.180614412724935, -24.375054099367162 ], [ -47.18572630402565, -24.374064328905604 ], [ -47.187790833580038, -24.366177913080204 ], [ -47.198094353671422, -24.36728788692642 ], [ -47.209942193177653, -24.371381197983851 ], [ -47.218327544780323, -24.370084103098861 ], [ -47.221901490161599, -24.374474888305429 ], [ -47.234354112951898, -24.376509458744465 ], [ -47.237864027502837, -24.372894495284697 ], [ -47.246865479458279, -24.374064860404928 ], [ -47.247425132064166, -24.361813679457669 ], [ -47.241644325924881, -24.357348927710802 ], [ -47.239775223547667, -24.3416525186488 ], [ -47.232506870395696, -24.328977113103235 ], [ -47.225977864286961, -24.325920375025245 ], [ -47.214437722422922, -24.327370178390993 ], [ -47.206973289185896, -24.322908790108556 ], [ -47.21043055022966, -24.309747612162536 ], [ -47.205172670182549, -24.291639967810227 ], [ -47.197076153841408, -24.284966350716445 ], [ -47.197732868477033, -24.26862142793652 ], [ -47.193063089290085, -24.25419122744313 ], [ -47.197372635138947, -24.244058828552053 ], [ -47.188149665774397, -24.241249669336753 ], [ -47.184940585239758, -24.23473330499797 ], [ -47.174825194327241, -24.230989999288965 ], [ -47.172783065985634, -24.220864425352886 ], [ -47.159841293840593, -24.221767506565129 ], [ -47.144486967999114, -24.213384564246212 ], [ -47.147971867008039, -24.207059306741542 ], [ -47.132770022118784, -24.196397503042306 ], [ -47.126172803332167, -24.195765589010701 ], [ -47.126949748332152, -24.205911545181607 ], [ -47.13215912614271, -24.213529372182734 ], [ -47.121805168473713, -24.223341877725431 ], [ -47.103708769244228, -24.224965299708739 ], [ -47.096737232836972, -24.219225980194778 ], [ -47.082515999713564, -24.218300000444628 ], [ -47.081695999670615, -24.21093099966583 ], [ -47.076487999621463, -24.204018000130528 ], [ -47.067417000394187, -24.201515999863432 ] ] } }
]
}
