{
"type": "FeatureCollection",
"features": [
{ "type": "Feature", "properties": { "Name": "ITOBI", "Description": "ITOBI \/ SP" }, "geometry": { "type": "LineString", "coordinates": [ [ -46.871833996741479, -21.708702314660059 ], [ -46.866818561327477, -21.725221053908456 ], [ -46.854392503611109, -21.735258502377913 ], [ -46.85367391112208, -21.74249358960742 ], [ -46.84308138759593, -21.759514039940935 ], [ -46.847259436373861, -21.772998634779128 ], [ -46.854171554573554, -21.778884080635748 ], [ -46.868096797429189, -21.779949627972883 ], [ -46.879139147453657, -21.786872672935488 ], [ -46.883337922906776, -21.782551284813906 ], [ -46.894715257802886, -21.78480251002776 ], [ -46.906045183138644, -21.796041900613204 ], [ -46.907748105190876, -21.800442532496845 ], [ -46.92070901490905, -21.80753348538201 ], [ -46.922882205049682, -21.814379076233308 ], [ -46.936941076369521, -21.818681776442759 ], [ -46.948529826590175, -21.820224797236563 ], [ -46.962671396867442, -21.816716878281284 ], [ -46.960062486094841, -21.803824803571782 ], [ -46.954321648525195, -21.799039426428351 ], [ -46.95627966147714, -21.786551625756882 ], [ -46.966391902963892, -21.771427673848052 ], [ -46.967727677690107, -21.760752625832993 ], [ -46.981661206899162, -21.753954017363981 ], [ -46.98568620815194, -21.742548452748849 ], [ -46.99495177480452, -21.74367772784484 ], [ -46.99670289422312, -21.737168299077723 ], [ -47.010884644410794, -21.733480308869101 ], [ -47.004430718203025, -21.725659723417436 ], [ -46.986552025955177, -21.721217402561024 ], [ -46.98010321329263, -21.709711531162213 ], [ -46.979633645776062, -21.700013333948164 ], [ -46.966591470619846, -21.698465082697336 ], [ -46.951147919440864, -21.700824698700842 ], [ -46.947509704908896, -21.696690282330618 ], [ -46.933050780968699, -21.699562242103749 ], [ -46.92639758298202, -21.696733152113211 ], [ -46.91657881456058, -21.699013552233623 ], [ -46.901734185783994, -21.699286914659353 ], [ -46.884663352731479, -21.69725027038362 ], [ -46.871833996741479, -21.708702314660059 ] ] } }
]
}
