{
"type": "FeatureCollection",
"features": [
{ "type": "Feature", "properties": { "Name": "ITUPEVA", "Description": "ITUPEVA \/ SP" }, "geometry": { "type": "LineString", "coordinates": [ [ -47.037742051054742, -23.057042278578251 ], [ -47.038210142783839, -23.064826328172444 ], [ -47.02762427514017, -23.072285613690099 ], [ -47.029466309722352, -23.075920267806055 ], [ -47.023721495350685, -23.083981286107417 ], [ -47.015643517634203, -23.08724022955289 ], [ -47.013197303212905, -23.098476613704687 ], [ -47.00433836682214, -23.103441310268181 ], [ -47.003405795940694, -23.108026490230316 ], [ -46.995199244849225, -23.115715035420521 ], [ -46.995536425865339, -23.116483592443785 ], [ -47.004649666249065, -23.118053455302686 ], [ -47.004142864101873, -23.124761242137591 ], [ -47.020322269357223, -23.141109482516583 ], [ -47.02434596119712, -23.15086196640658 ], [ -47.019680174100699, -23.163473023661084 ], [ -47.014416855853199, -23.166255789572972 ], [ -47.015255859470301, -23.181797910944795 ], [ -47.008215885554648, -23.188735686802428 ], [ -47.021764628135024, -23.19237179242424 ], [ -47.028890599721365, -23.203559434220494 ], [ -47.025543731358084, -23.207988968516016 ], [ -47.021000184610777, -23.223625340636939 ], [ -47.028372543458083, -23.236668528429789 ], [ -47.050874327488202, -23.240625241461657 ], [ -47.077197711305303, -23.234160553066999 ], [ -47.087966564904995, -23.237414389262597 ], [ -47.091511130334368, -23.235362867502257 ], [ -47.098803971126301, -23.222649690430842 ], [ -47.112812099998393, -23.226034172938679 ], [ -47.106856736349243, -23.214493632674987 ], [ -47.11989709667364, -23.198292634697282 ], [ -47.113643879361518, -23.179271570526506 ], [ -47.130193486939845, -23.153835086420031 ], [ -47.138113742455232, -23.133330746116997 ], [ -47.142979976744471, -23.112090706420929 ], [ -47.147103190259998, -23.104135675021325 ], [ -47.143784683816079, -23.100932972478631 ], [ -47.13279566089102, -23.103025728154762 ], [ -47.123787888500203, -23.100728259801315 ], [ -47.116736808856615, -23.102876311192745 ], [ -47.110929364798324, -23.093488907986682 ], [ -47.086824046392557, -23.090860788594451 ], [ -47.084494860749203, -23.073173821014958 ], [ -47.09230415341392, -23.064299336245309 ], [ -47.088319000221645, -23.055536999632803 ], [ -47.076237999783814, -23.053585999594134 ], [ -47.070168999599609, -23.047636000401042 ], [ -47.048561999636547, -23.051381999579572 ], [ -47.037742051054742, -23.057042278578251 ] ] } }
]
}
