{
"type": "FeatureCollection",
"features": [
{ "type": "Feature", "properties": { "Name": "ITUVERAVA", "Description": "ITUVERAVA \/ SP" }, "geometry": { "type": "LineString", "coordinates": [ [ -47.836525277519513, -20.241915742217657 ], [ -47.835600536135814, -20.24608942748506 ], [ -47.826068452696909, -20.251993246491111 ], [ -47.823145380854612, -20.258383631099662 ], [ -47.801572421130288, -20.255369708844963 ], [ -47.792027831718997, -20.261487549410845 ], [ -47.781887949569182, -20.258803610897871 ], [ -47.771254651680806, -20.248283043927302 ], [ -47.747367168859732, -20.250151026648496 ], [ -47.732912343130067, -20.249192555292154 ], [ -47.726306803815874, -20.256309075003742 ], [ -47.719492013845297, -20.257417734940475 ], [ -47.714899856942793, -20.26647649799196 ], [ -47.699200355112282, -20.277354244202968 ], [ -47.693294070165166, -20.275309486243771 ], [ -47.684955182035992, -20.280772073572276 ], [ -47.666487871817765, -20.283752635475707 ], [ -47.65600199709445, -20.282235031321591 ], [ -47.645442214286732, -20.288264416369657 ], [ -47.64303756203384, -20.315763987517983 ], [ -47.640506134150712, -20.319659702233423 ], [ -47.627647956687781, -20.325284064108246 ], [ -47.619121379148282, -20.343420732280947 ], [ -47.618494060652324, -20.363046860324289 ], [ -47.633093483877133, -20.401378127898226 ], [ -47.626193254714906, -20.407227141319481 ], [ -47.626730614026592, -20.410187419913427 ], [ -47.642505275797816, -20.413533437518083 ], [ -47.646477569584135, -20.417307998265471 ], [ -47.663942637542611, -20.421895082092306 ], [ -47.665750926863723, -20.427872886524426 ], [ -47.661631008464212, -20.432964430663898 ], [ -47.644063723561942, -20.44244960906218 ], [ -47.634075216198248, -20.442132203238543 ], [ -47.623906416348007, -20.45927215908284 ], [ -47.615215916681166, -20.481673960085118 ], [ -47.626620624242378, -20.480357224905958 ], [ -47.63421637378655, -20.467075825588836 ], [ -47.647456423175356, -20.463787936563961 ], [ -47.661690388000977, -20.463318507543022 ], [ -47.675889371896972, -20.457606705485034 ], [ -47.698304639347612, -20.454772160206971 ], [ -47.727181924206377, -20.441253419010025 ], [ -47.735414954036855, -20.439907534105373 ], [ -47.743682102347123, -20.434269748050383 ], [ -47.750719010473908, -20.424522255397733 ], [ -47.767990038009827, -20.41890840389965 ], [ -47.771612194247325, -20.4068061515826 ], [ -47.780380784745375, -20.403911143984086 ], [ -47.787718418969803, -20.4056175464126 ], [ -47.80155185093713, -20.392233081191705 ], [ -47.810464109031386, -20.387867441928847 ], [ -47.818401039776113, -20.391475822351254 ], [ -47.840318835545759, -20.388495812631618 ], [ -47.851604703094551, -20.389270781821097 ], [ -47.882425017300648, -20.387833267691121 ], [ -47.891228674163926, -20.390849556062108 ], [ -47.907858077688104, -20.413633259567234 ], [ -47.914434832401525, -20.416518678594116 ], [ -47.918747337019965, -20.410450565141446 ], [ -47.924878832891807, -20.410262752523977 ], [ -47.931976480330263, -20.398736020450936 ], [ -47.925111290553559, -20.388132803086364 ], [ -47.925281908133513, -20.379147415720638 ], [ -47.935826890798346, -20.369178155647315 ], [ -47.952424541059649, -20.381022304335829 ], [ -47.963732739674128, -20.381292526328991 ], [ -47.978302144428369, -20.376232276798078 ], [ -47.981924830366609, -20.370366794092206 ], [ -47.987885946978849, -20.370948870393985 ], [ -47.996668278218408, -20.363648570625003 ], [ -48.005256187722864, -20.367633918970114 ], [ -48.018934099928742, -20.363604272718987 ], [ -48.027565719182569, -20.365817183216393 ], [ -48.038597990504798, -20.362571893278187 ], [ -48.039962152331434, -20.353280846134108 ], [ -48.013580184877583, -20.322148665928125 ], [ -47.998278557509366, -20.308734822553959 ], [ -47.970221424678982, -20.292994452831692 ], [ -47.98343696844131, -20.280323272301132 ], [ -47.981563426111165, -20.269116748339229 ], [ -47.976559197149186, -20.261961040669462 ], [ -47.962436673613574, -20.272858310262791 ], [ -47.945305304496173, -20.265530595560506 ], [ -47.937309058066546, -20.259137559750513 ], [ -47.933268675708803, -20.250184792594041 ], [ -47.924001609886318, -20.242891439188497 ], [ -47.932037222339886, -20.234868406451767 ], [ -47.927736549202336, -20.229531608197135 ], [ -47.928838210614913, -20.21417960530448 ], [ -47.915031585639092, -20.211475511185824 ], [ -47.910124663322506, -20.203324114616123 ], [ -47.908732596432117, -20.191606759544296 ], [ -47.911539868869795, -20.185999009047006 ], [ -47.909916357853596, -20.175280503092722 ], [ -47.896070268827827, -20.163968528224927 ], [ -47.889510464536272, -20.155788936110469 ], [ -47.881598016035582, -20.162202519630512 ], [ -47.870764329410235, -20.181409234448548 ], [ -47.87312858771412, -20.187349562332372 ], [ -47.856628486915099, -20.194273356430184 ], [ -47.85871414244366, -20.208106503312422 ], [ -47.84924904950401, -20.207840811204449 ], [ -47.848796889264975, -20.21896397430794 ], [ -47.860326642160771, -20.223935946386746 ], [ -47.855517185669555, -20.234944394668045 ], [ -47.842374129062762, -20.245935003997204 ], [ -47.836525277519513, -20.241915742217657 ] ] } }
]
}
