{
"type": "FeatureCollection",
"features": [
{ "type": "Feature", "properties": { "Name": "JABOTICABAL", "Description": "JABOTICABAL \/ SP" }, "geometry": { "type": "LineString", "coordinates": [ [ -48.186927175748508, -21.130396568047161 ], [ -48.181855631632061, -21.151246365827092 ], [ -48.169016312053138, -21.161388860507486 ], [ -48.171282242981079, -21.17397275194088 ], [ -48.178312447561382, -21.18668418073031 ], [ -48.1732513139969, -21.199839028348435 ], [ -48.170573107762664, -21.215768357323778 ], [ -48.158567245681809, -21.226288376607272 ], [ -48.152179900781725, -21.239333274011354 ], [ -48.140755830816886, -21.238591231699957 ], [ -48.136030542775302, -21.268298025133731 ], [ -48.141484274479637, -21.31755858176308 ], [ -48.1581513092355, -21.312797055539647 ], [ -48.175074339609068, -21.314162446739488 ], [ -48.193425389969718, -21.328670247034211 ], [ -48.20772788043729, -21.334903922078297 ], [ -48.21683132810324, -21.33426056147567 ], [ -48.220507712560845, -21.328634204904574 ], [ -48.232775955445959, -21.324779783460201 ], [ -48.24546680504897, -21.330422743314895 ], [ -48.259844718958561, -21.319700504274806 ], [ -48.268143089931641, -21.321616512591959 ], [ -48.264258005202741, -21.328271100031202 ], [ -48.265970994265956, -21.33443466842516 ], [ -48.273863276369063, -21.344817782114884 ], [ -48.274151008162441, -21.353328363413198 ], [ -48.31181643567993, -21.360746657831953 ], [ -48.323345535667897, -21.357301718399526 ], [ -48.334236893118081, -21.348138019753776 ], [ -48.337104723204391, -21.331412225094084 ], [ -48.344572624227162, -21.329125772536315 ], [ -48.351705716645483, -21.321156371769121 ], [ -48.367148068128813, -21.322048516325932 ], [ -48.379490098589145, -21.324671108484836 ], [ -48.38821339832964, -21.317483480278323 ], [ -48.40007031289457, -21.319571847262921 ], [ -48.41071599894417, -21.317700748390791 ], [ -48.414650214535754, -21.320137658426173 ], [ -48.426824263329024, -21.318652681675871 ], [ -48.435343604923389, -21.307113663964401 ], [ -48.437103805696033, -21.298297367129745 ], [ -48.43005589886058, -21.288179327713749 ], [ -48.424971154495154, -21.275274666092912 ], [ -48.439807535589232, -21.249741440115315 ], [ -48.427565899146884, -21.231344795925565 ], [ -48.432743619022744, -21.224568671407042 ], [ -48.450489011058949, -21.211336987511913 ], [ -48.442717121198143, -21.2085658642232 ], [ -48.438534244859447, -21.200128606449994 ], [ -48.428564383139701, -21.197141792459718 ], [ -48.421485432606573, -21.172990388295712 ], [ -48.416979901101513, -21.170714656556125 ], [ -48.403735645583538, -21.173034391224121 ], [ -48.38597822061837, -21.168568326467035 ], [ -48.36195585837612, -21.139833632715916 ], [ -48.347384653179176, -21.128361620792134 ], [ -48.356970867711311, -21.118869744243284 ], [ -48.363641834503028, -21.119455364773216 ], [ -48.373685976626462, -21.112807773160171 ], [ -48.373951104859543, -21.108903521180537 ], [ -48.360471716196685, -21.103733601124755 ], [ -48.345839623299923, -21.105937206336932 ], [ -48.35359297633476, -21.081670456926016 ], [ -48.3416609701776, -21.074420802478016 ], [ -48.334778739147453, -21.06581487235843 ], [ -48.31805402817082, -21.060863209669321 ], [ -48.311772860828789, -21.061033549358797 ], [ -48.305382361107029, -21.066412103136031 ], [ -48.295571074145691, -21.061900618119012 ], [ -48.288126455671375, -21.064792815336087 ], [ -48.283263937380752, -21.071753088634068 ], [ -48.276189075165632, -21.072091567371896 ], [ -48.270895067553276, -21.081034483354699 ], [ -48.243954302748811, -21.083328992938618 ], [ -48.24147620016646, -21.087498636652697 ], [ -48.227039812337402, -21.085286064300362 ], [ -48.213556106029436, -21.087215763896321 ], [ -48.202255200017419, -21.082934715764452 ], [ -48.187512124484897, -21.085643641041145 ], [ -48.190589814068623, -21.107018570050911 ], [ -48.190453392310189, -21.116480127755661 ], [ -48.186927175748508, -21.130396568047161 ] ] } }
]
}
