{
"type": "FeatureCollection",
"features": [
{ "type": "Feature", "properties": { "Name": "JACAREÃ", "Description": "JACAREÃ \/ SP" }, "geometry": { "type": "LineString", "coordinates": [ [ -45.793719000031778, -23.292004000084489 ], [ -45.795220000002928, -23.297337999648903 ], [ -45.80608099993816, -23.303074999811372 ], [ -45.80800200039198, -23.324175999822497 ], [ -45.803039999995974, -23.329389000102253 ], [ -45.805743999685774, -23.341443000194261 ], [ -45.814596999651762, -23.337228000072116 ], [ -45.822898000242503, -23.346961000149975 ], [ -45.831211999634036, -23.343333000117809 ], [ -45.838603999674831, -23.335352999940937 ], [ -45.844191000114506, -23.342404000444219 ], [ -45.84517300043359, -23.355849999977465 ], [ -45.854617999820782, -23.354715999843449 ], [ -45.861510000186335, -23.375562999832539 ], [ -45.876183999691811, -23.373072000072682 ], [ -45.882985000357451, -23.375624999993704 ], [ -45.899586999740222, -23.368386999860093 ], [ -45.900796999781676, -23.372285999799029 ], [ -45.892736000366085, -23.383588000285954 ], [ -45.897052999796074, -23.393426999856104 ], [ -45.902061999661491, -23.383988999892381 ], [ -45.930755999989344, -23.366757000235339 ], [ -45.929918000015618, -23.375628000132053 ], [ -45.917090000203302, -23.386698999858936 ], [ -45.924075000360908, -23.391298999748983 ], [ -45.929283000410123, -23.38221199978392 ], [ -45.934504000159443, -23.388569999805611 ], [ -45.932783999981552, -23.396641999728445 ], [ -45.946529999859536, -23.389816999754714 ], [ -45.9491680001031, -23.395358999917846 ], [ -45.961292999872001, -23.396885000142618 ], [ -45.968202000122169, -23.401710999662839 ], [ -45.974302999983422, -23.401175000126102 ], [ -45.980973000003928, -23.406824999873777 ], [ -45.980690999589903, -23.414429999844572 ], [ -45.987384941361938, -23.419775957694242 ], [ -45.991186689514052, -23.417520065898259 ], [ -45.997102855312505, -23.402086525972379 ], [ -45.998332664720635, -23.391375314419179 ], [ -46.002506605395467, -23.385339393997807 ], [ -46.01053984273949, -23.384272503972852 ], [ -46.015354891215217, -23.390884909610858 ], [ -46.02238252193581, -23.387731303756595 ], [ -46.029529052024088, -23.391757206130137 ], [ -46.041286957527007, -23.384357135573282 ], [ -46.057720399676668, -23.361115666354859 ], [ -46.067827202063654, -23.354970552049281 ], [ -46.068276744376192, -23.348289792539845 ], [ -46.073708770043652, -23.342154613944214 ], [ -46.079966269028034, -23.341507345787306 ], [ -46.098992999827033, -23.326003999584884 ], [ -46.097874000384763, -23.319485000232532 ], [ -46.101475000071154, -23.308597999997627 ], [ -46.102939000134711, -23.302874000434713 ], [ -46.113813999816216, -23.299335000010217 ], [ -46.112747000073966, -23.288582999705625 ], [ -46.119225000233541, -23.285446999879071 ], [ -46.13489099961987, -23.287879999662209 ], [ -46.145123000226249, -23.273763999808693 ], [ -46.152011000407292, -23.27235599962961 ], [ -46.150675999997361, -23.261945999808006 ], [ -46.145746000177724, -23.256827000265787 ], [ -46.136601000235942, -23.255728999993323 ], [ -46.12841100026742, -23.249810999577903 ], [ -46.128675999897432, -23.243883999646808 ], [ -46.118222999891486, -23.236260999745298 ], [ -46.116457000290261, -23.229697000116403 ], [ -46.103853000015874, -23.224980000226765 ], [ -46.092472000382479, -23.213915999923415 ], [ -46.091242000318005, -23.208022999761567 ], [ -46.080720999874188, -23.206592000320541 ], [ -46.080915999873461, -23.19724600010278 ], [ -46.076298000052638, -23.193216000418033 ], [ -46.079801999762424, -23.186623000351119 ], [ -46.074803000358145, -23.180872999589212 ], [ -46.059168999749488, -23.172282000014263 ], [ -46.053486000278667, -23.179264000033527 ], [ -46.055099000018799, -23.184942000173123 ], [ -46.049660000108872, -23.189497999832781 ], [ -46.038063000407078, -23.189149999972472 ], [ -46.020103999599876, -23.202656999620785 ], [ -45.998140000260776, -23.18663099982075 ], [ -45.981829999954471, -23.199509000140207 ], [ -45.981582000209073, -23.204544000305305 ], [ -45.969130999795766, -23.199873999885138 ], [ -45.962428000052107, -23.20561800037035 ], [ -45.955856000054325, -23.203934000054002 ], [ -45.948217000314287, -23.213384999717903 ], [ -45.959174000179928, -23.219403000248235 ], [ -45.965830999600882, -23.235456000394038 ], [ -45.963672999908965, -23.24538799975636 ], [ -45.954031147019798, -23.255934001353008 ], [ -45.94125616673864, -23.259906053221751 ], [ -45.933479800052673, -23.256920304928087 ], [ -45.921214745264251, -23.263079669890828 ], [ -45.912523000036401, -23.277250999633907 ], [ -45.90882899965856, -23.289640999932143 ], [ -45.904007000322785, -23.294825999819974 ], [ -45.890671999613062, -23.29616200027607 ], [ -45.885048000165057, -23.299428999848431 ], [ -45.870101999807389, -23.297975000246026 ], [ -45.861439999656227, -23.304129999899544 ], [ -45.847307999964187, -23.306653000235713 ], [ -45.83468199957457, -23.294020999569454 ], [ -45.823792000100688, -23.295345000371412 ], [ -45.81470300004338, -23.289898000092592 ], [ -45.806863000027363, -23.292677999689886 ], [ -45.793719000031778, -23.292004000084489 ] ] } }
]
}
