{
"type": "FeatureCollection",
"features": [
{ "type": "Feature", "properties": { "Name": "JOANÃPOLIS", "Description": "JOANÃPOLIS \/ SP" }, "geometry": { "type": "LineString", "coordinates": [ [ -46.050675000151095, -22.896974999896258 ], [ -46.04117700011841, -22.91382399987765 ], [ -46.042556999905571, -22.926391000244394 ], [ -46.048633999559399, -22.932792999597211 ], [ -46.053221999795426, -22.950247999645399 ], [ -46.049096000180214, -22.954914999927269 ], [ -46.051966000330594, -22.968283000360145 ], [ -46.064776000212191, -22.975836999777698 ], [ -46.067647000408726, -22.980236000291143 ], [ -46.077535000439866, -22.977208000049128 ], [ -46.082585000397387, -22.985488999717518 ], [ -46.086560000243765, -22.9850049998808 ], [ -46.094956999865587, -22.988650999843742 ], [ -46.112541999613541, -22.992679000335556 ], [ -46.124472000282537, -22.990926000434509 ], [ -46.137572000047726, -22.99694900029607 ], [ -46.162317999975699, -23.001835999931416 ], [ -46.168183999791715, -22.998148999876374 ], [ -46.193410000271228, -23.003165000064655 ], [ -46.200703000243209, -23.012604000074475 ], [ -46.21356599987098, -22.999395999825481 ], [ -46.227595000209078, -22.995726999701219 ], [ -46.23148899991736, -22.989660999655371 ], [ -46.252074999561557, -22.992977999734876 ], [ -46.261769999685669, -22.996776999558847 ], [ -46.29789299996196, -22.987162999572718 ], [ -46.303803000008429, -22.976318000375386 ], [ -46.314126000314616, -22.986014999692429 ], [ -46.322932999957914, -22.984826999766199 ], [ -46.340442999844527, -22.977640000185829 ], [ -46.34434822399129, -22.9733210078582 ], [ -46.359937000392215, -22.963880999708348 ], [ -46.367117999695893, -22.970347000213849 ], [ -46.373842000407933, -22.972216000068329 ], [ -46.397945640678756, -22.968592928320959 ], [ -46.399277999779827, -22.955810999877713 ], [ -46.395641000231933, -22.944486000128734 ], [ -46.390207000552607, -22.941137999519015 ], [ -46.377093000141826, -22.939495000194086 ], [ -46.371012664003217, -22.928215350557934 ], [ -46.361822159265216, -22.924645154450275 ], [ -46.349083999926613, -22.916062999707602 ], [ -46.344637952279641, -22.904535387198337 ], [ -46.338773055032448, -22.897856323810231 ], [ -46.317445024768062, -22.887641295209562 ], [ -46.304947506022522, -22.891460585537573 ], [ -46.29502879594213, -22.897819091877523 ], [ -46.287916620855299, -22.887812663723423 ], [ -46.281056429510549, -22.884233870996297 ], [ -46.279025715364412, -22.878347612152535 ], [ -46.266863798425504, -22.875687216991423 ], [ -46.262634702329592, -22.878456460697066 ], [ -46.25741075819991, -22.890874902055028 ], [ -46.248313676834698, -22.889408205823997 ], [ -46.237442784356972, -22.89322309936648 ], [ -46.234918589721076, -22.88315146316944 ], [ -46.214933250868789, -22.876576378497017 ], [ -46.192197885024314, -22.865230571133907 ], [ -46.18206124493048, -22.86701056418616 ], [ -46.157775714977213, -22.863484192941087 ], [ -46.146484018922308, -22.857572977910536 ], [ -46.141251988088754, -22.868146004134758 ], [ -46.14210979742915, -22.880956136216696 ], [ -46.137915173246597, -22.884965616070303 ], [ -46.138279978738012, -22.894970610705059 ], [ -46.149755819975042, -22.910464920519644 ], [ -46.15398952329781, -22.912400394662424 ], [ -46.13909371590222, -22.922755260646738 ], [ -46.123612462445124, -22.909544352889554 ], [ -46.102664849902851, -22.901980714538297 ], [ -46.095218324865755, -22.894429010190603 ], [ -46.083661943044206, -22.891569813595993 ], [ -46.071575010678146, -22.893585572915811 ], [ -46.063944715476168, -22.891643266623419 ], [ -46.050675000151095, -22.896974999896258 ] ] } }
]
}
