{
"type": "FeatureCollection",
"features": [
{ "type": "Feature", "properties": { "Name": "JUNQUEIRÃPOLIS", "Description": "JUNQUEIRÃPOLIS \/ SP" }, "geometry": { "type": "LineString", "coordinates": [ [ -51.485507924750891, -21.232527151706616 ], [ -51.467389596452676, -21.237800843633977 ], [ -51.463293289753494, -21.236504370180512 ], [ -51.451790516519047, -21.241358510386874 ], [ -51.433996287698449, -21.246447500451723 ], [ -51.43098629817905, -21.25484913428005 ], [ -51.415194704871681, -21.262600860441292 ], [ -51.400420729532975, -21.266316493111617 ], [ -51.385348341152962, -21.28435646527862 ], [ -51.374797718839602, -21.285218550895365 ], [ -51.369803338353336, -21.289889503697566 ], [ -51.360542002111686, -21.285849940622199 ], [ -51.347223868186916, -21.2885530275002 ], [ -51.34039749225041, -21.292912372408011 ], [ -51.328833037214849, -21.292511032857817 ], [ -51.327690789398389, -21.300349605649725 ], [ -51.332697762191913, -21.303523450746578 ], [ -51.333180598305937, -21.315108583893959 ], [ -51.337886874679498, -21.317241550057417 ], [ -51.336129095781132, -21.334027232370826 ], [ -51.340982826795994, -21.346833047706923 ], [ -51.347195055707232, -21.349622273449143 ], [ -51.350667987437646, -21.359924377108253 ], [ -51.365086728769484, -21.369306489602764 ], [ -51.362609073150168, -21.383793559625019 ], [ -51.359873860690072, -21.387128466105764 ], [ -51.369087749599942, -21.401654679120099 ], [ -51.363622877094087, -21.410991442401098 ], [ -51.357032236848219, -21.414926200283844 ], [ -51.356962894621859, -21.427939339029251 ], [ -51.365683334518224, -21.438131736190652 ], [ -51.358825668469763, -21.45446190109584 ], [ -51.363583091986065, -21.460871159776161 ], [ -51.364010538855268, -21.467735607612155 ], [ -51.369906385371337, -21.478384335168869 ], [ -51.364099717427962, -21.484862789486101 ], [ -51.370486182791069, -21.495954254185449 ], [ -51.370134495710374, -21.501608891736904 ], [ -51.37833815008554, -21.503474064076727 ], [ -51.381503471408045, -21.519882483489766 ], [ -51.387932563736797, -21.527168495729427 ], [ -51.388893166486412, -21.544702014686205 ], [ -51.395936279935313, -21.553308707430858 ], [ -51.392052151185787, -21.556693625210585 ], [ -51.387891091500649, -21.571315068335707 ], [ -51.396339876783827, -21.586862082918739 ], [ -51.403769335386471, -21.610578216111719 ], [ -51.415794951076059, -21.609774392174415 ], [ -51.417566449132266, -21.633960860005629 ], [ -51.413753570970471, -21.642894654164934 ], [ -51.416446257188966, -21.651140790714862 ], [ -51.428447825906403, -21.660986929103444 ], [ -51.443693368853872, -21.663984373979645 ], [ -51.447033698246514, -21.672252032205449 ], [ -51.459533976112084, -21.682519474194347 ], [ -51.476381217019529, -21.68531235927793 ], [ -51.493197872883513, -21.707660690188675 ], [ -51.496450781878018, -21.707439828385304 ], [ -51.511869900275656, -21.701760457678915 ], [ -51.52329461235643, -21.699152092794805 ], [ -51.537076818940022, -21.68439648880684 ], [ -51.525183676085753, -21.687227382837417 ], [ -51.520343448391372, -21.681690968363455 ], [ -51.520857775166171, -21.671054878979419 ], [ -51.504016959914736, -21.648927275873064 ], [ -51.50126360453168, -21.63881750302528 ], [ -51.49575579119675, -21.63829343389483 ], [ -51.493215147061335, -21.623001057852491 ], [ -51.494216623098623, -21.617415727453817 ], [ -51.501305065975998, -21.610323355438481 ], [ -51.502542891041571, -21.597973314716679 ], [ -51.508442472442084, -21.587808826216303 ], [ -51.506219294384891, -21.577005542971392 ], [ -51.497713850913442, -21.570774740361912 ], [ -51.492601308503538, -21.562042348475529 ], [ -51.495775424296362, -21.556589896506466 ], [ -51.483798335125009, -21.53241192636926 ], [ -51.477018896604761, -21.526289028016208 ], [ -51.478251887814338, -21.511458734433006 ], [ -51.483054050803787, -21.507705400383884 ], [ -51.486508791047811, -21.49674947071145 ], [ -51.484398092098218, -21.489061481302258 ], [ -51.485911375909211, -21.469897073291232 ], [ -51.489226225709729, -21.459588666283878 ], [ -51.477944198266073, -21.447025921509006 ], [ -51.485154068505437, -21.427646205907649 ], [ -51.482396350511117, -21.416261093674503 ], [ -51.478826549205849, -21.412106812179616 ], [ -51.485582350844766, -21.404320190524345 ], [ -51.48129116915208, -21.396871166271239 ], [ -51.483035373683492, -21.379400117821149 ], [ -51.491692301658361, -21.367916155705984 ], [ -51.490826208662554, -21.36301880217593 ], [ -51.495173706801097, -21.348880519820113 ], [ -51.493404296970709, -21.338342135481128 ], [ -51.496954184587928, -21.327487948809729 ], [ -51.493568863911889, -21.318833365367482 ], [ -51.497724945849541, -21.312396498399661 ], [ -51.500808495415697, -21.287792248713288 ], [ -51.497200222911943, -21.269217765387506 ], [ -51.498254628548239, -21.259403876687486 ], [ -51.48956450749597, -21.24339198814971 ], [ -51.494143100823401, -21.23740850629747 ], [ -51.502725396759615, -21.233020244588545 ], [ -51.5018367289818, -21.221074408656989 ], [ -51.496193203453515, -21.227250303158936 ], [ -51.485507924750891, -21.232527151706616 ] ] } }
]
}
