{
"type": "FeatureCollection",
"features": [
{ "type": "Feature", "properties": { "Name": "LARANJAL PAULISTA", "Description": "LARANJAL PAULISTA \/ SP" }, "geometry": { "type": "LineString", "coordinates": [ [ -47.808884624325913, -22.877745132931523 ], [ -47.806281706635382, -22.899599040862991 ], [ -47.814416317359132, -22.909100083302175 ], [ -47.812742929042884, -22.920603112843366 ], [ -47.823287084331412, -22.924979579044305 ], [ -47.819648098181119, -22.930989991095146 ], [ -47.826704885821755, -22.942223509107635 ], [ -47.825402438171913, -22.950102467754618 ], [ -47.816289037708884, -22.962901666778464 ], [ -47.817263922591899, -22.977271109074366 ], [ -47.805772372896627, -22.982623194904477 ], [ -47.795180245971544, -22.978385986024364 ], [ -47.789689963121248, -22.980697132166878 ], [ -47.772511829257496, -22.975544158935747 ], [ -47.764577940919189, -22.983959197159152 ], [ -47.778214661477413, -23.001495391599008 ], [ -47.771786142916142, -23.004412881349364 ], [ -47.757163255479831, -22.997809325040294 ], [ -47.747872378307591, -23.002174543420381 ], [ -47.765821590893658, -23.014430837013492 ], [ -47.782024365931704, -23.014542728863773 ], [ -47.792352917752908, -23.018571313015627 ], [ -47.78709997408447, -23.029309572578654 ], [ -47.780795061942513, -23.032780620229403 ], [ -47.767708480062254, -23.02961424040484 ], [ -47.764400229486967, -23.039019352161343 ], [ -47.78481876637295, -23.040786992125959 ], [ -47.791881435579739, -23.048998486790708 ], [ -47.821332912383973, -23.072412504433487 ], [ -47.825896210941323, -23.079836036503821 ], [ -47.835457773257588, -23.081175520933527 ], [ -47.83085505921354, -23.08923187535072 ], [ -47.825849706099007, -23.084217582075723 ], [ -47.809426949693936, -23.098143793501208 ], [ -47.806777348196022, -23.112258460559474 ], [ -47.814068125043882, -23.113091770568701 ], [ -47.814340699663489, -23.123393345426503 ], [ -47.835962092376633, -23.124719895806493 ], [ -47.827013715710393, -23.130792739693163 ], [ -47.818912338533551, -23.132455321755625 ], [ -47.817140541902461, -23.152644368742585 ], [ -47.827892519723946, -23.150287758273407 ], [ -47.836555622443996, -23.154336033980712 ], [ -47.839051951586271, -23.173979732978239 ], [ -47.844459210823857, -23.174585092727796 ], [ -47.865005319240019, -23.169767705115476 ], [ -47.876066894071869, -23.160081762962932 ], [ -47.882918082303597, -23.162901086316026 ], [ -47.901351685931495, -23.160079361773057 ], [ -47.90996389961424, -23.160912529689423 ], [ -47.907116779115995, -23.152578522180988 ], [ -47.908663582458303, -23.145132305611355 ], [ -47.914531754137094, -23.140829332907341 ], [ -47.907486535375256, -23.12594099528064 ], [ -47.908427434878149, -23.107542278153574 ], [ -47.912274619478069, -23.080393129639162 ], [ -47.926452934255451, -23.081243301037489 ], [ -47.928164522174939, -23.068709279709424 ], [ -47.93213329781338, -23.061584461953313 ], [ -47.91512859101163, -23.054975666193968 ], [ -47.899458416972323, -23.060524600130123 ], [ -47.908237091568481, -23.046007626750509 ], [ -47.915571890230524, -23.041745723386384 ], [ -47.912907641474419, -23.031420669927911 ], [ -47.920072192177884, -23.029810630755946 ], [ -47.92638269180776, -23.01706927882412 ], [ -47.936870891278545, -23.014562572404767 ], [ -47.946218917668887, -23.003412789368667 ], [ -47.945129327856137, -22.997116605147138 ], [ -47.937593612555133, -22.989078274043095 ], [ -47.936370719832837, -22.98312348416141 ], [ -47.929832981307015, -22.981248069442813 ], [ -47.929171212481435, -22.973089560135065 ], [ -47.93517504868953, -22.967816552591785 ], [ -47.932041218027727, -22.962942880909168 ], [ -47.940563123589236, -22.955459281320714 ], [ -47.933786668120206, -22.945095760261097 ], [ -47.940031174598971, -22.936188262278449 ], [ -47.947065073594217, -22.933385976581519 ], [ -47.95154985234376, -22.92449309528007 ], [ -47.947511711096524, -22.910291378344368 ], [ -47.938883144141755, -22.903693976096061 ], [ -47.937072384382986, -22.893505271551021 ], [ -47.928058531675845, -22.886983404260661 ], [ -47.930828904929967, -22.883312955328563 ], [ -47.916737447575088, -22.88392358960192 ], [ -47.905165462516031, -22.877368084969078 ], [ -47.899140648721925, -22.870234166073885 ], [ -47.879925524343435, -22.863263816771678 ], [ -47.866821581950425, -22.86069560931486 ], [ -47.859286958426367, -22.866638949028243 ], [ -47.859234899371067, -22.872850695902855 ], [ -47.864938012179493, -22.887699959785266 ], [ -47.871014619728896, -22.89454557761627 ], [ -47.868769617823538, -22.89900934730349 ], [ -47.844761133919171, -22.901635150042068 ], [ -47.835292319584823, -22.896929504992613 ], [ -47.832913417620084, -22.887954850136168 ], [ -47.808884624325913, -22.877745132931523 ] ] } }
]
}
