{
"type": "FeatureCollection",
"features": [
{ "type": "Feature", "properties": { "Name": "MAIRIPORÃ", "Description": "MAIRIPORÃ \/ SP" }, "geometry": { "type": "LineString", "coordinates": [ [ -46.51538009371631, -23.237501891499051 ], [ -46.510932000111659, -23.250159000337529 ], [ -46.504344000275353, -23.24866099960542 ], [ -46.490501999567584, -23.257782000239047 ], [ -46.479195999795536, -23.26877499996624 ], [ -46.469807000292803, -23.282753999797194 ], [ -46.448391000144511, -23.270067000191887 ], [ -46.44036299955274, -23.273089000157199 ], [ -46.434324999898763, -23.279862999577745 ], [ -46.437409000025298, -23.284551999974781 ], [ -46.429569000009273, -23.289304999725914 ], [ -46.425947000253814, -23.301711999908832 ], [ -46.418450999913659, -23.316318999921862 ], [ -46.423692999732104, -23.317439000309548 ], [ -46.430877000073444, -23.329314000240853 ], [ -46.431663000347157, -23.335424999663985 ], [ -46.44271500009711, -23.34069299978205 ], [ -46.448462999867502, -23.349720999724294 ], [ -46.447957999961659, -23.357647000108898 ], [ -46.468269999560789, -23.356565999721056 ], [ -46.47392547078379, -23.36153415957375 ], [ -46.480839000019785, -23.362100000414671 ], [ -46.486666944124124, -23.358053790450015 ], [ -46.487355194386673, -23.350755798341364 ], [ -46.495943427647028, -23.348226224860355 ], [ -46.510951000088539, -23.355542000163155 ], [ -46.52052199989032, -23.354518999751971 ], [ -46.535437999763815, -23.363305000225523 ], [ -46.543434999825365, -23.357529000063266 ], [ -46.551805000000684, -23.357676999693751 ], [ -46.555169000448977, -23.363803999854667 ], [ -46.568520000097855, -23.375735999716596 ], [ -46.581008999565647, -23.376948999896399 ], [ -46.600229000068282, -23.388162999922482 ], [ -46.599517999655916, -23.395108000034156 ], [ -46.605850000277258, -23.398033000022902 ], [ -46.614285999898925, -23.411709000270093 ], [ -46.613152999811064, -23.417686999855107 ], [ -46.621590000378148, -23.419374000309801 ], [ -46.634252999776095, -23.429275000041173 ], [ -46.638590000128374, -23.427294999564538 ], [ -46.657104999596015, -23.430498999828956 ], [ -46.669751374126577, -23.41859296429385 ], [ -46.664302302709075, -23.406877210015182 ], [ -46.654962052756495, -23.395531308223269 ], [ -46.658866340709039, -23.390178271809759 ], [ -46.660619877505319, -23.374821349625563 ], [ -46.667708000223968, -23.373680000231786 ], [ -46.670187000329747, -23.363095999580651 ], [ -46.66082300018126, -23.334829000058278 ], [ -46.66261700017435, -23.32446699975219 ], [ -46.645337000102408, -23.318601999982263 ], [ -46.645394000033036, -23.311920000307737 ], [ -46.637196999741718, -23.306508999890411 ], [ -46.638713000404607, -23.300316000283146 ], [ -46.645828000261986, -23.296126999561352 ], [ -46.647454999748383, -23.287618000170539 ], [ -46.659031000280379, -23.283397999817794 ], [ -46.656030000384192, -23.278369999975496 ], [ -46.647552999771108, -23.275272000102689 ], [ -46.637107000087951, -23.258079999592265 ], [ -46.630092000345478, -23.259049000211117 ], [ -46.622170000145324, -23.25430600002181 ], [ -46.622764999704941, -23.245702999893467 ], [ -46.618943999765747, -23.241602999678662 ], [ -46.615063999803681, -23.227305000425361 ], [ -46.605815999608637, -23.227730000239259 ], [ -46.601339500017843, -23.234223500214338 ], [ -46.589858000246466, -23.236681000227918 ], [ -46.58366799987823, -23.232879000265598 ], [ -46.568253000375648, -23.2337350001701 ], [ -46.552266999722235, -23.236970000065412 ], [ -46.545370000025457, -23.241358000071614 ], [ -46.528356999675736, -23.241403000348157 ], [ -46.51538009371631, -23.237501891499051 ] ] } }
]
}
