{
"type": "FeatureCollection",
"features": [
{ "type": "Feature", "properties": { "Name": "MARAPOAMA", "Description": "MARAPOAMA \/ SP" }, "geometry": { "type": "LineString", "coordinates": [ [ -49.091331456181706, -21.221217443130456 ], [ -49.081705879222902, -21.2272539130376 ], [ -49.065433328485256, -21.233430179858885 ], [ -49.059095686416754, -21.242166620493094 ], [ -49.069774930668473, -21.260234628125545 ], [ -49.091711319022124, -21.272404015732718 ], [ -49.092553252630466, -21.280398979729114 ], [ -49.113340800237722, -21.293358034145911 ], [ -49.124407033557702, -21.298652838557587 ], [ -49.140149785584072, -21.292354642552652 ], [ -49.159758180795393, -21.286584467299292 ], [ -49.17009646687842, -21.289263091718283 ], [ -49.188021261971642, -21.303696116982167 ], [ -49.202058081914913, -21.306225355915387 ], [ -49.211660742349352, -21.311485184793408 ], [ -49.217059661274334, -21.321081902507729 ], [ -49.226348108478362, -21.32471248179553 ], [ -49.234074703984327, -21.323574356471337 ], [ -49.22909713632373, -21.314747533072136 ], [ -49.221536425265754, -21.293019410617262 ], [ -49.209133631212069, -21.279505737999386 ], [ -49.200433683267818, -21.278564211668993 ], [ -49.193178666162446, -21.271797214369883 ], [ -49.188763885245066, -21.263497522292766 ], [ -49.175468688529115, -21.251752156037128 ], [ -49.172491837228449, -21.246951484123656 ], [ -49.164216937661479, -21.22209721391522 ], [ -49.145525015467058, -21.215896345240079 ], [ -49.147438089296308, -21.209888926132976 ], [ -49.141829995258036, -21.198214445340341 ], [ -49.144879310331874, -21.187394315095503 ], [ -49.132214591430227, -21.187067142634472 ], [ -49.124489201915075, -21.19522218685438 ], [ -49.109438969232997, -21.197293504491597 ], [ -49.091331456181706, -21.221217443130456 ] ] } }
]
}
