{
"type": "FeatureCollection",
"features": [
{ "type": "Feature", "properties": { "Name": "MARINÃPOLIS", "Description": "MARINÃPOLIS \/ SP" }, "geometry": { "type": "LineString", "coordinates": [ [ -50.81212320562139, -20.531151769538496 ], [ -50.819048883798921, -20.533078971717146 ], [ -50.832072737067101, -20.532213656634895 ], [ -50.84446103045218, -20.535830380067921 ], [ -50.848976219776659, -20.548469337889571 ], [ -50.854814204811639, -20.542871783905639 ], [ -50.869656541216379, -20.544839641736019 ], [ -50.87309821970706, -20.542395316790419 ], [ -50.870871980357549, -20.532367632260385 ], [ -50.862988449557228, -20.525835330136317 ], [ -50.862917837488169, -20.498594216050204 ], [ -50.859688564475618, -20.474591140668565 ], [ -50.856548699362911, -20.464963390048354 ], [ -50.859370355557417, -20.455426321667343 ], [ -50.857922784308983, -20.438603710492828 ], [ -50.848973686386501, -20.426685079053129 ], [ -50.843502600464603, -20.423973856008612 ], [ -50.838547979905286, -20.412071558955233 ], [ -50.833737749997113, -20.416594654219864 ], [ -50.812998118268524, -20.420114494588233 ], [ -50.800080092722055, -20.419676789152447 ], [ -50.80307071983782, -20.432670904538554 ], [ -50.799970213554445, -20.441001696970712 ], [ -50.802864001672276, -20.453309296886513 ], [ -50.802556145749456, -20.469832700918346 ], [ -50.799151015706741, -20.479974214438414 ], [ -50.806663816282082, -20.491403023830458 ], [ -50.803424014906341, -20.502913023117458 ], [ -50.806039283885809, -20.508159517747515 ], [ -50.80294090449911, -20.514631689400915 ], [ -50.804375495832396, -20.525667441998792 ], [ -50.81212320562139, -20.531151769538496 ] ] } }
]
}
