{
"type": "FeatureCollection",
"features": [
{ "type": "Feature", "properties": { "Name": "MIGUELÃPOLIS", "Description": "MIGUELÃPOLIS \/ SP" }, "geometry": { "type": "LineString", "coordinates": [ [ -47.89939995204611, -20.125674526757962 ], [ -47.89615897165919, -20.131142583763165 ], [ -47.88787106429811, -20.134796816120115 ], [ -47.89100614771553, -20.141450622048524 ], [ -47.889510464536272, -20.155788936110469 ], [ -47.896070268827827, -20.163968528224927 ], [ -47.909916357853596, -20.175280503092722 ], [ -47.911539868869795, -20.185999009047006 ], [ -47.908732596432117, -20.191606759544296 ], [ -47.910124663322506, -20.203324114616123 ], [ -47.915031585639092, -20.211475511185824 ], [ -47.928838210614913, -20.21417960530448 ], [ -47.927736549202336, -20.229531608197135 ], [ -47.932037222339886, -20.234868406451767 ], [ -47.924001609886318, -20.242891439188497 ], [ -47.933268675708803, -20.250184792594041 ], [ -47.937309058066546, -20.259137559750513 ], [ -47.945305304496173, -20.265530595560506 ], [ -47.962436673613574, -20.272858310262791 ], [ -47.976559197149186, -20.261961040669462 ], [ -47.981563426111165, -20.269116748339229 ], [ -47.98343696844131, -20.280323272301132 ], [ -47.970221424678982, -20.292994452831692 ], [ -47.998278557509366, -20.308734822553959 ], [ -48.013580184877583, -20.322148665928125 ], [ -48.039962152331434, -20.353280846134108 ], [ -48.055131727746982, -20.349600835610033 ], [ -48.059462866318199, -20.342296291940272 ], [ -48.07135114833676, -20.34876607409501 ], [ -48.074708265374113, -20.342252116342024 ], [ -48.068641272476725, -20.331763025643056 ], [ -48.077247537144103, -20.325935345040076 ], [ -48.084618692698484, -20.316597507069275 ], [ -48.086643818457382, -20.305067837810441 ], [ -48.092553221354024, -20.309320254226293 ], [ -48.10228509008482, -20.310742890871662 ], [ -48.111436520179211, -20.301306639189988 ], [ -48.123597475742883, -20.314802768732761 ], [ -48.131221366872516, -20.316546566770569 ], [ -48.139217932561507, -20.306881064409534 ], [ -48.136271022389735, -20.301019434399336 ], [ -48.145733832850055, -20.298266008869177 ], [ -48.149788637635481, -20.289554309483776 ], [ -48.152182285783795, -20.275814592269569 ], [ -48.145977324294044, -20.261840338161051 ], [ -48.153191332314066, -20.256666582496734 ], [ -48.158347374032019, -20.247262158721583 ], [ -48.155895409345646, -20.235706955911269 ], [ -48.161503343304616, -20.230413603904651 ], [ -48.174258392810543, -20.227108946120889 ], [ -48.177192895036058, -20.223121132734033 ], [ -48.202539839941608, -20.222092048409252 ], [ -48.204058553859106, -20.218174037701658 ], [ -48.217156716309368, -20.220123738219911 ], [ -48.226312378613322, -20.228116015941339 ], [ -48.241531668551602, -20.229027745933706 ], [ -48.23984520409283, -20.220272459106639 ], [ -48.228747615010377, -20.215253198875985 ], [ -48.227896486733407, -20.200004538878318 ], [ -48.245954846438956, -20.198415802846966 ], [ -48.261218396511765, -20.194660190815114 ], [ -48.26466036728209, -20.197467056759194 ], [ -48.265757329736914, -20.207767097373615 ], [ -48.274412950996862, -20.210050376223819 ], [ -48.285586303465095, -20.203407301905429 ], [ -48.302670781031679, -20.202653163712512 ], [ -48.315129880739335, -20.195536421868322 ], [ -48.316694776642578, -20.188284180070809 ], [ -48.312886505707638, -20.183606306086116 ], [ -48.314214155958496, -20.174555660315434 ], [ -48.308656758502536, -20.15679295543049 ], [ -48.32563500814905, -20.159031480418435 ], [ -48.325241657276585, -20.172724394215379 ], [ -48.333618898793077, -20.177007813859461 ], [ -48.335114805903515, -20.185043452393359 ], [ -48.348973670698285, -20.185455156630155 ], [ -48.355111110189569, -20.17876604871412 ], [ -48.359472097259406, -20.168288735536692 ], [ -48.368560331993699, -20.170390252408197 ], [ -48.376443961719417, -20.16526948839612 ], [ -48.374748012111013, -20.160474502895966 ], [ -48.364041583152471, -20.159574545029159 ], [ -48.36218301633312, -20.148569202106955 ], [ -48.376354377552445, -20.149196865942542 ], [ -48.398408122936473, -20.153754282933789 ], [ -48.392979398680268, -20.14044961006141 ], [ -48.400595733706098, -20.142386472757494 ], [ -48.406084883410585, -20.149277772551102 ], [ -48.418155982312662, -20.142485258787644 ], [ -48.42150914053434, -20.152752259209361 ], [ -48.430981035046671, -20.148449955600938 ], [ -48.435487307593121, -20.138870563325781 ], [ -48.441991154268294, -20.131739712018032 ], [ -48.45161586967663, -20.125873736483694 ], [ -48.439026574216996, -20.120220569323749 ], [ -48.405776775677623, -20.113511042300729 ], [ -48.392293022604861, -20.118522246404495 ], [ -48.383864581784962, -20.1189894558986 ], [ -48.374935922754617, -20.123103211244143 ], [ -48.361821643553981, -20.12305406059636 ], [ -48.345919328414254, -20.119863250688411 ], [ -48.341999461505907, -20.114997219645943 ], [ -48.328989894867732, -20.112729950526727 ], [ -48.315412862313678, -20.113801091647019 ], [ -48.29549331966092, -20.124007597372664 ], [ -48.285761851128484, -20.13741116239521 ], [ -48.279407130934317, -20.140799809663463 ], [ -48.265100096192434, -20.143796443351107 ], [ -48.254687801300975, -20.143815787768347 ], [ -48.241332835641799, -20.140184518700551 ], [ -48.237411916526696, -20.135918674507192 ], [ -48.225343283565621, -20.134179161738871 ], [ -48.218635496730769, -20.127883961375687 ], [ -48.218990097614892, -20.115386846425793 ], [ -48.228126832787041, -20.104214360004676 ], [ -48.247643596974399, -20.088206162284504 ], [ -48.25342513516182, -20.077920665506269 ], [ -48.246385590222751, -20.05874965916939 ], [ -48.244131900866471, -20.047403814034737 ], [ -48.246997015899524, -20.033879816300441 ], [ -48.240883589206248, -20.029284448818203 ], [ -48.228498992034815, -20.028214176443043 ], [ -48.217063315419637, -20.032534807335423 ], [ -48.20777146518094, -20.03937002360766 ], [ -48.19708009537004, -20.055266132525954 ], [ -48.191056348171912, -20.060982265718959 ], [ -48.18183075008897, -20.077855098633847 ], [ -48.182054329643563, -20.089513056182568 ], [ -48.178605977284008, -20.096180217942674 ], [ -48.16774931387971, -20.103810100355815 ], [ -48.15565998841771, -20.105301167314963 ], [ -48.147721571093598, -20.124139575580898 ], [ -48.126546683682477, -20.131256517973895 ], [ -48.11697748252476, -20.142068342080279 ], [ -48.105487413113558, -20.146355955263061 ], [ -48.07677584273091, -20.148429558077623 ], [ -48.057639588895881, -20.139602523337711 ], [ -48.049386913375308, -20.137235523000925 ], [ -48.046118049508316, -20.126875947267081 ], [ -48.038843000004412, -20.119948998347525 ], [ -48.020163000122288, -20.124028998539416 ], [ -48.001055029066322, -20.101259039373133 ], [ -48.001215345811545, -20.09683978792583 ], [ -47.992820708708678, -20.082026884533036 ], [ -47.989748165045739, -20.072962968366255 ], [ -47.991528039387447, -20.049165929464039 ], [ -47.988517057016509, -20.040347996762591 ], [ -47.975969316530659, -20.035372668413856 ], [ -47.956738078999081, -20.047588349522641 ], [ -47.946022144206552, -20.060467754583154 ], [ -47.944668222960104, -20.08525411698389 ], [ -47.942404499867735, -20.095001339839939 ], [ -47.931524816517019, -20.110434850088211 ], [ -47.91307179562682, -20.120273676089255 ], [ -47.89939995204611, -20.125674526757962 ] ] } }
]
}
