{
"type": "FeatureCollection",
"features": [
{ "type": "Feature", "properties": { "Name": "MIRASSOLÃNDIA", "Description": "MIRASSOLÃNDIA \/ SP" }, "geometry": { "type": "LineString", "coordinates": [ [ -49.478112318828437, -20.505141762582241 ], [ -49.471298797801239, -20.513842668304449 ], [ -49.471556966181026, -20.526990799785551 ], [ -49.45815394884562, -20.539088330661912 ], [ -49.451478547496947, -20.538258855361846 ], [ -49.446000479238705, -20.54324275694762 ], [ -49.443328187845566, -20.572428306021433 ], [ -49.428405620223145, -20.587978642700136 ], [ -49.423049373229958, -20.608251114397376 ], [ -49.424424854823144, -20.615043646147285 ], [ -49.43141067786047, -20.61932245137001 ], [ -49.436476062520228, -20.62810811909435 ], [ -49.448375332455612, -20.64043729644402 ], [ -49.457730798937177, -20.665939040754097 ], [ -49.457709803364708, -20.67408712332201 ], [ -49.465277000333231, -20.681650999993622 ], [ -49.483877631447513, -20.693689981407484 ], [ -49.490057105251132, -20.691701340244606 ], [ -49.49717110776038, -20.684696766342654 ], [ -49.495419791390184, -20.673651885625986 ], [ -49.489929589478947, -20.666326743884099 ], [ -49.494079942735141, -20.659990940929163 ], [ -49.501636127505265, -20.662535993541212 ], [ -49.516976494969242, -20.65999205608847 ], [ -49.530810611320589, -20.65336513089602 ], [ -49.533191334412493, -20.644739339249039 ], [ -49.528826116032405, -20.642558441019215 ], [ -49.533829242425554, -20.626897299770519 ], [ -49.541064964576435, -20.624473035102426 ], [ -49.544308392917969, -20.617548919946671 ], [ -49.537752887385807, -20.614570333853806 ], [ -49.539870292579906, -20.605512144569786 ], [ -49.535681865625577, -20.594506421234314 ], [ -49.536121869728447, -20.580763115725176 ], [ -49.533988064497521, -20.563307442984065 ], [ -49.536668980389095, -20.550604003771692 ], [ -49.532812950057568, -20.546007129025725 ], [ -49.531437094346359, -20.534216854224383 ], [ -49.526824841193445, -20.528001821227008 ], [ -49.514708173643271, -20.520187542720862 ], [ -49.513013282536917, -20.510859211483364 ], [ -49.499775198166837, -20.503872289474543 ], [ -49.49701411850674, -20.497390703717937 ], [ -49.478112318828437, -20.505141762582241 ] ] } }
]
}
