{
"type": "FeatureCollection",
"features": [
{ "type": "Feature", "properties": { "Name": "MOGI GUAÃU", "Description": "MOGI GUAÃU \/ SP" }, "geometry": { "type": "LineString", "coordinates": [ [ -46.87485035256168, -22.113137793574253 ], [ -46.866921665002792, -22.119307392821895 ], [ -46.865269592417683, -22.13134423654725 ], [ -46.869725386917018, -22.138521161022709 ], [ -46.883839764393542, -22.153916146113204 ], [ -46.882413919866451, -22.162979780792227 ], [ -46.88591227722975, -22.169366120250231 ], [ -46.892532777665508, -22.170195656704152 ], [ -46.899945953143174, -22.175687250765971 ], [ -46.895880407754589, -22.194905800662127 ], [ -46.897081614225101, -22.204884712259627 ], [ -46.910638590998133, -22.215794351128352 ], [ -46.915142035176757, -22.208998210399045 ], [ -46.915569315671341, -22.197908531753285 ], [ -46.927332375188932, -22.184816110575014 ], [ -46.945753283087519, -22.183568521569953 ], [ -46.954766991903114, -22.187042444353267 ], [ -46.952849781192405, -22.192445240255608 ], [ -46.958330155312346, -22.197823955910792 ], [ -46.974194129655295, -22.200269290795063 ], [ -46.983724184223661, -22.19992871034168 ], [ -46.978676437067861, -22.225005511495112 ], [ -46.977543292189118, -22.255720195830349 ], [ -46.973778597903902, -22.270944044432042 ], [ -46.974688894376925, -22.277424348654733 ], [ -46.969557102877957, -22.295384340514882 ], [ -46.956849288463843, -22.295611663947113 ], [ -46.925081502509272, -22.269943710533767 ], [ -46.913359255125499, -22.262829904976115 ], [ -46.906623957129852, -22.251042574555129 ], [ -46.899994902342826, -22.245745144123077 ], [ -46.874156226128889, -22.253447752911427 ], [ -46.868971963685112, -22.258151212608311 ], [ -46.850720585186821, -22.259873079778739 ], [ -46.844503163590097, -22.265049465960033 ], [ -46.822947264904307, -22.267446739275556 ], [ -46.808759263529161, -22.278519427029892 ], [ -46.797263416873136, -22.27997418835804 ], [ -46.791257619243702, -22.297321157345493 ], [ -46.791159926789135, -22.301155665101817 ], [ -46.806430090476226, -22.316726088138406 ], [ -46.812085709188068, -22.315698403158702 ], [ -46.823194478642222, -22.328428302224324 ], [ -46.824869403899811, -22.336355183045214 ], [ -46.831871291526852, -22.334331911688309 ], [ -46.84268854573974, -22.340087646527593 ], [ -46.841686462660107, -22.348610976615248 ], [ -46.849822814471281, -22.347348100934084 ], [ -46.850578787281165, -22.354269359843045 ], [ -46.858440779318471, -22.357702635068506 ], [ -46.874100666912227, -22.384802162589665 ], [ -46.872161828405638, -22.388131785553409 ], [ -46.878646170584261, -22.382488260924443 ], [ -46.89037408549558, -22.377172263089449 ], [ -46.902072356054362, -22.379513182187562 ], [ -46.912796598783984, -22.376583281792989 ], [ -46.921464043430824, -22.386522656495345 ], [ -46.933196795795425, -22.393549732334236 ], [ -46.939581049725632, -22.400912491818019 ], [ -46.957733606220927, -22.392512995678146 ], [ -46.959560309160906, -22.387074369886193 ], [ -46.970148881065931, -22.378369448691046 ], [ -46.982784642697084, -22.378391086379509 ], [ -46.992919439180746, -22.371877977586564 ], [ -47.002329741824099, -22.360569402156159 ], [ -47.006750304482921, -22.346341153421463 ], [ -47.012108353717508, -22.344568791116782 ], [ -47.013933561984231, -22.324297429182991 ], [ -47.031504771527921, -22.317140703480618 ], [ -47.031747514735962, -22.308026115013149 ], [ -47.054604942863762, -22.302087296191701 ], [ -47.066165372533874, -22.306425708479594 ], [ -47.073827814901676, -22.30670089742841 ], [ -47.083754773563896, -22.299811108495817 ], [ -47.090948203296875, -22.30245344527026 ], [ -47.099773164200137, -22.292926613872108 ], [ -47.116249125396791, -22.294218029538399 ], [ -47.134160091614888, -22.300160157864923 ], [ -47.141791927355541, -22.296000565873385 ], [ -47.1481334104285, -22.296596703075352 ], [ -47.157221222481382, -22.292565670968884 ], [ -47.159791950737883, -22.287610539594709 ], [ -47.168850089659884, -22.284385166042512 ], [ -47.176612426022579, -22.296330073873776 ], [ -47.184290774699427, -22.292020084659157 ], [ -47.184247573067012, -22.274316806075717 ], [ -47.188223267189983, -22.271336114669907 ], [ -47.199957815500738, -22.282137549808056 ], [ -47.208915760054253, -22.280087095542967 ], [ -47.217461315986895, -22.265246976866418 ], [ -47.230265533227737, -22.256825754904636 ], [ -47.232617028353154, -22.250461560352676 ], [ -47.22744804269297, -22.238554441134511 ], [ -47.219039474192357, -22.229765824533104 ], [ -47.227700113669243, -22.22739665862883 ], [ -47.231220596153548, -22.220834596139639 ], [ -47.241739703524445, -22.219794929492366 ], [ -47.23491631513582, -22.212338725052064 ], [ -47.229333679105991, -22.212950693919367 ], [ -47.224204519023317, -22.206333485901609 ], [ -47.20397057698051, -22.199181580565437 ], [ -47.195875274724131, -22.177961117311668 ], [ -47.191186707800284, -22.173599961169202 ], [ -47.199257287693626, -22.149781039962988 ], [ -47.193564374096525, -22.111813683954324 ], [ -47.199376078243347, -22.105074733811872 ], [ -47.197488914781559, -22.098716874084399 ], [ -47.188636160330475, -22.097189286556272 ], [ -47.180855434630587, -22.092426247673131 ], [ -47.174245982366131, -22.095333432092161 ], [ -47.165826412458891, -22.09314076173672 ], [ -47.148287566817714, -22.109215181035722 ], [ -47.139218365335232, -22.112296544349988 ], [ -47.135762382228108, -22.107513542316099 ], [ -47.129750104983316, -22.086598455554224 ], [ -47.109416890377133, -22.075580394419603 ], [ -47.100476407959832, -22.067324985859386 ], [ -47.091932513974314, -22.075990634560071 ], [ -47.091422181088717, -22.080479926107671 ], [ -47.081727608142558, -22.087948301972517 ], [ -47.056544028683959, -22.101824978739728 ], [ -47.04620593145853, -22.11564227956751 ], [ -47.039820540785286, -22.117499918286569 ], [ -47.027882825731808, -22.112945046376748 ], [ -47.017190855173794, -22.114560553426767 ], [ -47.008694563203505, -22.121475099795987 ], [ -46.995706511945905, -22.12731900057139 ], [ -46.978252467877034, -22.126795431463961 ], [ -46.973243139759063, -22.134498006977363 ], [ -46.960458317297473, -22.143711893189277 ], [ -46.947091935644266, -22.147465450270261 ], [ -46.937049307079796, -22.146408677618354 ], [ -46.921248077536688, -22.130696220154391 ], [ -46.90807256349796, -22.13080436902635 ], [ -46.899558689781657, -22.127869320013076 ], [ -46.893289736132374, -22.130058987532209 ], [ -46.886943337365096, -22.123485886764225 ], [ -46.878050214146015, -22.120838271868706 ], [ -46.87485035256168, -22.113137793574253 ] ] } }
]
}
