{
"type": "FeatureCollection",
"features": [
{ "type": "Feature", "properties": { "Name": "MONTE ALTO", "Description": "MONTE ALTO \/ SP" }, "geometry": { "type": "LineString", "coordinates": [ [ -48.47709709505483, -21.179320041686537 ], [ -48.46332098407612, -21.180976402239139 ], [ -48.453358466220209, -21.184613083426996 ], [ -48.458933468804496, -21.201681151064236 ], [ -48.450489011058949, -21.211336987511913 ], [ -48.432743619022744, -21.224568671407042 ], [ -48.427565899146884, -21.231344795925565 ], [ -48.439807535589232, -21.249741440115315 ], [ -48.424971154495154, -21.275274666092912 ], [ -48.43005589886058, -21.288179327713749 ], [ -48.437103805696033, -21.298297367129745 ], [ -48.435343604923389, -21.307113663964401 ], [ -48.426824263329024, -21.318652681675871 ], [ -48.433705148973388, -21.326269803608508 ], [ -48.432451426592024, -21.336256508730855 ], [ -48.438113406208686, -21.342815479350861 ], [ -48.451023423292327, -21.346588883570064 ], [ -48.474530936253643, -21.338044157711636 ], [ -48.478482089676667, -21.33176950325992 ], [ -48.484811212467427, -21.33442653135927 ], [ -48.491985678196443, -21.346066862195865 ], [ -48.512843858557176, -21.344186967054839 ], [ -48.527403810537407, -21.352015058248295 ], [ -48.539671113630959, -21.353818864449011 ], [ -48.545469972760998, -21.351735527372625 ], [ -48.553070370001535, -21.339009102388104 ], [ -48.565026690229502, -21.33787802684941 ], [ -48.577325748384503, -21.339741200895674 ], [ -48.576950932539489, -21.329891939161595 ], [ -48.586487173544185, -21.323335118820637 ], [ -48.590710320624737, -21.314076063259677 ], [ -48.603331140020032, -21.315429733595291 ], [ -48.605083650689892, -21.307815922966427 ], [ -48.613155723457844, -21.291950632915356 ], [ -48.619296976973885, -21.286933096685004 ], [ -48.62988297322061, -21.268649844414767 ], [ -48.631319293950241, -21.25551091659548 ], [ -48.64530935724099, -21.242668608569375 ], [ -48.653205130512333, -21.239825310189872 ], [ -48.653639358269743, -21.231095577598808 ], [ -48.668194346891539, -21.228582023741353 ], [ -48.673408590034342, -21.223286533146961 ], [ -48.686718913347136, -21.218619019352218 ], [ -48.695541352551345, -21.220914269078207 ], [ -48.704209147034476, -21.212904950103336 ], [ -48.706954593779408, -21.20677294611454 ], [ -48.697070424860158, -21.212158349128458 ], [ -48.673218034484648, -21.206967280615459 ], [ -48.661217820146241, -21.206253899697685 ], [ -48.651664894019575, -21.210999624832763 ], [ -48.638616092658481, -21.20695298229424 ], [ -48.635190375335526, -21.201705063138093 ], [ -48.625892007709922, -21.196416930796659 ], [ -48.610804319163947, -21.200630942563919 ], [ -48.600270900881355, -21.211588937079739 ], [ -48.591108207677614, -21.21450236279378 ], [ -48.584842057215099, -21.213126581726328 ], [ -48.580975998543465, -21.204001102468851 ], [ -48.583977638757005, -21.184181152538088 ], [ -48.581168220536881, -21.165683447932736 ], [ -48.57148826517124, -21.162160566956572 ], [ -48.538213024811228, -21.170131861696003 ], [ -48.535817485388577, -21.185831525404524 ], [ -48.516328948222338, -21.189817636374755 ], [ -48.511784679319476, -21.184192582921298 ], [ -48.497746053537526, -21.184147449545094 ], [ -48.482788585025162, -21.18209650335092 ], [ -48.47709709505483, -21.179320041686537 ] ] } }
]
}
