{
"type": "FeatureCollection",
"features": [
{ "type": "Feature", "properties": { "Name": "NATIVIDADE DA SERRA", "Description": "NATIVIDADE DA SERRA \/ SP" }, "geometry": { "type": "LineString", "coordinates": [ [ -45.380970504685024, -23.288999974868887 ], [ -45.37320664487072, -23.301673506227303 ], [ -45.364230788520047, -23.298893652320146 ], [ -45.346580836136638, -23.303625914604254 ], [ -45.339243309830863, -23.298089974972299 ], [ -45.324654656886878, -23.292301511105791 ], [ -45.32398662248459, -23.298195401596445 ], [ -45.332363319911224, -23.315313269191957 ], [ -45.339370221258662, -23.318943970787586 ], [ -45.329222677784287, -23.326140427638563 ], [ -45.314188804669577, -23.326501820202793 ], [ -45.3124625461096, -23.333278887210838 ], [ -45.306650244812886, -23.334271570576448 ], [ -45.301669985481396, -23.32617964887163 ], [ -45.295521705562237, -23.322489908582384 ], [ -45.283991441851526, -23.322512010320963 ], [ -45.273779520408482, -23.318738115971257 ], [ -45.264273635120105, -23.320730180853104 ], [ -45.264839314083019, -23.328559013087951 ], [ -45.25468043465429, -23.328763926314082 ], [ -45.252333773384919, -23.319076533555119 ], [ -45.24348136697148, -23.326978472578389 ], [ -45.226595234882154, -23.331765531454096 ], [ -45.213839654776223, -23.316674130506666 ], [ -45.212138090700307, -23.311279887157013 ], [ -45.203528442783352, -23.305653890314716 ], [ -45.204036426639732, -23.295563930431001 ], [ -45.189859276484356, -23.2960532488583 ], [ -45.174617123981022, -23.287867053022012 ], [ -45.1619705264186, -23.287027051157448 ], [ -45.171113728615637, -23.296358080361074 ], [ -45.176640663335888, -23.306518083043045 ], [ -45.191093042909586, -23.314855023240682 ], [ -45.196950316603754, -23.327988954426644 ], [ -45.197280526075353, -23.33620342314941 ], [ -45.203967772394712, -23.364890391678216 ], [ -45.20021565692695, -23.367693380644937 ], [ -45.199848966456614, -23.377683716330409 ], [ -45.205666035958757, -23.381160781344928 ], [ -45.204411039238039, -23.396075361188934 ], [ -45.194554845529638, -23.392565205619686 ], [ -45.188487904792908, -23.395964794039966 ], [ -45.175038244119598, -23.395167980317979 ], [ -45.16968194406644, -23.397691147928072 ], [ -45.166386061867229, -23.410158828966757 ], [ -45.174553299994784, -23.413075676601125 ], [ -45.177273390354621, -23.421216069066304 ], [ -45.174579648332042, -23.431502845579814 ], [ -45.175727653608305, -23.438975801691868 ], [ -45.201628047596273, -23.452306102544526 ], [ -45.220637375614331, -23.455159827663863 ], [ -45.251215041041291, -23.471105156477734 ], [ -45.267442396349452, -23.482210794492516 ], [ -45.273435203271958, -23.483132949426022 ], [ -45.288881696133323, -23.485396873067199 ], [ -45.306995977482359, -23.496021020353737 ], [ -45.309230278354619, -23.50514795021769 ], [ -45.316677230569667, -23.508100419998357 ], [ -45.318509324046033, -23.519522828915399 ], [ -45.327342880669391, -23.531366357971024 ], [ -45.333103425982294, -23.52991334942152 ], [ -45.34274776010102, -23.540065900320997 ], [ -45.341877474465832, -23.546729179707825 ], [ -45.348948282537151, -23.547882588110895 ], [ -45.355916370044383, -23.539871775362087 ], [ -45.3703805694077, -23.541921396854946 ], [ -45.372906087845649, -23.548352645757973 ], [ -45.385507073592521, -23.555692501307817 ], [ -45.397807253202124, -23.556102488738812 ], [ -45.414753466299373, -23.560066060000622 ], [ -45.424994333321763, -23.54830222886471 ], [ -45.430794920948806, -23.552854018797859 ], [ -45.443908281042297, -23.55606024218639 ], [ -45.445812522629751, -23.56855069585788 ], [ -45.457261300568518, -23.577102946343871 ], [ -45.450084457931325, -23.564873247502302 ], [ -45.460703893669688, -23.564583789010612 ], [ -45.46699809848343, -23.561334913475434 ], [ -45.48299161926775, -23.560254656826885 ], [ -45.482891288202318, -23.552217991267241 ], [ -45.486923135094571, -23.542169784208113 ], [ -45.498413280048794, -23.539324814888232 ], [ -45.503973360182385, -23.531614274079459 ], [ -45.497888498655243, -23.519301231466613 ], [ -45.499115359186412, -23.509521557473875 ], [ -45.507527416157295, -23.501068789093324 ], [ -45.509580337262719, -23.484041339336272 ], [ -45.519589035305671, -23.482862880317612 ], [ -45.524730658193278, -23.468230239733714 ], [ -45.521835430260865, -23.458808443754602 ], [ -45.534040387853565, -23.455121083970823 ], [ -45.552708209116531, -23.452733403723585 ], [ -45.561922993751125, -23.44246312527298 ], [ -45.560839379933384, -23.43511224313545 ], [ -45.563797339175835, -23.426775254374434 ], [ -45.562173792186734, -23.413818131701362 ], [ -45.558150826998997, -23.405898478731785 ], [ -45.549697941706597, -23.396319944409868 ], [ -45.549778284440201, -23.390692378250606 ], [ -45.539081576253693, -23.375600029417797 ], [ -45.537006396028289, -23.36753847961711 ], [ -45.557197353175241, -23.374413712123044 ], [ -45.572879009758417, -23.36940888151463 ], [ -45.577434818761844, -23.363124736517307 ], [ -45.576843746541606, -23.34816862418262 ], [ -45.574638413731748, -23.342348033834639 ], [ -45.564117788305225, -23.342045218611929 ], [ -45.566107835108483, -23.332411179931967 ], [ -45.556986117715098, -23.33270169692571 ], [ -45.550018727182476, -23.338917140913281 ], [ -45.541411112632716, -23.335209308063099 ], [ -45.533287684978625, -23.327068535184708 ], [ -45.524941218262597, -23.334159581599351 ], [ -45.519053848756073, -23.333571092232091 ], [ -45.512883554332518, -23.317840062868584 ], [ -45.502128937000805, -23.326785334175778 ], [ -45.497297825734051, -23.326287901165642 ], [ -45.495326063047344, -23.317060964891596 ], [ -45.47953247684228, -23.315718237506587 ], [ -45.472261432918742, -23.325350631326554 ], [ -45.461788558794922, -23.326225882118706 ], [ -45.468352390250566, -23.312251190040342 ], [ -45.465634852166659, -23.304006608418206 ], [ -45.457759396379004, -23.304309795960251 ], [ -45.453763510677447, -23.296934332653279 ], [ -45.444897063148915, -23.29254459245891 ], [ -45.439863966848577, -23.302495161022819 ], [ -45.431267696347042, -23.305150395874023 ], [ -45.430667822461999, -23.29380649777158 ], [ -45.409867936156274, -23.287109670974473 ], [ -45.39794402479685, -23.276916163150361 ], [ -45.392484944824275, -23.283530775724671 ], [ -45.380970504685024, -23.288999974868887 ] ] } }
]
}
