{
"type": "FeatureCollection",
"features": [
{ "type": "Feature", "properties": { "Name": "NAZARÃ PAULISTA", "Description": "NAZARÃ PAULISTA \/ SP" }, "geometry": { "type": "LineString", "coordinates": [ [ -46.215060999565424, -23.10842399956789 ], [ -46.214352000144629, -23.114781000442747 ], [ -46.226531297381428, -23.127553459024853 ], [ -46.225929358652934, -23.136585056255285 ], [ -46.235234438818281, -23.135443347132703 ], [ -46.247125503339248, -23.155102825634856 ], [ -46.256964870732133, -23.159554655922591 ], [ -46.256204334762174, -23.172328769257263 ], [ -46.26219799963792, -23.186387000259799 ], [ -46.2692550004179, -23.190279999922041 ], [ -46.275809999631747, -23.184937999988676 ], [ -46.283589000431959, -23.184244000360309 ], [ -46.285630000124343, -23.19069200003571 ], [ -46.301641000132008, -23.198274999891282 ], [ -46.309961999846394, -23.204976000441999 ], [ -46.305542000163136, -23.213005000180544 ], [ -46.311327999887226, -23.227071000426292 ], [ -46.336901000180937, -23.250517999805822 ], [ -46.347497999632935, -23.252240000075915 ], [ -46.353888000230995, -23.265017000234309 ], [ -46.364156999845648, -23.274083000130304 ], [ -46.381398999963835, -23.278056999930584 ], [ -46.387099000218655, -23.2867089996206 ], [ -46.396411999813893, -23.285881000108017 ], [ -46.400501999567609, -23.294644999567026 ], [ -46.418450999913659, -23.316318999921862 ], [ -46.425947000253814, -23.301711999908832 ], [ -46.429569000009273, -23.289304999725914 ], [ -46.437409000025298, -23.284551999974781 ], [ -46.434324999898763, -23.279862999577745 ], [ -46.44036299955274, -23.273089000157199 ], [ -46.448391000144511, -23.270067000191887 ], [ -46.469807000292803, -23.282753999797194 ], [ -46.479195999795536, -23.26877499996624 ], [ -46.490501999567584, -23.257782000239047 ], [ -46.504344000275353, -23.24866099960542 ], [ -46.510932000111659, -23.250159000337529 ], [ -46.51538009371631, -23.237501891499051 ], [ -46.50936299970266, -23.232545000151617 ], [ -46.495999000353549, -23.236831999996749 ], [ -46.483598999594108, -23.236971000111506 ], [ -46.472202000122138, -23.233328000286914 ], [ -46.466041000191979, -23.223072000372497 ], [ -46.450944000065533, -23.2182399996762 ], [ -46.444233999999085, -23.202435000175058 ], [ -46.439622999601681, -23.198708000074078 ], [ -46.447737999708863, -23.179604000424263 ], [ -46.45273099973582, -23.175332000371498 ], [ -46.45142000043262, -23.164634999905275 ], [ -46.442878999566119, -23.159909999646743 ], [ -46.432537000182371, -23.160866999712198 ], [ -46.426878000019656, -23.147896999646775 ], [ -46.428322000060234, -23.141497000386206 ], [ -46.416014999992228, -23.141166999557353 ], [ -46.412163999568861, -23.135926999831156 ], [ -46.416864999619975, -23.123986999600334 ], [ -46.415423999717746, -23.120754999843314 ], [ -46.407756999585843, -23.122695000274007 ], [ -46.395901999677506, -23.121918000415349 ], [ -46.393480000401667, -23.118024999853787 ], [ -46.376225999730075, -23.117484000086506 ], [ -46.371784999977706, -23.108120999984124 ], [ -46.363846999939028, -23.109477999609965 ], [ -46.344233000152769, -23.102486000028819 ], [ -46.338631999966765, -23.095719000031806 ], [ -46.330373999560372, -23.100447999575465 ], [ -46.325452000109692, -23.111758999578115 ], [ -46.314686000058828, -23.109044000280335 ], [ -46.307222000295042, -23.113033999919139 ], [ -46.297042000288052, -23.112615000381933 ], [ -46.289061000065026, -23.117528000316895 ], [ -46.279898000192524, -23.114887999981192 ], [ -46.277337848862601, -23.105124986828624 ], [ -46.261982379982783, -23.093930975134356 ], [ -46.257151407211609, -23.096692710400244 ], [ -46.257831016787975, -23.106338510413877 ], [ -46.247619000016812, -23.117021000318857 ], [ -46.239051999749961, -23.11702000027276 ], [ -46.236057000130415, -23.111648999901377 ], [ -46.219398999963857, -23.106092999991915 ], [ -46.215060999565424, -23.10842399956789 ] ] } }
]
}
