{
"type": "FeatureCollection",
"features": [
{ "type": "Feature", "properties": { "Name": "NOVA ODESSA", "Description": "NOVA ODESSA \/ SP" }, "geometry": { "type": "LineString", "coordinates": [ [ -47.211154574623883, -22.794706880218314 ], [ -47.22438200022907, -22.795758999777942 ], [ -47.229299000348526, -22.786724000412221 ], [ -47.235463000417099, -22.794447999575482 ], [ -47.244148999876408, -22.797255999564698 ], [ -47.253191999611033, -22.794384000221385 ], [ -47.268126000314624, -22.796376000352097 ], [ -47.275072999619169, -22.790170000145338 ], [ -47.283901000230912, -22.790766999797142 ], [ -47.283262000440914, -22.800960000403677 ], [ -47.293254999918247, -22.812928000127044 ], [ -47.303771000131519, -22.821701000001099 ], [ -47.317723999662803, -22.826050000007456 ], [ -47.323228999918342, -22.830588999782492 ], [ -47.330339000444496, -22.830423000221227 ], [ -47.33010300035312, -22.81949199975594 ], [ -47.358400325014941, -22.817465882044754 ], [ -47.356069938776614, -22.811862655137361 ], [ -47.351201291606287, -22.785031764104588 ], [ -47.342523642352148, -22.783223004438071 ], [ -47.332689656502396, -22.773692476826284 ], [ -47.326410354354323, -22.771613308107643 ], [ -47.319495000393886, -22.762450998914399 ], [ -47.313491999656037, -22.764407999229718 ], [ -47.301332000071682, -22.757135999326863 ], [ -47.28756538863172, -22.753682284309946 ], [ -47.267730500062498, -22.76661299929043 ], [ -47.242622999651644, -22.759080999088781 ], [ -47.231542000362992, -22.747742999639684 ], [ -47.228611067546694, -22.732902780239041 ], [ -47.220116195605897, -22.733725902728168 ], [ -47.210808380602259, -22.742946178623185 ], [ -47.210515000167106, -22.752133999784235 ], [ -47.217012000303555, -22.760736499889504 ], [ -47.217644999816855, -22.771201999572554 ], [ -47.214757999781796, -22.775405000040678 ], [ -47.21774499993176, -22.788304999576038 ], [ -47.211154574623883, -22.794706880218314 ] ] } }
]
}
