{
"type": "FeatureCollection",
"features": [
{ "type": "Feature", "properties": { "Name": "NOVA EUROPA", "Description": "NOVA EUROPA \/ SP" }, "geometry": { "type": "LineString", "coordinates": [ [ -48.444108256390905, -21.723622610594926 ], [ -48.441458284372288, -21.736161478369468 ], [ -48.447152525368722, -21.741908651662925 ], [ -48.448219124912669, -21.753158767563036 ], [ -48.453045967996957, -21.757761750504358 ], [ -48.46536952458387, -21.759853335263188 ], [ -48.467881099033434, -21.768303984840998 ], [ -48.476269114428014, -21.777144771114251 ], [ -48.485130705617507, -21.781255844681425 ], [ -48.493949304716573, -21.788799842738513 ], [ -48.502679886267678, -21.785436831544473 ], [ -48.504295220647862, -21.79438243829884 ], [ -48.517850467125299, -21.792311691731129 ], [ -48.524811864575838, -21.795273535145498 ], [ -48.539190121127149, -21.796109519738479 ], [ -48.557445393689932, -21.814677771661763 ], [ -48.585845905663973, -21.827895780465838 ], [ -48.594828193965952, -21.829058777440594 ], [ -48.596444413279016, -21.842109496156297 ], [ -48.594517578923103, -21.84589942631743 ], [ -48.59617771662829, -21.848952201982513 ], [ -48.618385044634067, -21.840190264668934 ], [ -48.628554588223608, -21.843655616913164 ], [ -48.636224335784448, -21.835987345139813 ], [ -48.648033114136865, -21.839348149397551 ], [ -48.657864799520837, -21.844637237718302 ], [ -48.669727500323859, -21.831593510332198 ], [ -48.662964084125122, -21.823787766392286 ], [ -48.647969497893996, -21.818398255275213 ], [ -48.638547416829788, -21.807563422913574 ], [ -48.629162160305377, -21.788267282209233 ], [ -48.630173769903536, -21.774288768012184 ], [ -48.614392809280673, -21.764351125404062 ], [ -48.601525648489826, -21.765347383574863 ], [ -48.594037671900992, -21.754326521951381 ], [ -48.578869014693218, -21.751851629948703 ], [ -48.570126100738889, -21.744825528075637 ], [ -48.552766247164527, -21.742726046369906 ], [ -48.546261453503234, -21.728306541513629 ], [ -48.53205486763801, -21.723910771364952 ], [ -48.525850460130584, -21.716473208971365 ], [ -48.51138244494382, -21.7158658374384 ], [ -48.504590129031207, -21.719250944075782 ], [ -48.491491923413491, -21.708394583742969 ], [ -48.478780505415948, -21.70767168440068 ], [ -48.475121101057937, -21.712270159040543 ], [ -48.466372533065908, -21.710260244414712 ], [ -48.452883682635786, -21.711494095376167 ], [ -48.444108256390905, -21.723622610594926 ] ] } }
]
}
