{
"type": "FeatureCollection",
"features": [
{ "type": "Feature", "properties": { "Name": "NOVA GRANADA", "Description": "NOVA GRANADA \/ SP" }, "geometry": { "type": "LineString", "coordinates": [ [ -49.308314105811291, -20.311485944920378 ], [ -49.304058087610592, -20.328056246798326 ], [ -49.299798218512933, -20.328837609268191 ], [ -49.289381522339333, -20.338750757941057 ], [ -49.285101197262399, -20.337436771989417 ], [ -49.273098878510382, -20.340841078253106 ], [ -49.270837097953681, -20.345835024366863 ], [ -49.273476943605999, -20.35411947563324 ], [ -49.281111752505353, -20.358597953732556 ], [ -49.293294786425236, -20.370328804930352 ], [ -49.296345076364155, -20.381063209099747 ], [ -49.274039714161461, -20.377530152294636 ], [ -49.268102656212591, -20.385116427481076 ], [ -49.264988491025974, -20.393865598018863 ], [ -49.269629503598651, -20.4057446826709 ], [ -49.266829609199078, -20.420993986583142 ], [ -49.261425498487938, -20.425297542047872 ], [ -49.250195951881608, -20.426636095679214 ], [ -49.228311386061591, -20.4123767699719 ], [ -49.22230977387693, -20.413822438254897 ], [ -49.224477276704931, -20.422109182792497 ], [ -49.236723609407022, -20.427683611609325 ], [ -49.237120537782573, -20.431888949415452 ], [ -49.227300340338388, -20.435402461254512 ], [ -49.240934882738593, -20.447773976887504 ], [ -49.230430027823502, -20.455192463761133 ], [ -49.224246409943817, -20.456068737082489 ], [ -49.219606775132547, -20.471894902127985 ], [ -49.212405441258056, -20.478105813532405 ], [ -49.211165512678235, -20.50264529314569 ], [ -49.207352225324883, -20.505505375572568 ], [ -49.192988523401596, -20.508291692907278 ], [ -49.190021922573628, -20.513296408402482 ], [ -49.198218059515796, -20.521691845901898 ], [ -49.202679740077883, -20.530948426528596 ], [ -49.200145112406965, -20.535709905987346 ], [ -49.221397006066923, -20.543318464575407 ], [ -49.239926865932091, -20.555243002762325 ], [ -49.248065620731779, -20.566104533297505 ], [ -49.261124454929586, -20.573011017244596 ], [ -49.270410556701783, -20.573791283440926 ], [ -49.283737712625282, -20.581195564623556 ], [ -49.298592430895951, -20.581923858998834 ], [ -49.321648312419654, -20.593780262748908 ], [ -49.323629709543411, -20.599566585329626 ], [ -49.339825439292547, -20.6075267329723 ], [ -49.350726629929966, -20.603020718531297 ], [ -49.364410880557671, -20.60555550178492 ], [ -49.378922960726015, -20.590932733958482 ], [ -49.384821937782135, -20.590375254114633 ], [ -49.394875868126746, -20.583680186391462 ], [ -49.403114069958292, -20.572453678594343 ], [ -49.412929007267842, -20.568959616393158 ], [ -49.417297304027329, -20.558865640137128 ], [ -49.424614605479633, -20.557678831812609 ], [ -49.425721705092599, -20.551062110328076 ], [ -49.446000479238705, -20.54324275694762 ], [ -49.451478547496947, -20.538258855361846 ], [ -49.45815394884562, -20.539088330661912 ], [ -49.471556966181026, -20.526990799785551 ], [ -49.471298797801239, -20.513842668304449 ], [ -49.478112318828437, -20.505141762582241 ], [ -49.469969295846283, -20.501094098413887 ], [ -49.462595079898961, -20.500971421893553 ], [ -49.455748741711034, -20.489989501814023 ], [ -49.444554488998449, -20.482155797052371 ], [ -49.442044089063415, -20.472369162306961 ], [ -49.430697812254209, -20.462866611704726 ], [ -49.422620035985851, -20.462862869625667 ], [ -49.411482426172995, -20.455749963390076 ], [ -49.406566807412219, -20.448220171024047 ], [ -49.406771562357676, -20.4389275365765 ], [ -49.398442168371332, -20.436311318812272 ], [ -49.399323127160521, -20.427562800282942 ], [ -49.404922001349235, -20.421545203548249 ], [ -49.408956302491333, -20.400224049500252 ], [ -49.400931908180951, -20.3886381807074 ], [ -49.397638297669232, -20.377963265792062 ], [ -49.385036232735899, -20.36460946025835 ], [ -49.376720686510453, -20.358646849872169 ], [ -49.361533132747802, -20.343650473090801 ], [ -49.350934453362292, -20.336186714345331 ], [ -49.344322806752075, -20.326488506339444 ], [ -49.336074624244475, -20.31880544881238 ], [ -49.324911745280758, -20.314325877137492 ], [ -49.321881226037704, -20.310054619924696 ], [ -49.307246495429354, -20.301560214732092 ], [ -49.308314105811291, -20.311485944920378 ] ] } }
]
}
