{
"type": "FeatureCollection",
"features": [
{ "type": "Feature", "properties": { "Name": "ONDA VERDE", "Description": "ONDA VERDE \/ SP" }, "geometry": { "type": "LineString", "coordinates": [ [ -49.200145112406965, -20.535709905987346 ], [ -49.175705096912623, -20.545916945910278 ], [ -49.16626322087091, -20.554890418158209 ], [ -49.168397393025202, -20.560600837958248 ], [ -49.158379841156716, -20.574146631661677 ], [ -49.150300995594421, -20.576115121715475 ], [ -49.146588908051619, -20.582105617380307 ], [ -49.136114220894513, -20.582827986122592 ], [ -49.130651424923258, -20.594581517323093 ], [ -49.137119911154912, -20.606926404929595 ], [ -49.145272870746339, -20.61629974453751 ], [ -49.161704255247109, -20.640013657304394 ], [ -49.176268921473479, -20.647630202771609 ], [ -49.175804972021808, -20.657717334287497 ], [ -49.178763630037452, -20.661976934487878 ], [ -49.19600934345641, -20.666224894763047 ], [ -49.206860772806351, -20.665516061716858 ], [ -49.211305112640787, -20.671781220227103 ], [ -49.22139139429737, -20.679102743996395 ], [ -49.232676305866789, -20.680210304961577 ], [ -49.246534761470002, -20.678368457438296 ], [ -49.259951999784903, -20.681460000178845 ], [ -49.266452000059701, -20.679999000253588 ], [ -49.278902999573745, -20.678431999936777 ], [ -49.29304100044174, -20.68463399995909 ], [ -49.3059480002999, -20.682544999851814 ], [ -49.328338000398332, -20.675036999857639 ], [ -49.344837999573997, -20.662451999560062 ], [ -49.346549000236109, -20.652020999669329 ], [ -49.344473999875163, -20.643081000187976 ], [ -49.352477000213355, -20.635337000102421 ], [ -49.358528742407486, -20.627871083883349 ], [ -49.362918432239837, -20.616200318190067 ], [ -49.364410880557671, -20.60555550178492 ], [ -49.350726629929966, -20.603020718531297 ], [ -49.339825439292547, -20.6075267329723 ], [ -49.323629709543411, -20.599566585329626 ], [ -49.321648312419654, -20.593780262748908 ], [ -49.298592430895951, -20.581923858998834 ], [ -49.283737712625282, -20.581195564623556 ], [ -49.270410556701783, -20.573791283440926 ], [ -49.261124454929586, -20.573011017244596 ], [ -49.248065620731779, -20.566104533297505 ], [ -49.239926865932091, -20.555243002762325 ], [ -49.221397006066923, -20.543318464575407 ], [ -49.200145112406965, -20.535709905987346 ] ] } }
]
}
