{
"type": "FeatureCollection",
"features": [
{ "type": "Feature", "properties": { "Name": "ORIENTE", "Description": "ORIENTE \/ SP" }, "geometry": { "type": "LineString", "coordinates": [ [ -50.049046260576397, -22.045367112702024 ], [ -50.03526663954375, -22.044665938282375 ], [ -50.029157792198305, -22.037383517934984 ], [ -50.016140386169859, -22.032161057686608 ], [ -50.004434940819806, -22.031865703239589 ], [ -50.015358132471817, -22.055669791927301 ], [ -50.016184329742998, -22.06832638725291 ], [ -50.014282329266052, -22.080761582081323 ], [ -50.020920718116592, -22.085849724984769 ], [ -50.038861020219883, -22.0883454272996 ], [ -50.034834526092482, -22.097246143494658 ], [ -50.03900511499404, -22.105386927164883 ], [ -50.046758564256258, -22.106959117469273 ], [ -50.047705588142321, -22.113842675898752 ], [ -50.05846481539885, -22.123920895133153 ], [ -50.055467033276898, -22.130141393310623 ], [ -50.04646060896988, -22.13796740796948 ], [ -50.04058698290288, -22.155981155905579 ], [ -50.053062281199288, -22.16661099140407 ], [ -50.050535268987453, -22.185209867041689 ], [ -50.07148320888296, -22.215413760736396 ], [ -50.090557991358189, -22.221113449825793 ], [ -50.093789491991402, -22.225892032591162 ], [ -50.108549056593624, -22.235588578649924 ], [ -50.113540755301585, -22.243500965097439 ], [ -50.125389781912872, -22.251043616869364 ], [ -50.149943123676159, -22.260527893247627 ], [ -50.152995635839886, -22.253014480234011 ], [ -50.16404004980842, -22.257196315157781 ], [ -50.172626837858218, -22.246138950052455 ], [ -50.157952216921217, -22.225187273473864 ], [ -50.161797924834325, -22.218722228947684 ], [ -50.159608917417579, -22.209937622423297 ], [ -50.170074194968095, -22.191322670504803 ], [ -50.160388547793218, -22.181518059211044 ], [ -50.151545335149081, -22.166612625472226 ], [ -50.140642559006835, -22.159712328860849 ], [ -50.141744526188916, -22.152812222006389 ], [ -50.135126374782317, -22.146977535684695 ], [ -50.138609337550854, -22.138465769979234 ], [ -50.134690394246263, -22.130500374792405 ], [ -50.138633375529821, -22.124795301461972 ], [ -50.132971449872457, -22.109833666390557 ], [ -50.124251087317759, -22.104348890988486 ], [ -50.121518442422143, -22.095872078333684 ], [ -50.113451347401735, -22.084943781230493 ], [ -50.110711009705312, -22.075792548087577 ], [ -50.100772429104268, -22.059704772956877 ], [ -50.10404336770722, -22.052140714622222 ], [ -50.103116474245837, -22.036079531545113 ], [ -50.095476390822739, -22.029507535144603 ], [ -50.087745626959077, -22.026960428480947 ], [ -50.071864516933886, -22.033402362229197 ], [ -50.055389067451472, -22.044199889812997 ], [ -50.049046260576397, -22.045367112702024 ] ] } }
]
}
