{
"type": "FeatureCollection",
"features": [
{ "type": "Feature", "properties": { "Name": "OUROESTE", "Description": "OUROESTE \/ SP" }, "geometry": { "type": "LineString", "coordinates": [ [ -50.337433469978635, -19.869484489117838 ], [ -50.3350455136395, -19.876803935453211 ], [ -50.338904700591399, -19.899688471845479 ], [ -50.34744049258461, -19.905177574785228 ], [ -50.352259610492581, -19.916876563902235 ], [ -50.345115308924335, -19.929887902204882 ], [ -50.344313555226329, -19.961982527871328 ], [ -50.338737814298668, -19.983390489879184 ], [ -50.338783266034852, -19.993694602623748 ], [ -50.331598326801327, -20.035871606889089 ], [ -50.337430047158932, -20.034519137148436 ], [ -50.34907646820443, -20.038730722544756 ], [ -50.363359083654757, -20.032916674764692 ], [ -50.369608095736965, -20.048977891116746 ], [ -50.37723999263153, -20.056169963772788 ], [ -50.394196262847231, -20.058437126771935 ], [ -50.414756254997144, -20.051142089835537 ], [ -50.422917365144258, -20.054529756842779 ], [ -50.427142061756683, -20.049481213786919 ], [ -50.427836632454557, -20.040334347751923 ], [ -50.432842955937645, -20.023792106520432 ], [ -50.429641971100061, -20.012129238673367 ], [ -50.426450214205992, -20.010144716405478 ], [ -50.429284650666034, -19.991633191918254 ], [ -50.433324033877, -19.983730217775303 ], [ -50.433370804019376, -19.965146233112137 ], [ -50.439216713880228, -19.958233501574796 ], [ -50.446721871117404, -19.95438699956031 ], [ -50.441265141073359, -19.942941911539943 ], [ -50.441132113356332, -19.932319480159833 ], [ -50.445119195594373, -19.930902778140648 ], [ -50.456656911986833, -19.919366453898704 ], [ -50.45258779718904, -19.915833572461338 ], [ -50.461559861098692, -19.892962645509613 ], [ -50.460767207640451, -19.879998918215446 ], [ -50.467768962167838, -19.869499888209248 ], [ -50.47354845349826, -19.868758738924612 ], [ -50.47663020352104, -19.854336169178794 ], [ -50.480609976069495, -19.845872658396445 ], [ -50.478378629470114, -19.83928915606964 ], [ -50.479869485987933, -19.826848303606255 ], [ -50.470140002259257, -19.815248890124106 ], [ -50.461621243425611, -19.793686188966372 ], [ -50.454110832348988, -19.786230586172561 ], [ -50.443524320790743, -19.79253838603762 ], [ -50.42688372070711, -19.796457153974412 ], [ -50.417132774657773, -19.801136462377769 ], [ -50.394750145402838, -19.820673172628744 ], [ -50.389089128060782, -19.82921846506008 ], [ -50.372919392316078, -19.845365696169893 ], [ -50.367883213139748, -19.846502620899173 ], [ -50.355098110089671, -19.857363684686273 ], [ -50.352758941072238, -19.86460243215646 ], [ -50.337433469978635, -19.869484489117838 ] ] } }
]
}
