{
"type": "FeatureCollection",
"features": [
{ "type": "Feature", "properties": { "Name": "PALMEIRA D'OESTE", "Description": "PALMEIRA D'OESTE \/ SP" }, "geometry": { "type": "LineString", "coordinates": [ [ -50.671879625244451, -20.437719685015391 ], [ -50.668014339090462, -20.454679317796206 ], [ -50.666952217270989, -20.477086083056236 ], [ -50.668558671745245, -20.486649481788106 ], [ -50.664324218387939, -20.491268102141134 ], [ -50.658017900605614, -20.506018588087329 ], [ -50.655511439701115, -20.516856122012371 ], [ -50.662401351840856, -20.520949684880009 ], [ -50.661390217084829, -20.527387079749872 ], [ -50.666421019214617, -20.532055411028349 ], [ -50.679306967742313, -20.530096063482517 ], [ -50.682931017052738, -20.524858055754635 ], [ -50.690109865178101, -20.524645613404289 ], [ -50.704974585708499, -20.534311820833807 ], [ -50.711526653132466, -20.528274181808001 ], [ -50.724993045692486, -20.526853392370128 ], [ -50.735246055361131, -20.534000015987885 ], [ -50.739112019603965, -20.544968616208621 ], [ -50.755805014190003, -20.541681432252233 ], [ -50.755948143092262, -20.54841914492755 ], [ -50.766990978750641, -20.55316750597558 ], [ -50.768650960873117, -20.544740292730296 ], [ -50.779142120912127, -20.545436181834305 ], [ -50.787312426627125, -20.542029341281019 ], [ -50.790575938628649, -20.54586090465699 ], [ -50.79923149243939, -20.541549550271498 ], [ -50.806974246064556, -20.54676697161841 ], [ -50.807715153431559, -20.535303564407911 ], [ -50.81212320562139, -20.531151769538496 ], [ -50.804375495832396, -20.525667441998792 ], [ -50.80294090449911, -20.514631689400915 ], [ -50.806039283885809, -20.508159517747515 ], [ -50.803424014906341, -20.502913023117458 ], [ -50.806663816282082, -20.491403023830458 ], [ -50.799151015706741, -20.479974214438414 ], [ -50.802556145749456, -20.469832700918346 ], [ -50.802864001672276, -20.453309296886513 ], [ -50.799970213554445, -20.441001696970712 ], [ -50.80307071983782, -20.432670904538554 ], [ -50.800080092722055, -20.419676789152447 ], [ -50.812998118268524, -20.420114494588233 ], [ -50.833737749997113, -20.416594654219864 ], [ -50.838547979905286, -20.412071558955233 ], [ -50.843703776108327, -20.4146451173782 ], [ -50.851899515550144, -20.402344886507251 ], [ -50.853740647213044, -20.386421512842503 ], [ -50.848070572798633, -20.387309922514874 ], [ -50.83442489049628, -20.383272899124961 ], [ -50.82265824628098, -20.374366303162333 ], [ -50.824096709195715, -20.366684731315274 ], [ -50.820070261833045, -20.357783180549287 ], [ -50.814661856859175, -20.353450239736731 ], [ -50.825126142457457, -20.337026739592318 ], [ -50.826696276012285, -20.331003298163637 ], [ -50.811327228268908, -20.339109388687291 ], [ -50.785079440563663, -20.335872055051254 ], [ -50.764890033847962, -20.334970457720374 ], [ -50.751957492344332, -20.325906868906827 ], [ -50.742395313093198, -20.324348498484365 ], [ -50.731853012206727, -20.326466642021842 ], [ -50.720325671292642, -20.333553113585253 ], [ -50.715179583271095, -20.340040688826662 ], [ -50.71612264294555, -20.347116682388958 ], [ -50.709340931838483, -20.364664418727898 ], [ -50.708014751979192, -20.376906670306539 ], [ -50.704021843932935, -20.381167942346622 ], [ -50.683696430046147, -20.388508136041594 ], [ -50.679746888208278, -20.395391098220557 ], [ -50.681677598642239, -20.40567581258864 ], [ -50.680603192982915, -20.423190636438676 ], [ -50.671879625244451, -20.437719685015391 ] ] } }
]
}
