{
"type": "FeatureCollection",
"features": [
{ "type": "Feature", "properties": { "Name": "PARAIBUNA", "Description": "PARAIBUNA \/ SP" }, "geometry": { "type": "LineString", "coordinates": [ [ -45.566107835108483, -23.332411179931967 ], [ -45.564117788305225, -23.342045218611929 ], [ -45.574638413731748, -23.342348033834639 ], [ -45.576843746541606, -23.34816862418262 ], [ -45.577434818761844, -23.363124736517307 ], [ -45.572879009758417, -23.36940888151463 ], [ -45.557197353175241, -23.374413712123044 ], [ -45.537006396028289, -23.36753847961711 ], [ -45.539081576253693, -23.375600029417797 ], [ -45.549778284440201, -23.390692378250606 ], [ -45.549697941706597, -23.396319944409868 ], [ -45.558150826998997, -23.405898478731785 ], [ -45.562173792186734, -23.413818131701362 ], [ -45.563797339175835, -23.426775254374434 ], [ -45.560839379933384, -23.43511224313545 ], [ -45.561922993751125, -23.44246312527298 ], [ -45.552708209116531, -23.452733403723585 ], [ -45.534040387853565, -23.455121083970823 ], [ -45.521835430260865, -23.458808443754602 ], [ -45.524730658193278, -23.468230239733714 ], [ -45.519589035305671, -23.482862880317612 ], [ -45.509580337262719, -23.484041339336272 ], [ -45.507527416157295, -23.501068789093324 ], [ -45.499115359186412, -23.509521557473875 ], [ -45.497888498655243, -23.519301231466613 ], [ -45.503973360182385, -23.531614274079459 ], [ -45.498413280048794, -23.539324814888232 ], [ -45.486923135094571, -23.542169784208113 ], [ -45.482891288202318, -23.552217991267241 ], [ -45.48299161926775, -23.560254656826885 ], [ -45.46699809848343, -23.561334913475434 ], [ -45.460703893669688, -23.564583789010612 ], [ -45.450084457931325, -23.564873247502302 ], [ -45.457261300568518, -23.577102946343871 ], [ -45.470602161260672, -23.582344414662941 ], [ -45.476085099347813, -23.573760369545369 ], [ -45.486707496553663, -23.572602888112723 ], [ -45.502186929782965, -23.583994656228356 ], [ -45.507399414751148, -23.59183128288737 ], [ -45.52364994019257, -23.604539938167591 ], [ -45.539975419629855, -23.596768198493521 ], [ -45.551984931159609, -23.606818407443484 ], [ -45.553029841753755, -23.613273193403131 ], [ -45.573067029219999, -23.638774857673525 ], [ -45.580538644442861, -23.646541454124758 ], [ -45.585963581653914, -23.645835092415552 ], [ -45.602951626716163, -23.654120199287714 ], [ -45.616351209540653, -23.652285983411389 ], [ -45.631056051295673, -23.657242437688293 ], [ -45.633093305311775, -23.645870612938378 ], [ -45.626253406269655, -23.64050251467927 ], [ -45.622977079828331, -23.62861589460783 ], [ -45.635770023167993, -23.625335058066412 ], [ -45.637277255440949, -23.621874019870063 ], [ -45.660359092298222, -23.624720942517456 ], [ -45.669208872691286, -23.629015049704719 ], [ -45.679553847931686, -23.627530023491772 ], [ -45.691325002247027, -23.636533506116393 ], [ -45.702539508591428, -23.636851272568151 ], [ -45.695295493791946, -23.631549382398017 ], [ -45.696841957190543, -23.6222041007386 ], [ -45.703543721265696, -23.611174320538396 ], [ -45.705796345824638, -23.601676169419648 ], [ -45.714871584456034, -23.608720246042477 ], [ -45.721010847772391, -23.606701739293783 ], [ -45.725612615729567, -23.598474805967498 ], [ -45.733434448540947, -23.603154776271879 ], [ -45.743752747191479, -23.602089345846593 ], [ -45.733857146989685, -23.592366669086456 ], [ -45.739598517857246, -23.583267700044303 ], [ -45.730937044708803, -23.574487137771143 ], [ -45.741536063138767, -23.572152325069681 ], [ -45.745764002706494, -23.566711674004519 ], [ -45.741309972677072, -23.561046567445089 ], [ -45.747020582234029, -23.554922767971334 ], [ -45.746474029153092, -23.538879816849999 ], [ -45.753980610017095, -23.531966011522169 ], [ -45.754622002003771, -23.525745332580982 ], [ -45.761943167842901, -23.518480453510048 ], [ -45.759547907210099, -23.511470841606013 ], [ -45.772298912464805, -23.507214032001912 ], [ -45.783440345295674, -23.509966568102584 ], [ -45.79114833292919, -23.506327110707559 ], [ -45.7887940526034, -23.492882152589232 ], [ -45.780671322823252, -23.487030997882187 ], [ -45.783622227783553, -23.47216738081994 ], [ -45.788556366283217, -23.468176300196035 ], [ -45.786134641300627, -23.460216146258119 ], [ -45.772334138909343, -23.452126355946518 ], [ -45.764092073590291, -23.440784581143475 ], [ -45.763594878001186, -23.434756062142526 ], [ -45.772747036546434, -23.433003349125215 ], [ -45.776997661512837, -23.424413056417393 ], [ -45.786073600716065, -23.419125493346769 ], [ -45.777781181456298, -23.414626556570283 ], [ -45.773935743339848, -23.404940805973354 ], [ -45.762314735336702, -23.4020462525325 ], [ -45.754487727826358, -23.389132599489812 ], [ -45.756354412825829, -23.375004796933808 ], [ -45.767868464458047, -23.377014098221991 ], [ -45.78612308771028, -23.368336150392963 ], [ -45.787772548664122, -23.362035654821568 ], [ -45.782332178187403, -23.355569430384833 ], [ -45.776039713561886, -23.349582327862095 ], [ -45.771668666675566, -23.353139716724513 ], [ -45.764245416992367, -23.349139242681872 ], [ -45.765033899394894, -23.342437419251439 ], [ -45.74930222791545, -23.347464689743617 ], [ -45.744220623982585, -23.352637197148908 ], [ -45.734359920174143, -23.343156714111043 ], [ -45.72152726996751, -23.341436995420963 ], [ -45.72161566073413, -23.335643161702475 ], [ -45.705754691925449, -23.338539884308148 ], [ -45.703689836816466, -23.329992121439204 ], [ -45.695697884649633, -23.326409340218845 ], [ -45.67721759991224, -23.306952399833335 ], [ -45.667047090450808, -23.300866821546549 ], [ -45.653686955488581, -23.296563856936416 ], [ -45.645554586774722, -23.291118246110102 ], [ -45.632819379011096, -23.291189700843969 ], [ -45.632002430367834, -23.295735730619413 ], [ -45.572612556823962, -23.325179734956748 ], [ -45.566107835108483, -23.332411179931967 ] ] } }
]
}
