{
"type": "FeatureCollection",
"features": [
{ "type": "Feature", "properties": { "Name": "PARAÃSO", "Description": "PARAÃSO \/ SP" }, "geometry": { "type": "LineString", "coordinates": [ [ -48.785643484958825, -20.93402085248033 ], [ -48.777398758545814, -20.93900908879834 ], [ -48.765882539547533, -20.950239215467377 ], [ -48.763275845603744, -20.946616436898974 ], [ -48.743310768477158, -20.958139738957755 ], [ -48.734777246372801, -20.974110863925205 ], [ -48.727524115145741, -20.980455163674833 ], [ -48.718317223860765, -20.977733702748139 ], [ -48.708479946492275, -20.980996954845523 ], [ -48.710416677887331, -20.987775458070871 ], [ -48.701394103555003, -20.992376640569489 ], [ -48.701195553032278, -21.003333432691704 ], [ -48.693813347507955, -21.006897490027086 ], [ -48.691996600962341, -21.01215240860671 ], [ -48.701968335969866, -21.033762662316974 ], [ -48.715783102508112, -21.047382465728163 ], [ -48.716575655242252, -21.060431337236366 ], [ -48.725140443176883, -21.073379614177782 ], [ -48.740127223292689, -21.078325792801021 ], [ -48.746325312163378, -21.084163946908575 ], [ -48.77051063605694, -21.090983249677205 ], [ -48.776903627800152, -21.099245351891454 ], [ -48.784118274338816, -21.100232900128219 ], [ -48.786299117710087, -21.090500536770321 ], [ -48.792685985070136, -21.086480274944677 ], [ -48.79009588541674, -21.080940898103904 ], [ -48.802960775419422, -21.078004235706882 ], [ -48.809324585960837, -21.070326692822558 ], [ -48.804530856813528, -21.062642126233072 ], [ -48.817770280274146, -21.051853626943284 ], [ -48.819375319215567, -21.041603971745872 ], [ -48.81676859289621, -21.034750700684242 ], [ -48.826131640662652, -21.029177479656937 ], [ -48.834857831723525, -21.01719103573765 ], [ -48.844293463772317, -21.015515063669227 ], [ -48.837908261057343, -21.007440280344611 ], [ -48.8158104129202, -20.99943759297048 ], [ -48.814651789348545, -20.994101502482295 ], [ -48.804719193735764, -20.987162651035476 ], [ -48.804522383401206, -20.982071010668562 ], [ -48.798361485094404, -20.965372478956677 ], [ -48.794266829550509, -20.959659872904751 ], [ -48.791242686500766, -20.940595946145947 ], [ -48.795590391483351, -20.935550711695953 ], [ -48.785643484958825, -20.93402085248033 ] ] } }
]
}
