{
"type": "FeatureCollection",
"features": [
{ "type": "Feature", "properties": { "Name": "PEDERNEIRAS", "Description": "PEDERNEIRAS \/ SP" }, "geometry": { "type": "LineString", "coordinates": [ [ -48.860378962718926, -22.089207205348202 ], [ -48.866501504940452, -22.105311294180865 ], [ -48.86390157749576, -22.11851092533891 ], [ -48.85792324696024, -22.125382149566516 ], [ -48.844120789442854, -22.129050701828358 ], [ -48.849351656553665, -22.148110520484067 ], [ -48.854171564066405, -22.155825136121109 ], [ -48.856038942443199, -22.16689293875805 ], [ -48.850656212214403, -22.168211102060638 ], [ -48.827169323405485, -22.181205114924069 ], [ -48.819135024861446, -22.191945778374929 ], [ -48.823389423383155, -22.1982116482489 ], [ -48.821477234486736, -22.207595639427154 ], [ -48.82522436051579, -22.213390742089018 ], [ -48.817065820631051, -22.225458767108364 ], [ -48.803190466766573, -22.232413509575736 ], [ -48.782643190131068, -22.231295916673162 ], [ -48.771539734770897, -22.226993279416263 ], [ -48.77069088717468, -22.241960045119924 ], [ -48.766020088156495, -22.254310992358342 ], [ -48.751975507063946, -22.266050379021749 ], [ -48.74458912778595, -22.290005635651539 ], [ -48.736631720377545, -22.296940557061021 ], [ -48.73272833624366, -22.317505660957465 ], [ -48.722795758617337, -22.329450887148653 ], [ -48.715720015066609, -22.344286138694311 ], [ -48.705119109858963, -22.361088390117057 ], [ -48.702908876643278, -22.368544673697667 ], [ -48.720379558170009, -22.377138149106255 ], [ -48.726974664449187, -22.390509885322899 ], [ -48.731525751112478, -22.395439651318782 ], [ -48.728137266621502, -22.41997428718355 ], [ -48.73794724057268, -22.440845212736349 ], [ -48.742606736911341, -22.445684671510321 ], [ -48.740799483609237, -22.45312056566155 ], [ -48.749577096106066, -22.464669370694878 ], [ -48.764849515292838, -22.469870036772761 ], [ -48.7727286951731, -22.480018964303724 ], [ -48.788493644266225, -22.478697168639368 ], [ -48.79392340634007, -22.483534255901134 ], [ -48.808620566086226, -22.477773152109247 ], [ -48.813201264726558, -22.484377867644412 ], [ -48.827013315312229, -22.488418375007939 ], [ -48.844464149700684, -22.490380419620635 ], [ -48.861045856780834, -22.484074702585417 ], [ -48.857611239766868, -22.478807693520196 ], [ -48.857060663119057, -22.460847645902106 ], [ -48.862702846858831, -22.455722198220823 ], [ -48.859129120912144, -22.425865599317884 ], [ -48.854691889319206, -22.409142844366727 ], [ -48.855102707723745, -22.400091866746209 ], [ -48.858711080052274, -22.393545569372463 ], [ -48.869105488327591, -22.390735603465259 ], [ -48.880836269378278, -22.384433573650483 ], [ -48.887887273478839, -22.384645043833643 ], [ -48.892007186482431, -22.391750018948187 ], [ -48.914712431333612, -22.398451772231454 ], [ -48.917482976358258, -22.393085961847589 ], [ -48.913067066791655, -22.382577200277524 ], [ -48.914556823438602, -22.367258347294865 ], [ -48.911563837401161, -22.347966482866866 ], [ -48.911527941860982, -22.338409081713678 ], [ -48.934158989945388, -22.340790129460856 ], [ -48.940128784116041, -22.339307395619752 ], [ -48.951798965250021, -22.327214712988564 ], [ -48.960384864769651, -22.335370912837334 ], [ -48.973452372029328, -22.329847043006566 ], [ -48.974868376174584, -22.312396163652011 ], [ -48.991690472936909, -22.303786509439817 ], [ -49.002566328773014, -22.292337351087838 ], [ -49.013444746777623, -22.288269636534437 ], [ -49.017166689990688, -22.283502223348876 ], [ -49.02881733784983, -22.279279514238169 ], [ -49.036606334614589, -22.273710659419351 ], [ -49.043945611001106, -22.263372233042048 ], [ -49.045360636683988, -22.255594020947285 ], [ -49.054077591707426, -22.23810138607007 ], [ -49.055106068090538, -22.228808938681539 ], [ -49.047067345781329, -22.223244930309249 ], [ -49.049115644371454, -22.216882719661722 ], [ -49.044308258119599, -22.211617526327757 ], [ -49.034342491912412, -22.206968195026146 ], [ -49.031483621771713, -22.214673541350805 ], [ -49.013285046967326, -22.21502101061111 ], [ -49.007897513459454, -22.219448565498851 ], [ -48.992181317513769, -22.216884004792913 ], [ -48.972993653034621, -22.202656704843033 ], [ -48.964166013950319, -22.19143558128701 ], [ -48.948021935863608, -22.175085581834082 ], [ -48.937129455160175, -22.167185820968825 ], [ -48.926429039968184, -22.152704965261876 ], [ -48.917354589142917, -22.144921929203633 ], [ -48.909426871952519, -22.124257163337347 ], [ -48.899687894980332, -22.115579433144262 ], [ -48.878327748127049, -22.106407976946514 ], [ -48.869987243916107, -22.091914135029242 ], [ -48.860378962718926, -22.089207205348202 ] ] } }
]
}
