{
"type": "FeatureCollection",
"features": [
{ "type": "Feature", "properties": { "Name": "PIACATU", "Description": "PIACATU \/ SP" }, "geometry": { "type": "LineString", "coordinates": [ [ -50.541052633771983, -21.57355908098674 ], [ -50.55136029254345, -21.591173397734053 ], [ -50.548431974955633, -21.595426811498101 ], [ -50.554858297372505, -21.602281647380096 ], [ -50.556461040344686, -21.611243111880068 ], [ -50.561001188553973, -21.615292830999294 ], [ -50.557976780204228, -21.622575790939948 ], [ -50.559474450885141, -21.629291178844763 ], [ -50.567884756875969, -21.640218716920231 ], [ -50.577160185494101, -21.647149856680471 ], [ -50.581022301537921, -21.641787311735015 ], [ -50.60489572525745, -21.64722544200049 ], [ -50.609580230842937, -21.656925000788135 ], [ -50.615202028750559, -21.65890716773157 ], [ -50.620777891986108, -21.645014552279747 ], [ -50.627606444281923, -21.642947331953735 ], [ -50.634937044908668, -21.655782378853644 ], [ -50.640819038267978, -21.649606503237464 ], [ -50.647363286086708, -21.649948760027197 ], [ -50.649745689112194, -21.638619236688385 ], [ -50.654425993065104, -21.634590872870433 ], [ -50.652555179278067, -21.623064112918428 ], [ -50.660802055070747, -21.618506109569239 ], [ -50.669613460492769, -21.605782761165472 ], [ -50.67707713560128, -21.601155555884134 ], [ -50.697098030050029, -21.592581897036894 ], [ -50.708349921211834, -21.583650486081009 ], [ -50.706567709532123, -21.578198501759402 ], [ -50.726087435186969, -21.576994294251222 ], [ -50.734291928629538, -21.57195022262465 ], [ -50.742447573596621, -21.577955107442222 ], [ -50.756163203369113, -21.571188295403484 ], [ -50.760201412065499, -21.563784484566266 ], [ -50.779812508840166, -21.567784040401076 ], [ -50.769041391646851, -21.554133391143068 ], [ -50.773520257353937, -21.544623326705103 ], [ -50.769198802682574, -21.532355299657294 ], [ -50.749435833796667, -21.523836900552453 ], [ -50.738339016332475, -21.525658468363588 ], [ -50.73110862086611, -21.529589115445276 ], [ -50.719036729661298, -21.527484141579805 ], [ -50.699686763633167, -21.527265642295504 ], [ -50.69246103564825, -21.519862237951884 ], [ -50.688652717948514, -21.511678396540731 ], [ -50.681234802144388, -21.514274410135897 ], [ -50.671850521384378, -21.501806935041998 ], [ -50.660130184160607, -21.50171472845193 ], [ -50.652764254566648, -21.492979381393297 ], [ -50.645776730911329, -21.491433304703204 ], [ -50.630279390381531, -21.500372776282575 ], [ -50.628921606546839, -21.506548475631575 ], [ -50.617776050324437, -21.509459668328986 ], [ -50.607132353575196, -21.506995400916992 ], [ -50.60502005653035, -21.516351581460299 ], [ -50.597974889029842, -21.523871193500721 ], [ -50.597535667337127, -21.54431818673487 ], [ -50.58751250639699, -21.539282683848739 ], [ -50.58091485323785, -21.5460566526923 ], [ -50.570686667555606, -21.551454615637965 ], [ -50.566112221901506, -21.547980074121085 ], [ -50.548626367013185, -21.55537951785044 ], [ -50.543639427517519, -21.563501235893284 ], [ -50.541052633771983, -21.57355908098674 ] ] } }
]
}
