{
"type": "FeatureCollection",
"features": [
{ "type": "Feature", "properties": { "Name": "PIQUETE", "Description": "PIQUETE \/ SP" }, "geometry": { "type": "LineString", "coordinates": [ [ -45.103862557311118, -22.562698938804942 ], [ -45.108759863177113, -22.570355175850636 ], [ -45.115382959056262, -22.57111831985452 ], [ -45.121998965579735, -22.582310516716916 ], [ -45.119330759806701, -22.592832228524458 ], [ -45.111614440853707, -22.595638932590646 ], [ -45.101555727015125, -22.610019140670772 ], [ -45.094618569891054, -22.611696363696183 ], [ -45.099320295695065, -22.62238589349414 ], [ -45.109881773724851, -22.627205811798717 ], [ -45.112248256052112, -22.6347012941294 ], [ -45.124126764238724, -22.63795347916971 ], [ -45.125972675798316, -22.631718711449309 ], [ -45.132220193207331, -22.629549436956893 ], [ -45.15727416237263, -22.635473613916076 ], [ -45.150933602903415, -22.64649763935455 ], [ -45.157361565683686, -22.657029828263944 ], [ -45.174830254312724, -22.659410715032436 ], [ -45.18560685017593, -22.64858868631876 ], [ -45.193801893542513, -22.656782394192078 ], [ -45.203738554990252, -22.655917246383748 ], [ -45.211637750181978, -22.651015451102126 ], [ -45.224241685705181, -22.651132999688116 ], [ -45.227923731395038, -22.641297621687841 ], [ -45.245767725100393, -22.631921602999512 ], [ -45.253348503630491, -22.632036883495346 ], [ -45.266895524908477, -22.619850527479798 ], [ -45.269105089028578, -22.611445717245996 ], [ -45.26265579163146, -22.608741400095482 ], [ -45.254540681806986, -22.581624259352054 ], [ -45.240937165118055, -22.575740032076794 ], [ -45.221348590964681, -22.56322627517244 ], [ -45.215069650344049, -22.56360280242734 ], [ -45.203736998263821, -22.557299301321677 ], [ -45.19159641953911, -22.555782770058727 ], [ -45.190011966978659, -22.552356469975052 ], [ -45.177186264934164, -22.546705827212122 ], [ -45.164515267865276, -22.53792871563769 ], [ -45.166261822325218, -22.52949076628579 ], [ -45.160009338859879, -22.516916784481964 ], [ -45.128459401080477, -22.497110265026663 ], [ -45.124358509637489, -22.49722137356747 ], [ -45.11865470075378, -22.509243953145869 ], [ -45.113872951475514, -22.510502090299152 ], [ -45.107854398761447, -22.525109571449491 ], [ -45.108495953525392, -22.536385234390991 ], [ -45.112115544896426, -22.541835686267859 ], [ -45.103862557311118, -22.562698938804942 ] ] } }
]
}
