{
"type": "FeatureCollection",
"features": [
{ "type": "Feature", "properties": { "Name": "PIRACICABA", "Description": "PIRACICABA \/ SP" }, "geometry": { "type": "LineString", "coordinates": [ [ -47.582749535562584, -22.541961933995992 ], [ -47.578631677509861, -22.563884737190847 ], [ -47.561223386450081, -22.576960954384504 ], [ -47.551926303056398, -22.580421469175405 ], [ -47.546520833469629, -22.590317280717898 ], [ -47.548452241777511, -22.59497393519888 ], [ -47.548706755312473, -22.61372351113107 ], [ -47.539423544860654, -22.619582700381269 ], [ -47.53486482744978, -22.625788965888034 ], [ -47.537422705293579, -22.636570446868575 ], [ -47.536680524486599, -22.644782473931969 ], [ -47.530124312986629, -22.655848977048603 ], [ -47.523395403774828, -22.672761184980629 ], [ -47.522031857084471, -22.680854452970607 ], [ -47.526936029274282, -22.688088005956672 ], [ -47.535439791013516, -22.687077021387381 ], [ -47.540754105317653, -22.682632880303117 ], [ -47.546115294984816, -22.688455012089094 ], [ -47.545583397255939, -22.696284519714766 ], [ -47.550005820612107, -22.705425812651072 ], [ -47.536143682285058, -22.710860720645709 ], [ -47.520169300872503, -22.696703540835699 ], [ -47.511699199858128, -22.691506832674122 ], [ -47.502163302394415, -22.691077843467667 ], [ -47.503423552055267, -22.697934577818444 ], [ -47.49271043573799, -22.710829734504614 ], [ -47.490459964156003, -22.72428520569764 ], [ -47.503097549612164, -22.729829976672022 ], [ -47.510334964287154, -22.736255127272269 ], [ -47.492962789101398, -22.753465917318181 ], [ -47.497893608203412, -22.761226653786991 ], [ -47.49505664734636, -22.767430222226949 ], [ -47.509665883973298, -22.768644895145769 ], [ -47.517517473552516, -22.772867424392071 ], [ -47.521680884964837, -22.778821341032028 ], [ -47.535208608590374, -22.775212208776395 ], [ -47.544976822522301, -22.76657263771699 ], [ -47.577647128512126, -22.784432360564949 ], [ -47.586951750023218, -22.786790820939583 ], [ -47.596643586332384, -22.795845129648967 ], [ -47.590755222175737, -22.805920886539639 ], [ -47.60050515738709, -22.810292603420862 ], [ -47.610412311179168, -22.811819165721882 ], [ -47.623920491637364, -22.799337848263065 ], [ -47.630281570038392, -22.788656981634343 ], [ -47.640553892647972, -22.791336928956071 ], [ -47.651319202019522, -22.798223923695105 ], [ -47.667677995043391, -22.799383808116204 ], [ -47.67201874646792, -22.800084011268041 ], [ -47.683296532708766, -22.813383445589523 ], [ -47.694994100897013, -22.831560861144791 ], [ -47.702041188450039, -22.839491290690486 ], [ -47.717569151794862, -22.847507634269842 ], [ -47.731659061416508, -22.834992143472615 ], [ -47.746372658970984, -22.830030407477295 ], [ -47.759172715948068, -22.83660004945267 ], [ -47.763506591156215, -22.841766211241634 ], [ -47.770994866319995, -22.842379926592287 ], [ -47.773628470677352, -22.84848777658959 ], [ -47.786543903478332, -22.843245488988089 ], [ -47.793522495966386, -22.848714342792618 ], [ -47.791620066512792, -22.85500117316559 ], [ -47.794064726905553, -22.863029644102767 ], [ -47.799177210859568, -22.86563998389812 ], [ -47.806904853176377, -22.876903984431294 ], [ -47.808884624325913, -22.877745132931523 ], [ -47.832913417620084, -22.887954850136168 ], [ -47.835292319584823, -22.896929504992613 ], [ -47.844761133919171, -22.901635150042068 ], [ -47.868769617823538, -22.89900934730349 ], [ -47.871014619728896, -22.89454557761627 ], [ -47.864938012179493, -22.887699959785266 ], [ -47.859234899371067, -22.872850695902855 ], [ -47.859286958426367, -22.866638949028243 ], [ -47.866821581950425, -22.86069560931486 ], [ -47.879925524343435, -22.863263816771678 ], [ -47.899140648721925, -22.870234166073885 ], [ -47.905165462516031, -22.877368084969078 ], [ -47.916737447575088, -22.88392358960192 ], [ -47.930828904929967, -22.883312955328563 ], [ -47.942509712453216, -22.883883276591916 ], [ -47.947779094829343, -22.888675203497826 ], [ -47.961543082946889, -22.890348194313674 ], [ -47.968648787411546, -22.899664532192389 ], [ -47.973677398792852, -22.897435142517793 ], [ -47.974980502048481, -22.885207566076247 ], [ -47.986491337705047, -22.868790993409561 ], [ -47.991314365865264, -22.87584556152342 ], [ -47.987771224962046, -22.887946461260128 ], [ -47.992636550936027, -22.895500347363111 ], [ -48.002519299825792, -22.899299734794852 ], [ -48.011126710229462, -22.894478461211975 ], [ -48.01468617562648, -22.88355109670573 ], [ -48.003551781789263, -22.881727375917592 ], [ -48.002705713997443, -22.867180972224048 ], [ -48.014443481881131, -22.852250241455408 ], [ -48.039922442766454, -22.846887267533301 ], [ -48.047528628943041, -22.83189295019946 ], [ -48.031998000007661, -22.82574400028534 ], [ -48.033584000301346, -22.818623000151263 ], [ -48.030665999736073, -22.805923999992558 ], [ -48.031737999708866, -22.79620299956872 ], [ -48.026856000304122, -22.788811000427302 ], [ -48.029418999786969, -22.77747099998663 ], [ -48.026800000419648, -22.762480000251742 ], [ -48.027506999748198, -22.752894999804369 ], [ -48.01820899994533, -22.744314999837343 ], [ -48.01428000042165, -22.73464900015119 ], [ -48.021730999585941, -22.724085000422406 ], [ -48.031539000424516, -22.719249000440982 ], [ -48.038777999704905, -22.725275000440888 ], [ -48.046272999998905, -22.724849999727667 ], [ -48.058552999721137, -22.73390700010793 ], [ -48.071713999601343, -22.736350000352218 ], [ -48.075918000115557, -22.726226000229701 ], [ -48.083881999554592, -22.723929999569805 ], [ -48.086357000375244, -22.707112000118684 ], [ -48.093890999769769, -22.702239000229611 ], [ -48.098580000166798, -22.688369000029297 ], [ -48.08953999967121, -22.667004000434247 ], [ -48.08846431607526, -22.651898357822915 ], [ -48.071086806111168, -22.644261020030001 ], [ -48.059411999763938, -22.643004999880816 ], [ -48.040029999884553, -22.655525999924915 ], [ -48.024637999643915, -22.660410000321235 ], [ -48.004471000436297, -22.661455999994359 ], [ -47.996098964195824, -22.659378499518084 ], [ -47.991423507588763, -22.654600316051699 ], [ -47.984269236136299, -22.661290491462974 ], [ -47.971186466482209, -22.666804124310826 ], [ -47.963771289113652, -22.662215963995489 ], [ -47.954722223451824, -22.665571742841621 ], [ -47.944047032444523, -22.663015663641943 ], [ -47.941297743795815, -22.657806193201225 ], [ -47.93225005949261, -22.66075260424924 ], [ -47.929267000171876, -22.668255999714575 ], [ -47.930446098608506, -22.675279281313745 ], [ -47.923635315117679, -22.686235229871894 ], [ -47.916939000034802, -22.691412000063735 ], [ -47.910141599355249, -22.691596147943812 ], [ -47.904157999691904, -22.681557999801782 ], [ -47.920118661047354, -22.668548023072788 ], [ -47.919582999655688, -22.659535999586694 ], [ -47.905691455296392, -22.662494929197575 ], [ -47.89339199964104, -22.658615000281998 ], [ -47.880214642891417, -22.648256180877979 ], [ -47.869498000332378, -22.648575000435869 ], [ -47.862121000084016, -22.658154999753378 ], [ -47.849537999878748, -22.659172999933954 ], [ -47.844882000104178, -22.664087999961168 ], [ -47.836516000113242, -22.665729000093222 ], [ -47.821361000010086, -22.673710000316191 ], [ -47.802433000382621, -22.666162000276074 ], [ -47.801425999810021, -22.635274000394759 ], [ -47.794672000412447, -22.624955000273019 ], [ -47.782462000321004, -22.598006000376586 ], [ -47.791155000103117, -22.58707399986514 ], [ -47.803290198184072, -22.581831664599573 ], [ -47.786193414294587, -22.579850589433136 ], [ -47.77722548097114, -22.58180092307407 ], [ -47.769981395125228, -22.578825483709068 ], [ -47.762595079699111, -22.588199072429177 ], [ -47.751823466080047, -22.58808808889415 ], [ -47.744623646663911, -22.59150407825058 ], [ -47.733478893536073, -22.590601336982047 ], [ -47.720588801831695, -22.594835407228231 ], [ -47.715897125951585, -22.605663357977562 ], [ -47.704278356360987, -22.597190442085203 ], [ -47.705051310169772, -22.593328952868831 ], [ -47.686957487498034, -22.583283376326733 ], [ -47.689555826739991, -22.567047230145533 ], [ -47.676553940312033, -22.553590097005326 ], [ -47.665314596491385, -22.553972558886414 ], [ -47.669226619512813, -22.53994652001586 ], [ -47.656350331502551, -22.53601161644292 ], [ -47.656954617461558, -22.523213877018748 ], [ -47.654448783384616, -22.520936134395015 ], [ -47.64641444167313, -22.532448528576708 ], [ -47.640356542720212, -22.535099199368517 ], [ -47.630945299386042, -22.547595614645843 ], [ -47.619237317947807, -22.550440614542708 ], [ -47.603605824649037, -22.551169481786133 ], [ -47.592404036517053, -22.540492859957453 ], [ -47.582749535562584, -22.541961933995992 ] ] } }
]
}
