{
"type": "FeatureCollection",
"features": [
{ "type": "Feature", "properties": { "Name": "PIRACAIA", "Description": "PIRACAIA \/ SP" }, "geometry": { "type": "LineString", "coordinates": [ [ -46.086560000243765, -22.9850049998808 ], [ -46.089605000370454, -22.993149000426001 ], [ -46.10036500014462, -22.999994999569537 ], [ -46.117846999639255, -23.005486000078804 ], [ -46.125904999815873, -23.011827000215813 ], [ -46.131375000256014, -23.023042000288054 ], [ -46.141972999754103, -23.031324000002542 ], [ -46.143996000415029, -23.042425000213541 ], [ -46.159073999665338, -23.050608999905364 ], [ -46.161439999955974, -23.066122000329983 ], [ -46.180330999675846, -23.079392999886977 ], [ -46.194807999989159, -23.077931999961777 ], [ -46.205201999972303, -23.084863000327175 ], [ -46.205218999856925, -23.093061999811425 ], [ -46.208842999704643, -23.102650000397144 ], [ -46.215060999565424, -23.10842399956789 ], [ -46.219398999963857, -23.106092999991915 ], [ -46.236057000130415, -23.111648999901377 ], [ -46.239051999749961, -23.11702000027276 ], [ -46.247619000016812, -23.117021000318857 ], [ -46.257831016787975, -23.106338510413877 ], [ -46.257151407211609, -23.096692710400244 ], [ -46.261982379982783, -23.093930975134356 ], [ -46.277337848862601, -23.105124986828624 ], [ -46.279898000192524, -23.114887999981192 ], [ -46.289061000065026, -23.117528000316895 ], [ -46.297042000288052, -23.112615000381933 ], [ -46.307222000295042, -23.113033999919139 ], [ -46.314686000058828, -23.109044000280335 ], [ -46.325452000109692, -23.111758999578115 ], [ -46.330373999560372, -23.100447999575465 ], [ -46.338631999966765, -23.095719000031806 ], [ -46.344233000152769, -23.102486000028819 ], [ -46.363846999939028, -23.109477999609965 ], [ -46.371784999977706, -23.108120999984124 ], [ -46.376225999730075, -23.117484000086506 ], [ -46.393480000401667, -23.118024999853787 ], [ -46.395901999677506, -23.121918000415349 ], [ -46.407756999585843, -23.122695000274007 ], [ -46.415423999717746, -23.120754999843314 ], [ -46.435500000124875, -23.113517999755857 ], [ -46.444758999927842, -23.117407000132914 ], [ -46.453853000215759, -23.111803999854658 ], [ -46.471877999569983, -23.113251000033586 ], [ -46.482683999666783, -23.112287999691375 ], [ -46.473717632063028, -23.106294343808884 ], [ -46.467763642578007, -23.099031738224085 ], [ -46.444389291332698, -23.092853641282488 ], [ -46.433939742025416, -23.076992781291779 ], [ -46.431971314924226, -23.066819998344215 ], [ -46.434748482556351, -23.05715656082657 ], [ -46.430914913692277, -23.042754951579695 ], [ -46.432468885530618, -23.038015449753171 ], [ -46.423560084430328, -23.034154381419512 ], [ -46.424560061297768, -23.021647683293907 ], [ -46.419931338860181, -23.007420326686656 ], [ -46.407769693516514, -22.993045537021885 ], [ -46.405129988158365, -22.983596019440707 ], [ -46.411111063424805, -22.980771782191937 ], [ -46.40442455634814, -22.977141037428908 ], [ -46.397945640678756, -22.968592928320959 ], [ -46.373842000407933, -22.972216000068329 ], [ -46.367117999695893, -22.970347000213849 ], [ -46.359937000392215, -22.963880999708348 ], [ -46.34434822399129, -22.9733210078582 ], [ -46.340442999844527, -22.977640000185829 ], [ -46.322932999957914, -22.984826999766199 ], [ -46.314126000314616, -22.986014999692429 ], [ -46.303803000008429, -22.976318000375386 ], [ -46.29789299996196, -22.987162999572718 ], [ -46.261769999685669, -22.996776999558847 ], [ -46.252074999561557, -22.992977999734876 ], [ -46.23148899991736, -22.989660999655371 ], [ -46.227595000209078, -22.995726999701219 ], [ -46.21356599987098, -22.999395999825481 ], [ -46.200703000243209, -23.012604000074475 ], [ -46.193410000271228, -23.003165000064655 ], [ -46.168183999791715, -22.998148999876374 ], [ -46.162317999975699, -23.001835999931416 ], [ -46.137572000047726, -22.99694900029607 ], [ -46.124472000282537, -22.990926000434509 ], [ -46.112541999613541, -22.992679000335556 ], [ -46.094956999865587, -22.988650999843742 ], [ -46.086560000243765, -22.9850049998808 ] ] } }
]
}
