{
"type": "FeatureCollection",
"features": [
{ "type": "Feature", "properties": { "Name": "PIRAPOZINHO", "Description": "PIRAPOZINHO \/ SP" }, "geometry": { "type": "LineString", "coordinates": [ [ -51.434035525119327, -22.205469991946529 ], [ -51.427656234547555, -22.208737495139246 ], [ -51.424200139025174, -22.22034939390937 ], [ -51.417133493915571, -22.223642204024429 ], [ -51.417958712724385, -22.232039035473065 ], [ -51.413042903307314, -22.244603395430314 ], [ -51.420832427974119, -22.257810213970174 ], [ -51.44433443078929, -22.272280669916938 ], [ -51.450395167103238, -22.274232133106405 ], [ -51.457293416857674, -22.296996180129554 ], [ -51.455878564743898, -22.302014669641267 ], [ -51.460463520774788, -22.308490680500483 ], [ -51.472948738593345, -22.314488457975926 ], [ -51.472955723627706, -22.333355610373076 ], [ -51.480833237064182, -22.343116767324886 ], [ -51.482306626049933, -22.355261255402581 ], [ -51.492666644250164, -22.362011418292298 ], [ -51.502785228655341, -22.351639782649784 ], [ -51.512870404145815, -22.356622040274885 ], [ -51.524029627365394, -22.355817364679581 ], [ -51.531449467718744, -22.364045443742214 ], [ -51.536845441363994, -22.380764383769247 ], [ -51.553038873345315, -22.398939169706864 ], [ -51.562369277520077, -22.400758584540995 ], [ -51.555006232951257, -22.419716542384492 ], [ -51.560423930619834, -22.433715276039095 ], [ -51.556875922585732, -22.451016914698808 ], [ -51.550839217056193, -22.455600221373061 ], [ -51.553094648399281, -22.485506637321407 ], [ -51.546369674620735, -22.495289052447788 ], [ -51.557429364473528, -22.511892467363452 ], [ -51.561869931651984, -22.513212311498933 ], [ -51.551679128089226, -22.525211145378019 ], [ -51.55225824742012, -22.540920124264289 ], [ -51.560360515825096, -22.543277464982964 ], [ -51.565312134447417, -22.555355561509884 ], [ -51.566305775591047, -22.563640548772241 ], [ -51.578281924970831, -22.57523599354624 ], [ -51.58262652909098, -22.584907150844288 ], [ -51.582267760748486, -22.598932295788757 ], [ -51.58945616237196, -22.613256771083055 ], [ -51.592294868813099, -22.623692103008125 ], [ -51.610017770603569, -22.64189589208172 ], [ -51.621813769589778, -22.646924960318643 ], [ -51.627878629295253, -22.658240645789135 ], [ -51.646386053773313, -22.656341078877631 ], [ -51.672295708080405, -22.65872369684109 ], [ -51.687485341974934, -22.662974953131538 ], [ -51.69917087543552, -22.669368568104915 ], [ -51.718173636603979, -22.669021088952036 ], [ -51.725867430237656, -22.661464441031054 ], [ -51.733036632234757, -22.628614387543905 ], [ -51.736989986298795, -22.624122791033926 ], [ -51.747294157499311, -22.623591718882665 ], [ -51.751624350883041, -22.618081983696527 ], [ -51.77162057872669, -22.614126911028048 ], [ -51.786348581621723, -22.618962491026082 ], [ -51.818100261617758, -22.623294384128485 ], [ -51.826215683506973, -22.627305368547866 ], [ -51.838690758771463, -22.628534353277757 ], [ -51.847096113994439, -22.632226024411466 ], [ -51.865563159811927, -22.631167570926603 ], [ -51.878972761983334, -22.62435301118245 ], [ -51.890176154505866, -22.613168548489682 ], [ -51.855232381269332, -22.610529582374284 ], [ -51.827059330323777, -22.590640057292774 ], [ -51.822303015671594, -22.573777081846799 ], [ -51.827746204623622, -22.563213894205827 ], [ -51.810736608207833, -22.561945359990318 ], [ -51.800948874490928, -22.551621949593255 ], [ -51.786660751592365, -22.548384466669745 ], [ -51.782230285599155, -22.537842113622613 ], [ -51.784409366299201, -22.534776344552597 ], [ -51.77751783717838, -22.531106363268009 ], [ -51.761403953829351, -22.533497744225482 ], [ -51.751121698207776, -22.548146935033003 ], [ -51.742843570973996, -22.552320485402049 ], [ -51.733496164216547, -22.562253920082298 ], [ -51.725395908494363, -22.543654031808099 ], [ -51.715957081154329, -22.54488948176413 ], [ -51.701012621335337, -22.542748069167999 ], [ -51.684557652113938, -22.549523860038047 ], [ -51.688751579321888, -22.559363760728957 ], [ -51.678438132513747, -22.567279181488971 ], [ -51.661174424559981, -22.569752840521119 ], [ -51.656121107003457, -22.567304813965961 ], [ -51.649651294271791, -22.572243616349795 ], [ -51.643963483427967, -22.565138116930484 ], [ -51.633503232188389, -22.560513667171961 ], [ -51.626986388511, -22.563921328806259 ], [ -51.618244332509903, -22.558220750287376 ], [ -51.611879821396599, -22.54663265837047 ], [ -51.613493917410324, -22.531646562638684 ], [ -51.606799507091523, -22.524023279450716 ], [ -51.5982979954561, -22.509352493222934 ], [ -51.591466858508682, -22.494125130070643 ], [ -51.573266701796797, -22.489089992309232 ], [ -51.570974673442379, -22.398871877035447 ], [ -51.5588019997125, -22.389864000323314 ], [ -51.561102999703621, -22.382059000122695 ], [ -51.556428999998325, -22.369548999686515 ], [ -51.55771199980893, -22.363122000080182 ], [ -51.555159999934006, -22.345940000030907 ], [ -51.547990000238258, -22.326602000381968 ], [ -51.552231999806907, -22.318251000183466 ], [ -51.544420000182811, -22.314427000105919 ], [ -51.536455999844456, -22.301830000154325 ], [ -51.533680999578451, -22.292631000420272 ], [ -51.544576000182239, -22.286884999842812 ], [ -51.576687999851281, -22.281481999794437 ], [ -51.583019999573253, -22.284793999643341 ], [ -51.591073000418589, -22.28118200034902 ], [ -51.600233982212444, -22.281126317025837 ], [ -51.594090572122184, -22.273199029711407 ], [ -51.587834701809982, -22.273327110257863 ], [ -51.58330178235132, -22.266429892025826 ], [ -51.574510653943491, -22.265068313951474 ], [ -51.570004188942107, -22.260871490926547 ], [ -51.555733798875679, -22.264492381817945 ], [ -51.553297031832528, -22.261137329624034 ], [ -51.528488746658297, -22.256276763761601 ], [ -51.521673828983978, -22.258188342018343 ], [ -51.513261440163319, -22.250600664788806 ], [ -51.509559707414496, -22.242110580838585 ], [ -51.500003014027811, -22.229233792805246 ], [ -51.493987157481286, -22.228613465638887 ], [ -51.488206135504697, -22.219920026088289 ], [ -51.482961285734682, -22.218427236927425 ], [ -51.476189536417905, -22.197797308099268 ], [ -51.465275678829464, -22.200692616071304 ], [ -51.448986440271938, -22.198403609438969 ], [ -51.445667021915483, -22.202666881571304 ], [ -51.434035525119327, -22.205469991946529 ] ] } }
]
}
