{
"type": "FeatureCollection",
"features": [
{ "type": "Feature", "properties": { "Name": "PLANALTO", "Description": "PLANALTO \/ SP" }, "geometry": { "type": "LineString", "coordinates": [ [ -49.956962665394656, -20.906881124364361 ], [ -49.95053323671948, -20.917812854179829 ], [ -49.948530791862538, -20.927329706700561 ], [ -49.943471510901475, -20.935425343504733 ], [ -49.931106834612699, -20.932865233543623 ], [ -49.923135522786076, -20.920401494233545 ], [ -49.91604490534808, -20.918369034503314 ], [ -49.882433084719025, -20.917063369079187 ], [ -49.872047509584831, -20.917845376363005 ], [ -49.87111224433454, -20.922038029231601 ], [ -49.856287249556885, -20.932928474769252 ], [ -49.850763896836327, -20.931864221556509 ], [ -49.846235184406162, -20.944482093873489 ], [ -49.835736325271171, -20.946051754384939 ], [ -49.827298196954189, -20.953690111109722 ], [ -49.828062258266584, -20.959136604170908 ], [ -49.841327588497393, -20.972089769826994 ], [ -49.847977640655529, -20.983385278108074 ], [ -49.848670256227301, -20.994770942524951 ], [ -49.859282007258798, -21.005420079273222 ], [ -49.854888402677595, -21.018163923226439 ], [ -49.862003982597685, -21.024152932311949 ], [ -49.862411319726561, -21.029654773249149 ], [ -49.889184110058579, -21.058526359104121 ], [ -49.897323629282027, -21.06583174184135 ], [ -49.899988577710644, -21.075065759377253 ], [ -49.911496715401029, -21.069191025345503 ], [ -49.925020803067582, -21.075683492898861 ], [ -49.932979938972949, -21.082775868511476 ], [ -49.940912554770534, -21.096245497731502 ], [ -49.945336916165722, -21.098987118760476 ], [ -49.947471082924096, -21.109268373436635 ], [ -49.946882879541192, -21.122573252253741 ], [ -49.953915163354054, -21.125540147159995 ], [ -49.96007298508016, -21.133115228484936 ], [ -49.996929538966981, -21.098973351039263 ], [ -49.990081149425464, -21.098269160293455 ], [ -49.981002548228957, -21.088330696604316 ], [ -49.981900565358778, -21.063836312595697 ], [ -49.985261014384264, -21.058059193676797 ], [ -49.984815643127376, -21.045758827008225 ], [ -49.995950149379837, -21.032801508282944 ], [ -50.005635632878125, -21.029929289505048 ], [ -50.05503751616839, -20.997333249529788 ], [ -50.043829328460667, -20.991310694832634 ], [ -50.039445647898276, -20.981057064631784 ], [ -50.032921731952342, -20.97839014758722 ], [ -50.016518090637298, -20.975313389701114 ], [ -50.019616368400648, -20.969225162910902 ], [ -50.012336313270225, -20.966628306650989 ], [ -50.000256904632408, -20.953800629695252 ], [ -49.993693094760481, -20.94984591135966 ], [ -49.98316885046205, -20.933191967135542 ], [ -49.975504915219624, -20.910842481495248 ], [ -49.956962665394656, -20.906881124364361 ] ] } }
]
}
