{
"type": "FeatureCollection",
"features": [
{ "type": "Feature", "properties": { "Name": "PONTALINDA", "Description": "PONTALINDA \/ SP" }, "geometry": { "type": "LineString", "coordinates": [ [ -50.468659664212112, -20.390465657963716 ], [ -50.456220466501293, -20.394404170515998 ], [ -50.448891099744401, -20.403036695387129 ], [ -50.443176028650782, -20.402906831485041 ], [ -50.430178628041233, -20.412345454678928 ], [ -50.437429189905174, -20.422713456161034 ], [ -50.440707013717649, -20.442492927606452 ], [ -50.440311996401476, -20.457342323689261 ], [ -50.44455182320803, -20.46354399366032 ], [ -50.44575988610984, -20.483000245165158 ], [ -50.448533378212794, -20.486220065403643 ], [ -50.46857470615771, -20.48990289800031 ], [ -50.473615166106981, -20.49454377027871 ], [ -50.485560799691086, -20.493433691211862 ], [ -50.493064539596787, -20.499457434812708 ], [ -50.513604260128488, -20.502704811178035 ], [ -50.527954401174611, -20.508914253090268 ], [ -50.544768381555514, -20.503622689835197 ], [ -50.549182173218696, -20.509255785026426 ], [ -50.547800618503686, -20.519038388111085 ], [ -50.554494879535014, -20.523451365887809 ], [ -50.554147046049309, -20.528341016724482 ], [ -50.573343478019062, -20.517840615252169 ], [ -50.583350701173856, -20.518793336343375 ], [ -50.592270687142445, -20.523061789469974 ], [ -50.613270563785477, -20.519250049849855 ], [ -50.624921743143886, -20.508061642730578 ], [ -50.617102987812586, -20.488347265114157 ], [ -50.610792509766497, -20.485850222809518 ], [ -50.602900942624387, -20.474926707401607 ], [ -50.595896845363086, -20.47105178231385 ], [ -50.584954741867818, -20.444960609744271 ], [ -50.586867520719466, -20.426627941526249 ], [ -50.588865522026197, -20.422050982266967 ], [ -50.585488446334693, -20.412562424216446 ], [ -50.57567085602517, -20.397689368769306 ], [ -50.555291767900712, -20.381421724732775 ], [ -50.541932743601187, -20.377117894974845 ], [ -50.533492976719451, -20.383318880561831 ], [ -50.509629095706146, -20.394554348304496 ], [ -50.497015050004507, -20.388837581089433 ], [ -50.494112046533701, -20.384455594849783 ], [ -50.479339094623469, -20.382400247373482 ], [ -50.468659664212112, -20.390465657963716 ] ] } }
]
}
