{
"type": "FeatureCollection",
"features": [
{ "type": "Feature", "properties": { "Name": "PORANGABA", "Description": "PORANGABA \/ SP" }, "geometry": { "type": "LineString", "coordinates": [ [ -48.057043573102362, -23.103834159318978 ], [ -48.058096589286151, -23.110474923279011 ], [ -48.050019793278807, -23.118137735268249 ], [ -48.04978354137728, -23.127870553683067 ], [ -48.061648280044039, -23.135159229714645 ], [ -48.061040882430746, -23.148015202039915 ], [ -48.052085860673913, -23.148947309770506 ], [ -48.049537839399704, -23.154245478545928 ], [ -48.021257962484924, -23.166332796721122 ], [ -48.01442350164325, -23.167348066559953 ], [ -48.014570496730983, -23.177174954060831 ], [ -48.02083936584404, -23.18333126222791 ], [ -48.020199637603127, -23.189476245232466 ], [ -48.024759882062881, -23.201976370213284 ], [ -48.035173585292682, -23.207169167223242 ], [ -48.037839590424703, -23.211807310958591 ], [ -48.051154914867368, -23.223503136260657 ], [ -48.05716240861824, -23.23251313447355 ], [ -48.069000423031071, -23.232163186681703 ], [ -48.070392999837047, -23.240753999197636 ], [ -48.079707397878053, -23.242215761747957 ], [ -48.081829823087844, -23.247049788616835 ], [ -48.096602178747503, -23.247276825165329 ], [ -48.097729168666142, -23.25185322864354 ], [ -48.108082499507702, -23.254360895538866 ], [ -48.120997184072735, -23.263592270866578 ], [ -48.138755475984397, -23.271195635869844 ], [ -48.140752043771784, -23.265864512337313 ], [ -48.151787781980488, -23.265291899601436 ], [ -48.155201876465412, -23.261838588380101 ], [ -48.161891370190517, -23.245532556782049 ], [ -48.17110121305052, -23.237739657858867 ], [ -48.173994824901222, -23.231722970338751 ], [ -48.188570450266013, -23.225088596061823 ], [ -48.200135978192804, -23.221951010730493 ], [ -48.207232778469916, -23.216232676896478 ], [ -48.209113688046216, -23.206177465917278 ], [ -48.214013815085472, -23.200267401119618 ], [ -48.224899682174566, -23.196249658295073 ], [ -48.22080106331839, -23.191683622201367 ], [ -48.205487426403579, -23.189495934090019 ], [ -48.19005084946707, -23.175219584216393 ], [ -48.184304459483201, -23.156003902258249 ], [ -48.181836277322304, -23.140110093805728 ], [ -48.183157854451395, -23.128811125832726 ], [ -48.192065590754396, -23.124140024642372 ], [ -48.187483222073013, -23.110616946015227 ], [ -48.183236192596148, -23.11310630721027 ], [ -48.16935454617532, -23.096792276142594 ], [ -48.160256283100921, -23.095027674087817 ], [ -48.159471558965201, -23.086654798779875 ], [ -48.150475965193607, -23.084612844906815 ], [ -48.145893322219024, -23.090446528484449 ], [ -48.127135475221955, -23.089162596976223 ], [ -48.112884157078149, -23.098264975348286 ], [ -48.110130497724242, -23.091694114791494 ], [ -48.091703370114374, -23.086500376191339 ], [ -48.088243619747232, -23.08039784658331 ], [ -48.076852224850256, -23.090533517208026 ], [ -48.068338727949879, -23.090960125909021 ], [ -48.061718842650407, -23.094985458112376 ], [ -48.057043573102362, -23.103834159318978 ] ] } }
]
}
