{
"type": "FeatureCollection",
"features": [
{ "type": "Feature", "properties": { "Name": "POTIRENDABA", "Description": "POTIRENDABA \/ SP" }, "geometry": { "type": "LineString", "coordinates": [ [ -49.37503408895202, -20.960292046840433 ], [ -49.364833449504033, -20.973778556335276 ], [ -49.359874087718936, -20.983325138644204 ], [ -49.351352803588952, -20.980589604226793 ], [ -49.337797269328462, -20.982031152715479 ], [ -49.324140586518809, -20.99498717102108 ], [ -49.322372130869098, -21.002510169009042 ], [ -49.311280182334485, -21.009041959418823 ], [ -49.315568991615635, -21.025279553508536 ], [ -49.30426371040187, -21.03892239665123 ], [ -49.293546851106271, -21.073797262933283 ], [ -49.290470033864942, -21.076695127677965 ], [ -49.292380686719298, -21.093543045774879 ], [ -49.307663122555027, -21.1006277780495 ], [ -49.312944039635674, -21.100397725174844 ], [ -49.312759071573844, -21.115334796163893 ], [ -49.316290809972884, -21.127071508243485 ], [ -49.326914660483169, -21.131686891936454 ], [ -49.336248066594969, -21.142337887583381 ], [ -49.341792664899515, -21.154025245768423 ], [ -49.359496215977572, -21.162549818719128 ], [ -49.365008600566398, -21.158364050160738 ], [ -49.377158594293633, -21.156959409848866 ], [ -49.382687073149832, -21.153174614816578 ], [ -49.387278113993716, -21.161760047588075 ], [ -49.386668915937655, -21.169284536652015 ], [ -49.398117809888952, -21.175038152688558 ], [ -49.396940013670644, -21.180526584734025 ], [ -49.411891346108689, -21.184833210484211 ], [ -49.418334798811884, -21.183204540956751 ], [ -49.431697383527364, -21.185009629590695 ], [ -49.44215497727032, -21.188903565447163 ], [ -49.46015468948729, -21.177282565537951 ], [ -49.462200016717361, -21.169618652778581 ], [ -49.460573471388557, -21.159894797007212 ], [ -49.465772748013876, -21.159367048750251 ], [ -49.483935591854049, -21.149946635029153 ], [ -49.495679185545953, -21.13815949796242 ], [ -49.483061000264911, -21.1315859034666 ], [ -49.482822562111494, -21.124179697734803 ], [ -49.475802204208321, -21.117559022830619 ], [ -49.471933265008147, -21.109759711741276 ], [ -49.473333669513181, -21.098369318689038 ], [ -49.466449796320994, -21.088413593412554 ], [ -49.458560325498581, -21.086501892848048 ], [ -49.464090813440237, -21.069640506504129 ], [ -49.460915931425063, -21.065273014637853 ], [ -49.46054148879864, -21.054662657555582 ], [ -49.463387232434798, -21.03933256214799 ], [ -49.459971741302752, -21.036407691661619 ], [ -49.459314330591837, -21.017034852276538 ], [ -49.456152199164592, -21.001131281683286 ], [ -49.449181418187834, -20.995460634400729 ], [ -49.445925262640735, -20.985236708807008 ], [ -49.441554624046603, -20.980323704375394 ], [ -49.434529296489814, -20.979604450884665 ], [ -49.428278963303455, -20.97476619810152 ], [ -49.420174551814057, -20.97502310203447 ], [ -49.400797268878819, -20.971655330728876 ], [ -49.387315100411513, -20.961085169744763 ], [ -49.37503408895202, -20.960292046840433 ] ] } }
]
}
