{
"type": "FeatureCollection",
"features": [
{ "type": "Feature", "properties": { "Name": "QUADRA", "Description": "QUADRA \/ SP" }, "geometry": { "type": "LineString", "coordinates": [ [ -48.00900172375048, -23.223559700020076 ], [ -48.007043059689408, -23.240016304209007 ], [ -47.999715281135252, -23.246070544719828 ], [ -47.986493032927058, -23.243347007258535 ], [ -47.983302068335718, -23.255740383611794 ], [ -47.988812383584616, -23.271542892890125 ], [ -47.989907724561817, -23.28275678319892 ], [ -47.976038190210261, -23.275976371612217 ], [ -47.949954885809291, -23.27933617852176 ], [ -47.956544376721581, -23.290460249940566 ], [ -47.949141163933518, -23.295872463543333 ], [ -47.957325002646705, -23.30436392705354 ], [ -47.953787199219846, -23.308735438889357 ], [ -47.958739191960092, -23.32729357254027 ], [ -47.968626907805515, -23.33770648436672 ], [ -47.973393435158869, -23.337845754278078 ], [ -47.983906521568656, -23.346055469184535 ], [ -47.988093737136239, -23.36291621880838 ], [ -47.999296542401453, -23.366481108915991 ], [ -48.023315392791119, -23.381197747977637 ], [ -48.029713569125875, -23.383344618559249 ], [ -48.038331629301183, -23.376567148654942 ], [ -48.053398708083876, -23.376613881025719 ], [ -48.05942035986169, -23.373854171033141 ], [ -48.07029422369942, -23.374581726165673 ], [ -48.073075064162822, -23.370858799993584 ], [ -48.083274258400245, -23.372751084195158 ], [ -48.085101185271469, -23.361946910621384 ], [ -48.091788247229772, -23.355061639882706 ], [ -48.080678886021758, -23.345453001654672 ], [ -48.081159817371656, -23.327884244562199 ], [ -48.086880977774854, -23.32783311810385 ], [ -48.09082484129334, -23.319383457780305 ], [ -48.102618402217445, -23.321297765479471 ], [ -48.108738369679998, -23.312796740377223 ], [ -48.108312154882015, -23.304731527637838 ], [ -48.11652871093122, -23.300367754468255 ], [ -48.123901407024277, -23.289007575938854 ], [ -48.137118586653401, -23.283164523224116 ], [ -48.138755475984397, -23.271195635869844 ], [ -48.120997184072735, -23.263592270866578 ], [ -48.108082499507702, -23.254360895538866 ], [ -48.097729168666142, -23.25185322864354 ], [ -48.096602178747503, -23.247276825165329 ], [ -48.081829823087844, -23.247049788616835 ], [ -48.079707397878053, -23.242215761747957 ], [ -48.070392999837047, -23.240753999197636 ], [ -48.069000423031071, -23.232163186681703 ], [ -48.05716240861824, -23.23251313447355 ], [ -48.035414948940684, -23.225516170634705 ], [ -48.019711656467734, -23.227899564713084 ], [ -48.00900172375048, -23.223559700020076 ] ] } }
]
}
