{
"type": "FeatureCollection",
"features": [
{ "type": "Feature", "properties": { "Name": "REGISTRO", "Description": "REGISTRO \/ SP" }, "geometry": { "type": "LineString", "coordinates": [ [ -47.683617326278522, -24.37913945412248 ], [ -47.679872819075285, -24.383881930007018 ], [ -47.675764418293227, -24.397478744048726 ], [ -47.667735078610974, -24.40806888347214 ], [ -47.660347951996357, -24.424989260845674 ], [ -47.654375396007651, -24.428383467722824 ], [ -47.647342631057541, -24.446565576839873 ], [ -47.644307829242905, -24.449329415620014 ], [ -47.639623378516092, -24.463798457832524 ], [ -47.643749517526146, -24.470207783961992 ], [ -47.64238720200774, -24.482378311909542 ], [ -47.645361132310363, -24.49327477660961 ], [ -47.634181837122071, -24.49904521446501 ], [ -47.626686742399208, -24.512810013771059 ], [ -47.637583909469811, -24.517460455735375 ], [ -47.643846556173571, -24.522956275711522 ], [ -47.685385483353343, -24.550829925260814 ], [ -47.688656879711175, -24.563867246775999 ], [ -47.685322551494494, -24.571984668757409 ], [ -47.686352178110496, -24.580137564496965 ], [ -47.691690176960037, -24.58351377953727 ], [ -47.693791908769519, -24.601778128957449 ], [ -47.711974150986237, -24.603601958563502 ], [ -47.713423846433329, -24.615489013906824 ], [ -47.727745201080097, -24.62210191956791 ], [ -47.736236165466607, -24.617679997134132 ], [ -47.741038136900443, -24.611459105053594 ], [ -47.750946816842081, -24.606808001188252 ], [ -47.757595238529404, -24.598118638264509 ], [ -47.770192796959975, -24.591311660704548 ], [ -47.778430970912552, -24.574309454917341 ], [ -47.785169355381413, -24.576670123127656 ], [ -47.795633335210198, -24.574920567630045 ], [ -47.816893345251628, -24.566104063951343 ], [ -47.821397915381453, -24.570749763790502 ], [ -47.842134365308652, -24.577486105899027 ], [ -47.865889057833719, -24.579188808516676 ], [ -47.867613450300439, -24.588814042833746 ], [ -47.87512578322827, -24.593908156336283 ], [ -47.885780351881692, -24.592384634643111 ], [ -47.894190093098295, -24.605599910407477 ], [ -47.918165274207979, -24.627528825394904 ], [ -47.926920062810602, -24.62570436356549 ], [ -47.934159956916453, -24.628953762506114 ], [ -47.939165228192678, -24.635836120340628 ], [ -47.952837339771342, -24.63771921257154 ], [ -47.958512619461771, -24.628002372411515 ], [ -47.971748461822017, -24.621746225108154 ], [ -47.971863714438825, -24.614071603221873 ], [ -47.966021048432594, -24.612158061745106 ], [ -47.972491032035457, -24.600102756736813 ], [ -47.979421578243205, -24.595797691310338 ], [ -47.976061023997033, -24.589567710681251 ], [ -47.965893124368165, -24.590255145258709 ], [ -47.956111241640428, -24.581942474165828 ], [ -47.972574663589796, -24.57958438161387 ], [ -47.987728937940112, -24.583704818922229 ], [ -48.000571345790945, -24.572471252346361 ], [ -48.005803755239072, -24.572093986748026 ], [ -48.015106565515566, -24.581926725238134 ], [ -48.033014129598364, -24.576183512558998 ], [ -48.041371288354235, -24.578716131144517 ], [ -48.053933581669412, -24.578139180079063 ], [ -48.068633951995253, -24.585259477842555 ], [ -48.084857444715283, -24.580563820663766 ], [ -48.081773683808414, -24.575379980002026 ], [ -48.08147116805992, -24.561944623045857 ], [ -48.074492663705421, -24.550800311485148 ], [ -48.061587755670359, -24.538782991142057 ], [ -48.053394010924819, -24.533445165861679 ], [ -48.032763719669902, -24.533065415436511 ], [ -48.019773502844828, -24.529354998834094 ], [ -48.017244004906843, -24.521331683710169 ], [ -48.021173792236652, -24.516120872380327 ], [ -48.013425287447035, -24.509892169687816 ], [ -48.006172658041692, -24.514733868673034 ], [ -47.994073227797166, -24.514057766452709 ], [ -47.990580522672929, -24.509759810167054 ], [ -47.971887770404237, -24.502261134343822 ], [ -47.963889800873567, -24.494067641408492 ], [ -47.954875747617621, -24.493056392438515 ], [ -47.933848456940666, -24.479984636781523 ], [ -47.927026366273765, -24.473587175407772 ], [ -47.916759944116109, -24.473640932383091 ], [ -47.910331398575124, -24.468972139752395 ], [ -47.913071103148866, -24.462857820931674 ], [ -47.909625196945228, -24.457073725971611 ], [ -47.898998190713883, -24.452788411455966 ], [ -47.891692199135662, -24.439657958847704 ], [ -47.878420025963408, -24.432574985647019 ], [ -47.875468374565791, -24.425249920347479 ], [ -47.869189298147539, -24.42113287168462 ], [ -47.857520826624807, -24.423271774272905 ], [ -47.845240035499216, -24.42247002956816 ], [ -47.824182625627657, -24.404579309787266 ], [ -47.832735858173294, -24.399922366623855 ], [ -47.836576149469693, -24.390651745781383 ], [ -47.832801202013798, -24.382723740807933 ], [ -47.836648920810994, -24.376730644303734 ], [ -47.833505959332513, -24.370781733290301 ], [ -47.824729149930306, -24.367583072300874 ], [ -47.814932882546429, -24.36731040595043 ], [ -47.814493465700821, -24.359899936532823 ], [ -47.808413869704282, -24.352924015930569 ], [ -47.800145974956763, -24.351799885855996 ], [ -47.782718672228889, -24.358928835097629 ], [ -47.778485395184816, -24.356277467331211 ], [ -47.762863716187489, -24.36771056379143 ], [ -47.754820799440324, -24.383001330946627 ], [ -47.740416206242848, -24.388776306781097 ], [ -47.733946826984436, -24.387323013146499 ], [ -47.716973876143406, -24.398107291018619 ], [ -47.700791361032429, -24.391269423544998 ], [ -47.683617326278522, -24.37913945412248 ] ] } }
]
}
