{
"type": "FeatureCollection",
"features": [
{ "type": "Feature", "properties": { "Name": "RIBEIRÃO CORRENTE", "Description": "RIBEIRÃO CORRENTE \/ SP" }, "geometry": { "type": "LineString", "coordinates": [ [ -47.529488646983452, -20.391323926857691 ], [ -47.517108070680877, -20.395240475267656 ], [ -47.518900122742416, -20.407039004046737 ], [ -47.527561740681733, -20.42390703458193 ], [ -47.524242290848974, -20.431679261688544 ], [ -47.521531608297039, -20.450225518892523 ], [ -47.512877683158536, -20.451931699188549 ], [ -47.507305025106795, -20.456437671361414 ], [ -47.500043620116912, -20.456363827128882 ], [ -47.506476424847108, -20.474675546539171 ], [ -47.50884272191405, -20.488167491536444 ], [ -47.517528012707601, -20.490294204713734 ], [ -47.52758613029561, -20.497729106912686 ], [ -47.537402269998722, -20.497350328654704 ], [ -47.552532761777513, -20.51258228374536 ], [ -47.574999549589506, -20.514034260772462 ], [ -47.585381424912775, -20.523158046606511 ], [ -47.597077125209125, -20.529248918302869 ], [ -47.604512425807741, -20.529880590416891 ], [ -47.598306996670537, -20.518432437506931 ], [ -47.59701745159407, -20.49177940719386 ], [ -47.604700607147258, -20.482198094866135 ], [ -47.615215916681166, -20.481673960085118 ], [ -47.623906416348007, -20.45927215908284 ], [ -47.634075216198248, -20.442132203238543 ], [ -47.644063723561942, -20.44244960906218 ], [ -47.661631008464212, -20.432964430663898 ], [ -47.665750926863723, -20.427872886524426 ], [ -47.663942637542611, -20.421895082092306 ], [ -47.646477569584135, -20.417307998265471 ], [ -47.642505275797816, -20.413533437518083 ], [ -47.626730614026592, -20.410187419913427 ], [ -47.626193254714906, -20.407227141319481 ], [ -47.61554050898723, -20.403970427293359 ], [ -47.594776981372547, -20.39274290775893 ], [ -47.567228335119516, -20.39395622450013 ], [ -47.557552739667187, -20.387087146954229 ], [ -47.539816900229702, -20.38733883931593 ], [ -47.529488646983452, -20.391323926857691 ] ] } }
]
}
