{
"type": "FeatureCollection",
"features": [
{ "type": "Feature", "properties": { "Name": "RIBEIRÃO DO SUL", "Description": "RIBEIRÃO DO SUL \/ SP" }, "geometry": { "type": "LineString", "coordinates": [ [ -49.902187001029233, -22.666612029121779 ], [ -49.891444318600406, -22.677161207123959 ], [ -49.893157346334419, -22.684773062626675 ], [ -49.890123606619113, -22.693092614432544 ], [ -49.891569021293265, -22.699330241097698 ], [ -49.879807135390926, -22.705974389206631 ], [ -49.870514227549499, -22.700435257880827 ], [ -49.865156839316619, -22.70689242614452 ], [ -49.864154096134598, -22.715624143539344 ], [ -49.847421935174104, -22.727003548674759 ], [ -49.848036097487864, -22.730203011859487 ], [ -49.83965157865736, -22.751330889908616 ], [ -49.836714138346792, -22.763196267094031 ], [ -49.838506599599839, -22.770057882065544 ], [ -49.850840831139408, -22.776925469434843 ], [ -49.866064630278402, -22.803098379586515 ], [ -49.877740917809092, -22.811572103969354 ], [ -49.88588400464306, -22.814461828950186 ], [ -49.913515031493489, -22.816625183205588 ], [ -49.923596425334722, -22.824545635672507 ], [ -49.938601437406362, -22.83305608117314 ], [ -49.949007730222547, -22.811455764072203 ], [ -49.968079552129609, -22.814178432788424 ], [ -49.985349786463416, -22.800860905906063 ], [ -49.997887558863674, -22.798192227089544 ], [ -50.008661916314338, -22.786701140545176 ], [ -50.010054783601333, -22.784304298004884 ], [ -50.000536316797536, -22.772004892711607 ], [ -49.996008732117275, -22.752435300548655 ], [ -49.987383944113674, -22.733916835093794 ], [ -49.983135831853133, -22.719984848222111 ], [ -49.973567599265266, -22.7123838025704 ], [ -49.973608353842387, -22.687845712409679 ], [ -49.971201733872874, -22.683856789259377 ], [ -49.958004791687756, -22.683728527049823 ], [ -49.953253701197298, -22.680198635858289 ], [ -49.934184609631984, -22.678700622535644 ], [ -49.923420229260095, -22.673759103299915 ], [ -49.913232101180476, -22.663690951076486 ], [ -49.902187001029233, -22.666612029121779 ] ] } }
]
}
