{
"type": "FeatureCollection",
"features": [
{ "type": "Feature", "properties": { "Name": "RIBEIRÃO BONITO", "Description": "RIBEIRÃO BONITO \/ SP" }, "geometry": { "type": "LineString", "coordinates": [ [ -48.165975518955008, -21.971789341205067 ], [ -48.155464842728293, -21.981905792418331 ], [ -48.152828709477319, -21.989224928487602 ], [ -48.141954239496499, -21.999946182770088 ], [ -48.142610206795545, -22.005921877392666 ], [ -48.128680481718781, -22.01682461126677 ], [ -48.12405510296059, -22.017507926049916 ], [ -48.113547843258338, -22.03323093256142 ], [ -48.111805769220837, -22.0436738655564 ], [ -48.101074532463656, -22.046438873455202 ], [ -48.101398405312118, -22.055733922582419 ], [ -48.091180723711375, -22.060011702577977 ], [ -48.086764424738362, -22.07046485097203 ], [ -48.069649631924896, -22.077248960571012 ], [ -48.05982796139125, -22.071167190013739 ], [ -48.044872136839608, -22.073224588843626 ], [ -48.047976554274499, -22.07793936830717 ], [ -48.04391097740961, -22.086873211029797 ], [ -48.045719745170061, -22.100069981444449 ], [ -48.042592627048066, -22.12207616348411 ], [ -48.043720333726348, -22.128870258255745 ], [ -48.058963802837184, -22.151351942438168 ], [ -48.071385050979295, -22.151790305278325 ], [ -48.080287760971373, -22.157029629613646 ], [ -48.090445902056672, -22.16915831210639 ], [ -48.107628843696141, -22.1802497237457 ], [ -48.117079847856644, -22.178888547668294 ], [ -48.119940545419809, -22.182675510066698 ], [ -48.134700065055938, -22.183235017881714 ], [ -48.137628003129805, -22.179637753979137 ], [ -48.157058833498297, -22.174855394960446 ], [ -48.169946144498908, -22.167314704609907 ], [ -48.175882428131494, -22.166417571513644 ], [ -48.180911295819605, -22.156237762162959 ], [ -48.197984753093863, -22.148049424141561 ], [ -48.205248179759622, -22.150338232923048 ], [ -48.208777945945421, -22.156118131646391 ], [ -48.215841434434594, -22.15882419887765 ], [ -48.234312754729785, -22.15949374953686 ], [ -48.255953641147585, -22.154640507753186 ], [ -48.249754135844626, -22.141123645239986 ], [ -48.25197602067675, -22.130271541398486 ], [ -48.250802192267315, -22.120884877435113 ], [ -48.255446751766158, -22.116528794368318 ], [ -48.262678795689844, -22.100335839927027 ], [ -48.273795838007459, -22.091986790358021 ], [ -48.265942631447217, -22.077202764196159 ], [ -48.27802177838231, -22.073732333480336 ], [ -48.278874949918986, -22.067444230566764 ], [ -48.286763117623764, -22.056431911603397 ], [ -48.298584749986162, -22.063737350997879 ], [ -48.304307289949399, -22.055499537673484 ], [ -48.303647311674062, -22.046661477245323 ], [ -48.307046649183455, -22.030966573648413 ], [ -48.299012447766188, -22.017513255432334 ], [ -48.297307963591599, -22.009657727721901 ], [ -48.302004351919265, -22.005382210420635 ], [ -48.291496916849212, -21.989747501146212 ], [ -48.281287149282491, -21.989704673631763 ], [ -48.27606540129721, -21.983773281411739 ], [ -48.284298895177812, -21.979838835593739 ], [ -48.280807786350238, -21.962352388052238 ], [ -48.288716031419654, -21.954675379365199 ], [ -48.278589965554431, -21.938273808289576 ], [ -48.275489160696161, -21.936345883055989 ], [ -48.258990917896483, -21.909767822027334 ], [ -48.25442678746623, -21.8931451310429 ], [ -48.246174844893119, -21.893518547542897 ], [ -48.239945082799295, -21.901716531692557 ], [ -48.237192131211827, -21.911526448087045 ], [ -48.232048523520518, -21.916079840612099 ], [ -48.229668358907588, -21.925147581595581 ], [ -48.221615340975177, -21.922090106972803 ], [ -48.211367800983162, -21.930781981703035 ], [ -48.202097226905437, -21.932588166610572 ], [ -48.201303336879448, -21.943321399862668 ], [ -48.19573930152751, -21.947334811552253 ], [ -48.19661254143557, -21.956031061484282 ], [ -48.190766524555443, -21.959148916589186 ], [ -48.188059436593676, -21.965990559416753 ], [ -48.181949995695675, -21.967168770222543 ], [ -48.174078354832147, -21.963484421368889 ], [ -48.165975518955008, -21.971789341205067 ] ] } }
]
}
