{
"type": "FeatureCollection",
"features": [
{ "type": "Feature", "properties": { "Name": "RIO GRANDE DA SERRA", "Description": "RIO GRANDE DA SERRA \/ SP" }, "geometry": { "type": "LineString", "coordinates": [ [ -46.3280900003532, -23.728386999860106 ], [ -46.335521000393783, -23.725563000032366 ], [ -46.343518999602111, -23.735265999626161 ], [ -46.354506831824779, -23.737217106684053 ], [ -46.361748000269927, -23.742864000173427 ], [ -46.358710999612924, -23.746835999881455 ], [ -46.364891000419277, -23.752952999581225 ], [ -46.373153000110847, -23.752858999743012 ], [ -46.387435000424887, -23.764036999907603 ], [ -46.40729800000264, -23.769769999885568 ], [ -46.424295999660615, -23.772240999622397 ], [ -46.428875000380906, -23.765674999901307 ], [ -46.418224000237387, -23.756866000165754 ], [ -46.420834000088973, -23.750892999911969 ], [ -46.411456000194221, -23.732863000327143 ], [ -46.400974794750937, -23.73018482736785 ], [ -46.398573999690306, -23.722667999628413 ], [ -46.391493284687265, -23.724780597946218 ], [ -46.384001000345847, -23.722356999675753 ], [ -46.385815000361951, -23.711888999877374 ], [ -46.381345000171564, -23.708145999937926 ], [ -46.368108000383863, -23.71018400039128 ], [ -46.349761999716463, -23.716921999950273 ], [ -46.330716660145697, -23.708872131443684 ], [ -46.327312000448444, -23.714246999799172 ], [ -46.3280900003532, -23.728386999860106 ] ] } }
]
}
