{
"type": "FeatureCollection",
"features": [
{ "type": "Feature", "properties": { "Name": "ROSANA", "Description": "ROSANA \/ SP" }, "geometry": { "type": "LineString", "coordinates": [ [ -52.764310827782424, -22.608636800847645 ], [ -52.782864229200754, -22.602061630739627 ], [ -52.81543966480865, -22.597043166408977 ], [ -52.844862110597887, -22.609221771167768 ], [ -52.858362803300679, -22.608001008939368 ], [ -52.905362502077757, -22.572207290933704 ], [ -52.924742618776804, -22.565623982860473 ], [ -52.972424980328526, -22.570484747473074 ], [ -52.984858496122683, -22.576349725659266 ], [ -53.011672991615228, -22.598794963916419 ], [ -53.03080702592348, -22.60841137408562 ], [ -53.038525382740204, -22.618413569130894 ], [ -53.055797901352037, -22.632622735151074 ], [ -53.074723758794384, -22.641340759468449 ], [ -53.087786791926874, -22.658445058092923 ], [ -53.091503974129068, -22.644848926636595 ], [ -53.110111531821694, -22.610224970306092 ], [ -53.107862306700042, -22.595511542723496 ], [ -53.097789046327364, -22.582476260870692 ], [ -53.086024019992458, -22.562324543842578 ], [ -53.073806462897892, -22.548857565823937 ], [ -53.058002404087631, -22.536929952855019 ], [ -53.039801006311336, -22.527395631003515 ], [ -53.01436119741129, -22.520665767611035 ], [ -53.007057443346298, -22.51304702240213 ], [ -52.998579148608769, -22.493181288885353 ], [ -52.979693299306291, -22.483547674685383 ], [ -52.885836981191687, -22.45287362082092 ], [ -52.857842710972307, -22.441482693571402 ], [ -52.854761225350217, -22.439112379232878 ], [ -52.839886871282033, -22.415310987611917 ], [ -52.808210356622617, -22.388284824984623 ], [ -52.798330857882718, -22.3782734046938 ], [ -52.745835005481069, -22.343312984106888 ], [ -52.724268639586001, -22.335107945675134 ], [ -52.695134120743035, -22.31461062458061 ], [ -52.655338639066883, -22.303144075138903 ], [ -52.651544814841316, -22.313452381422223 ], [ -52.655602073876587, -22.345036336957321 ], [ -52.653888261034346, -22.356692717095196 ], [ -52.644932149299215, -22.381831704569489 ], [ -52.630669350410123, -22.396185532836 ], [ -52.611579088803857, -22.401559149335238 ], [ -52.617280625100697, -22.407688779113812 ], [ -52.621688072946142, -22.41842804951483 ], [ -52.633814770635126, -22.431065486582895 ], [ -52.647949125651564, -22.433741317707586 ], [ -52.651786276515388, -22.438366282777679 ], [ -52.66270057657033, -22.442225604627875 ], [ -52.669421837048098, -22.451235811483457 ], [ -52.678877614810062, -22.454694488060113 ], [ -52.692881827134556, -22.469577097904672 ], [ -52.695516918970611, -22.477576241050656 ], [ -52.704992730929746, -22.48745333949995 ], [ -52.716535803684337, -22.511362681242698 ], [ -52.732319751855016, -22.524665203836037 ], [ -52.737046712635617, -22.538794508259912 ], [ -52.746698595663645, -22.556094224169044 ], [ -52.751477414950671, -22.572608960535035 ], [ -52.756898220676305, -22.584565380587772 ], [ -52.762349989160612, -22.590654056139723 ], [ -52.764310827782424, -22.608636800847645 ] ] } }
]
}
