{
"type": "FeatureCollection",
"features": [
{ "type": "Feature", "properties": { "Name": "RUBINÃIA", "Description": "RUBINÃIA \/ SP" }, "geometry": { "type": "LineString", "coordinates": [ [ -50.918349192161429, -20.130511408974314 ], [ -50.928885999988893, -20.13667900003577 ], [ -50.93507555069607, -20.145142955982578 ], [ -50.951582552892432, -20.158481774314396 ], [ -50.957472827209187, -20.157453784464508 ], [ -50.973551740420419, -20.160070322387412 ], [ -50.98031700022932, -20.196793999643319 ], [ -50.976866000265659, -20.222068999684552 ], [ -50.977532527404151, -20.227564222510804 ], [ -50.989290000333199, -20.240063000307146 ], [ -51.000176999668781, -20.247701000001086 ], [ -51.012208999645559, -20.250340000290748 ], [ -51.016594999559516, -20.26812600031462 ], [ -51.02562945033884, -20.278214859428147 ], [ -51.019474000124937, -20.284906999858094 ], [ -51.016306999768176, -20.293116999849644 ], [ -51.009894400106418, -20.300036751494812 ], [ -51.010795795989168, -20.321694865325753 ], [ -51.007378381207275, -20.324655184389201 ], [ -51.002557999751843, -20.341091999895809 ], [ -50.996833000142821, -20.345143999695779 ], [ -50.995043000334128, -20.358839999965994 ], [ -50.985739000254618, -20.37637600015222 ], [ -50.980629000228134, -20.381355999579682 ], [ -50.977510000286252, -20.395799000123702 ], [ -50.970399729064184, -20.403267675462814 ], [ -50.977498754264047, -20.410649850410209 ], [ -50.990836987137186, -20.431723037987748 ], [ -51.00331799972588, -20.413141000356859 ], [ -51.016080266291226, -20.403626531039549 ], [ -51.021000684733792, -20.385454560879225 ], [ -51.038566764544498, -20.37092484860284 ], [ -51.049630400622441, -20.363460493606851 ], [ -51.057977999584978, -20.350347000413702 ], [ -51.078921999550573, -20.328211000337376 ], [ -51.083268000317901, -20.311208000448801 ], [ -51.082631452079795, -20.306639431864255 ], [ -51.088487406468573, -20.293721943213086 ], [ -51.095506999948043, -20.285029000088226 ], [ -51.104647999705378, -20.286391999990766 ], [ -51.109389554684185, -20.280092212185821 ], [ -51.069163086407279, -20.250049485095587 ], [ -51.05893275044604, -20.235160731982148 ], [ -51.053858979608208, -20.220222705913102 ], [ -51.048811990580873, -20.198576852539645 ], [ -51.037746521684596, -20.174658753198855 ], [ -51.029273961923757, -20.151024012248342 ], [ -51.021584807892509, -20.133348857263911 ], [ -51.007441483037951, -20.105599605537289 ], [ -51.001191135462477, -20.09633478172475 ], [ -50.984974693427318, -20.097728172417192 ], [ -50.980948984408087, -20.105727209443099 ], [ -50.965900646597504, -20.111373516574474 ], [ -50.954166793462718, -20.113857437770491 ], [ -50.950007081861315, -20.120084405670752 ], [ -50.942730309256319, -20.123341903006349 ], [ -50.931888892958, -20.122727166025868 ], [ -50.918349192161429, -20.130511408974314 ] ] } }
]
}
