{
"type": "FeatureCollection",
"features": [
{ "type": "Feature", "properties": { "Name": "SALES OLIVEIRA", "Description": "SALES OLIVEIRA \/ SP" }, "geometry": { "type": "LineString", "coordinates": [ [ -47.718156265199411, -20.815341731435694 ], [ -47.729001894821522, -20.829330484414299 ], [ -47.744079010038263, -20.834231858813208 ], [ -47.749554637536448, -20.845320929517239 ], [ -47.756320370388721, -20.846962997144544 ], [ -47.766196539838404, -20.854333176934517 ], [ -47.772983589321143, -20.855751581370328 ], [ -47.786912773006009, -20.879893764785379 ], [ -47.779746420061201, -20.894437787973516 ], [ -47.796531799303068, -20.899520489978553 ], [ -47.800072132522871, -20.889614362312894 ], [ -47.818151798966312, -20.89426417924841 ], [ -47.840108797083303, -20.910697598015702 ], [ -47.856042930236981, -20.898615105602573 ], [ -47.870586108961724, -20.894537537177541 ], [ -47.878483352624585, -20.905180628683013 ], [ -47.8901783055843, -20.90962650186151 ], [ -47.897098494300053, -20.89718597585204 ], [ -47.903266463976081, -20.890883584509766 ], [ -47.912701063603151, -20.890450146357125 ], [ -47.922715243913331, -20.882951970556974 ], [ -47.935695296600613, -20.892968043040696 ], [ -47.939718207829003, -20.899946699380621 ], [ -47.951111484107685, -20.892124808113351 ], [ -47.960116248266218, -20.891469434366854 ], [ -47.985368656438311, -20.876369916138685 ], [ -47.982497311801467, -20.850674347243285 ], [ -47.97426541511674, -20.835300945881894 ], [ -47.96668578322226, -20.828449547208777 ], [ -47.961991939076704, -20.814359372287129 ], [ -47.938304262231895, -20.801255518927007 ], [ -47.898924680129824, -20.796085019707846 ], [ -47.893960171524661, -20.78821244984465 ], [ -47.897143706816564, -20.771113516575497 ], [ -47.876176017808909, -20.777160866480756 ], [ -47.867304744518322, -20.757526877463363 ], [ -47.846081656143497, -20.743925887869409 ], [ -47.839421058534981, -20.748057357161258 ], [ -47.824695140268481, -20.744707753060311 ], [ -47.81854190778278, -20.739940011622195 ], [ -47.809551312443091, -20.740405917998658 ], [ -47.797214961201462, -20.748266371295927 ], [ -47.787302966358766, -20.7505422640142 ], [ -47.787764070355536, -20.758630480512238 ], [ -47.784823518390624, -20.77265176376784 ], [ -47.781388462507493, -20.779203966090108 ], [ -47.769611444612451, -20.781220488035046 ], [ -47.755241679459914, -20.786709450680576 ], [ -47.746244775376056, -20.794826928419976 ], [ -47.741372149604956, -20.803279649136467 ], [ -47.722896690629739, -20.811342370753774 ], [ -47.718156265199411, -20.815341731435694 ] ] } }
]
}
