{
"type": "FeatureCollection",
"features": [
{ "type": "Feature", "properties": { "Name": "SALTINHO", "Description": "SALTINHO \/ SP" }, "geometry": { "type": "LineString", "coordinates": [ [ -47.667677995043391, -22.799383808116204 ], [ -47.671843997402505, -22.804379516001802 ], [ -47.66970584394948, -22.843955313986495 ], [ -47.67360113958091, -22.854512604772822 ], [ -47.666170199794855, -22.862482388651244 ], [ -47.663762299190694, -22.875297673848536 ], [ -47.674336588962376, -22.879011093287261 ], [ -47.682923625225101, -22.875664275286056 ], [ -47.697295621595622, -22.886430271739584 ], [ -47.710549789441188, -22.888572160077103 ], [ -47.709471978049287, -22.906229416754115 ], [ -47.711495070441117, -22.91207297218989 ], [ -47.720978352169197, -22.918024153991496 ], [ -47.722526650184705, -22.933234945336437 ], [ -47.745903007817503, -22.932832467244509 ], [ -47.750488150907415, -22.927094309654645 ], [ -47.759704430215258, -22.922801524470742 ], [ -47.757562402482847, -22.914894237179283 ], [ -47.763327561317844, -22.903995867715082 ], [ -47.806904853176377, -22.876903984431294 ], [ -47.799177210859568, -22.86563998389812 ], [ -47.794064726905553, -22.863029644102767 ], [ -47.791620066512792, -22.85500117316559 ], [ -47.793522495966386, -22.848714342792618 ], [ -47.786543903478332, -22.843245488988089 ], [ -47.773628470677352, -22.84848777658959 ], [ -47.770994866319995, -22.842379926592287 ], [ -47.763506591156215, -22.841766211241634 ], [ -47.759172715948068, -22.83660004945267 ], [ -47.746372658970984, -22.830030407477295 ], [ -47.731659061416508, -22.834992143472615 ], [ -47.717569151794862, -22.847507634269842 ], [ -47.702041188450039, -22.839491290690486 ], [ -47.694994100897013, -22.831560861144791 ], [ -47.683296532708766, -22.813383445589523 ], [ -47.67201874646792, -22.800084011268041 ], [ -47.667677995043391, -22.799383808116204 ] ] } }
]
}
