{
"type": "FeatureCollection",
"features": [
{ "type": "Feature", "properties": { "Name": "SANTA CRUZ DO RIO PARDO", "Description": "SANTA CRUZ DO RIO PARDO \/ SP" }, "geometry": { "type": "LineString", "coordinates": [ [ -49.503016582349346, -22.513846729243141 ], [ -49.489687454212628, -22.541859614529528 ], [ -49.470584392555622, -22.557871743186354 ], [ -49.465577986334949, -22.558135550315342 ], [ -49.454808830563024, -22.567148789684833 ], [ -49.451864887254708, -22.576449812109104 ], [ -49.453609128658343, -22.583967584136644 ], [ -49.458625418428248, -22.58849709246681 ], [ -49.469858729596638, -22.591111152757435 ], [ -49.470437334515331, -22.600202624151734 ], [ -49.477600957118455, -22.608215160900897 ], [ -49.492374106879481, -22.609700141248481 ], [ -49.497269455820685, -22.613583797853948 ], [ -49.495053837464582, -22.62622120254639 ], [ -49.505415087736083, -22.638055532436852 ], [ -49.506696993071728, -22.646174795330523 ], [ -49.498094180002333, -22.656054650201895 ], [ -49.499794425672178, -22.670720099852701 ], [ -49.506949759223971, -22.683420003830062 ], [ -49.500144392349796, -22.697109167454073 ], [ -49.502489688448343, -22.703309325664804 ], [ -49.498294907783702, -22.722476835437533 ], [ -49.495144132095959, -22.727206209099219 ], [ -49.483876685360713, -22.725086089751187 ], [ -49.466617784283301, -22.731622288637649 ], [ -49.417393242803882, -22.738754341439687 ], [ -49.396804779916636, -22.738929890901716 ], [ -49.393138158499191, -22.742917541511304 ], [ -49.379812208566527, -22.73392789225835 ], [ -49.379544815840518, -22.742156508216226 ], [ -49.383130690728763, -22.749627572154679 ], [ -49.385696641786524, -22.762914363806772 ], [ -49.375890850582259, -22.777451874104656 ], [ -49.379132086376671, -22.786089166281954 ], [ -49.372924660744445, -22.802192350396581 ], [ -49.368274832117777, -22.82021869063999 ], [ -49.373097376442729, -22.827343335726312 ], [ -49.376788729216457, -22.838806924599851 ], [ -49.374855048321763, -22.848110453434629 ], [ -49.378127957339302, -22.857590351913188 ], [ -49.369620305132912, -22.877028596292632 ], [ -49.369586049956183, -22.883432452745467 ], [ -49.37667503512472, -22.89101788886444 ], [ -49.396744824813759, -22.882294058523939 ], [ -49.399729313157252, -22.888913932132198 ], [ -49.40814038087381, -22.887667753264168 ], [ -49.419054670136859, -22.89727421962948 ], [ -49.418765610044829, -22.908216877107122 ], [ -49.430211153122166, -22.90446047636982 ], [ -49.440938142381299, -22.905446167506568 ], [ -49.456741513210204, -22.910500666772293 ], [ -49.45857210391943, -22.913278320937707 ], [ -49.4642386817697, -22.906137802817284 ], [ -49.470307983226803, -22.907076427934783 ], [ -49.483018131381641, -22.900643540467001 ], [ -49.49292176162993, -22.91082695250179 ], [ -49.503670744709041, -22.909451736208609 ], [ -49.505597681587687, -22.905821739681468 ], [ -49.517357194179112, -22.903308500586775 ], [ -49.522625575609766, -22.907470018926176 ], [ -49.517581653270668, -22.918459821563484 ], [ -49.512261607587106, -22.9379006577891 ], [ -49.514152857568263, -22.943722547657387 ], [ -49.510794318702779, -22.950896582611165 ], [ -49.518192405355194, -22.97754588163707 ], [ -49.524736591120757, -22.969317125384975 ], [ -49.529940276222703, -22.973857177366824 ], [ -49.554355812170961, -22.972854413500329 ], [ -49.561458102809183, -22.978174775745288 ], [ -49.557746503598189, -23.000181087287327 ], [ -49.567502582078475, -22.999507629073776 ], [ -49.573555593215985, -22.995060162296621 ], [ -49.587698061016681, -22.991488889700463 ], [ -49.594956430794575, -22.978227643291063 ], [ -49.632643665073033, -23.002128650117072 ], [ -49.651338597298377, -22.981759141571104 ], [ -49.677289838954835, -23.008748031796184 ], [ -49.677404689574693, -22.995261238115575 ], [ -49.680170893571812, -22.98776881887585 ], [ -49.6785064328256, -22.980985171528403 ], [ -49.685436111187521, -22.974937178607888 ], [ -49.684237951620105, -22.96351412937355 ], [ -49.686444060544943, -22.949410200220541 ], [ -49.680633887943536, -22.943308774979922 ], [ -49.682120087771807, -22.938267068570326 ], [ -49.693522316801413, -22.934880297287858 ], [ -49.700387533557773, -22.943168844966181 ], [ -49.704137083259752, -22.953698022945332 ], [ -49.727517330460387, -22.941643824103153 ], [ -49.734495453502348, -22.946849887012604 ], [ -49.725490040932584, -22.954590554210654 ], [ -49.731770526588491, -22.958768666840456 ], [ -49.74310459689957, -22.958404464794167 ], [ -49.744526203821181, -22.965925551722762 ], [ -49.755368677722231, -22.962536418820605 ], [ -49.757150136669452, -22.970551181391841 ], [ -49.763447415365874, -22.969935341842529 ], [ -49.762659819694875, -22.94398246431922 ], [ -49.763792654307501, -22.921356186238938 ], [ -49.76272576518187, -22.889898264393366 ], [ -49.774497189293811, -22.889346610357734 ], [ -49.779516532262107, -22.877327808831236 ], [ -49.780746838096036, -22.870628597931386 ], [ -49.776664418727869, -22.850972385766962 ], [ -49.771747975288804, -22.836386463164672 ], [ -49.762043481021806, -22.833456435965729 ], [ -49.765021349455651, -22.827037926858793 ], [ -49.759658907032872, -22.821474401422449 ], [ -49.757820008386652, -22.808177926769872 ], [ -49.749532694578136, -22.80292760642385 ], [ -49.74469293003466, -22.791709090901801 ], [ -49.747827779628267, -22.780942062026497 ], [ -49.736913009227976, -22.771660884941866 ], [ -49.733518073000653, -22.773268230644305 ], [ -49.733233176769659, -22.787452757938411 ], [ -49.72533191673454, -22.790477689693603 ], [ -49.711625929492982, -22.781278759207339 ], [ -49.687240950709281, -22.783276430462873 ], [ -49.677600227368544, -22.77569860980293 ], [ -49.682419283223282, -22.766521549030244 ], [ -49.671287633217673, -22.760603171798891 ], [ -49.66278617014558, -22.758851366197575 ], [ -49.644871108414854, -22.760005360958584 ], [ -49.636561122697628, -22.750082755015114 ], [ -49.631726899776538, -22.739414692034359 ], [ -49.624243826291483, -22.730232668802557 ], [ -49.621604349361178, -22.718228067571204 ], [ -49.613266958603212, -22.712482351179517 ], [ -49.605602858784891, -22.719165293343561 ], [ -49.595396854880903, -22.714347027093595 ], [ -49.596910788901766, -22.710375858359157 ], [ -49.606852243736, -22.71042600095916 ], [ -49.603810277022603, -22.701077970971539 ], [ -49.605733889107682, -22.686677233167757 ], [ -49.599475266870002, -22.682884028575018 ], [ -49.602864775688829, -22.677413285294847 ], [ -49.596888299555353, -22.671447918486592 ], [ -49.598917576584824, -22.664852249231895 ], [ -49.599526671218882, -22.654103913664642 ], [ -49.590261127948679, -22.64720216374883 ], [ -49.59248500657776, -22.640752478743877 ], [ -49.587911213831433, -22.623716435964695 ], [ -49.58054745969747, -22.616874553018132 ], [ -49.585068488320019, -22.605592461722662 ], [ -49.571742928693141, -22.591145977205027 ], [ -49.566193298681746, -22.57504647671351 ], [ -49.560279147364724, -22.575362694532654 ], [ -49.556794721399228, -22.561142474945196 ], [ -49.545367178252604, -22.56376910326145 ], [ -49.538870714112136, -22.556680112696995 ], [ -49.542993238746931, -22.547369829953652 ], [ -49.534499018814643, -22.545781918600596 ], [ -49.530131891173824, -22.536694828703332 ], [ -49.524072984080924, -22.531223041310284 ], [ -49.526724730461922, -22.524264483019408 ], [ -49.513656013614082, -22.51601557475891 ], [ -49.503016582349346, -22.513846729243141 ] ] } }
]
}
