{
"type": "FeatureCollection",
"features": [
{ "type": "Feature", "properties": { "Name": "SANTA MERCEDES", "Description": "SANTA MERCEDES \/ SP" }, "geometry": { "type": "LineString", "coordinates": [ [ -51.731746524182711, -21.225117046514413 ], [ -51.726572004994004, -21.231545664900466 ], [ -51.724535280678595, -21.241718176252789 ], [ -51.70787228657673, -21.251540023952884 ], [ -51.701230892191859, -21.263997233285636 ], [ -51.701893229388986, -21.271670547557676 ], [ -51.693061754696203, -21.280965291814709 ], [ -51.683230859816263, -21.283663789452248 ], [ -51.684535911003415, -21.29134683169087 ], [ -51.681644573538222, -21.303628796431781 ], [ -51.673974182962127, -21.315122589935527 ], [ -51.677366300714141, -21.31892342977244 ], [ -51.67594688454102, -21.331854742802076 ], [ -51.672753305620517, -21.340075187519854 ], [ -51.676013133099559, -21.346745119191837 ], [ -51.677235992546969, -21.357245920862511 ], [ -51.693503188721138, -21.369154530257333 ], [ -51.705551284763942, -21.373149383537168 ], [ -51.707311353336245, -21.378046621954013 ], [ -51.723182036621665, -21.395169830623157 ], [ -51.741596503575749, -21.391167209898754 ], [ -51.772983606508205, -21.388290114996778 ], [ -51.784548739632605, -21.385131227424154 ], [ -51.808676014986077, -21.374757696910137 ], [ -51.801341329638603, -21.365455360576391 ], [ -51.791953125136551, -21.358768920049556 ], [ -51.796785639345728, -21.350336399005585 ], [ -51.790738584418079, -21.342793752629518 ], [ -51.788011223938781, -21.331150461224752 ], [ -51.779651663093716, -21.322969580381763 ], [ -51.774844837119474, -21.311097409717657 ], [ -51.760733503848087, -21.295870164376538 ], [ -51.757311653609861, -21.288139391519678 ], [ -51.777482438963318, -21.277172938879971 ], [ -51.793183061349168, -21.27213015598187 ], [ -51.795759979639286, -21.267402233825976 ], [ -51.784534496170011, -21.253630136521565 ], [ -51.771205893237315, -21.247090756732973 ], [ -51.772985601204482, -21.237402407095374 ], [ -51.761121320292652, -21.233351371368656 ], [ -51.749951235061417, -21.223844079540584 ], [ -51.731746524182711, -21.225117046514413 ] ] } }
]
}
