{
"type": "FeatureCollection",
"features": [
{ "type": "Feature", "properties": { "Name": "SANTA LÃCIA", "Description": "SANTA LÃCIA \/ SP" }, "geometry": { "type": "LineString", "coordinates": [ [ -47.909794911605843, -21.678150613559922 ], [ -47.929936801741974, -21.677747578787656 ], [ -47.943735983928491, -21.689036705479506 ], [ -47.955513453283174, -21.688466010098239 ], [ -47.967017492763027, -21.691935830174373 ], [ -48.036886890917231, -21.694926807126418 ], [ -48.046528072012848, -21.702768806335314 ], [ -48.06674256261914, -21.703433741673791 ], [ -48.086274674636456, -21.708313749979538 ], [ -48.098185877676087, -21.716921421186608 ], [ -48.107573368116391, -21.710843216441216 ], [ -48.145831343641525, -21.701569796908529 ], [ -48.158690513056683, -21.693235831668233 ], [ -48.180528692744922, -21.68412404998486 ], [ -48.16675506119708, -21.667026305619459 ], [ -48.165962287229718, -21.658782340032928 ], [ -48.17044199470223, -21.654547473886737 ], [ -48.16302470662486, -21.652133211478485 ], [ -48.148320603213222, -21.653799728074944 ], [ -48.136455192752919, -21.644096457785281 ], [ -48.122919706179459, -21.64630121682762 ], [ -48.119217559742538, -21.643935992651905 ], [ -48.103923144937141, -21.643249569811758 ], [ -48.077183473938135, -21.626671767587936 ], [ -48.074299042366874, -21.638743836858563 ], [ -47.997602099157511, -21.63513872727043 ], [ -47.931503785870973, -21.663807569064033 ], [ -47.909794911605843, -21.678150613559922 ] ] } }
]
}
