{
"type": "FeatureCollection",
"features": [
{ "type": "Feature", "properties": { "Name": "SANTA ISABEL", "Description": "SANTA ISABEL \/ SP" }, "geometry": { "type": "LineString", "coordinates": [ [ -46.26219799963792, -23.186387000259799 ], [ -46.250377000398203, -23.188978000134565 ], [ -46.244689999843558, -23.185884999592986 ], [ -46.227355999979352, -23.189806999693243 ], [ -46.224389999898563, -23.196434999575498 ], [ -46.218695999920442, -23.197371999618042 ], [ -46.205422000225099, -23.208959999804108 ], [ -46.195848000284968, -23.210609000305055 ], [ -46.196442999844521, -23.218035000115091 ], [ -46.162139999861033, -23.234644999866816 ], [ -46.157374999556566, -23.241857999746856 ], [ -46.156389999998453, -23.25541099971781 ], [ -46.145746000177724, -23.256827000265787 ], [ -46.150675999997361, -23.261945999808006 ], [ -46.152011000407292, -23.27235599962961 ], [ -46.145123000226249, -23.273763999808693 ], [ -46.13489099961987, -23.287879999662209 ], [ -46.119225000233541, -23.285446999879071 ], [ -46.112747000073966, -23.288582999705625 ], [ -46.113813999816216, -23.299335000010217 ], [ -46.102939000134711, -23.302874000434713 ], [ -46.101475000071154, -23.308597999997627 ], [ -46.112701999797423, -23.309723999762749 ], [ -46.126233999699302, -23.321680999878197 ], [ -46.140604999621019, -23.328869000403984 ], [ -46.157484795986477, -23.342808559567345 ], [ -46.162887000134901, -23.345920999854229 ], [ -46.167421999725491, -23.357830999600878 ], [ -46.179918999562119, -23.356532999997906 ], [ -46.202273999845147, -23.367834999585511 ], [ -46.218063000407078, -23.381322000110174 ], [ -46.227015000441888, -23.383566000170731 ], [ -46.231806000146719, -23.390615999728539 ], [ -46.240962999742578, -23.392442000298047 ], [ -46.240661000204966, -23.400242000268065 ], [ -46.247678000039627, -23.405621000109022 ], [ -46.256206000306634, -23.406249000291098 ], [ -46.26102999973466, -23.39966000040863 ], [ -46.274708000074092, -23.388530999805766 ], [ -46.294336999652778, -23.36939899976397 ], [ -46.291725999755045, -23.345994999669472 ], [ -46.294512999675128, -23.333550000432126 ], [ -46.29923885159166, -23.32447529689739 ], [ -46.305400801205963, -23.321478754940529 ], [ -46.334536999982504, -23.331968000322888 ], [ -46.336536000436006, -23.33475999957426 ], [ -46.33599000043813, -23.329806999593302 ], [ -46.350419000336558, -23.328998000057595 ], [ -46.35813700012244, -23.317052000449394 ], [ -46.355327000040973, -23.310112999715102 ], [ -46.358720000027915, -23.305127000010994 ], [ -46.355431000340332, -23.297837000177367 ], [ -46.356576000082271, -23.288027000145917 ], [ -46.36180800033889, -23.282787999566494 ], [ -46.364156999845648, -23.274083000130304 ], [ -46.353888000230995, -23.265017000234309 ], [ -46.347497999632935, -23.252240000075915 ], [ -46.336901000180937, -23.250517999805822 ], [ -46.311327999887226, -23.227071000426292 ], [ -46.305542000163136, -23.213005000180544 ], [ -46.309961999846394, -23.204976000441999 ], [ -46.301641000132008, -23.198274999891282 ], [ -46.285630000124343, -23.19069200003571 ], [ -46.283589000431959, -23.184244000360309 ], [ -46.275809999631747, -23.184937999988676 ], [ -46.2692550004179, -23.190279999922041 ], [ -46.26219799963792, -23.186387000259799 ] ] } }
]
}
