{
"type": "FeatureCollection",
"features": [
{ "type": "Feature", "properties": { "Name": "SANTA ROSA DE VITERBO", "Description": "SANTA ROSA DE VITERBO \/ SP" }, "geometry": { "type": "LineString", "coordinates": [ [ -47.264195427876643, -21.451316429609506 ], [ -47.271334179728569, -21.457291017166654 ], [ -47.278718254044122, -21.468432290817532 ], [ -47.277577856133121, -21.481920472152009 ], [ -47.274599752976201, -21.487643978886467 ], [ -47.282100777828582, -21.51634982148704 ], [ -47.277548798138469, -21.527719958209445 ], [ -47.281908725807, -21.54376126896733 ], [ -47.289085835542835, -21.552926998282317 ], [ -47.299085578136896, -21.553797954811728 ], [ -47.305454635323144, -21.55079760512535 ], [ -47.31594711916415, -21.55849181424577 ], [ -47.327480869546427, -21.559384635092783 ], [ -47.331625542684606, -21.564264964456523 ], [ -47.345989127696043, -21.562316147971785 ], [ -47.356973601850193, -21.569856327507463 ], [ -47.358241176489059, -21.57919565025901 ], [ -47.364186245598717, -21.593170064446895 ], [ -47.381881867354252, -21.599479887786572 ], [ -47.39922523006026, -21.613740914111869 ], [ -47.414233400550927, -21.602293517531791 ], [ -47.424736407359262, -21.601742299667364 ], [ -47.433950950076223, -21.610658230592833 ], [ -47.440131859197891, -21.613537055790459 ], [ -47.44134527126721, -21.599140630235866 ], [ -47.439321856018807, -21.592614078376979 ], [ -47.446056326638143, -21.584174671224048 ], [ -47.445602212172332, -21.554531657709788 ], [ -47.436915228854673, -21.53722656925072 ], [ -47.426674882539771, -21.527329639850961 ], [ -47.432479937099394, -21.517190210959427 ], [ -47.436702340440604, -21.515007725426127 ], [ -47.444352511559146, -21.495539007519138 ], [ -47.444061204061256, -21.48934735419698 ], [ -47.435895930952427, -21.479159557967193 ], [ -47.436357174344096, -21.469189116184733 ], [ -47.43024846729287, -21.450215004718643 ], [ -47.411804243570941, -21.437103188761114 ], [ -47.410920081396625, -21.430716046208545 ], [ -47.40315410637686, -21.420847286273215 ], [ -47.394701750785138, -21.414953629606259 ], [ -47.39347838681806, -21.404824381939648 ], [ -47.387392911953263, -21.395469775209904 ], [ -47.379748928170443, -21.395327051002539 ], [ -47.365848329436794, -21.398315258042658 ], [ -47.356946912669855, -21.409051981563664 ], [ -47.349840484250933, -21.408789647524145 ], [ -47.332869970572631, -21.414762929265748 ], [ -47.325253111242034, -21.425762870859785 ], [ -47.315742808483776, -21.427275523346676 ], [ -47.306961779462483, -21.432402137448662 ], [ -47.303180962131648, -21.438552095502757 ], [ -47.309217261167646, -21.458262035864209 ], [ -47.300923983055327, -21.460998966928742 ], [ -47.298131508062625, -21.448330349466005 ], [ -47.289274558274201, -21.446069615720148 ], [ -47.275492721311991, -21.450805915060869 ], [ -47.264195427876643, -21.451316429609506 ] ] } }
]
}
