{
"type": "FeatureCollection",
"features": [
{ "type": "Feature", "properties": { "Name": "SERRANA", "Description": "SERRANA \/ SP" }, "geometry": { "type": "LineString", "coordinates": [ [ -47.628204000314327, -21.148316999629799 ], [ -47.624644999866803, -21.151918000215513 ], [ -47.628805000150578, -21.170077000353217 ], [ -47.617123000126291, -21.18058700028979 ], [ -47.611064000403246, -21.181739000354522 ], [ -47.582487000074934, -21.172673999605365 ], [ -47.578436000321119, -21.17460799975936 ], [ -47.568927999827281, -21.187538999824937 ], [ -47.559743999885654, -21.189709000070252 ], [ -47.540742000442947, -21.183321999610541 ], [ -47.534410999867703, -21.189510999932676 ], [ -47.52776286146684, -21.200544822585471 ], [ -47.538414000105995, -21.202191000114507 ], [ -47.548251999630054, -21.207217999910711 ], [ -47.55086599966608, -21.229617000424184 ], [ -47.566067000091948, -21.250817999650906 ], [ -47.578056999930538, -21.251593000316689 ], [ -47.579218000410322, -21.264200999876206 ], [ -47.59077099988167, -21.275948000200003 ], [ -47.607523999932596, -21.254648000005147 ], [ -47.620250999583895, -21.277212000033728 ], [ -47.651563933628609, -21.280295581076189 ], [ -47.65359200017064, -21.260207000052954 ], [ -47.661377000348239, -21.248109999776602 ], [ -47.670634000059003, -21.251255000018205 ], [ -47.679028000441804, -21.247419000286584 ], [ -47.675381000432765, -21.24046299966767 ], [ -47.662057000230334, -21.226501999767436 ], [ -47.663460000178816, -21.21121800001066 ], [ -47.65913100019548, -21.19580100041577 ], [ -47.659901999777446, -21.185745999877952 ], [ -47.666056000284129, -21.175656999570833 ], [ -47.665076000057297, -21.161252999925978 ], [ -47.659264000033545, -21.155255000317993 ], [ -47.653543999755755, -21.155169999995451 ], [ -47.646682000773694, -21.148149998223801 ], [ -47.63538100033287, -21.151025000403422 ], [ -47.628204000314327, -21.148316999629799 ] ] } }
]
}
