{
"type": "FeatureCollection",
"features": [
{ "type": "Feature", "properties": { "Name": "SERTÃOZINHO", "Description": "SERTÃOZINHO \/ SP" }, "geometry": { "type": "LineString", "coordinates": [ [ -47.872007202370469, -21.064274868790108 ], [ -47.872218999906863, -21.073732000031725 ], [ -47.880644999966705, -21.088888000181043 ], [ -47.882932000211611, -21.097786999570303 ], [ -47.90358100006307, -21.097416999594827 ], [ -47.90464799980532, -21.103500000424617 ], [ -47.913148999726495, -21.119064999649993 ], [ -47.909067000341736, -21.123519000001806 ], [ -47.911431999687004, -21.131952000384441 ], [ -47.906297000306267, -21.148099000368518 ], [ -47.909545999947902, -21.158150999868724 ], [ -47.901630000024454, -21.160319000021786 ], [ -47.904428999598622, -21.178124000022535 ], [ -47.918415999798526, -21.190278000229455 ], [ -47.916590000128338, -21.200704999935738 ], [ -47.943423000071334, -21.20029599996036 ], [ -47.952052999646185, -21.185897999692884 ], [ -47.960443999890629, -21.187989999938509 ], [ -47.9648580001965, -21.205252000079668 ], [ -47.972777000258297, -21.210645999713048 ], [ -47.98543600037106, -21.213840000415644 ], [ -47.989069999780611, -21.217409999571771 ], [ -48.000908999850424, -21.217386000263673 ], [ -48.010354000136942, -21.211770000285242 ], [ -48.024408999875384, -21.215337000202339 ], [ -48.033751999954802, -21.205937000192364 ], [ -48.04202658925567, -21.203469200243376 ], [ -48.0473197245256, -21.194421462880143 ], [ -48.065071563801609, -21.187646736807437 ], [ -48.080508403340097, -21.183609429231751 ], [ -48.087941934072944, -21.183686733156151 ], [ -48.09417649944583, -21.187854011653258 ], [ -48.103327155224008, -21.187553197422059 ], [ -48.112732848841858, -21.18403367451441 ], [ -48.119715883980803, -21.171320587375135 ], [ -48.134066766967692, -21.173650392651439 ], [ -48.13901706268723, -21.162889254335596 ], [ -48.146712344698926, -21.165730378154365 ], [ -48.1579505526758, -21.159502608058858 ], [ -48.169016312053138, -21.161388860507486 ], [ -48.181855631632061, -21.151246365827092 ], [ -48.186927175748508, -21.130396568047161 ], [ -48.153631827446816, -21.097018277071808 ], [ -48.135087227693361, -21.087980422358555 ], [ -48.124626473732739, -21.089306001470732 ], [ -48.124023648272725, -21.099041185102578 ], [ -48.112035752847646, -21.104910339740343 ], [ -48.072773783183493, -21.090255711631752 ], [ -48.029925784847023, -21.08228665440555 ], [ -48.017530151195501, -21.082997149398864 ], [ -48.008002794593267, -21.07806860827958 ], [ -47.991615893258825, -21.059640286370094 ], [ -47.986188006271448, -21.055918509531523 ], [ -47.989327854297017, -21.04604916683553 ], [ -47.982486274422001, -21.038765082742316 ], [ -47.977589037803796, -21.026011287790652 ], [ -47.983148537874683, -21.012596044172025 ], [ -47.992421360257531, -21.002501459075006 ], [ -47.988039815584955, -20.992054941382374 ], [ -47.97958777925254, -20.997396648136771 ], [ -47.969406551671, -20.998921589859435 ], [ -47.959653440054183, -20.994565544564182 ], [ -47.957080458995961, -20.999147057990285 ], [ -47.957303552017265, -21.011985566380758 ], [ -47.951850819459708, -21.018157301518215 ], [ -47.945438472507476, -21.0312915438696 ], [ -47.93602517422238, -21.034568808303789 ], [ -47.923812531023422, -21.035338359077969 ], [ -47.907172250199153, -21.031959920014231 ], [ -47.895984996010725, -21.021852941360123 ], [ -47.875876408669285, -21.010631231446155 ], [ -47.870876000027351, -21.018037000107427 ], [ -47.876063673599617, -21.024055774953979 ], [ -47.890273469145257, -21.032220697327261 ], [ -47.892696743659769, -21.039231567382899 ], [ -47.88485961068244, -21.055436519679574 ], [ -47.872007202370469, -21.064274868790108 ] ] } }
]
}
