{
"type": "FeatureCollection",
"features": [
{ "type": "Feature", "properties": { "Name": "SOCORRO", "Description": "SOCORRO \/ SP" }, "geometry": { "type": "LineString", "coordinates": [ [ -46.473122210721378, -22.704981248086085 ], [ -46.480982187378004, -22.714948711313923 ], [ -46.481103977166754, -22.72149491066153 ], [ -46.488371430097402, -22.724789960088511 ], [ -46.493534637613372, -22.719152654271511 ], [ -46.506801145056784, -22.727575428463183 ], [ -46.509450169189904, -22.730355667280151 ], [ -46.524294788973293, -22.725260055507135 ], [ -46.531803371728188, -22.728157993996206 ], [ -46.536984350747161, -22.721216381630651 ], [ -46.621832667143849, -22.723142184464223 ], [ -46.627118388402835, -22.717986570823541 ], [ -46.625978921290141, -22.711060171389761 ], [ -46.618373253123082, -22.701664901813725 ], [ -46.62393578031196, -22.689785673270137 ], [ -46.620364203744934, -22.683476955197303 ], [ -46.6320483018876, -22.674522257196369 ], [ -46.626669605118131, -22.664926969404064 ], [ -46.629030812921656, -22.65357496121544 ], [ -46.620894910771483, -22.64915137233794 ], [ -46.6182651573111, -22.635948154683547 ], [ -46.612357302147757, -22.632243070161508 ], [ -46.607873447001907, -22.636944795965515 ], [ -46.60159142530398, -22.631582088242734 ], [ -46.607051283190117, -22.613833625921071 ], [ -46.60495482050851, -22.604913883668758 ], [ -46.609976167166337, -22.603689314610108 ], [ -46.611443663794034, -22.587193200505734 ], [ -46.604067070039207, -22.57466120535031 ], [ -46.603543765332454, -22.564290119193629 ], [ -46.613797022314714, -22.548190812955621 ], [ -46.607541092647239, -22.524899220922237 ], [ -46.598973930502439, -22.515011186716833 ], [ -46.584325721754624, -22.516251015471937 ], [ -46.579767402743407, -22.507710968786114 ], [ -46.585811135575398, -22.499146108905734 ], [ -46.585317464429409, -22.492924080981481 ], [ -46.577354715048038, -22.486986195656353 ], [ -46.56314326564916, -22.485309359339393 ], [ -46.555396779837452, -22.470845793098817 ], [ -46.549864843088017, -22.469548950023977 ], [ -46.542951579152032, -22.467763924365553 ], [ -46.530667446145685, -22.470852529920251 ], [ -46.53606241255028, -22.487756890368132 ], [ -46.542146935032967, -22.494356003126992 ], [ -46.506990921793545, -22.506958910725128 ], [ -46.506613255996911, -22.515453200804529 ], [ -46.491179314973351, -22.510386741454909 ], [ -46.484569930158102, -22.519241767593428 ], [ -46.476774074264085, -22.520714663750709 ], [ -46.466857268048443, -22.518529003610581 ], [ -46.464923953177845, -22.522803778071875 ], [ -46.453318153609871, -22.522497119146692 ], [ -46.447165264665216, -22.532020108641063 ], [ -46.43951912071082, -22.534699675549515 ], [ -46.43928589053138, -22.540629234051892 ], [ -46.42630849534072, -22.547568833734655 ], [ -46.417945091692559, -22.54745567833686 ], [ -46.411696007664602, -22.536701474693245 ], [ -46.406147649294553, -22.54146443443608 ], [ -46.407849928331473, -22.548138609109458 ], [ -46.414642693005817, -22.557927715191852 ], [ -46.432585636417969, -22.571228072217703 ], [ -46.427388547843172, -22.584124771241136 ], [ -46.412443843408596, -22.585448822405169 ], [ -46.421586090525636, -22.594160332033653 ], [ -46.418701830724842, -22.602734044840247 ], [ -46.413373219898119, -22.607340121449397 ], [ -46.405970537710118, -22.622178928015046 ], [ -46.423005461732657, -22.624844797349454 ], [ -46.424619935461635, -22.633599064345276 ], [ -46.42062948166523, -22.638079495772047 ], [ -46.406048593467744, -22.640577481465524 ], [ -46.396312195751186, -22.6459820499316 ], [ -46.392295693091739, -22.654685345152529 ], [ -46.39305887126983, -22.662974059205396 ], [ -46.402201598624849, -22.670956949803323 ], [ -46.405674133754246, -22.66261454802293 ], [ -46.413419398286578, -22.659850509593298 ], [ -46.417861832457561, -22.664542210654474 ], [ -46.427714067350273, -22.661357746362849 ], [ -46.44208209051601, -22.668470303661536 ], [ -46.469092016783122, -22.673178811253081 ], [ -46.480565276066613, -22.679865301242614 ], [ -46.47856584573713, -22.685886135536691 ], [ -46.469976245507269, -22.693975725299424 ], [ -46.478640148623924, -22.697828855317368 ], [ -46.473122210721378, -22.704981248086085 ] ] } }
]
}
