{
"type": "FeatureCollection",
"features": [
{ "type": "Feature", "properties": { "Name": "SUZANÃPOLIS", "Description": "SUZANÃPOLIS \/ SP" }, "geometry": { "type": "LineString", "coordinates": [ [ -50.990836987137186, -20.431723037987748 ], [ -50.984993216763485, -20.444664075386697 ], [ -50.985688113915266, -20.452717499812707 ], [ -50.980720861478517, -20.457480464052136 ], [ -50.979345186531077, -20.47447861209821 ], [ -50.98252770828708, -20.483797816116294 ], [ -50.981872975757199, -20.496863577791828 ], [ -50.969178099889341, -20.510667139676684 ], [ -50.966284908022033, -20.549228027551408 ], [ -50.976864370694102, -20.555952915894295 ], [ -50.978106235514296, -20.565108616869111 ], [ -50.986165206059347, -20.548567863116318 ], [ -50.996842002356459, -20.551788337162009 ], [ -50.999816009101494, -20.555965887715502 ], [ -51.007822935879744, -20.551298471946893 ], [ -51.014216698341897, -20.554581548699446 ], [ -51.022069841949587, -20.553959966079503 ], [ -51.032938150675079, -20.558934987759415 ], [ -51.048338788903948, -20.551778560632044 ], [ -51.067974424579965, -20.554632365791008 ], [ -51.074112288551248, -20.542785177393963 ], [ -51.08273376704966, -20.545841811150634 ], [ -51.10138172048994, -20.538175367699012 ], [ -51.106828880848127, -20.527118763420162 ], [ -51.112880306480918, -20.525595409900177 ], [ -51.119969638787779, -20.530133853894199 ], [ -51.133167608897963, -20.527390633870596 ], [ -51.13841793733792, -20.521001627023395 ], [ -51.148810814067758, -20.51955544972418 ], [ -51.152746232052941, -20.509396622456109 ], [ -51.161642108096771, -20.508639758418099 ], [ -51.165416185008894, -20.502961095478152 ], [ -51.173613518049358, -20.503671249628439 ], [ -51.176128408299348, -20.497918890844119 ], [ -51.1893665637159, -20.496469627970896 ], [ -51.203168538297341, -20.489077767325057 ], [ -51.206746393031551, -20.478396208218385 ], [ -51.23138063420884, -20.457213140573913 ], [ -51.219845999792994, -20.454130000199314 ], [ -51.203828000361909, -20.439812000023721 ], [ -51.177258758984514, -20.4340895418988 ], [ -51.156771000381298, -20.435258999603093 ], [ -51.134995999865453, -20.422972999604212 ], [ -51.130624999743929, -20.416920000157859 ], [ -51.046512748764314, -20.375575550471236 ], [ -51.038566764544498, -20.37092484860284 ], [ -51.021000684733792, -20.385454560879225 ], [ -51.016080266291226, -20.403626531039549 ], [ -51.00331799972588, -20.413141000356859 ], [ -50.990836987137186, -20.431723037987748 ] ] } }
]
}
