{
"type": "FeatureCollection",
"features": [
{ "type": "Feature", "properties": { "Name": "TAIÃVA", "Description": "TAIÃVA \/ SP" }, "geometry": { "type": "LineString", "coordinates": [ [ -48.35359297633476, -21.081670456926016 ], [ -48.345839623299923, -21.105937206336932 ], [ -48.360471716196685, -21.103733601124755 ], [ -48.373951104859543, -21.108903521180537 ], [ -48.373685976626462, -21.112807773160171 ], [ -48.363641834503028, -21.119455364773216 ], [ -48.356970867711311, -21.118869744243284 ], [ -48.347384653179176, -21.128361620792134 ], [ -48.36195585837612, -21.139833632715916 ], [ -48.38597822061837, -21.168568326467035 ], [ -48.403735645583538, -21.173034391224121 ], [ -48.416979901101513, -21.170714656556125 ], [ -48.421485432606573, -21.172990388295712 ], [ -48.428564383139701, -21.197141792459718 ], [ -48.438534244859447, -21.200128606449994 ], [ -48.442717121198143, -21.2085658642232 ], [ -48.450489011058949, -21.211336987511913 ], [ -48.458933468804496, -21.201681151064236 ], [ -48.453358466220209, -21.184613083426996 ], [ -48.46332098407612, -21.180976402239139 ], [ -48.47709709505483, -21.179320041686537 ], [ -48.476621703528735, -21.164554154850293 ], [ -48.478927176747789, -21.145669913535642 ], [ -48.491148420163427, -21.139111561649202 ], [ -48.493168802897905, -21.131328222519414 ], [ -48.481267537366932, -21.108574446653332 ], [ -48.48527021025194, -21.095312755978853 ], [ -48.49247032734371, -21.08094002396291 ], [ -48.483403872390738, -21.075884318706301 ], [ -48.472077393257052, -21.075524420815327 ], [ -48.458148564804389, -21.0783427567128 ], [ -48.453142932000667, -21.070488047385425 ], [ -48.445147914044981, -21.074636038122605 ], [ -48.444628237203347, -21.081268582279218 ], [ -48.431001358825597, -21.095349139850896 ], [ -48.423668239197859, -21.094879631689594 ], [ -48.414095851742097, -21.090027151631716 ], [ -48.402768547930123, -21.090634440427038 ], [ -48.399272934398368, -21.094833155625565 ], [ -48.384126380727821, -21.097953069278674 ], [ -48.35359297633476, -21.081670456926016 ] ] } }
]
}
