{
"type": "FeatureCollection",
"features": [
{ "type": "Feature", "properties": { "Name": "TUPÃ", "Description": "TUPÃ \/ SP" }, "geometry": { "type": "LineString", "coordinates": [ [ -50.362124810011949, -21.82771488273562 ], [ -50.359373943053008, -21.834977743727848 ], [ -50.361540396372163, -21.84043619417497 ], [ -50.354536478075943, -21.845673577773368 ], [ -50.361329687914747, -21.855925186298236 ], [ -50.37550527684698, -21.855823017018565 ], [ -50.391134371653891, -21.85294767399591 ], [ -50.399992457286032, -21.854570390910794 ], [ -50.404743730338843, -21.859864777137716 ], [ -50.402309171131321, -21.86853592429344 ], [ -50.404862261883856, -21.880457682675853 ], [ -50.410692500158689, -21.88556539392772 ], [ -50.412742808733576, -21.901011327410799 ], [ -50.405442769767944, -21.905495769813854 ], [ -50.392658134365369, -21.905410356702532 ], [ -50.393445497111941, -21.913923518155798 ], [ -50.401283181373685, -21.917810349368096 ], [ -50.409876196329378, -21.926834747525561 ], [ -50.41339683439633, -21.937162448588083 ], [ -50.410838505992217, -21.946652441956587 ], [ -50.415315952569131, -21.964395045195147 ], [ -50.425656973490504, -21.973359708583644 ], [ -50.424147880520252, -21.984722357550709 ], [ -50.430374626287907, -21.987669621156044 ], [ -50.438601087470147, -21.986729835913138 ], [ -50.454033390828265, -21.996777330709222 ], [ -50.466882009397182, -21.999335865957391 ], [ -50.474137481559467, -22.004728861947399 ], [ -50.482778336850743, -22.006099202116445 ], [ -50.497989571561448, -22.014385149854714 ], [ -50.504598030974307, -22.023041531941089 ], [ -50.500250076879524, -22.029338656853497 ], [ -50.490120659240972, -22.03714890999413 ], [ -50.489123236448158, -22.050385903486582 ], [ -50.509174823858984, -22.058513412264119 ], [ -50.491281669613322, -22.064608558438181 ], [ -50.484076444372363, -22.072157823824455 ], [ -50.483843674645811, -22.080535622920593 ], [ -50.491116621534786, -22.082233149040576 ], [ -50.498280423102983, -22.094303539276893 ], [ -50.505321701934974, -22.098226553812367 ], [ -50.509212095361875, -22.1047020754404 ], [ -50.521124666270282, -22.111016046453354 ], [ -50.535169782459434, -22.102318882810149 ], [ -50.550581651422014, -22.09488867687088 ], [ -50.547045262628721, -22.08729230229784 ], [ -50.561770174553885, -22.078115919613932 ], [ -50.575610777715156, -22.079530148497497 ], [ -50.57907042915695, -22.071133841353628 ], [ -50.586510992588217, -22.074178710179297 ], [ -50.594825439842111, -22.073380917095619 ], [ -50.607215200021415, -22.06203843182811 ], [ -50.620948335996836, -22.060672972279804 ], [ -50.628128980967631, -22.049188319485324 ], [ -50.634994904591103, -22.050767304167721 ], [ -50.646438182276256, -22.044726087638765 ], [ -50.655244527213142, -22.035349550940964 ], [ -50.663331748161625, -22.035709131371277 ], [ -50.672363853509005, -22.029217931862032 ], [ -50.705113451824268, -22.021583950338993 ], [ -50.710152040284413, -22.015207276794342 ], [ -50.704438659016823, -22.013825243640042 ], [ -50.695227206370411, -21.997410683656085 ], [ -50.687202904690253, -21.969284499080342 ], [ -50.683274262197415, -21.960081099862801 ], [ -50.678026713561962, -21.955520715108889 ], [ -50.674180864455309, -21.944692077277519 ], [ -50.664880898734452, -21.935307131019211 ], [ -50.64406826453876, -21.925710595867258 ], [ -50.635407509948607, -21.926773904791844 ], [ -50.621855470453568, -21.916964164664417 ], [ -50.627728904964954, -21.906361881695432 ], [ -50.619037888187954, -21.903215434444689 ], [ -50.611564153263032, -21.896584067500669 ], [ -50.615865555750752, -21.883683237891091 ], [ -50.609131827971453, -21.878256740356221 ], [ -50.605891282856362, -21.869274237116315 ], [ -50.609151599566644, -21.855520505766659 ], [ -50.599405097067518, -21.844093350227865 ], [ -50.581638284978851, -21.842324290233762 ], [ -50.565646653670115, -21.833585111163927 ], [ -50.557275620173698, -21.831823293410196 ], [ -50.55181894588759, -21.824382506047755 ], [ -50.539973128057397, -21.814729265043525 ], [ -50.535914950814288, -21.820066609186593 ], [ -50.528429215335962, -21.819551805771194 ], [ -50.517857833072462, -21.825427014644958 ], [ -50.507383127029641, -21.826240448737678 ], [ -50.494631522826467, -21.849042523593539 ], [ -50.48688927102301, -21.851856016641818 ], [ -50.472663427974794, -21.850330736774026 ], [ -50.468173891811603, -21.834973417089486 ], [ -50.460442503818456, -21.828127905378491 ], [ -50.450151227097422, -21.823072360201195 ], [ -50.437470562316548, -21.813060185379186 ], [ -50.428303652191744, -21.809368203080055 ], [ -50.425742456748928, -21.804289640654357 ], [ -50.403039182312398, -21.809069626362145 ], [ -50.399114802605993, -21.815007485606941 ], [ -50.388266428253011, -21.81495578538113 ], [ -50.387591918732028, -21.82047004865376 ], [ -50.379873501660711, -21.825463160196648 ], [ -50.362124810011949, -21.82771488273562 ] ] } }
]
}
