{
"type": "FeatureCollection",
"features": [
{ "type": "Feature", "properties": { "Name": "URU", "Description": "URU \/ SP" }, "geometry": { "type": "LineString", "coordinates": [ [ -49.285039077491376, -21.86025067352972 ], [ -49.293446471477402, -21.848574099115353 ], [ -49.307751184169767, -21.845347278554016 ], [ -49.320812955553436, -21.837775735161983 ], [ -49.339982616504521, -21.838183580407868 ], [ -49.345930953750496, -21.834856278594316 ], [ -49.355976825270204, -21.835340428617823 ], [ -49.372645408658627, -21.843073018105258 ], [ -49.377527706638318, -21.842838361601082 ], [ -49.391166858963345, -21.830628604326591 ], [ -49.376130784308202, -21.816382640746212 ], [ -49.366030161162939, -21.819885153876726 ], [ -49.354279571644895, -21.810838974139301 ], [ -49.34714016598582, -21.800637926399133 ], [ -49.331661870398925, -21.790539833946127 ], [ -49.320861423615781, -21.778044727182362 ], [ -49.319925428115994, -21.76687382896398 ], [ -49.322076992259326, -21.754353945877881 ], [ -49.320180447069959, -21.745741639564983 ], [ -49.314744687417374, -21.736297392011011 ], [ -49.31382816853511, -21.722106922896103 ], [ -49.319066286879604, -21.703199001532653 ], [ -49.31033827289292, -21.689440975920263 ], [ -49.304699024540291, -21.689653045051955 ], [ -49.30281989562166, -21.680180919413829 ], [ -49.288752124610824, -21.67636153105974 ], [ -49.282518969374905, -21.672270542951139 ], [ -49.273322287193764, -21.659007990726138 ], [ -49.264670153504767, -21.664605265020896 ], [ -49.25026142612387, -21.666034364194498 ], [ -49.238635586063424, -21.670803790062791 ], [ -49.244242341011159, -21.680707786335233 ], [ -49.240919411701441, -21.683978370605242 ], [ -49.241873497064205, -21.710436796620794 ], [ -49.253830597004423, -21.715430774210802 ], [ -49.263368240052216, -21.726902620659359 ], [ -49.266348736305076, -21.740542212752871 ], [ -49.258386192868443, -21.747490411753063 ], [ -49.258189043489551, -21.755098935267597 ], [ -49.263954991029941, -21.766677711107434 ], [ -49.266932158891954, -21.783215432346253 ], [ -49.25634726521406, -21.802237340980469 ], [ -49.258646246227215, -21.816015289274162 ], [ -49.27317379383549, -21.835630318784126 ], [ -49.275665967210557, -21.850786805466665 ], [ -49.279411498741638, -21.8588134831557 ], [ -49.285039077491376, -21.86025067352972 ] ] } }
]
}
