{
"type": "FeatureCollection",
"features": [
{ "type": "Feature", "properties": { "Name": "VISTA ALEGRE DO ALTO", "Description": "VISTA ALEGRE DO ALTO \/ SP" }, "geometry": { "type": "LineString", "coordinates": [ [ -48.597695038395265, -21.143117085385143 ], [ -48.588884754427852, -21.14740797749613 ], [ -48.586367722892078, -21.158741378711625 ], [ -48.581168220536881, -21.165683447932736 ], [ -48.583977638757005, -21.184181152538088 ], [ -48.580975998543465, -21.204001102468851 ], [ -48.584842057215099, -21.213126581726328 ], [ -48.591108207677614, -21.21450236279378 ], [ -48.600270900881355, -21.211588937079739 ], [ -48.610804319163947, -21.200630942563919 ], [ -48.625892007709922, -21.196416930796659 ], [ -48.635190375335526, -21.201705063138093 ], [ -48.638616092658481, -21.20695298229424 ], [ -48.651664894019575, -21.210999624832763 ], [ -48.661217820146241, -21.206253899697685 ], [ -48.673218034484648, -21.206967280615459 ], [ -48.697070424860158, -21.212158349128458 ], [ -48.706954593779408, -21.20677294611454 ], [ -48.708709537115396, -21.202388174674468 ], [ -48.725631997318771, -21.186680944070247 ], [ -48.728579074764468, -21.178707478367414 ], [ -48.728747828049791, -21.164888732329075 ], [ -48.718721300947266, -21.161745240250582 ], [ -48.71317251719784, -21.163473345118746 ], [ -48.706294577732535, -21.158342359412302 ], [ -48.697176337118208, -21.157309686792587 ], [ -48.686892789170827, -21.149639627167002 ], [ -48.678014902265879, -21.146553734866924 ], [ -48.656821208232145, -21.145300107813682 ], [ -48.640145489622626, -21.139027600942995 ], [ -48.623131358825106, -21.139190503239092 ], [ -48.615052689529932, -21.142959619490796 ], [ -48.597695038395265, -21.143117085385143 ] ] } }
]
}
