{
"type": "FeatureCollection",
"features": [
{ "type": "Feature", "properties": { "Name": "VOTUPORANGA", "Description": "VOTUPORANGA \/ SP" }, "geometry": { "type": "LineString", "coordinates": [ [ -50.007508287577366, -20.331818369921791 ], [ -49.999565078665398, -20.332314243507483 ], [ -49.996941088960057, -20.338679050497717 ], [ -49.984978685717749, -20.347662650011216 ], [ -49.962725278248968, -20.350498361709978 ], [ -49.950922335597284, -20.355421389085791 ], [ -49.951700261757651, -20.35986241042184 ], [ -49.944643066724097, -20.377217863613453 ], [ -49.939318144916399, -20.381102541848804 ], [ -49.937905320773893, -20.391345484506473 ], [ -49.892509423471097, -20.395942263024949 ], [ -49.889135094309097, -20.408784988336492 ], [ -49.871701551185595, -20.411204416450627 ], [ -49.867932571630831, -20.414226132230169 ], [ -49.857679870429649, -20.413793170718236 ], [ -49.852273651707605, -20.416651991396236 ], [ -49.860867823191427, -20.431490183724975 ], [ -49.8556070455287, -20.464239791932812 ], [ -49.865157000295305, -20.468378999890888 ], [ -49.875691000439303, -20.468434999775354 ], [ -49.895250000387193, -20.478425000013715 ], [ -49.901197000341256, -20.490819999643236 ], [ -49.912767999743323, -20.496670999666833 ], [ -49.919974000199886, -20.50852599957517 ], [ -49.919361999856385, -20.5182950004139 ], [ -49.924440000205777, -20.536771999927794 ], [ -49.919183999741733, -20.546976000142251 ], [ -49.924546362124879, -20.557843713516547 ], [ -49.923118000395327, -20.562005999876927 ], [ -49.940550000282258, -20.560910999742816 ], [ -49.951323999802696, -20.566944000065519 ], [ -49.95563199971695, -20.575577999824759 ], [ -49.971734000323806, -20.572074000114977 ], [ -49.979807000292794, -20.567143000249189 ], [ -49.982785751860945, -20.572305210417085 ], [ -49.986336797804931, -20.564072531322211 ], [ -49.990912236310635, -20.562959363084076 ], [ -49.996319805814323, -20.553152382976066 ], [ -50.011299581110734, -20.544348039030748 ], [ -50.017111810461643, -20.538922250161647 ], [ -50.031235105615565, -20.536902704696047 ], [ -50.039571753533551, -20.538048911328133 ], [ -50.051002060296803, -20.535134282321224 ], [ -50.052979089413384, -20.538947540896231 ], [ -50.070975694472679, -20.541519538995484 ], [ -50.078477103335615, -20.531258712419572 ], [ -50.084496061643904, -20.530700438474412 ], [ -50.089137483408081, -20.524722725773131 ], [ -50.094735735265942, -20.525363473845175 ], [ -50.100640968006246, -20.517499669673953 ], [ -50.107969593721748, -20.515632899238881 ], [ -50.120168512366888, -20.521651031070174 ], [ -50.123978113399176, -20.513766910314587 ], [ -50.135345137567981, -20.51594777706822 ], [ -50.138252225759572, -20.521091650059532 ], [ -50.140650356129015, -20.506204622745088 ], [ -50.149831378415342, -20.500866456621623 ], [ -50.154378466692833, -20.50491539692797 ], [ -50.149295708030472, -20.493696585528937 ], [ -50.141601172456092, -20.490576661983312 ], [ -50.1314314714852, -20.479388974321637 ], [ -50.094171997939327, -20.470671146955794 ], [ -50.087474235847253, -20.461034444483971 ], [ -50.064658022749484, -20.450447458083659 ], [ -50.054410970190077, -20.450606665964813 ], [ -50.04463625595838, -20.443417744533235 ], [ -50.04312431843249, -20.435867603207271 ], [ -50.034722574886871, -20.431019941716897 ], [ -50.032225096411018, -20.425518289637296 ], [ -50.038700600951927, -20.4193837999224 ], [ -50.039278182442096, -20.397317922683953 ], [ -50.036821249001378, -20.389565042692539 ], [ -50.041576158912562, -20.372246669448202 ], [ -50.050306941911799, -20.363434413267498 ], [ -50.055463015105992, -20.353926747321509 ], [ -50.05323160555411, -20.336221322955623 ], [ -50.049205764334488, -20.328378273338615 ], [ -50.04165829129704, -20.324597768971838 ], [ -50.0373199221766, -20.316683493048743 ], [ -50.02807608314469, -20.328265642245526 ], [ -50.015814593268829, -20.335686061762317 ], [ -50.007508287577366, -20.331818369921791 ] ] } }
]
}
