{
"type": "FeatureCollection",
"features": [
{ "type": "Feature", "properties": { "Name": "ANASTÃCIO", "Description": "ANASTÃCIO \/ MS" }, "geometry": { "type": "LineString", "coordinates": [ [ -55.586788456721877, -20.507944102238469 ], [ -55.580801903684858, -20.624662651759934 ], [ -55.556154460459936, -20.641802050923843 ], [ -55.552516263914413, -20.682471097163386 ], [ -55.523828002160542, -20.709222677884213 ], [ -55.528712214796819, -20.737887274877778 ], [ -55.471475315533318, -20.769035212105333 ], [ -55.465075890939602, -20.793083626807913 ], [ -55.395321590718822, -20.897147992985424 ], [ -55.346821205833919, -21.006881146647572 ], [ -55.310450434240124, -21.042870289132509 ], [ -55.379541283903102, -21.10556442565769 ], [ -55.423511515643895, -21.100902076669456 ], [ -55.513578496250545, -20.994888546868879 ], [ -55.584219470452183, -20.996322996109313 ], [ -55.651632925319234, -20.935489082055426 ], [ -55.684829152143607, -20.919255310084452 ], [ -55.693939733232071, -20.871886593391537 ], [ -55.719269634186212, -20.828471137233176 ], [ -55.729941086711733, -20.776860629614305 ], [ -55.756889136024768, -20.753335471055095 ], [ -55.844110106795938, -20.747672270159114 ], [ -55.891269869608777, -20.807115343098587 ], [ -55.966775767787396, -20.819815330712913 ], [ -56.038001662846398, -20.765870642615994 ], [ -56.084773521081104, -20.765264659636273 ], [ -56.117354899409058, -20.739254116684094 ], [ -56.150724621643917, -20.658509542581271 ], [ -56.150878264520252, -20.618246801048997 ], [ -56.132846197394031, -20.51498049055715 ], [ -56.151990006433607, -20.451546677836856 ], [ -56.128352875984376, -20.431839469615795 ], [ -55.833287733641953, -20.460506131452746 ], [ -55.780591689454866, -20.487968833095124 ], [ -55.641250765810128, -20.482081954618479 ], [ -55.586788456721877, -20.507944102238469 ] ] } }
]
}
