{
"type": "FeatureCollection",
"features": [
{ "type": "Feature", "properties": { "Name": "APARECIDA DO TABOADO", "Description": "APARECIDA DO TABOADO \/ MS" }, "geometry": { "type": "LineString", "coordinates": [ [ -51.343546930646312, -20.355635009547996 ], [ -51.360494454055747, -20.322053632768871 ], [ -51.419360551648083, -20.291578607866427 ], [ -51.45516806075733, -20.257703293072495 ], [ -51.501251194786789, -20.240294057724554 ], [ -51.563254427150071, -20.188175604020842 ], [ -51.628563842547237, -20.103009908780223 ], [ -51.688501310586958, -20.047871210587857 ], [ -51.638756958266974, -19.98284463287348 ], [ -51.559961926401733, -19.966342112898133 ], [ -51.475615816616596, -19.959664466841616 ], [ -51.388338246113108, -19.895560985650945 ], [ -51.369625371513621, -19.867976189349633 ], [ -51.272384934217314, -19.847835658988402 ], [ -51.230115271902207, -19.862867470857054 ], [ -51.149893771380384, -19.854364129101214 ], [ -51.130671104387943, -19.826825692851401 ], [ -51.067637219282176, -19.817192155993155 ], [ -51.033497868931477, -19.790679312899897 ], [ -51.019306933068492, -19.870450246781445 ], [ -50.999471302558504, -19.906375501428215 ], [ -51.020911177009168, -19.959087424045322 ], [ -51.005486098804397, -19.996064940344695 ], [ -51.01788844229776, -20.048392525994245 ], [ -51.001191135462477, -20.09633478172475 ], [ -51.069163086407279, -20.250049485095587 ], [ -51.132414333154884, -20.295531508672127 ], [ -51.295684541008711, -20.328482100968127 ], [ -51.343546930646312, -20.355635009547996 ] ] } }
]
}
