{
"type": "FeatureCollection",
"features": [
{ "type": "Feature", "properties": { "Name": "DOURADINA", "Description": "DOURADINA \/ MS" }, "geometry": { "type": "LineString", "coordinates": [ [ -54.501448007219722, -21.933881527510437 ], [ -54.513282221097597, -22.016814748401885 ], [ -54.54263973403647, -22.056055595689145 ], [ -54.555617459278267, -22.104351785906147 ], [ -54.585756862589108, -22.124647307227406 ], [ -54.624809206579584, -22.092225735729073 ], [ -54.67961230656266, -22.094986425982711 ], [ -54.682936037168361, -22.067008733865919 ], [ -54.626932714573059, -21.943110553808989 ], [ -54.627152641980786, -21.924819964869414 ], [ -54.531842983466845, -21.911303498957238 ], [ -54.501448007219722, -21.933881527510437 ] ] } }
]
}
