{
"type": "FeatureCollection",
"features": [
{ "type": "Feature", "properties": { "Name": "JARDIM", "Description": "JARDIM \/ MS" }, "geometry": { "type": "LineString", "coordinates": [ [ -55.926045285261637, -21.784846205388021 ], [ -55.939540715131841, -21.809679001584584 ], [ -56.003687296331634, -21.846602519890325 ], [ -56.002321636234456, -21.904033206866984 ], [ -56.09148848630457, -21.894186829258729 ], [ -56.148155118264071, -21.8723449578535 ], [ -56.158859416728653, -21.807373396165247 ], [ -56.231715053307028, -21.794138168041968 ], [ -56.261605358800239, -21.750828268010139 ], [ -56.281274933091652, -21.668948866397045 ], [ -56.358665785097855, -21.628335231885384 ], [ -56.402351617033446, -21.640397361848727 ], [ -56.482603409419767, -21.629581841528704 ], [ -56.522944943254458, -21.605468622578826 ], [ -56.528243433087937, -21.557512670173537 ], [ -56.619408071325374, -21.54976268240182 ], [ -56.665158733188946, -21.5933123749661 ], [ -56.697359011209358, -21.537492720912269 ], [ -56.738940428657827, -21.563615719589734 ], [ -56.807081919794712, -21.56760109851183 ], [ -56.887772083115124, -21.569435881860443 ], [ -56.937096528481959, -21.589305186585019 ], [ -56.934783171805918, -21.563277475574978 ], [ -56.851784632254919, -21.46075455907561 ], [ -56.729142186362765, -21.442348177026698 ], [ -56.698926263336311, -21.397831218635758 ], [ -56.62505918713174, -21.426135305300079 ], [ -56.556135389236765, -21.422600629715248 ], [ -56.49857568282146, -21.43912776593362 ], [ -56.41465853166585, -21.430176306391388 ], [ -56.391520863996618, -21.416436894047365 ], [ -56.289852488701335, -21.402807692720785 ], [ -56.290994290454073, -21.35423591425598 ], [ -56.235798109395205, -21.339201028504586 ], [ -56.226757163712072, -21.291435091156472 ], [ -56.203778696729444, -21.355225983292428 ], [ -56.216757002034001, -21.383408903398106 ], [ -56.185947551638144, -21.440576691561031 ], [ -56.143779407493639, -21.44601177492342 ], [ -56.105796639803032, -21.544586287227332 ], [ -56.133599122401563, -21.579395457134581 ], [ -56.123400605353595, -21.627694759905182 ], [ -56.026131194598918, -21.721312734295225 ], [ -55.976408345069046, -21.786192736905264 ], [ -55.926045285261637, -21.784846205388021 ] ] } }
]
}
