{
"type": "FeatureCollection",
"features": [
{ "type": "Feature", "properties": { "Name": "LAGUNA CARAPÃ", "Description": "LAGUNA CARAPÃ \/ MS" }, "geometry": { "type": "LineString", "coordinates": [ [ -54.964485336828773, -22.364237377952573 ], [ -54.980317061483156, -22.440925286572678 ], [ -55.025653351720791, -22.502841688493103 ], [ -55.096514452979584, -22.547306869316515 ], [ -55.102814917974051, -22.593973344094536 ], [ -55.126932982471146, -22.640299213238052 ], [ -55.04192344461125, -22.674574249701834 ], [ -54.964677631667314, -22.730282923817811 ], [ -54.957173809923347, -22.764099131569594 ], [ -54.821367780398695, -22.85633471847245 ], [ -54.813533061201781, -22.870933106577581 ], [ -54.906728114111161, -22.893700115967533 ], [ -54.924623594003599, -22.924143465848204 ], [ -54.97726090166924, -22.943187247793219 ], [ -54.984550010274688, -22.909975240564847 ], [ -55.049524537027708, -22.925674999601483 ], [ -55.072351080637816, -22.91736303267777 ], [ -55.165189235794571, -22.884246011843913 ], [ -55.233021059774046, -22.846535299864172 ], [ -55.271748229597044, -22.782161030107432 ], [ -55.353021427896522, -22.70817650514158 ], [ -55.366371878959001, -22.652992735626185 ], [ -55.362425418198427, -22.552506136948637 ], [ -55.312494398997273, -22.497307634739514 ], [ -55.232213499153602, -22.474842675249192 ], [ -55.203742325647795, -22.445695269121302 ], [ -55.14854551866074, -22.418209803839318 ], [ -55.090960802099289, -22.424472418167511 ], [ -55.053955997671096, -22.411735293948592 ], [ -55.04381691411924, -22.368928280415787 ], [ -54.984399039284199, -22.357190918126321 ], [ -54.964485336828773, -22.364237377952573 ] ] } }
]
}
