{
"type": "FeatureCollection",
"features": [
{ "type": "Feature", "properties": { "Name": "MUNDO NOVO", "Description": "MUNDO NOVO \/ MS" }, "geometry": { "type": "LineString", "coordinates": [ [ -54.083985912319974, -23.86498474035346 ], [ -54.101764988463394, -23.951963548878609 ], [ -54.249463935112487, -24.055901791434508 ], [ -54.284134014073459, -24.067556781220446 ], [ -54.324188034650028, -24.003822200134376 ], [ -54.351956987824678, -24.007672628588921 ], [ -54.414700567277293, -23.958110166850702 ], [ -54.430034030645963, -23.929741306516064 ], [ -54.401271498380879, -23.878706808372442 ], [ -54.41885927613464, -23.852311584012341 ], [ -54.3919891189027, -23.813491046574484 ], [ -54.274798895652452, -23.860067496517729 ], [ -54.252963401339855, -23.895472367455739 ], [ -54.208987803344428, -23.923594303634161 ], [ -54.132261803939052, -23.917781892620212 ], [ -54.083985912319974, -23.86498474035346 ] ] } }
]
}
