{
"type": "FeatureCollection",
"features": [
{ "type": "Feature", "properties": { "Name": "NOVO HORIZONTE DO SUL", "Description": "NOVO HORIZONTE DO SUL \/ MS" }, "geometry": { "type": "LineString", "coordinates": [ [ -53.562135105350762, -22.570169774315559 ], [ -53.497723452575258, -22.586693000281684 ], [ -53.513061821745623, -22.629904757298675 ], [ -53.558256309580997, -22.666511542473643 ], [ -53.596614921941068, -22.66218618114732 ], [ -53.621675895026492, -22.695337068650758 ], [ -53.777866852872933, -22.731734257829714 ], [ -53.917232936850489, -22.663181874543849 ], [ -53.983958531760777, -22.576802665610501 ], [ -54.025286722604108, -22.548170812932653 ], [ -53.91905315208129, -22.433946526810701 ], [ -53.878287638263821, -22.460493217687826 ], [ -53.854405793292699, -22.502759193681811 ], [ -53.765422388732183, -22.546325744037802 ], [ -53.661364960824244, -22.571921649164722 ], [ -53.620197845753921, -22.556424144058951 ], [ -53.562135105350762, -22.570169774315559 ] ] } }
]
}
