{
"type": "FeatureCollection",
"features": [
{ "type": "Feature", "properties": { "Name": "RIO NEGRO", "Description": "RIO NEGRO \/ MS" }, "geometry": { "type": "LineString", "coordinates": [ [ -54.805063505176577, -19.199215582732901 ], [ -54.770996751698704, -19.221805909515069 ], [ -54.752260706066693, -19.286680848042636 ], [ -54.71909079790197, -19.303523173255769 ], [ -54.748697156848266, -19.379891333318312 ], [ -54.794446434655185, -19.455036057468021 ], [ -54.817058829901036, -19.489108841799577 ], [ -54.812391953725637, -19.539220657107588 ], [ -54.840869944991937, -19.649668180941774 ], [ -54.889314296717373, -19.651593972983449 ], [ -54.902372510383024, -19.679656279613596 ], [ -55.027986551038452, -19.696857151036625 ], [ -55.045370180889108, -19.665205367733506 ], [ -55.037454487634477, -19.614332593774122 ], [ -55.087774953751079, -19.631037073602045 ], [ -55.166091928499668, -19.602463595018833 ], [ -55.235277635954105, -19.520846911455749 ], [ -55.198707870471821, -19.415737338807105 ], [ -55.114486396829697, -19.370160602229987 ], [ -55.101984247475002, -19.335564868423887 ], [ -55.057926432558759, -19.351420494360298 ], [ -55.024372121775968, -19.307838359652521 ], [ -54.99378253763399, -19.236969468466157 ], [ -54.912757257241594, -19.235193577221764 ], [ -54.87321489335261, -19.187363135999874 ], [ -54.805063505176577, -19.199215582732901 ] ] } }
]
}
