{
"type": "FeatureCollection",
"features": [
{ "type": "Feature", "properties": { "Name": "SANTA RITA DO PARDO", "Description": "SANTA RITA DO PARDO \/ MS" }, "geometry": { "type": "LineString", "coordinates": [ [ -53.128746974792989, -20.689924263693797 ], [ -53.076103937546627, -20.71757720792175 ], [ -53.030157362871932, -20.759808837008165 ], [ -53.009320697891837, -20.821177420501499 ], [ -52.924296214198876, -20.916417906760955 ], [ -52.856856125909417, -20.952520214536207 ], [ -52.725467616637161, -21.05619426685189 ], [ -52.568708636194572, -21.200198738281074 ], [ -52.512687668900746, -21.306214467823395 ], [ -52.479299989902586, -21.354143602445276 ], [ -52.399299033723366, -21.398251309050636 ], [ -52.323206466405281, -21.476478534156968 ], [ -52.29045845539337, -21.473916062576166 ], [ -52.210960629429451, -21.544447654935254 ], [ -52.164684075509626, -21.572448331924932 ], [ -52.102164143960003, -21.569813513482814 ], [ -52.068875607123516, -21.598107510653048 ], [ -52.049520352182469, -21.643089112772316 ], [ -52.055825419007817, -21.6771588133285 ], [ -52.103789076804389, -21.746053807736985 ], [ -52.16126181787854, -21.770773716533768 ], [ -52.177017925736664, -21.697667626859467 ], [ -52.196929821454027, -21.668521563419347 ], [ -52.257602087766088, -21.632314873132827 ], [ -52.339596973121786, -21.639661619288233 ], [ -52.433470709305759, -21.684027566219186 ], [ -52.491477183625079, -21.689400158390526 ], [ -52.535102563132739, -21.712339485079152 ], [ -52.629913293963284, -21.710537962257092 ], [ -52.693884692624408, -21.739545209044138 ], [ -52.733108123640932, -21.726963717001865 ], [ -52.819608005405087, -21.668897471940738 ], [ -52.891107413975924, -21.657403858301393 ], [ -52.936960871946667, -21.665320613655354 ], [ -52.997140132610973, -21.632071449138039 ], [ -53.026280445785915, -21.495687627681832 ], [ -53.061080278931684, -21.430165340058352 ], [ -53.114829875298483, -21.301798180541539 ], [ -53.140773228101978, -21.140511652290854 ], [ -53.185415776816626, -21.094352366368582 ], [ -53.191109460233349, -21.06537112977378 ], [ -53.246583682890609, -20.999749285401151 ], [ -53.288279441043301, -20.97298400530758 ], [ -53.291830297230376, -20.943879219850089 ], [ -53.260948707716636, -20.890209155927778 ], [ -53.179951688519566, -20.825750617896631 ], [ -53.16758184022973, -20.688344195328284 ], [ -53.128746974792989, -20.689924263693797 ] ] } }
]
}
