{
"type": "FeatureCollection",
"features": [
{ "type": "Feature", "properties": { "Name": "TERENOS", "Description": "TERENOS \/ MS" }, "geometry": { "type": "LineString", "coordinates": [ [ -55.084460425907878, -20.153139170036638 ], [ -55.042045604021375, -20.155608908923966 ], [ -54.955930727421105, -20.168778262606679 ], [ -54.91279009868407, -20.206564506846462 ], [ -54.916701753882819, -20.2458726450065 ], [ -54.769581404058499, -20.316363751685738 ], [ -54.764062020945453, -20.466943763743643 ], [ -54.790432528338499, -20.516785796827037 ], [ -54.794554131168177, -20.559083976644157 ], [ -54.765491431284481, -20.623461147613853 ], [ -54.853734110141033, -20.691366674632263 ], [ -54.831815772080176, -20.723954305946393 ], [ -54.824335254468387, -20.776264505902191 ], [ -54.938264540476091, -20.782744971103511 ], [ -54.955705314148872, -20.768858856850727 ], [ -55.064289094665924, -20.742190182830655 ], [ -55.082569648970093, -20.670184678080375 ], [ -55.158178922419268, -20.602073784577438 ], [ -55.205354322643814, -20.584492413593974 ], [ -55.215907728358957, -20.544775417551421 ], [ -55.274425553596359, -20.474542984670961 ], [ -55.277684354049654, -20.447872502114251 ], [ -55.336436647833004, -20.409471348224088 ], [ -55.362183600392825, -20.438228087955846 ], [ -55.392297377521913, -20.425552941415049 ], [ -55.320597999298172, -20.326061917423488 ], [ -55.25156349665798, -20.326483750724492 ], [ -55.248600671183965, -20.286001229273268 ], [ -55.269928568348689, -20.248331792578142 ], [ -55.218582997407339, -20.187160346772544 ], [ -55.148205271855772, -20.146838466721817 ], [ -55.084460425907878, -20.153139170036638 ] ] } }
]
}
