{
"type": "FeatureCollection",
"features": [
{ "type": "Feature", "properties": { "Name": "BURITIS", "Description": "BURITIS \/ RO" }, "geometry": { "type": "LineString", "coordinates": [ [ -63.685292683610434, -9.832985639875346 ], [ -63.738040314708712, -9.965410425350797 ], [ -63.762184598940046, -10.000347382625534 ], [ -63.596972867204045, -10.000382258334525 ], [ -63.576622778618287, -10.112624782207886 ], [ -63.583983788021385, -10.199070603925179 ], [ -63.565220342744567, -10.240897376212899 ], [ -63.524304750064118, -10.249642913489595 ], [ -63.698121337229907, -10.249084657530886 ], [ -63.813102209499334, -10.329930924272674 ], [ -63.823516090794897, -10.351805748636366 ], [ -63.900462051782206, -10.361331106944988 ], [ -63.896622240723786, -10.295361166484611 ], [ -64.002095700656, -10.193781203539686 ], [ -64.03761225030506, -10.178325202146311 ], [ -64.061768225722972, -10.250777011649745 ], [ -64.110741935491887, -10.243318006720585 ], [ -64.137267357402607, -10.208978768555253 ], [ -64.209181745541059, -10.196374529960565 ], [ -64.26473393222517, -10.000413361387473 ], [ -64.341169881384872, -10.000381845545689 ], [ -64.312185108655797, -9.851169849808684 ], [ -64.260243149601649, -9.831882392058674 ], [ -64.226106165367185, -9.84783943004561 ], [ -64.135794552976222, -9.833538811966548 ], [ -63.685292683610434, -9.832985639875346 ] ] } }
]
}
