{
"type": "FeatureCollection",
"features": [
{ "type": "Feature", "properties": { "Name": "CACOAL", "Description": "CACOAL \/ RO" }, "geometry": { "type": "LineString", "coordinates": [ [ -61.211721889353662, -11.529102473600233 ], [ -61.293501297147088, -11.49819613474375 ], [ -61.371257279299982, -11.510131917154183 ], [ -61.35269502765334, -11.617451122271405 ], [ -61.548976520350088, -11.61910785694198 ], [ -61.614218636780599, -11.583829057464982 ], [ -61.716841242229521, -11.511541081955329 ], [ -61.738754598046235, -11.412971767732868 ], [ -61.795798245592493, -11.397832321404451 ], [ -61.755115231982302, -11.378332630846216 ], [ -61.742299519607108, -11.333475021854724 ], [ -61.501205535107317, -11.333509220374197 ], [ -61.500802991364928, -11.114327961266326 ], [ -61.426784915391458, -11.113980145767073 ], [ -61.42900211475574, -10.987533457003394 ], [ -61.000594913524424, -10.992239290910502 ], [ -61.001032011917793, -11.398361171330919 ], [ -61.109994049985396, -11.462743013379336 ], [ -61.127218163487434, -11.493493953882819 ], [ -61.211721889353662, -11.529102473600233 ] ] } }
]
}
