{
"type": "FeatureCollection",
"features": [
{ "type": "Feature", "properties": { "Name": "CANDEIAS DO JAMARI", "Description": "CANDEIAS DO JAMARI \/ RO" }, "geometry": { "type": "LineString", "coordinates": [ [ -62.764135755660561, -8.798063022490453 ], [ -62.811253094754477, -8.839562478425592 ], [ -62.821975264546779, -8.891470641856586 ], [ -62.864473310594747, -8.931248392499242 ], [ -62.926140053520612, -8.921617735270218 ], [ -62.990779679938214, -9.000257922764888 ], [ -63.209564564652908, -9.000501228049188 ], [ -63.212008319428371, -8.967509705808254 ], [ -63.263283084047032, -8.930427378021022 ], [ -63.33092336142397, -8.936325682384279 ], [ -63.324643145564664, -8.990964598537346 ], [ -63.395755318653009, -9.094602635703041 ], [ -63.449334063616099, -9.005384279660746 ], [ -63.529922674591717, -9.080576203828684 ], [ -63.513757752018591, -9.133990604882456 ], [ -63.451177831191892, -9.156133438907034 ], [ -63.458198883371715, -9.19169455805735 ], [ -63.394662911264284, -9.197492287638907 ], [ -63.404562838104489, -9.253833847054352 ], [ -63.320814984324045, -9.290038246767608 ], [ -63.306784739324193, -9.401196708061605 ], [ -63.325975939937621, -9.428505048269301 ], [ -63.756827488597715, -9.39516523029107 ], [ -63.784820600490264, -9.334067294170266 ], [ -63.766485049945061, -9.279350002100841 ], [ -63.771815641078938, -9.202871221829355 ], [ -63.794764448420494, -9.128874555116568 ], [ -63.776906058367835, -9.06234422460625 ], [ -63.787202711236084, -9.012568389719377 ], [ -63.755704234462819, -8.982241054181259 ], [ -63.744338802093978, -8.8341603767999 ], [ -63.68694680754907, -8.731604781635326 ], [ -63.533535495866374, -8.645479875795559 ], [ -63.450532598200823, -8.500431788795993 ], [ -62.822333433940791, -8.500356931926831 ], [ -62.814277458138129, -8.561824906694028 ], [ -62.74483767601788, -8.612887901655313 ], [ -62.764135755660561, -8.798063022490453 ] ] } }
]
}
