{
"type": "FeatureCollection",
"features": [
{ "type": "Feature", "properties": { "Name": "CHUPINGUAIA", "Description": "CHUPINGUAIA \/ RO" }, "geometry": { "type": "LineString", "coordinates": [ [ -60.64998529978174, -12.261371244387362 ], [ -60.720918194818815, -12.334427409097598 ], [ -60.809170052156155, -12.375481453306406 ], [ -60.810001214584361, -12.44790062011748 ], [ -60.628697979128383, -12.444183750879347 ], [ -60.639948397200726, -12.538519963425527 ], [ -60.446473979090797, -12.53606765699675 ], [ -60.443648624884077, -12.83925475570237 ], [ -60.561809409976256, -12.771176380785278 ], [ -60.585836099756129, -12.849684613454087 ], [ -60.589834465787931, -12.935239296056636 ], [ -60.612655603573209, -12.992386763138541 ], [ -60.652015123599021, -12.981308099389253 ], [ -60.645390945835459, -12.903118694372209 ], [ -60.659836566104616, -12.856635982564512 ], [ -60.730525806021092, -12.81275510476422 ], [ -60.828115424886896, -12.806730724443355 ], [ -60.899475609411809, -12.846318873716996 ], [ -60.937336029733949, -12.916429068946341 ], [ -60.985173927234939, -12.88879556896029 ], [ -60.966557281893017, -12.784011058963131 ], [ -61.017835950468672, -12.766966771199463 ], [ -61.078866951848283, -12.702120902357706 ], [ -61.167622281143331, -12.753118789100768 ], [ -61.297639332389224, -12.72092697280152 ], [ -61.344783022518406, -12.692187460482842 ], [ -61.338068633760372, -12.626561822769872 ], [ -61.342010088894426, -12.626096251840522 ], [ -61.278031451590159, -12.477245100081234 ], [ -61.1807814230242, -12.312032549062849 ], [ -61.1982807074886, -12.219624678136311 ], [ -61.180673480096964, -12.167142915413194 ], [ -60.71293382753408, -12.166074653922065 ], [ -60.672726638023903, -12.253152114478439 ], [ -60.64998529978174, -12.261371244387362 ] ] } }
]
}
