{
"type": "FeatureCollection",
"features": [
{ "type": "Feature", "properties": { "Name": "COLORADO DO OESTE", "Description": "COLORADO DO OESTE \/ RO" }, "geometry": { "type": "LineString", "coordinates": [ [ -60.333170292075287, -13.257979219065644 ], [ -60.371617959800979, -13.318590344968413 ], [ -60.705181923307066, -13.324738151844201 ], [ -60.741554706684326, -13.324922680137547 ], [ -60.7184214735721, -13.315634271604324 ], [ -60.739355446096909, -13.214280023204481 ], [ -60.742958299286038, -13.122352814730561 ], [ -60.737801843879936, -13.04335799757348 ], [ -60.703748793372085, -12.9944551813615 ], [ -60.652015123599021, -12.981308099389253 ], [ -60.612655603573209, -12.992386763138541 ], [ -60.552129512167191, -12.959160983692414 ], [ -60.504754465146384, -12.967882846316284 ], [ -60.420607689193439, -13.014854961087565 ], [ -60.415927861881293, -13.045954856531353 ], [ -60.346028490222572, -13.1228396042643 ], [ -60.356637661998434, -13.197704796639016 ], [ -60.333170292075287, -13.257979219065644 ] ] } }
]
}
