{
"type": "FeatureCollection",
"features": [
{ "type": "Feature", "properties": { "Name": "CORUMBIARA", "Description": "CORUMBIARA \/ RO" }, "geometry": { "type": "LineString", "coordinates": [ [ -60.652015123599021, -12.981308099389253 ], [ -60.703748793372085, -12.9944551813615 ], [ -60.737801843879936, -13.04335799757348 ], [ -60.742958299286038, -13.122352814730561 ], [ -60.762673127462847, -13.131230338309422 ], [ -60.85136222348779, -13.096808563964032 ], [ -60.963394396833912, -13.135476114131336 ], [ -61.001621414996237, -13.105049111227459 ], [ -61.064427805798566, -13.123707575044534 ], [ -61.181372160696633, -13.109921665052752 ], [ -61.4343742797492, -13.011924786399732 ], [ -61.500996261068565, -13.004329819265706 ], [ -61.515649967372042, -12.993079900317127 ], [ -61.470060493696792, -12.896756954070156 ], [ -61.469367519295531, -12.843749864964252 ], [ -61.425450727968666, -12.730457059745447 ], [ -61.372422406768635, -12.715105001994173 ], [ -61.338068633760372, -12.626561822769872 ], [ -61.344783022518406, -12.692187460482842 ], [ -61.297639332389224, -12.72092697280152 ], [ -61.167622281143331, -12.753118789100768 ], [ -61.078866951848283, -12.702120902357706 ], [ -61.017835950468672, -12.766966771199463 ], [ -60.966557281893017, -12.784011058963131 ], [ -60.985173927234939, -12.88879556896029 ], [ -60.937336029733949, -12.916429068946341 ], [ -60.899475609411809, -12.846318873716996 ], [ -60.828115424886896, -12.806730724443355 ], [ -60.730525806021092, -12.81275510476422 ], [ -60.659836566104616, -12.856635982564512 ], [ -60.645390945835459, -12.903118694372209 ], [ -60.652015123599021, -12.981308099389253 ] ] } }
]
}
