{
"type": "FeatureCollection",
"features": [
{ "type": "Feature", "properties": { "Name": "CUJUBIM", "Description": "CUJUBIM \/ RO" }, "geometry": { "type": "LineString", "coordinates": [ [ -62.369126902084808, -8.743556929009003 ], [ -62.290279024257529, -8.828104667696209 ], [ -62.345141873398681, -8.932718117646971 ], [ -62.327891558148842, -9.11246425971774 ], [ -62.335864470768676, -9.216477358243424 ], [ -62.315174858432961, -9.298717384399707 ], [ -62.335540401868009, -9.350897818479496 ], [ -62.388146297113899, -9.369839230595971 ], [ -62.426750885744752, -9.49277640770498 ], [ -62.422463853523986, -9.525018774896523 ], [ -63.076810289163461, -9.52497284921759 ], [ -63.099557732903008, -9.480775901086929 ], [ -62.733115695732749, -9.389631047035152 ], [ -62.735885540185507, -9.000523313600011 ], [ -62.627877668419622, -9.000499120038285 ], [ -62.666619490896714, -8.887899738881799 ], [ -62.764135755660561, -8.798063022490453 ], [ -62.703750317323227, -8.813195455905543 ], [ -62.625868209750017, -8.757763904280694 ], [ -62.502831168323723, -8.731872676183002 ], [ -62.471942252932593, -8.771746586835489 ], [ -62.420667042250159, -8.734618878358502 ], [ -62.369126902084808, -8.743556929009003 ] ] } }
]
}
