{
"type": "FeatureCollection",
"features": [
{ "type": "Feature", "properties": { "Name": "ESPIGÃO DO OESTE", "Description": "ESPIGÃO DO OESTE \/ RO" }, "geometry": { "type": "LineString", "coordinates": [ [ -60.460050132107895, -10.9898562205881 ], [ -60.475248024476699, -11.046056888614499 ], [ -60.512826269916403, -11.0663472523238 ], [ -60.527882725906998, -11.116717923093599 ], [ -60.528049945848309, -11.2545137449134 ], [ -60.483798820758899, -11.2928895568076 ], [ -60.49677480311459, -11.344452324814901 ], [ -60.462415287935102, -11.370109849689801 ], [ -60.438025653361201, -11.446864804566999 ], [ -60.463333868063501, -11.4648821848649 ], [ -60.522445765659491, -11.494496349027299 ], [ -60.542801343706991, -11.5502079558324 ], [ -60.592568485747002, -11.589048517575 ], [ -60.590531148993293, -11.620741777610901 ], [ -60.671608378723597, -11.6951035151151 ], [ -60.76111326596439, -11.708820796942199 ], [ -60.821919776776191, -11.698047520476599 ], [ -60.843303460686094, -11.721666485519798 ], [ -60.9252137360251, -11.7473750747998 ], [ -61.21172188935369, -11.529102473600199 ], [ -61.127218163487399, -11.493493953882799 ], [ -61.109994049985396, -11.462743013379299 ], [ -61.001032011917793, -11.398361171330899 ], [ -61.000594913524402, -10.992239290910501 ], [ -60.460050132107895, -10.9898562205881 ] ] } }
]
}
