{
"type": "FeatureCollection",
"features": [
{ "type": "Feature", "properties": { "Name": "MACHADINHO DO OESTE", "Description": "MACHADINHO DO OESTE \/ RO" }, "geometry": { "type": "LineString", "coordinates": [ [ -61.61621063331399, -9.326825765096938 ], [ -61.633143694725703, -9.329361061863489 ], [ -61.7009662673793, -9.475881559386441 ], [ -61.732554791470392, -9.5004461094004 ], [ -61.830130764922799, -9.500566739963009 ], [ -61.859873288421504, -9.567518910069618 ], [ -61.918335146149992, -9.551986497778611 ], [ -61.946383805568104, -9.6602124776237 ], [ -61.920945596561992, -9.69029477398459 ], [ -61.974833365667301, -9.786515786574229 ], [ -62.017491940700403, -9.671675696875869 ], [ -61.981699362135807, -9.658587453947799 ], [ -62.016739027384197, -9.53932584021533 ], [ -62.0997719075474, -9.620096887661189 ], [ -62.124610995401099, -9.680292989030191 ], [ -62.19036407694059, -9.70905829390512 ], [ -62.246371575088098, -9.758447666726399 ], [ -62.317003074032598, -9.736051305723148 ], [ -62.4226166852118, -9.80461564459625 ], [ -62.495593168190091, -9.77206042844597 ], [ -62.536478405154199, -9.73221504878541 ], [ -62.554755633765502, -9.67076937720492 ], [ -62.459278078120697, -9.597659406056721 ], [ -62.422463853524, -9.52501877489652 ], [ -62.426750885744802, -9.49277640770498 ], [ -62.388146297113899, -9.36983923059597 ], [ -62.335540401868009, -9.350897818479501 ], [ -62.315174858432997, -9.29871738439971 ], [ -62.335864470768698, -9.21647735824342 ], [ -62.327891558148792, -9.11246425971774 ], [ -62.345141873398696, -8.932718117646971 ], [ -62.290279024257508, -8.828104667696209 ], [ -62.369126902084801, -8.743556929008999 ], [ -62.330784460434494, -8.70930102562181 ], [ -62.245587444504892, -8.680321825092109 ], [ -62.23850289389339, -8.621979011522111 ], [ -62.268888514493291, -8.575758584291179 ], [ -62.183700536750301, -8.598966512394608 ], [ -62.200530606901999, -8.64429275360766 ], [ -62.165087007559301, -8.679393772404641 ], [ -62.124971743151399, -8.801671148404751 ], [ -62.031061033140098, -8.79971009574427 ], [ -61.9791399788269, -8.873244618844009 ], [ -61.938106584850999, -8.881411697791579 ], [ -61.8597486208022, -8.852973303674959 ], [ -61.841249934137096, -8.739410640688449 ], [ -61.774605628047304, -8.748228934917391 ], [ -61.741854006257398, -8.69519286066196 ], [ -61.626469061397998, -8.72885346681397 ], [ -61.606027786053502, -8.794713977767801 ], [ -61.513721507941192, -8.836951845451271 ], [ -61.469214048189691, -8.920114293639701 ], [ -61.505734336570399, -8.9661883705968 ], [ -61.5557549597236, -9.09240257022242 ], [ -61.523643288307092, -9.17901806792946 ], [ -61.524865084755803, -9.24285507460195 ], [ -61.599616935573103, -9.25603509424417 ], [ -61.61621063331399, -9.326825765096938 ] ] } }
]
}
