{
"type": "FeatureCollection",
"features": [
{ "type": "Feature", "properties": { "Name": "MONTE NEGRO", "Description": "MONTE NEGRO \/ RO" }, "geometry": { "type": "LineString", "coordinates": [ [ -63.209265442945814, -10.167011107576513 ], [ -63.234089534604315, -10.231265889808922 ], [ -63.230929715334064, -10.284288150477721 ], [ -63.260876843591404, -10.37309369431847 ], [ -63.213641841697608, -10.492324328205143 ], [ -63.529958946947829, -10.492606024648296 ], [ -63.494287235467475, -10.41492145855841 ], [ -63.45909645263913, -10.397585625875877 ], [ -63.477122683165241, -10.337382139274267 ], [ -63.460935590505066, -10.307937954173212 ], [ -63.524304750064118, -10.249642913489595 ], [ -63.565220342744567, -10.240897376212899 ], [ -63.583983788021385, -10.199070603925179 ], [ -63.576622778618287, -10.112624782207886 ], [ -63.596972867204045, -10.000382258334525 ], [ -63.11310634328305, -10.000414647417983 ], [ -63.146315829711739, -10.096290678272112 ], [ -63.209265442945814, -10.167011107576513 ] ] } }
]
}
