{
"type": "FeatureCollection",
"features": [
{ "type": "Feature", "properties": { "Name": "OURO PRETO DO OESTE", "Description": "OURO PRETO DO OESTE \/ RO" }, "geometry": { "type": "LineString", "coordinates": [ [ -62.122580346905465, -10.899387828485429 ], [ -62.30535475002165, -10.834700654011954 ], [ -62.352435286159498, -10.893934370174973 ], [ -62.525258752889101, -10.709472722887824 ], [ -62.259661128558214, -10.476848438304728 ], [ -62.215971535657793, -10.524721348211585 ], [ -62.240091570569462, -10.615264601679996 ], [ -62.100629391333307, -10.659522322397208 ], [ -61.9574129436524, -10.163853222748001 ], [ -61.910568957091648, -10.117044984238589 ], [ -61.916195483634617, -10.166277792286223 ], [ -61.865983758143891, -10.20602189569388 ], [ -61.827813408961624, -10.303106817725393 ], [ -61.904112540661167, -10.339861939776654 ], [ -61.898612005539569, -10.381092489426806 ], [ -61.926255377383704, -10.484427256312756 ], [ -61.960474867221301, -10.498037596158097 ], [ -62.122580346905465, -10.899387828485429 ] ] } }
]
}
