{
"type": "FeatureCollection",
"features": [
{ "type": "Feature", "properties": { "Name": "PARECIS", "Description": "PARECIS \/ RO" }, "geometry": { "type": "LineString", "coordinates": [ [ -61.180673480096964, -12.167142915413194 ], [ -61.1982807074886, -12.219624678136311 ], [ -61.1807814230242, -12.312032549062849 ], [ -61.278031451590159, -12.477245100081234 ], [ -61.342010088894426, -12.626096251840522 ], [ -61.386061583375344, -12.487306263673075 ], [ -61.421954675567804, -12.508532054510681 ], [ -61.476066347084206, -12.464320945655061 ], [ -61.566145120500892, -12.467403292827669 ], [ -61.67578459178543, -12.429221469195397 ], [ -61.678619574134011, -12.089702502668331 ], [ -61.530509689470534, -12.088994450233656 ], [ -61.417147346872525, -12.086346284953038 ], [ -61.332669454931356, -12.000567493994595 ], [ -61.190167853163864, -12.000508036216843 ], [ -61.151201489756886, -12.033018279070291 ], [ -61.143030437604573, -12.099730239359019 ], [ -61.180673480096964, -12.167142915413194 ] ] } }
]
}
