{
"type": "FeatureCollection",
"features": [
{ "type": "Feature", "properties": { "Name": "PIMENTEIRAS DO OESTE", "Description": "PIMENTEIRAS DO OESTE \/ RO" }, "geometry": { "type": "LineString", "coordinates": [ [ -61.342010088894426, -12.626096251840522 ], [ -61.338068633760372, -12.626561822769872 ], [ -61.372422406768635, -12.715105001994173 ], [ -61.425450727968666, -12.730457059745447 ], [ -61.469367519295531, -12.843749864964252 ], [ -61.470060493696792, -12.896756954070156 ], [ -61.515649967372042, -12.993079900317127 ], [ -61.500996261068565, -13.004329819265706 ], [ -61.524300644159389, -13.038097977139898 ], [ -61.575652129941837, -13.023181568974167 ], [ -61.640340748726544, -13.058416275590616 ], [ -61.636067356523263, -13.151777128411709 ], [ -61.719872800189535, -13.208810073126301 ], [ -61.831036827387607, -13.204735514732192 ], [ -61.905984576626857, -13.266792476191767 ], [ -61.887570481092773, -13.293307939010106 ], [ -61.802009268512897, -13.299142828578624 ], [ -61.755734308191727, -13.262549278726167 ], [ -61.67103674335101, -13.293490428540395 ], [ -61.591850028855731, -13.303013033124953 ], [ -61.496597270447637, -13.28536530476498 ], [ -61.407501911084289, -13.232409815160791 ], [ -61.361410925074097, -13.228372748603419 ], [ -61.367287156477062, -13.294509657194851 ], [ -61.353669175092314, -13.363705603430788 ], [ -61.039263597736813, -13.361743489570358 ], [ -61.03849653988334, -13.245231964883203 ], [ -60.950368393286681, -13.248033549108982 ], [ -60.950552422456262, -13.326374129262604 ], [ -60.741554706684326, -13.324922680137547 ], [ -60.705181923307066, -13.324738151844201 ], [ -60.718711377228253, -13.392137657326998 ], [ -60.768827135164088, -13.393128833428875 ], [ -60.871117223481072, -13.54665867935455 ], [ -60.918983882200337, -13.548326040414395 ], [ -61.00562267864364, -13.550280538815741 ], [ -61.041151455475237, -13.507710314979022 ], [ -61.171292217461833, -13.510608690538618 ], [ -61.221730542430528, -13.530154961482253 ], [ -61.248344053834956, -13.496274094273986 ], [ -61.469923941536642, -13.555250239207112 ], [ -61.585620982622231, -13.500625656448847 ], [ -61.651452214348183, -13.518711321370345 ], [ -61.69384413050215, -13.508079743885048 ], [ -61.757347646076944, -13.540574717149411 ], [ -61.868852650329522, -13.528222080984222 ], [ -61.887425969932501, -13.440774472963481 ], [ -61.91434663668786, -13.433731896409823 ], [ -61.980488224451953, -13.365494315410274 ], [ -62.003206092187384, -13.365412496889178 ], [ -62.115684348154112, -13.258465213598697 ], [ -62.115208603194446, -13.163680632355238 ], [ -62.057287586952555, -13.148983993316618 ], [ -61.958878648830535, -12.996531925507895 ], [ -61.915626175007958, -12.969281605961328 ], [ -61.896710638185368, -12.882940563356271 ], [ -61.814822625563686, -12.827055605931433 ], [ -61.762846168515807, -12.808258335353853 ], [ -61.680761141413491, -12.74428344102796 ], [ -61.562479907421732, -12.693455236569889 ], [ -61.526339078985245, -12.616959667754427 ], [ -61.52773011435324, -12.537469976158434 ], [ -61.566145120500892, -12.467403292827669 ], [ -61.476066347084206, -12.464320945655061 ], [ -61.421954675567804, -12.508532054510681 ], [ -61.386061583375344, -12.487306263673075 ], [ -61.342010088894426, -12.626096251840522 ] ] } }
]
}
