{
"type": "FeatureCollection",
"features": [
{ "type": "Feature", "properties": { "Name": "SANTA LUZIA DO OESTE", "Description": "SANTA LUZIA DO OESTE \/ RO" }, "geometry": { "type": "LineString", "coordinates": [ [ -61.530509689470492, -12.088994450233701 ], [ -61.678619574133997, -12.089702502668301 ], [ -61.675784591785401, -12.429221469195401 ], [ -61.716925743428199, -12.381190231843698 ], [ -61.753370056183101, -12.274967309293899 ], [ -61.747534803288502, -12.199178793766299 ], [ -61.804904929019195, -12.097743471484 ], [ -61.8357877946709, -12.070349185766201 ], [ -61.842648188363192, -11.9905303935628 ], [ -61.888435336621498, -11.965711128565699 ], [ -61.890526970843005, -11.906811841493299 ], [ -61.832067419875493, -11.856989448704001 ], [ -61.564297669301901, -11.856365506263 ], [ -61.530687797503802, -11.856169989153598 ], [ -61.530509689470492, -12.088994450233701 ] ] } }
]
}
