{
"type": "FeatureCollection",
"features": [
{ "type": "Feature", "properties": { "Name": "THEOBROMA", "Description": "THEOBROMA \/ RO" }, "geometry": { "type": "LineString", "coordinates": [ [ -61.954417771363012, -9.949679832158495 ], [ -61.993321655270115, -10.022001225576048 ], [ -61.97266710120573, -10.067527928371135 ], [ -61.978582402755649, -10.093158525745308 ], [ -62.063173561610533, -10.174424603212799 ], [ -62.134639185350068, -10.22472959469502 ], [ -62.171449136368494, -10.223603457333638 ], [ -62.310892509881391, -10.281669303095839 ], [ -62.36269910028323, -10.325205394313457 ], [ -62.467759396378995, -10.281971601208397 ], [ -62.558193869651348, -10.372630470619697 ], [ -62.669943624398677, -10.288206377022618 ], [ -62.617526540017764, -10.195244342052717 ], [ -62.596700014893713, -10.18945520189601 ], [ -62.571716500416123, -10.066608636879039 ], [ -62.534227150262723, -10.052161794431242 ], [ -62.50422926336978, -9.964973375520799 ], [ -62.45336893332955, -9.906156362925742 ], [ -62.445557719712944, -9.819533661649132 ], [ -62.423174477120362, -9.80582531728453 ], [ -62.400592113834939, -9.910387281048145 ], [ -62.359846196244916, -9.905466763680181 ], [ -62.292059265522653, -9.930030046549348 ], [ -62.211805500923106, -10.030872845105648 ], [ -62.160277260587065, -10.054478081098523 ], [ -62.108005049793178, -10.042445485770484 ], [ -62.015981457378295, -9.948779181813734 ], [ -61.954417771363012, -9.949679832158495 ] ] } }
]
}
