{
"type": "FeatureCollection",
"features": [
{ "type": "Feature", "properties": { "Name": "VILHENA", "Description": "VILHENA \/ RO" }, "geometry": { "type": "LineString", "coordinates": [ [ -60.333170292075287, -13.257979219065644 ], [ -60.356637661998434, -13.197704796639016 ], [ -60.346028490222572, -13.1228396042643 ], [ -60.415927861881293, -13.045954856531353 ], [ -60.420607689193439, -13.014854961087565 ], [ -60.504754465146384, -12.967882846316284 ], [ -60.552129512167191, -12.959160983692414 ], [ -60.612655603573209, -12.992386763138541 ], [ -60.589834465787931, -12.935239296056636 ], [ -60.585836099756129, -12.849684613454087 ], [ -60.561809409976256, -12.771176380785278 ], [ -60.443648624884077, -12.83925475570237 ], [ -60.446473979090797, -12.53606765699675 ], [ -60.639948397200726, -12.538519963425527 ], [ -60.628697979128383, -12.444183750879347 ], [ -60.810001214584361, -12.44790062011748 ], [ -60.809170052156155, -12.375481453306406 ], [ -60.720918194818815, -12.334427409097598 ], [ -60.64998529978174, -12.261371244387362 ], [ -60.302243165389712, -12.258427442272589 ], [ -60.311423317132324, -12.150299484933214 ], [ -60.36497013796145, -12.071346549203838 ], [ -60.387217270860333, -11.988591312239237 ], [ -60.374693092612119, -11.932935123457128 ], [ -60.386306907837472, -11.869804689834496 ], [ -60.463143404244647, -11.781958078702301 ], [ -60.432493267849956, -11.710428467299892 ], [ -60.454328900658197, -11.627334417049667 ], [ -60.43902362474045, -11.495964203585061 ], [ -60.463333868063501, -11.464882184864903 ], [ -60.438025653361187, -11.446864804567042 ], [ -60.46241528793513, -11.370109849689754 ], [ -60.49677480311464, -11.344452324814881 ], [ -60.483798820758921, -11.292889556807552 ], [ -60.528049945848295, -11.254513744913368 ], [ -60.527882725907034, -11.116717923093631 ], [ -60.512826269916388, -11.066347252323792 ], [ -60.475248024476684, -11.046056888614487 ], [ -60.460050132107888, -10.989856220588079 ], [ -60.391559576313341, -11.093792514313066 ], [ -60.301250408279657, -11.057154222289453 ], [ -60.280833447005932, -11.091530481046789 ], [ -60.191471807377972, -11.114112055626833 ], [ -60.17644684564538, -11.098817163281408 ], [ -60.07502727588804, -11.105024462109213 ], [ -59.995022334812859, -11.14820329224807 ], [ -59.959467905719229, -11.294733929627114 ], [ -59.917193059711906, -11.338434585987329 ], [ -59.934412932910504, -11.423667511846133 ], [ -60.03127349207795, -11.497013087384005 ], [ -60.094160555665106, -11.562847124994789 ], [ -60.122411085003534, -11.682401686588491 ], [ -60.103360059918764, -11.819171760568224 ], [ -60.065888297806673, -11.890825187032704 ], [ -59.984195557678781, -11.91482133223866 ], [ -59.962001306714903, -12.056366966362361 ], [ -59.899803837876789, -12.117222674586742 ], [ -59.910810661982389, -12.186456646856698 ], [ -59.886796872977243, -12.24508700606043 ], [ -59.792941265327094, -12.345781876032731 ], [ -59.842548684174396, -12.424848975299938 ], [ -59.844160029161976, -12.467172923391672 ], [ -59.921210911354422, -12.479667502253392 ], [ -60.026641606724752, -12.561628662132989 ], [ -60.059133972854511, -12.604279958053553 ], [ -60.090555866959676, -12.727949854202334 ], [ -60.074193776121831, -12.780999544193548 ], [ -60.079112716078953, -12.881142392307538 ], [ -60.11716527655625, -12.959555619696062 ], [ -60.183346347256069, -12.967630138619938 ], [ -60.268778167178645, -13.076017618718083 ], [ -60.268505210347136, -13.144971059167004 ], [ -60.303836828806539, -13.178369777343278 ], [ -60.333170292075287, -13.257979219065644 ] ] } }
]
}
