{
"type": "FeatureCollection",
"features": [
{ "type": "Feature", "properties": { "Name": "ARRAIAL DO CABO", "Description": "ARRAIAL DO CABO \/ RJ" }, "geometry": { "type": "LineString", "coordinates": [ [ -41.973015996291167, -22.992100172384994 ], [ -41.982238653590969, -23.004545203997907 ], [ -41.99146131089077, -23.001600620372301 ], [ -42.001239550464845, -23.019268121226787 ], [ -42.009795509754952, -23.007045321983981 ], [ -42.003119203688236, -22.992655961503374 ], [ -41.987933366731454, -22.975849405025997 ], [ -41.973015996291167, -22.992100172384994 ] ] } },
{ "type": "Feature", "properties": { "Name": "ARRAIAL DO CABO", "Description": "ARRAIAL DO CABO \/ RJ" }, "geometry": { "type": "LineString", "coordinates": [ [ -42.199311060956632, -22.879264231758839 ], [ -42.187942887454255, -22.874225173852665 ], [ -42.164698180676446, -22.87607547230516 ], [ -42.153452065860108, -22.890705892462904 ], [ -42.123530067358672, -22.907529821144291 ], [ -42.095752715415415, -22.929868427685733 ], [ -42.086891590074799, -22.933280489702778 ], [ -42.035778620686756, -22.934161008723549 ], [ -42.032168327406339, -22.946409115788015 ], [ -42.008970447428169, -22.960122960406238 ], [ -42.020309038631183, -22.974369147917798 ], [ -42.065560912206308, -22.957240649436358 ], [ -42.09351150235392, -22.95332028250499 ], [ -42.227877157904459, -22.942159817321681 ], [ -42.291263916296657, -22.939077885635868 ], [ -42.291017227762836, -22.927236855796195 ], [ -42.275399627191007, -22.917124223104391 ], [ -42.282629832001078, -22.900150499745735 ], [ -42.236877143065669, -22.863520678436544 ], [ -42.199311060956632, -22.879264231758839 ] ] } }
]
}
