{
"type": "FeatureCollection",
"features": [
{ "type": "Feature", "properties": { "Name": "CABO FRIO", "Description": "CABO FRIO \/ RJ" }, "geometry": { "type": "LineString", "coordinates": [ [ -41.992774445184466, -22.598708924876917 ], [ -41.997943786076803, -22.632081348675229 ], [ -41.991168585162029, -22.697865669065322 ], [ -41.980394714244596, -22.724243358444198 ], [ -41.973715731795551, -22.729927978493379 ], [ -42.00756291219858, -22.775871833618169 ], [ -42.001241915681817, -22.795389515113982 ], [ -41.969528125922231, -22.822530948344536 ], [ -41.981110465775316, -22.8387358727623 ], [ -41.986688821032203, -22.85564488540308 ], [ -41.982665105809929, -22.871207353936196 ], [ -41.990135103152454, -22.881382776393991 ], [ -42.012113372933754, -22.884383715136323 ], [ -42.028886185049373, -22.899724572730804 ], [ -42.035778620686756, -22.934161008723549 ], [ -42.086891590074799, -22.933280489702778 ], [ -42.095752715415415, -22.929868427685733 ], [ -42.123530067358672, -22.907529821144291 ], [ -42.109414877794336, -22.903155724656926 ], [ -42.104830383115655, -22.884990447251312 ], [ -42.109081746425431, -22.871375450716414 ], [ -42.097142535799321, -22.861552645238362 ], [ -42.078253555057472, -22.860811635348625 ], [ -42.061555439731706, -22.867559296324426 ], [ -42.038483235512842, -22.861484538680486 ], [ -42.023229689498521, -22.795395372398445 ], [ -42.080223691769902, -22.71934267832188 ], [ -42.131434655784687, -22.653182143640944 ], [ -42.18248958922311, -22.552694461280339 ], [ -42.161919135259836, -22.545039986905806 ], [ -42.144559698071589, -22.549208233972763 ], [ -42.131222667591999, -22.546608275951144 ], [ -42.117856213093717, -22.56685940853481 ], [ -42.091300653102621, -22.564121231009949 ], [ -42.064594720170135, -22.568985574024964 ], [ -42.060670433993266, -22.560091438169309 ], [ -42.042001893272698, -22.568902856181804 ], [ -42.010645641583039, -22.571951526441751 ], [ -41.992774445184466, -22.598708924876917 ] ] } }
]
}
