{
"type": "FeatureCollection",
"features": [
{ "type": "Feature", "properties": { "Name": "CANTAGALO", "Description": "CANTAGALO \/ RJ" }, "geometry": { "type": "LineString", "coordinates": [ [ -42.167155151888721, -21.859225714395162 ], [ -42.198312208241759, -21.880228791725301 ], [ -42.207304526682485, -21.877165734111315 ], [ -42.22149616941266, -21.918260202846056 ], [ -42.243586316655126, -21.958548479728506 ], [ -42.243033793874417, -21.972877910287309 ], [ -42.25730290510495, -21.98977852146157 ], [ -42.276817018090867, -21.9871994816707 ], [ -42.299455776962475, -21.974294711231892 ], [ -42.318002081830571, -21.996814166940226 ], [ -42.363419789491672, -22.004687230531204 ], [ -42.38433464872503, -22.002758271976631 ], [ -42.41524325387303, -22.040382202076898 ], [ -42.510174215067934, -21.908338290279801 ], [ -42.472744179700101, -21.892679342477603 ], [ -42.457600958917055, -21.879025859455794 ], [ -42.442923358526116, -21.879763885394937 ], [ -42.430558065302421, -21.871421514191464 ], [ -42.450142309220155, -21.854201291156642 ], [ -42.439943650978648, -21.840393154420497 ], [ -42.440592228548439, -21.827731778298869 ], [ -42.455424932314713, -21.817354526390261 ], [ -42.467005344021338, -21.801591254532752 ], [ -42.459720589933227, -21.784756420672238 ], [ -42.429883660102803, -21.775671173485819 ], [ -42.395627419469804, -21.761640691964317 ], [ -42.373579520578346, -21.745848809974575 ], [ -42.357726899276933, -21.741050506875354 ], [ -42.333462061824662, -21.745848809974575 ], [ -42.314147373502465, -21.737831391705299 ], [ -42.306585490627867, -21.728447369050798 ], [ -42.266649175119312, -21.714473168901577 ], [ -42.246111636342903, -21.706580406560477 ], [ -42.237839294447838, -21.697783987441028 ], [ -42.206402780963515, -21.783655899600031 ], [ -42.167155151888721, -21.859225714395162 ] ] } }
]
}
