{
"type": "FeatureCollection",
"features": [
{ "type": "Feature", "properties": { "Name": "MARICÃ", "Description": "MARICÃ \/ RJ" }, "geometry": { "type": "LineString", "coordinates": [ [ -42.660966700952429, -22.859086497343924 ], [ -42.679175789730891, -22.878861170006928 ], [ -42.676278807221138, -22.90813836359456 ], [ -42.646540836090651, -22.907914739073927 ], [ -42.634187032605439, -22.922445928037121 ], [ -42.633951754669674, -22.936609820386877 ], [ -42.68134649054803, -22.946958249023908 ], [ -42.689899057595369, -22.962107495264661 ], [ -42.701421019664281, -22.95705774621797 ], [ -42.731257210252011, -22.956506541843392 ], [ -42.829104980410477, -22.962498672475704 ], [ -42.886058423257566, -22.967983515326921 ], [ -42.913723832089147, -22.974829661059971 ], [ -42.967162407818819, -22.970327993941737 ], [ -43.011456074438229, -22.970818153235143 ], [ -43.013929540116123, -22.977009751698631 ], [ -43.024726608146409, -22.968416564972472 ], [ -43.000065847760595, -22.943013566223044 ], [ -42.983699307976622, -22.931297562832242 ], [ -42.975196238715398, -22.919151175386389 ], [ -42.954397344361887, -22.908451355545594 ], [ -42.95446608584114, -22.900928605770503 ], [ -42.955972429583937, -22.893803362635023 ], [ -42.92685373341299, -22.882144700017818 ], [ -42.900955033747778, -22.877568329814551 ], [ -42.885950468639173, -22.86763287076036 ], [ -42.846760771192578, -22.87288890809657 ], [ -42.828876826903979, -22.862403774414588 ], [ -42.763244172680402, -22.84383102138446 ], [ -42.755898933788728, -22.851098215310344 ], [ -42.733647175676595, -22.841162400124631 ], [ -42.717174195732525, -22.854116349989511 ], [ -42.694597379465449, -22.857258674747982 ], [ -42.677442052408765, -22.854526299648967 ], [ -42.660966700952429, -22.859086497343924 ] ] } }
]
}
