{
"type": "FeatureCollection",
"features": [
{ "type": "Feature", "properties": { "Name": "MIRACEMA", "Description": "MIRACEMA \/ RJ" }, "geometry": { "type": "LineString", "coordinates": [ [ -42.092998438227312, -21.344784328234141 ], [ -42.073425680450725, -21.35555129415684 ], [ -42.050271405900617, -21.354216664267597 ], [ -42.03383485569401, -21.342668757657009 ], [ -42.039025339647651, -21.366052450160396 ], [ -42.027862041599917, -21.376946753789639 ], [ -42.029534020678447, -21.389861494112608 ], [ -42.041431024322257, -21.400798229554592 ], [ -42.057916508440087, -21.433370938418022 ], [ -42.07431202438039, -21.446911881178323 ], [ -42.09409259299872, -21.454005255937773 ], [ -42.10855306916875, -21.453191750798624 ], [ -42.121033273266903, -21.47229765880985 ], [ -42.201907141101628, -21.469048942454659 ], [ -42.27763914862777, -21.429326727646298 ], [ -42.27531170047456, -21.404179385470229 ], [ -42.260077287536774, -21.409731972452505 ], [ -42.238329417768398, -21.403505068404115 ], [ -42.23672060796963, -21.393736466864425 ], [ -42.251975367169386, -21.387197056498906 ], [ -42.230024234430857, -21.366494531697242 ], [ -42.236848568906282, -21.345726452613633 ], [ -42.224234323555152, -21.337813085905168 ], [ -42.204198745875374, -21.326061144706046 ], [ -42.19784963295416, -21.315772871720583 ], [ -42.160151772286433, -21.313527453429174 ], [ -42.145024235679898, -21.305978202432073 ], [ -42.12234284624531, -21.324626289871329 ], [ -42.115978978147268, -21.335826777583691 ], [ -42.092998438227312, -21.344784328234141 ] ] } }
]
}
