{
"type": "FeatureCollection",
"features": [
{ "type": "Feature", "properties": { "Name": "PORCIÃNCULA", "Description": "PORCIÃNCULA \/ RJ" }, "geometry": { "type": "LineString", "coordinates": [ [ -41.775156020999951, -20.799869965999967 ], [ -41.791575339999937, -20.809982709999943 ], [ -41.829465639999981, -20.844656446999959 ], [ -41.841619250999898, -20.84921369199999 ], [ -41.869601022999987, -20.870004504999919 ], [ -41.905002290999988, -20.878264849999933 ], [ -41.901173960999955, -20.901367550999918 ], [ -41.887526038999951, -20.925569241999892 ], [ -41.904672464999962, -20.924073645999957 ], [ -41.911041762, -20.926750111999986 ], [ -41.911570804999897, -20.928153225999907 ], [ -41.91168581399991, -20.929211311999968 ], [ -41.913528989, -20.930214009999887 ], [ -41.914196647, -20.930550958999966 ], [ -41.914997652999936, -20.930829707999937 ], [ -41.91589728799994, -20.931110239999963 ], [ -41.917117640999919, -20.931419176999949 ], [ -41.919856894, -20.931701402999941 ], [ -41.925682218999967, -20.932058 ], [ -41.926132274999908, -20.932182846999986 ], [ -41.926627378999932, -20.932486862999916 ], [ -41.927261179999967, -20.933245345999968 ], [ -41.926215282999941, -20.935254131999908 ], [ -41.931818301999989, -20.939064184999939 ], [ -41.931027610999941, -20.941336158999984 ], [ -41.93100482700001, -20.941994355999906 ], [ -41.931137638999978, -20.942127168999971 ], [ -41.931112736999971, -20.94225998099995 ], [ -41.931062931999932, -20.942459198999909 ], [ -41.93103803, -20.942650116999989 ], [ -41.931013127999982, -20.942778778999973 ], [ -41.931087833999953, -20.942874237999966 ], [ -41.931096134999926, -20.943007049999945 ], [ -41.930996525999944, -20.943181365999976 ], [ -41.930888615999983, -20.943463591999972 ], [ -41.932059023999926, -20.944459683999966 ], [ -41.932249941999913, -20.94449288799996 ], [ -41.932424257999948, -20.944509488999913 ], [ -41.932598573999897, -20.944609097999983 ], [ -41.93492279, -20.944310270999949 ], [ -41.937662042999897, -20.947705284999923 ], [ -41.941085509999915, -20.943651740999908 ], [ -41.943020189999942, -20.938354468999925 ], [ -41.94707096499999, -20.938254859999944 ], [ -41.949361976999924, -20.938935522999952 ], [ -41.95042447499999, -20.94076169199997 ], [ -41.94974381199998, -20.942571259999948 ], [ -41.949502682999928, -20.943350466999934 ], [ -41.949527991999986, -20.94393258599996 ], [ -41.949660804999951, -20.94451363899999 ], [ -41.950374670999963, -20.946123988999915 ], [ -41.951320958999922, -20.94811617299999 ], [ -41.951985019999974, -20.949809529999946 ], [ -41.952217441999935, -20.951353472999884 ], [ -41.95092252199999, -20.956782175999905 ], [ -41.950291662999931, -20.957778267999988 ], [ -41.949008352999968, -20.959166924999952 ], [ -41.978663690999987, -20.959255804999938 ], [ -41.981104116999937, -20.956466747 ], [ -41.98600052799997, -20.957690757999941 ], [ -41.98792734899996, -20.958857367999919 ], [ -41.990982031999934, -20.959521429999974 ], [ -41.991380468999957, -20.961995058999921 ], [ -41.99280820099996, -20.964452085999913 ], [ -41.993173434999981, -20.964518491999989 ], [ -41.994491594999978, -20.964331902 ], [ -41.998303309999969, -20.965630795 ], [ -42.003682207999951, -20.964850522999928 ], [ -42.004745287999981, -20.966710886999934 ], [ -42.004578690999963, -20.967058527999921 ], [ -42.00413280599993, -20.968164975999986 ], [ -42.003864824999965, -20.968685477999976 ], [ -42.002783758999954, -20.971740400999966 ], [ -42.002036141, -20.975399627999948 ], [ -42.001147803999956, -20.976359424999963 ], [ -42.000922691999982, -20.976957911999921 ], [ -42.00079354099995, -20.977500894999903 ], [ -42.00059432199999, -20.97833097200002 ], [ -42.000494713, -20.979343664999966 ], [ -42.000903989999941, -20.980348253999953 ], [ -42.001085503999953, -20.98145057699994 ], [ -42.001125570999889, -20.982165926999979 ], [ -42.001341390999983, -20.983095612999897 ], [ -42.00403084000002, -20.990566304999941 ], [ -41.99963190199994, -20.996103864 ], [ -42.000527915999911, -21.008653679999917 ], [ -42.001001059999979, -21.009815787999969 ], [ -42.001499105999976, -21.011036000999944 ], [ -42.002785724999939, -21.01375035199991 ], [ -42.00307625199999, -21.013443223999989 ], [ -42.003320933999902, -21.01328764099999 ], [ -42.003756914999919, -21.013351914999895 ], [ -42.003922929999888, -21.013244004999933 ], [ -42.004005938, -21.01306968899999 ], [ -42.004080644999966, -21.01270445499997 ], [ -42.00412214899994, -21.012380724999918 ], [ -42.004105546999895, -21.012131702 ], [ -42.003316973999929, -21.01027233 ], [ -42.005217849999916, -21.01007311199994 ], [ -42.00646296599999, -21.009301139999931 ], [ -42.006853101999937, -21.010214224999984 ], [ -42.006587477, -21.010977894999932 ], [ -42.006288649999952, -21.01134312899995 ], [ -42.005931716, -21.011791370999916 ], [ -42.005857009999943, -21.012040393999914 ], [ -42.005857009999943, -21.012214709999949 ], [ -42.005940016999972, -21.012355822999989 ], [ -42.006878003999958, -21.01269615499999 ], [ -42.007176832, -21.012538439999911 ], [ -42.007666576999931, -21.01227281499996 ], [ -42.009077707999978, -21.01130992599996 ], [ -42.009393136999968, -21.011276722999966 ], [ -42.010020313999988, -21.011707980999944 ], [ -42.011104776999922, -21.01233548199999 ], [ -42.011343817999986, -21.012729357999898 ], [ -42.011488040999929, -21.012739716999956 ], [ -42.011585798999931, -21.012728215999982 ], [ -42.011649054000017, -21.012748342999959 ], [ -42.011680681999962, -21.012854726999965 ], [ -42.011631802999922, -21.013035865999946 ], [ -42.01163755299995, -21.013119247999917 ], [ -42.01177268899994, -21.013225631999926 ], [ -42.011752561999963, -21.013481526999961 ], [ -42.01179281600001, -21.01356778399999 ], [ -42.012298856999955, -21.014415977999917 ], [ -42.014216636999919, -21.015652328999984 ], [ -42.014653672999927, -21.015008275999985 ], [ -42.015378919999897, -21.014420467999933 ], [ -42.015871838999914, -21.014472335999962 ], [ -42.017459900999945, -21.01334639099997 ], [ -42.046880597, -21.020232657999976 ], [ -42.081163572, -21.023737484999977 ], [ -42.114023102999923, -21.012150216999942 ], [ -42.120087782999988, -21.000121306999954 ], [ -42.140984290999953, -20.992963757999977 ], [ -42.150949977000018, -20.974028956999963 ], [ -42.138036693999958, -20.960048922999924 ], [ -42.114905075999971, -20.951599146999961 ], [ -42.093794666999898, -20.935625976999944 ], [ -42.086327420999964, -20.939668398999927 ], [ -42.047784080999968, -20.934727664999958 ], [ -42.038537995999931, -20.927458822999917 ], [ -42.000322353999955, -20.927209243999961 ], [ -41.966689267999982, -20.916951505999975 ], [ -41.960245829999934, -20.883021830999972 ], [ -41.949615063999907, -20.872129825999913 ], [ -41.950471269999959, -20.858753349999986 ], [ -41.937038648999909, -20.856114549999965 ], [ -41.926707008999948, -20.838789837999943 ], [ -41.932476891999954, -20.825712189999962 ], [ -41.928666069999942, -20.79547826699995 ], [ -41.905047700999916, -20.79737242299991 ], [ -41.884725819999986, -20.783403646999915 ], [ -41.874738200999964, -20.765934254999909 ], [ -41.851996507999907, -20.763962728999946 ], [ -41.84258153699993, -20.779153270999952 ], [ -41.825503478999984, -20.788455218 ], [ -41.816970100999946, -20.801272239 ], [ -41.799168683999916, -20.805318528999944 ], [ -41.794026051999936, -20.798051029999925 ], [ -41.775156020999951, -20.799869965999967 ] ] } }
]
}
