{
"type": "FeatureCollection",
"features": [
{ "type": "Feature", "properties": { "Name": "QUATIS", "Description": "QUATIS \/ RJ" }, "geometry": { "type": "LineString", "coordinates": [ [ -44.148111048486044, -22.331478500432411 ], [ -44.168481173966931, -22.332579429796795 ], [ -44.156120737082283, -22.369651323649634 ], [ -44.18592945787816, -22.381334356994955 ], [ -44.202008447531789, -22.384024917216095 ], [ -44.211893744200886, -22.416402565825706 ], [ -44.223789686644693, -22.443576228959728 ], [ -44.222708277065294, -22.477799640740781 ], [ -44.242602348219748, -22.486338544388275 ], [ -44.265498644147037, -22.473783014874183 ], [ -44.301134402530629, -22.449119651850424 ], [ -44.288063291687536, -22.427860110355766 ], [ -44.279226870723448, -22.421475798868983 ], [ -44.275569938601727, -22.404009471859581 ], [ -44.30968425812199, -22.397641806823856 ], [ -44.314066434118615, -22.402536680923049 ], [ -44.328951981148975, -22.396682071020734 ], [ -44.342557597754869, -22.369602771051007 ], [ -44.330493009944405, -22.335297755686838 ], [ -44.30055210949223, -22.328129435924662 ], [ -44.293343687161375, -22.320023167335247 ], [ -44.27218016897956, -22.320844055009101 ], [ -44.271025794704599, -22.308941179691654 ], [ -44.254761952102342, -22.305288869185915 ], [ -44.260105661646946, -22.268111558601504 ], [ -44.236752626132727, -22.265780969116406 ], [ -44.18927944059368, -22.240362967876649 ], [ -44.174469093973471, -22.24197198362009 ], [ -44.157058840592981, -22.252509470435651 ], [ -44.167725815394022, -22.267796288667739 ], [ -44.154058434249293, -22.276172090369641 ], [ -44.145677173662591, -22.296201882710644 ], [ -44.148111048486044, -22.331478500432411 ] ] } }
]
}
