{
"type": "FeatureCollection",
"features": [
{ "type": "Feature", "properties": { "Name": "RIO DE JANEIRO", "Description": "RIO DE JANEIRO \/ RJ" }, "geometry": { "type": "LineString", "coordinates": [ [ -43.607387431005066, -23.032955468443049 ], [ -43.586809392223294, -23.053337786313421 ], [ -43.611828613704176, -23.050263381954608 ], [ -43.667799949164475, -23.053084781068833 ], [ -43.666638942718464, -23.042578749121674 ], [ -43.613997089693896, -23.030983976562538 ], [ -43.607387431005066, -23.032955468443049 ] ] } },
{ "type": "Feature", "properties": { "Name": "RIO DE JANEIRO", "Description": "RIO DE JANEIRO \/ RJ" }, "geometry": { "type": "LineString", "coordinates": [ [ -43.782213288151297, -22.899811309794359 ], [ -43.750715072436037, -22.887756535210997 ], [ -43.734087502779346, -22.878181556013146 ], [ -43.727455308787114, -22.873295236594458 ], [ -43.725102796423016, -22.872548153184994 ], [ -43.723360892664175, -22.87263537063933 ], [ -43.722090603158676, -22.872290340175937 ], [ -43.721331649528793, -22.872197914453125 ], [ -43.720961099321471, -22.872228057298571 ], [ -43.718780699869001, -22.872635096013479 ], [ -43.718534495231438, -22.872656989571226 ], [ -43.718401518157123, -22.872663264767311 ], [ -43.718226932277219, -22.872663695920377 ], [ -43.717600763415128, -22.872487204846266 ], [ -43.717458659145279, -22.872408915804613 ], [ -43.7172591445281, -22.872281511867524 ], [ -43.717170533296326, -22.872209532912276 ], [ -43.717066527959787, -22.872137430645921 ], [ -43.716928871709563, -22.872042251963023 ], [ -43.716511363189113, -22.87175348217778 ], [ -43.71622500500564, -22.871545316561651 ], [ -43.71597506135771, -22.871362330290538 ], [ -43.715824500691554, -22.871263842877564 ], [ -43.715769785534349, -22.871236255449389 ], [ -43.715399800682341, -22.871101102574016 ], [ -43.715367981888612, -22.871090535570659 ], [ -43.714460941700047, -22.868836048269827 ], [ -43.710326303615545, -22.866953911282849 ], [ -43.707026585729409, -22.868612495944546 ], [ -43.705340895032066, -22.868190540150863 ], [ -43.704076553635325, -22.868118827703938 ], [ -43.703760950560024, -22.868037316871096 ], [ -43.70361020332291, -22.867982438517231 ], [ -43.703431675762538, -22.867937991328461 ], [ -43.70328106122588, -22.867889798314877 ], [ -43.701129408322572, -22.86600163112206 ], [ -43.701013677035064, -22.865913618019476 ], [ -43.700867762737801, -22.865852996184287 ], [ -43.700270130752301, -22.86564561714448 ], [ -43.700112208000462, -22.865597542186151 ], [ -43.699948122032083, -22.865541648316537 ], [ -43.699785370003148, -22.865499221909602 ], [ -43.699180464345595, -22.865298734955559 ], [ -43.697828950163164, -22.864876542705872 ], [ -43.697684676981055, -22.864848628071343 ], [ -43.697540185378728, -22.864802737015509 ], [ -43.697379620906247, -22.864735397902731 ], [ -43.697228177695479, -22.864713294930198 ], [ -43.695980645104839, -22.864712557951009 ], [ -43.692499069201347, -22.864281247572588 ], [ -43.689720868632712, -22.865241175698372 ], [ -43.681053394184062, -22.862677398094547 ], [ -43.677951143799305, -22.864037686255415 ], [ -43.676983178472653, -22.865506168967215 ], [ -43.676582188439227, -22.865201289091999 ], [ -43.676191915590607, -22.864948487803304 ], [ -43.675978842724135, -22.86493631624478 ], [ -43.675799025076344, -22.864966014031154 ], [ -43.675680520581238, -22.865037234162969 ], [ -43.675394150970817, -22.865255199562849 ], [ -43.675212230004433, -22.865061914873703 ], [ -43.674786858972709, -22.864803190719329 ], [ -43.674696964776778, -22.864745169171044 ], [ -43.674406331511079, -22.8646168331789 ], [ -43.674271829879558, -22.86457257516895 ], [ -43.67412362995077, -22.864577421331433 ], [ -43.673724906511723, -22.864776552460967 ], [ -43.673731706586523, -22.864477652349816 ], [ -43.673622703802039, -22.864190523611626 ], [ -43.673362508183118, -22.863926429684621 ], [ -43.672597265757872, -22.863908485978016 ], [ -43.66786837031384, -22.865083028014169 ], [ -43.644130926183266, -22.855733432332329 ], [ -43.623980134329024, -22.8627363092221 ], [ -43.596335071798308, -22.857765995473414 ], [ -43.588465965365515, -22.838693114510647 ], [ -43.559386906256066, -22.828884736636496 ], [ -43.521804683134512, -22.822547867948231 ], [ -43.490062316507249, -22.81551492753772 ], [ -43.48847961456778, -22.818604381636419 ], [ -43.48489964749939, -22.830707632162216 ], [ -43.469218021138204, -22.840410969898016 ], [ -43.466581648966269, -22.842435470935129 ], [ -43.463306182306326, -22.844950740107208 ], [ -43.462011447055488, -22.845972119234261 ], [ -43.458131408313989, -22.849037118432591 ], [ -43.431212882778539, -22.839268847852281 ], [ -43.415389386015249, -22.821591432717923 ], [ -43.407874172408015, -22.821174181107494 ], [ -43.400707851901302, -22.817389666442125 ], [ -43.395162034890802, -22.815274519596983 ], [ -43.393054009209322, -22.81478514955603 ], [ -43.391896990923158, -22.814313245292112 ], [ -43.391363966528665, -22.814205219014752 ], [ -43.390980188964363, -22.814026122818117 ], [ -43.390661321538744, -22.813871472985454 ], [ -43.390555940068168, -22.813820363259307 ], [ -43.390237658665171, -22.813660981051271 ], [ -43.377169882248552, -22.810887675182411 ], [ -43.374509024470626, -22.807641201269405 ], [ -43.365475182920591, -22.804065463322956 ], [ -43.353950530849367, -22.802393849014489 ], [ -43.348464769760767, -22.803769272036618 ], [ -43.340035125872532, -22.803178489800075 ], [ -43.334440730976212, -22.802923793276818 ], [ -43.330914454132703, -22.802665842505064 ], [ -43.330743515869074, -22.802678988801915 ], [ -43.33012554787274, -22.80272651467828 ], [ -43.32891183226792, -22.802638317503408 ], [ -43.325476014406775, -22.801149494038896 ], [ -43.319719061013586, -22.801543680338227 ], [ -43.306995093959813, -22.799994436510868 ], [ -43.291189314008648, -22.810035161058916 ], [ -43.279116588274064, -22.807429346576157 ], [ -43.276874997587299, -22.803859405852677 ], [ -43.272537104498838, -22.803361274588895 ], [ -43.272279415710386, -22.80359390477031 ], [ -43.272151276661589, -22.804545794847741 ], [ -43.272407554759354, -22.809616440067884 ], [ -43.273231305787988, -22.810055773949784 ], [ -43.266369172184966, -22.824369750225515 ], [ -43.2439814972318, -22.841402461724783 ], [ -43.232623024807651, -22.867636630802675 ], [ -43.210802346587172, -22.897598580619274 ], [ -43.195954998967807, -22.891979096129603 ], [ -43.169200497935037, -22.904567335584257 ], [ -43.171060105219908, -22.935189541879311 ], [ -43.150163644187273, -22.950739148938681 ], [ -43.18334141908224, -22.972803057868987 ], [ -43.190082210907406, -22.989302597643697 ], [ -43.218905293459663, -22.98752021686056 ], [ -43.24354301394078, -23.001111743965566 ], [ -43.275666980139533, -23.003003239352836 ], [ -43.28628954077908, -23.014561087246079 ], [ -43.308986883018576, -23.016247693054765 ], [ -43.329498677187246, -23.011993498918343 ], [ -43.37293751131989, -23.01180287967918 ], [ -43.43726141494539, -23.020772484219378 ], [ -43.498724583414571, -23.037632419261399 ], [ -43.510320945837691, -23.048114201629346 ], [ -43.535899946319603, -23.05143227817689 ], [ -43.555375557685856, -23.073206173409858 ], [ -43.56930377055329, -23.074233175757911 ], [ -43.562361956741597, -23.053158476258091 ], [ -43.594246279044683, -23.032396986624747 ], [ -43.599552990217489, -23.02288568947148 ], [ -43.623085014799869, -23.007911372299926 ], [ -43.650354175459086, -23.00222827209268 ], [ -43.674553108237653, -22.980494416313775 ], [ -43.70013547127229, -22.985990843575564 ], [ -43.706373612916423, -22.975206194157693 ], [ -43.753463591783884, -22.940976360748376 ], [ -43.789848017942404, -22.926083191886899 ], [ -43.79653853090349, -22.919428266760917 ], [ -43.795229352025387, -22.917629909553682 ], [ -43.796021547168202, -22.917072636720548 ], [ -43.795211906369786, -22.91655315056931 ], [ -43.791277352979137, -22.914534398810133 ], [ -43.790747064462494, -22.914329250151525 ], [ -43.791151385824037, -22.912151089831696 ], [ -43.792201505220987, -22.910605912293761 ], [ -43.792048677022706, -22.908982667087173 ], [ -43.792249607826705, -22.908312746220645 ], [ -43.789891773381498, -22.90358354780858 ], [ -43.782213288151297, -22.899811309794359 ] ] } },
{ "type": "Feature", "properties": { "Name": "RIO DE JANEIRO", "Description": "RIO DE JANEIRO \/ RJ" }, "geometry": { "type": "LineString", "coordinates": [ [ -43.172231497543407, -22.775648679870415 ], [ -43.157388951388157, -22.787339759382633 ], [ -43.178399841812279, -22.802655285131777 ], [ -43.172646153828282, -22.825297030710374 ], [ -43.180763219668108, -22.831306152805041 ], [ -43.192895986781764, -22.819460162441999 ], [ -43.216909587879684, -22.817230069422067 ], [ -43.239202090130334, -22.833807846603463 ], [ -43.265687301710386, -22.811196046059422 ], [ -43.256436149114506, -22.797214651366914 ], [ -43.220700223441554, -22.784578087164618 ], [ -43.207548909031175, -22.794927243013092 ], [ -43.190390963849552, -22.795515832523279 ], [ -43.172231497543407, -22.775648679870415 ] ] } }
]
}
