{
"type": "FeatureCollection",
"features": [
{ "type": "Feature", "properties": { "Name": "SANTA MARIA MADALENA", "Description": "SANTA MARIA MADALENA \/ RJ" }, "geometry": { "type": "LineString", "coordinates": [ [ -41.889785321035674, -21.863153995360562 ], [ -41.885041872084678, -21.869648871298352 ], [ -41.883381648943889, -21.872358035794662 ], [ -41.888530687641094, -21.878653668731769 ], [ -41.871249915950841, -21.884749405760431 ], [ -41.855451321421299, -21.884853480703551 ], [ -41.848842554440296, -21.887559432821547 ], [ -41.835312796548294, -21.887153540003851 ], [ -41.813550700404441, -21.879379132041262 ], [ -41.80967910730493, -21.880888220514919 ], [ -41.804392094619402, -21.87830715904812 ], [ -41.803036516821741, -21.878028758620246 ], [ -41.802539557754358, -21.87793248889318 ], [ -41.801883885432915, -21.877942896747243 ], [ -41.800239499353374, -21.877672301535426 ], [ -41.799458936380738, -21.877693116344176 ], [ -41.798824077968789, -21.877349668852101 ], [ -41.798043514996152, -21.877047850977476 ], [ -41.797473780990174, -21.876961730099708 ], [ -41.79732722387223, -21.87693957620041 ], [ -41.796939876873751, -21.876771088215094 ], [ -41.796727947137008, -21.87677456679279 ], [ -41.796451167287501, -21.876902145517533 ], [ -41.796388721961932, -21.877391298469604 ], [ -41.796529184374322, -21.87775939458032 ], [ -41.796638502364942, -21.878796312000134 ], [ -41.794036625190074, -21.879961952981713 ], [ -41.792637763022299, -21.880222317505911 ], [ -41.789540582431869, -21.881398188275739 ], [ -41.78300466863049, -21.886737239332092 ], [ -41.774408068077832, -21.890567201914791 ], [ -41.717801640333384, -21.888652220623442 ], [ -41.709309114723851, -21.891920177973816 ], [ -41.706603162605802, -21.89187854745694 ], [ -41.708601404031519, -21.894324312217176 ], [ -41.709496449801293, -21.900350258257788 ], [ -41.709871119956176, -21.900558408143979 ], [ -41.710714128254381, -21.900683297895853 ], [ -41.712015065942524, -21.901068375904799 ], [ -41.712202401019965, -21.901141228185111 ], [ -41.712316883817095, -21.901245304027498 ], [ -41.712254439390847, -21.901391008588117 ], [ -41.712129548739654, -21.901443046059683 ], [ -41.711963028470961, -21.901391008588117 ], [ -41.711786101247526, -21.901318156307809 ], [ -41.711577951361335, -21.901370193779371 ], [ -41.711546728698522, -21.901578343665562 ], [ -41.711650803641639, -21.901880161540191 ], [ -41.71177569339352, -21.903181100127597 ], [ -41.710693312546312, -21.90370147484316 ], [ -41.710339458099497, -21.90370147484316 ], [ -41.710297827582622, -21.903847180303103 ], [ -41.710422718233808, -21.903961663100233 ], [ -41.710578830648501, -21.904065738043354 ], [ -41.710329050245434, -21.904554890995371 ], [ -41.710453939997308, -21.905168933699258 ], [ -41.71151550603571, -21.905710124122891 ], [ -41.712701961826042, -21.90661557684734 ], [ -41.716021956647921, -21.911080396942737 ], [ -41.716105216782296, -21.911361400008559 ], [ -41.716032363602665, -21.911631995220375 ], [ -41.715928288659534, -21.91258948541639 ], [ -41.714356754860319, -21.917064713365789 ], [ -41.713961269896629, -21.923735925672357 ], [ -41.715928288659534, -21.930459174551231 ], [ -41.716136438545732, -21.931000364974807 ], [ -41.716469479083173, -21.931468702218808 ], [ -41.716781703912481, -21.931926632508066 ], [ -41.718530165834466, -21.933664686575977 ], [ -41.718779945338156, -21.934101802056489 ], [ -41.718967280415598, -21.93495521730938 ], [ -41.719300320952982, -21.936786938466412 ], [ -41.719633361490423, -21.938150321480123 ], [ -41.720028846454056, -21.940231823040165 ], [ -41.720486776743314, -21.942344547263019 ], [ -41.720788594617886, -21.944051377768801 ], [ -41.720965521841315, -21.944571753383684 ], [ -41.721007152358141, -21.944915200875752 ], [ -41.721048781975639, -21.945258649267203 ], [ -41.719289913098976, -21.948765978267261 ], [ -41.718355189240519, -21.950900985891735 ], [ -41.717760009816573, -21.952023527763572 ], [ -41.713472116944608, -21.961140503931063 ], [ -41.713669859876063, -21.962004327038017 ], [ -41.714814685149577, -21.962826519628148 ], [ -41.716771296957745, -21.964606203313565 ], [ -41.717458191941944, -21.965053726648136 ], [ -41.719123393729596, -21.965907141901027 ], [ -41.719425210704856, -21.966115291787219 ], [ -41.719727028579484, -21.966552407267727 ], [ -41.720164144059936, -21.967176857825677 ], [ -41.720528406360813, -21.967894975472689 ], [ -41.72066370396675, -21.968384128424756 ], [ -41.720611666495181, -21.968831650859954 ], [ -41.719560508310792, -21.973171581203474 ], [ -41.718696685203831, -21.977438659266678 ], [ -41.718259570622649, -21.978469001743008 ], [ -41.717343710044133, -21.980425613551176 ], [ -41.716760889103682, -21.981924294170767 ], [ -41.717354116998877, -21.984744728186627 ], [ -41.72149121244945, -21.990890827249814 ], [ -41.721860567611088, -21.991020454630245 ], [ -41.722318497900289, -21.991624090379442 ], [ -41.722870095278608, -21.992831360978471 ], [ -41.730967135924509, -21.99629706126035 ], [ -41.732538668824475, -21.999762760642852 ], [ -41.732694782138417, -22.000022948000606 ], [ -41.73298619215899, -22.000345580683984 ], [ -41.733267194325492, -22.000553731469495 ], [ -41.733256787370806, -22.000782696164435 ], [ -41.733454529402991, -22.001063699230315 ], [ -41.733537789537309, -22.001313478734005 ], [ -41.733995719826567, -22.001792224731332 ], [ -41.734224685420827, -22.001813039540078 ], [ -41.734276722892382, -22.002042004235079 ], [ -41.745753288983053, -22.010929143365217 ], [ -41.757214866972504, -22.01610254559597 ], [ -41.759900004281747, -22.0181528244932 ], [ -41.760618121928758, -22.018444234513762 ], [ -41.761169719307077, -22.019058278116972 ], [ -41.762085579885536, -22.019547430169723 ], [ -41.773866877654257, -22.021816266807207 ], [ -41.77359628244244, -22.02374165595262 ], [ -41.772305751709041, -22.026156197150726 ], [ -41.77248267893242, -22.026551682114416 ], [ -41.772513901595232, -22.02704083506643 ], [ -41.772389011843352, -22.027373875603814 ], [ -41.771941489408157, -22.027956695644946 ], [ -41.771098481109959, -22.02840421897946 ], [ -41.770286695474567, -22.029216003715533 ], [ -41.770026508116807, -22.029455376264536 ], [ -41.76980795037656, -22.029507414635418 ], [ -41.768756792192164, -22.029611489578542 ], [ -41.76715403573013, -22.030475312685496 ], [ -41.763938116750637, -22.034971355443645 ], [ -41.759150663072603, -22.053777719066428 ], [ -41.761013606892384, -22.059366550525851 ], [ -41.761377870092588, -22.059533070794544 ], [ -41.761877429999345, -22.060251188441555 ], [ -41.761866506833769, -22.060522187448953 ], [ -41.762012727605224, -22.060709118730813 ], [ -41.762408212568907, -22.063446292612237 ], [ -41.756090856507797, -22.067328292666502 ], [ -41.755043428711247, -22.069616533076495 ], [ -41.754690929542733, -22.070782492418061 ], [ -41.754293237642742, -22.071623068050087 ], [ -41.754248045810641, -22.071885183554343 ], [ -41.754934967774481, -22.074018256737133 ], [ -41.754645737710568, -22.074488255928202 ], [ -41.754211892165067, -22.074786525078025 ], [ -41.754157661247007, -22.075735561646809 ], [ -41.753958815746728, -22.076051908069072 ], [ -41.753913623015244, -22.076422483610713 ], [ -41.7538322766382, -22.076747868219513 ], [ -41.753353239260548, -22.077254021056206 ], [ -41.753262854696963, -22.077769212978751 ], [ -41.753380354719525, -22.077913827561076 ], [ -41.753380354719525, -22.078537480420323 ], [ -41.753633431137871, -22.078817672297703 ], [ -41.754401699478819, -22.080209593497898 ], [ -41.754338430374219, -22.081881706575473 ], [ -41.753570162033327, -22.083002474084878 ], [ -41.752349971773754, -22.08469266353552 ], [ -41.751184011532871, -22.085488047335446 ], [ -41.750632666864021, -22.086138815653783 ], [ -41.75051888463878, -22.086364905216158 ], [ -41.766332937614941, -22.084648912417322 ], [ -41.778827239485445, -22.096744694112317 ], [ -41.82075106480977, -22.099945038632598 ], [ -41.837250376004022, -22.071753624430187 ], [ -41.84894918255867, -22.071462709036723 ], [ -41.866890428950114, -22.056657612658626 ], [ -41.886880115125166, -22.049085160052073 ], [ -41.903057784688997, -22.057618511285227 ], [ -41.909971561238535, -22.067934122761528 ], [ -41.936029286222549, -22.057656625452861 ], [ -41.941837127781184, -22.069669396125676 ], [ -41.960835984992684, -22.07738152963384 ], [ -41.998442619331399, -22.057839334417675 ], [ -42.051727631325093, -22.059646446526244 ], [ -42.102640601382632, -22.047136297701911 ], [ -42.101642519386701, -22.030132844555112 ], [ -42.124004459737989, -22.030412758541956 ], [ -42.13633826409955, -22.024950975207275 ], [ -42.133860766760961, -22.011381477173416 ], [ -42.117288815526358, -21.996632474209264 ], [ -42.114321497938761, -21.984834418473611 ], [ -42.096565068523034, -21.974887969704014 ], [ -42.100268280656564, -21.955161240798585 ], [ -42.086048893841337, -21.95155298268395 ], [ -42.073538682064509, -21.924942077514796 ], [ -42.063093723796271, -21.919197349478054 ], [ -42.042393715297685, -21.889476694793586 ], [ -42.034631211661058, -21.886984148199815 ], [ -42.024226804723241, -21.861029382999561 ], [ -42.017535750674313, -21.857995504788676 ], [ -41.995440334303964, -21.825323600703541 ], [ -41.971112393222313, -21.803132080980731 ], [ -41.965725119618519, -21.827364807240031 ], [ -41.957666502507038, -21.834093145382326 ], [ -41.953862470076899, -21.851891022752454 ], [ -41.937801662017023, -21.871703609933604 ], [ -41.89572579191173, -21.878430313108421 ], [ -41.889785321035674, -21.863153995360562 ] ] } }
]
}
