{
"type": "FeatureCollection",
"features": [
{ "type": "Feature", "properties": { "Name": "SEROPÃDICA", "Description": "SEROPÃDICA \/ RJ" }, "geometry": { "type": "LineString", "coordinates": [ [ -43.631272559715299, -22.797258074274097 ], [ -43.631288403342289, -22.7995381946903 ], [ -43.631309243720196, -22.800455171318099 ], [ -43.6308715957842, -22.807665942073498 ], [ -43.630996638051592, -22.808270313032796 ], [ -43.629787896133095, -22.810646116114 ], [ -43.629204365551701, -22.8107294776256 ], [ -43.627582078687396, -22.8136530065877 ], [ -43.626677220031596, -22.8288728091634 ], [ -43.631919772934395, -22.833722751863 ], [ -43.639891884311695, -22.839372807590799 ], [ -43.644881361771496, -22.842267927642997 ], [ -43.645375824724191, -22.842703055041298 ], [ -43.654206749905498, -22.848121848361899 ], [ -43.67045610805679, -22.8534816516581 ], [ -43.672262941868695, -22.858399782126298 ], [ -43.673767126360275, -22.86360856483439 ], [ -43.673731706586544, -22.86447765234989 ], [ -43.673724906511715, -22.864776552461102 ], [ -43.674123629950785, -22.864577421331472 ], [ -43.674271829879686, -22.864572575168989 ], [ -43.674406331511165, -22.864616833178999 ], [ -43.674696964777013, -22.864745169171222 ], [ -43.674786858972801, -22.864803190719329 ], [ -43.674847436961329, -22.864728146345467 ], [ -43.7160604118707, -22.848786358302 ], [ -43.724340250455398, -22.845532474867198 ], [ -43.761990917836002, -22.830760714035797 ], [ -43.7625118866018, -22.830453828255003 ], [ -43.766829172258795, -22.828134849590498 ], [ -43.766967749523701, -22.827366562010297 ], [ -43.766899612049897, -22.825956116301498 ], [ -43.767662751757101, -22.8246206218138 ], [ -43.771955412610097, -22.820396098434699 ], [ -43.772555022380004, -22.820150803528797 ], [ -43.77334541707679, -22.820109921044498 ], [ -43.778219820830302, -22.819859645202495 ], [ -43.785004565319099, -22.818391056845499 ], [ -43.790551615716396, -22.812040117911501 ], [ -43.790842557650997, -22.811838540700595 ], [ -43.794605180926297, -22.809743384799297 ], [ -43.802392005241899, -22.8031000801384 ], [ -43.802596498976897, -22.802671531186199 ], [ -43.8018994409763, -22.800936054777701 ], [ -43.804063721885697, -22.789481511689701 ], [ -43.8034651075032, -22.7868074102531 ], [ -43.802827284067298, -22.7853569989859 ], [ -43.799536917011601, -22.783507747203299 ], [ -43.797509592154398, -22.774060797113002 ], [ -43.797277633177799, -22.773367436859797 ], [ -43.795640889257399, -22.772221876718099 ], [ -43.7951693042383, -22.7722626357914 ], [ -43.772718873787298, -22.7662895391041 ], [ -43.772884971490001, -22.7654963620422 ], [ -43.766140972513696, -22.755665465567098 ], [ -43.767963917115196, -22.7524393508995 ], [ -43.772855723416598, -22.749035868040899 ], [ -43.772470462462195, -22.7484489171853 ], [ -43.769943864865695, -22.746359343640599 ], [ -43.770021876333601, -22.743479958738298 ], [ -43.7721329254681, -22.742685685927597 ], [ -43.771583597950595, -22.740140772856595 ], [ -43.769217089227396, -22.733704542341496 ], [ -43.768304480857488, -22.733370000252698 ], [ -43.757521437470793, -22.728990812684501 ], [ -43.7536653003677, -22.728093912813698 ], [ -43.752911511137597, -22.7279836701588 ], [ -43.750458873573095, -22.727199696882895 ], [ -43.749525404349392, -22.726054756306198 ], [ -43.739607933684695, -22.710952101375199 ], [ -43.738746098552795, -22.709959033417498 ], [ -43.738321531731899, -22.708976713146399 ], [ -43.752074094571199, -22.699704028542598 ], [ -43.751425099538594, -22.6964350594161 ], [ -43.751175653678004, -22.693308671297498 ], [ -43.751258802298196, -22.691629069169899 ], [ -43.751236853099499, -22.6911900851964 ], [ -43.751225542850101, -22.690963880208496 ], [ -43.749461633474091, -22.687229280379601 ], [ -43.748004862833191, -22.685395376222399 ], [ -43.747510523992005, -22.684804442435297 ], [ -43.747361517423201, -22.684626319640397 ], [ -43.747021580262398, -22.684307614385798 ], [ -43.743402195817488, -22.682588207721398 ], [ -43.741142511793697, -22.6801524808699 ], [ -43.740513955933395, -22.678924948248596 ], [ -43.7396561620534, -22.6772537291377 ], [ -43.738591314478299, -22.6751979817357 ], [ -43.737796113528496, -22.6741094143091 ], [ -43.711160195214298, -22.647837941208397 ], [ -43.713108092047896, -22.641224517281398 ], [ -43.709881966275198, -22.639776456905299 ], [ -43.709205656678797, -22.639812189027598 ], [ -43.708663799414495, -22.6400753768417 ], [ -43.699007714980397, -22.647678123675494 ], [ -43.689394587272098, -22.650439935796697 ], [ -43.676822831067696, -22.6478804165695 ], [ -43.668719849366397, -22.655565710773796 ], [ -43.662317540298801, -22.657244618643098 ], [ -43.661839406853396, -22.658743902862696 ], [ -43.661360277858392, -22.659333600087297 ], [ -43.660830604101292, -22.659791685277696 ], [ -43.660331761615197, -22.6599963386053 ], [ -43.660293654918895, -22.660011972121698 ], [ -43.660057423041401, -22.660024471799598 ], [ -43.659959491429795, -22.6600296536303 ], [ -43.659536418892394, -22.659950016446796 ], [ -43.6551504971778, -22.658423449915894 ], [ -43.6542756632712, -22.657816710270996 ], [ -43.653584262280397, -22.657209970626003 ], [ -43.652944454618797, -22.655916300674701 ], [ -43.650663445850199, -22.653442540737796 ], [ -43.6404880331296, -22.650964625421 ], [ -43.633847198581499, -22.6594379690365 ], [ -43.6335104665296, -22.660739999637197 ], [ -43.6334001733996, -22.6610754387235 ], [ -43.633261246518401, -22.661497962828999 ], [ -43.633209011168901, -22.6625775945489 ], [ -43.652448959543001, -22.680475429023797 ], [ -43.636824164988099, -22.717427291620901 ], [ -43.638608176792197, -22.720048070568996 ], [ -43.638709669663399, -22.720361950056397 ], [ -43.638877864114697, -22.7208821125814 ], [ -43.639232953357897, -22.722572049094499 ], [ -43.639738483453399, -22.724264808959799 ], [ -43.640198056267501, -22.725237571416297 ], [ -43.641302862748589, -22.7319273456229 ], [ -43.644755229256795, -22.737058792471398 ], [ -43.643402474473, -22.753952535648001 ], [ -43.643081003581301, -22.754613012207397 ], [ -43.642758513122601, -22.755440940114497 ], [ -43.640000727946003, -22.759592888566594 ], [ -43.636876984687795, -22.762806395106598 ], [ -43.632277761346089, -22.775212673457098 ], [ -43.635010716128299, -22.779526219294098 ], [ -43.634684462800301, -22.786253652558297 ], [ -43.631272559715299, -22.797258074274097 ] ] } }
]
}
