{
"type": "FeatureCollection",
"features": [
{ "type": "Feature", "properties": { "Name": "SILVA JARDIM", "Description": "SILVA JARDIM \/ RJ" }, "geometry": { "type": "LineString", "coordinates": [ [ -42.186923267594693, -22.555491126214463 ], [ -42.205020076015671, -22.581086773235938 ], [ -42.233567101940139, -22.599503280751772 ], [ -42.24754017254088, -22.613062160490244 ], [ -42.263162190582584, -22.607529199412966 ], [ -42.295476870461187, -22.623823300604784 ], [ -42.314460135227023, -22.647993762302232 ], [ -42.32353718509296, -22.685891218504878 ], [ -42.33192920157137, -22.704285385961725 ], [ -42.352129508969597, -22.710123561653006 ], [ -42.368272459306525, -22.723989439361105 ], [ -42.379511444297691, -22.71853127220038 ], [ -42.395370602771038, -22.72240307574128 ], [ -42.420111606965065, -22.736429400596307 ], [ -42.441837152862263, -22.73004279943558 ], [ -42.460133089170711, -22.718573411733527 ], [ -42.473056065484968, -22.724652029267698 ], [ -42.497129626131311, -22.725542527165828 ], [ -42.518622905022994, -22.717602626859673 ], [ -42.526734479612514, -22.705344218960473 ], [ -42.528001951728641, -22.631691794740501 ], [ -42.551394326287095, -22.619578237945291 ], [ -42.564564659331495, -22.620125788374366 ], [ -42.602870942839672, -22.54107860099657 ], [ -42.592709574986827, -22.533139188123016 ], [ -42.576950405836492, -22.500648298680005 ], [ -42.5656433475624, -22.468604153758633 ], [ -42.553094251798257, -22.46678807720798 ], [ -42.552289291117859, -22.455256413252812 ], [ -42.535928884710245, -22.457001294074416 ], [ -42.511803631932025, -22.434779317011817 ], [ -42.493350913214044, -22.435461697399376 ], [ -42.479077777517375, -22.447810898154387 ], [ -42.468017519293028, -22.449365209936445 ], [ -42.452834542180312, -22.435376400300584 ], [ -42.427283165185884, -22.428666320194452 ], [ -42.386766795051528, -22.421738257914228 ], [ -42.35460985266252, -22.428942677362613 ], [ -42.310794617277736, -22.420163848083064 ], [ -42.277520429124479, -22.401684201864384 ], [ -42.304175949660305, -22.45787976533887 ], [ -42.291617453282811, -22.464530279748544 ], [ -42.270802727264027, -22.48558236833156 ], [ -42.261503896487568, -22.506668339772034 ], [ -42.264615366406019, -22.522924521949108 ], [ -42.250272654659227, -22.546418615226855 ], [ -42.212031766252949, -22.539009679153306 ], [ -42.186923267594693, -22.555491126214463 ] ] } }
]
}
