{
"type": "FeatureCollection",
"features": [
{ "type": "Feature", "properties": { "Name": "BARRA DE SÃO MIGUEL", "Description": "BARRA DE SÃO MIGUEL \/ AL" }, "geometry": { "type": "LineString", "coordinates": [ [ -35.855047387626769, -9.788186635205022 ], [ -35.889657401767629, -9.83996869929598 ], [ -35.90279074299832, -9.87007572341588 ], [ -35.902970986022126, -9.860290523089134 ], [ -35.91621499422655, -9.83964117340139 ], [ -35.922712203905064, -9.837892903934346 ], [ -35.941525766600819, -9.8453718135583 ], [ -35.954270464909996, -9.843200654986219 ], [ -35.962383316536773, -9.833602760958627 ], [ -36.014853361993005, -9.808169855254562 ], [ -36.026624831970366, -9.811217406757862 ], [ -36.028049284346935, -9.808570158785754 ], [ -36.004562889265856, -9.767097407319454 ], [ -35.991244274203837, -9.781827679204014 ], [ -35.967102413645421, -9.788372995417376 ], [ -35.938270979821823, -9.789605169143213 ], [ -35.92649279100948, -9.795715017434077 ], [ -35.914715583357463, -9.809568944950797 ], [ -35.905589199382007, -9.811886707405563 ], [ -35.855047387626769, -9.788186635205022 ] ] } }
]
}
