{
"type": "FeatureCollection",
"features": [
{ "type": "Feature", "properties": { "Name": "CACIMBINHAS", "Description": "CACIMBINHAS \/ AL" }, "geometry": { "type": "LineString", "coordinates": [ [ -36.936849816965434, -9.377425438333262 ], [ -36.901422051986053, -9.397776785969825 ], [ -36.865140960786675, -9.392769594641036 ], [ -36.82653639913547, -9.390959304328362 ], [ -36.830057422112304, -9.397251494660679 ], [ -36.82930683983875, -9.42806184347927 ], [ -36.844942140867083, -9.440652651598555 ], [ -36.841958843225996, -9.466028155375 ], [ -36.843310598005644, -9.48653673148493 ], [ -36.832995883153444, -9.497784787038256 ], [ -36.83297347834332, -9.506766882885302 ], [ -36.839919317522458, -9.510528638186031 ], [ -36.833873374156838, -9.524937028321176 ], [ -36.837059790876594, -9.531915967048178 ], [ -36.863833100117461, -9.531740200849526 ], [ -36.876663616232861, -9.535120118398709 ], [ -36.905199714495211, -9.523895039624335 ], [ -36.980636312715603, -9.486848159514921 ], [ -36.983254821952407, -9.476391984002817 ], [ -37.000421467876379, -9.460572327350974 ], [ -37.004000829874364, -9.449637866294438 ], [ -37.01675213370396, -9.437403517058611 ], [ -37.019805688181918, -9.413859806384892 ], [ -37.030218860811708, -9.392338240217555 ], [ -37.022781103265281, -9.369595935204186 ], [ -36.994159653944848, -9.374304229656445 ], [ -36.979640274878761, -9.359327923944477 ], [ -36.955463619550358, -9.381251032908779 ], [ -36.936849816965434, -9.377425438333262 ] ] } }
]
}
