{
"type": "FeatureCollection",
"features": [
{ "type": "Feature", "properties": { "Name": "CAMPO ALEGRE", "Description": "CAMPO ALEGRE \/ AL" }, "geometry": { "type": "LineString", "coordinates": [ [ -36.246602793284239, -9.7324470900611 ], [ -36.241546326301886, -9.73952088657961 ], [ -36.190384364546723, -9.790092027025366 ], [ -36.183701913412506, -9.800733145418292 ], [ -36.207093938134676, -9.806643655380356 ], [ -36.196552143566521, -9.829332868017389 ], [ -36.197740830574844, -9.837170578359462 ], [ -36.208273854055051, -9.843736536711731 ], [ -36.219636493129599, -9.836859738486112 ], [ -36.239788724569962, -9.871754450107744 ], [ -36.181777295885468, -9.879675874741791 ], [ -36.178297090438313, -9.889277238353827 ], [ -36.280899024969976, -9.934668655234191 ], [ -36.277882607096615, -9.892295191369953 ], [ -36.313000419833486, -9.886931299240018 ], [ -36.325471118996916, -9.877066485529838 ], [ -36.335806351881615, -9.85482933060905 ], [ -36.353915452236265, -9.833887176052313 ], [ -36.36343849748863, -9.826677786950256 ], [ -36.393966974496209, -9.792758704850312 ], [ -36.414504224590246, -9.777458814972306 ], [ -36.393995857123059, -9.774075713823095 ], [ -36.369525035352069, -9.765880030139213 ], [ -36.36002828717568, -9.769009813851767 ], [ -36.342715698370739, -9.738552790678682 ], [ -36.334748058476066, -9.727117241767246 ], [ -36.332443373063199, -9.712547600491346 ], [ -36.323855682993326, -9.713404778507652 ], [ -36.310886600236358, -9.723204679152559 ], [ -36.27897011677743, -9.734037336054143 ], [ -36.251745679719306, -9.729675886732764 ], [ -36.246602793284239, -9.7324470900611 ] ] } }
]
}
