{
"type": "FeatureCollection",
"features": [
{ "type": "Feature", "properties": { "Name": "JUNQUEIRO", "Description": "JUNQUEIRO \/ AL" }, "geometry": { "type": "LineString", "coordinates": [ [ -36.414504224590246, -9.777458814972306 ], [ -36.393966974496209, -9.792758704850312 ], [ -36.36343849748863, -9.826677786950256 ], [ -36.353915452236265, -9.833887176052313 ], [ -36.335806351881615, -9.85482933060905 ], [ -36.325471118996916, -9.877066485529838 ], [ -36.313000419833486, -9.886931299240018 ], [ -36.395426111026154, -9.874430277635156 ], [ -36.398715833768676, -9.887141944744883 ], [ -36.448431973456763, -9.960408729779033 ], [ -36.45767286361172, -9.96178946251365 ], [ -36.468858333545199, -9.971046111488818 ], [ -36.478969823198724, -9.960008333617678 ], [ -36.472968422354768, -9.953569283995193 ], [ -36.472854390117959, -9.935987400398176 ], [ -36.486940786088383, -9.926050787513759 ], [ -36.48772442204438, -9.916145907207806 ], [ -36.49983083372598, -9.891390761174648 ], [ -36.496551956807309, -9.866956815204787 ], [ -36.503640544475502, -9.856476927268318 ], [ -36.515500409716076, -9.859553056528284 ], [ -36.527580346255945, -9.847697292196244 ], [ -36.553199113947926, -9.839080591795835 ], [ -36.553171294319725, -9.839059581834192 ], [ -36.526037397407947, -9.803248320753369 ], [ -36.473170410086311, -9.802924126846904 ], [ -36.46434973355332, -9.792072687604389 ], [ -36.463777051569643, -9.783468061501765 ], [ -36.414504224590246, -9.777458814972306 ] ] } }
]
}
