{
"type": "FeatureCollection",
"features": [
{ "type": "Feature", "properties": { "Name": "MAR VERMELHO", "Description": "MAR VERMELHO \/ AL" }, "geometry": { "type": "LineString", "coordinates": [ [ -36.389363075145752, -9.425378624423956 ], [ -36.339415465251477, -9.464575098262117 ], [ -36.355423915681115, -9.469340175908371 ], [ -36.353736516826757, -9.481688527703341 ], [ -36.3430348111076, -9.493281756547788 ], [ -36.339880962436439, -9.511671612654766 ], [ -36.351298787508995, -9.506337508768979 ], [ -36.386491455316389, -9.509624470592767 ], [ -36.450975353329852, -9.505271584615912 ], [ -36.468415536148029, -9.485518824833832 ], [ -36.453006156508877, -9.459346726769979 ], [ -36.460767214035684, -9.452871428173808 ], [ -36.390600969459115, -9.424405595741575 ], [ -36.389363075145752, -9.425378624423956 ] ] } }
]
}
