{
"type": "FeatureCollection",
"features": [
{ "type": "Feature", "properties": { "Name": "MARAVILHA", "Description": "MARAVILHA \/ AL" }, "geometry": { "type": "LineString", "coordinates": [ [ -37.229226004376585, -9.226853686548338 ], [ -37.335452651019011, -9.267226168752643 ], [ -37.414534311209479, -9.289465913720903 ], [ -37.399192648721737, -9.332498750616821 ], [ -37.589521458648335, -9.288933748893328 ], [ -37.587134405228596, -9.288262303362558 ], [ -37.57110667513291, -9.282576399081504 ], [ -37.564613673382269, -9.273478109926771 ], [ -37.54862684805056, -9.267109354013428 ], [ -37.542285614989112, -9.259242774534355 ], [ -37.531710706483864, -9.259968248635744 ], [ -37.517292804219494, -9.242242069715701 ], [ -37.48968595744094, -9.230264672976205 ], [ -37.480075139256201, -9.223860586296951 ], [ -37.456698238432921, -9.197592208613514 ], [ -37.44437249379552, -9.192581267111734 ], [ -37.436293432395928, -9.183736761242471 ], [ -37.31348859682123, -9.197053661297389 ], [ -37.278487918982243, -9.152499989882585 ], [ -37.266558215089503, -9.159048724419051 ], [ -37.247083410570895, -9.179018504999931 ], [ -37.246785770047211, -9.190382352763322 ], [ -37.234813479658328, -9.204532051113233 ], [ -37.229226004376585, -9.226853686548338 ] ] } }
]
}
