{
"type": "FeatureCollection",
"features": [
{ "type": "Feature", "properties": { "Name": "MARIBONDO", "Description": "MARIBONDO \/ AL" }, "geometry": { "type": "LineString", "coordinates": [ [ -36.191571648612637, -9.599854580124713 ], [ -36.264411681054185, -9.595642304049022 ], [ -36.253909443166208, -9.623889344017982 ], [ -36.287908403050324, -9.609124005768194 ], [ -36.294466547193338, -9.601653308753157 ], [ -36.320856304574761, -9.608306247735072 ], [ -36.351163817256293, -9.607217108482699 ], [ -36.344550413370825, -9.598321244130091 ], [ -36.350744585694031, -9.592350289833973 ], [ -36.372076275299833, -9.578316758711422 ], [ -36.382055621269842, -9.560499642144748 ], [ -36.383243053723895, -9.543096675071467 ], [ -36.376084433150027, -9.528117826076766 ], [ -36.386491455316389, -9.509624470592767 ], [ -36.351298787508995, -9.506337508768979 ], [ -36.339880962436439, -9.511671612654766 ], [ -36.329195590204279, -9.510951527291127 ], [ -36.306029617272998, -9.522272644666771 ], [ -36.292753684035233, -9.519549596436661 ], [ -36.260570892432725, -9.520581335560166 ], [ -36.240794512856439, -9.510296622091403 ], [ -36.225096573148278, -9.490901617115867 ], [ -36.216988559874096, -9.474031361657978 ], [ -36.228188099701015, -9.51492570335847 ], [ -36.218663728847957, -9.564115219841483 ], [ -36.191571648612637, -9.599854580124713 ] ] } }
]
}
