{
"type": "FeatureCollection",
"features": [
{ "type": "Feature", "properties": { "Name": "PALMEIRA DOS ÃNDIOS", "Description": "PALMEIRA DOS ÃNDIOS \/ AL" }, "geometry": { "type": "LineString", "coordinates": [ [ -36.624855448819851, -9.331831900621694 ], [ -36.593219215694205, -9.360849289063367 ], [ -36.550190014757327, -9.354097742117062 ], [ -36.550835296311845, -9.343823450891477 ], [ -36.486674340348486, -9.406145952473707 ], [ -36.460767214035684, -9.452871428173808 ], [ -36.453006156508877, -9.459346726769979 ], [ -36.468415536148029, -9.485518824833832 ], [ -36.488363888582569, -9.50219916685802 ], [ -36.502177628095012, -9.499292130827143 ], [ -36.517634931706709, -9.502949723950564 ], [ -36.523312151234734, -9.510423933717504 ], [ -36.526514325875382, -9.528399089945992 ], [ -36.533081041456853, -9.53085852440131 ], [ -36.568716136140722, -9.487500010616941 ], [ -36.614246928153193, -9.482828012802486 ], [ -36.641026262851703, -9.50180882421779 ], [ -36.68841693829102, -9.485047992870534 ], [ -36.708949205241595, -9.485101191366823 ], [ -36.720335177226609, -9.470752761730523 ], [ -36.716613358119957, -9.446031485064964 ], [ -36.72250177263868, -9.433247962123685 ], [ -36.723862645644545, -9.390299378213683 ], [ -36.712446326037082, -9.378653901456346 ], [ -36.720387280348689, -9.36297534123895 ], [ -36.720414225835782, -9.34847010940797 ], [ -36.713305876464972, -9.327479525459694 ], [ -36.712498470527976, -9.313996874056443 ], [ -36.69974748505836, -9.293005799977664 ], [ -36.670422225405332, -9.313235515206827 ], [ -36.644687755435534, -9.314371601767959 ], [ -36.634616576094061, -9.326903548360008 ], [ -36.624855448819851, -9.331831900621694 ] ] } }
]
}
