{
"type": "FeatureCollection",
"features": [
{ "type": "Feature", "properties": { "Name": "PAULO JACINTO", "Description": "PAULO JACINTO \/ AL" }, "geometry": { "type": "LineString", "coordinates": [ [ -36.389363075145752, -9.425378624423956 ], [ -36.390600969459115, -9.424405595741575 ], [ -36.460767214035684, -9.452871428173808 ], [ -36.486674340348486, -9.406145952473707 ], [ -36.485472541224738, -9.406293541113996 ], [ -36.416261766966954, -9.355430825172391 ], [ -36.403465975474319, -9.342677732591255 ], [ -36.403393185247239, -9.336912022471836 ], [ -36.384822068083899, -9.311630097650834 ], [ -36.390749841432012, -9.292878965891532 ], [ -36.339892070862334, -9.286711996261545 ], [ -36.365822118196149, -9.360772237848437 ], [ -36.374183558624281, -9.374541145257581 ], [ -36.389363075145752, -9.425378624423956 ] ] } }
]
}
