{
"type": "FeatureCollection",
"features": [
{ "type": "Feature", "properties": { "Name": "PENEDO", "Description": "PENEDO \/ AL" }, "geometry": { "type": "LineString", "coordinates": [ [ -36.371319726024467, -10.230245058562559 ], [ -36.38385893913869, -10.232960479642372 ], [ -36.397913490115457, -10.246681175295976 ], [ -36.392054454649319, -10.26843245709216 ], [ -36.383086964691643, -10.27305790240024 ], [ -36.377686488140846, -10.294173858137015 ], [ -36.392631846382585, -10.30999513536716 ], [ -36.408357216312424, -10.313404475136394 ], [ -36.416970807756513, -10.328882586362226 ], [ -36.440715844260751, -10.330673297534588 ], [ -36.447555934858485, -10.33529983821694 ], [ -36.460250651546282, -10.333016035061917 ], [ -36.49077453931352, -10.349466205500958 ], [ -36.491636456757021, -10.36462331361497 ], [ -36.507713057811316, -10.368448860526428 ], [ -36.508438053473355, -10.378786388480989 ], [ -36.492857355682354, -10.388774252829478 ], [ -36.506185874078767, -10.395558877739973 ], [ -36.487413645123581, -10.42292000095722 ], [ -36.510028649302683, -10.432815305282077 ], [ -36.539679602031981, -10.422824756457317 ], [ -36.544653605679343, -10.430040060400415 ], [ -36.563228093501664, -10.419504678897795 ], [ -36.561774974335549, -10.384086421551046 ], [ -36.567930083706358, -10.372851927774207 ], [ -36.565901482067716, -10.329520637367466 ], [ -36.574178995064528, -10.31525267636988 ], [ -36.588951253597429, -10.301849298406353 ], [ -36.591181862752698, -10.287385404812539 ], [ -36.606429668394412, -10.278065095527666 ], [ -36.621939925886807, -10.25920965859882 ], [ -36.630973263305407, -10.254007793724668 ], [ -36.639751479247309, -10.247201992477926 ], [ -36.659938449699666, -10.246727235873209 ], [ -36.624997768332314, -10.215395018565232 ], [ -36.613784057887926, -10.199669909438738 ], [ -36.591908148042535, -10.192379104711847 ], [ -36.523644653078229, -10.176505683890126 ], [ -36.511338920155026, -10.148596697279686 ], [ -36.504382268426923, -10.125911733040027 ], [ -36.502084424156806, -10.094618502242042 ], [ -36.497741909161732, -10.093082614870752 ], [ -36.491361328062794, -10.071094237608918 ], [ -36.45495193598299, -10.032269936508328 ], [ -36.45241219386758, -10.040318706942742 ], [ -36.448661204351083, -10.060187866876504 ], [ -36.434834146778428, -10.073673318768613 ], [ -36.420192440128972, -10.068574410080942 ], [ -36.415887444849659, -10.082145176158916 ], [ -36.399328608428505, -10.083681407970573 ], [ -36.399712451668279, -10.101792379814412 ], [ -36.378237311202895, -10.103997284547006 ], [ -36.362049601607794, -10.121587744978399 ], [ -36.360158455048634, -10.157217447327298 ], [ -36.343384335318774, -10.164738036031508 ], [ -36.336772740869264, -10.174160415670599 ], [ -36.338151952850296, -10.185915918185003 ], [ -36.353797876670626, -10.202662566324307 ], [ -36.356827983124901, -10.220422426653611 ], [ -36.371319726024467, -10.230245058562559 ] ] } }
]
}
