{
"type": "FeatureCollection",
"features": [
{ "type": "Feature", "properties": { "Name": "PORTO CALVO", "Description": "PORTO CALVO \/ AL" }, "geometry": { "type": "LineString", "coordinates": [ [ -35.366396050437345, -8.943391989348809 ], [ -35.354015431866628, -8.963624469093928 ], [ -35.358350855707386, -8.9811906235484 ], [ -35.336318062728367, -9.008786877212572 ], [ -35.302993044893071, -9.028467928651935 ], [ -35.336072555903684, -9.031888282418265 ], [ -35.337764663608311, -9.063139826941438 ], [ -35.33626750014497, -9.083643463075305 ], [ -35.327919065712251, -9.105984886293411 ], [ -35.325957222547743, -9.120272859904503 ], [ -35.300986764427591, -9.135976070539186 ], [ -35.312248379958703, -9.147013503969957 ], [ -35.321154005552899, -9.14724510008125 ], [ -35.333706754363163, -9.13838645057416 ], [ -35.337294330768714, -9.130710438335996 ], [ -35.356573105564337, -9.114839225349897 ], [ -35.348540755851161, -9.112425325368406 ], [ -35.366071856530937, -9.085987687181955 ], [ -35.371972938000624, -9.088838167547351 ], [ -35.420782994539536, -9.077399467411453 ], [ -35.427403593900692, -9.07018431725237 ], [ -35.455433479971077, -9.068387119270083 ], [ -35.465990991091303, -9.076060709634021 ], [ -35.481876779389836, -9.072779167124793 ], [ -35.494768355874889, -9.077689494274692 ], [ -35.50174834860735, -9.085316353167116 ], [ -35.560200691508669, -9.048804576869657 ], [ -35.565910728197473, -9.036843420987054 ], [ -35.561572967018776, -9.010862220215245 ], [ -35.521423167744956, -9.009463077459031 ], [ -35.45273617483457, -8.96078193333949 ], [ -35.449936670740726, -8.964539009467671 ], [ -35.421880466909954, -8.920689532395953 ], [ -35.378379496916182, -8.968502577132199 ], [ -35.366396050437345, -8.943391989348809 ] ] } }
]
}
