{
"type": "FeatureCollection",
"features": [
{ "type": "Feature", "properties": { "Name": "RIO LARGO", "Description": "RIO LARGO \/ AL" }, "geometry": { "type": "LineString", "coordinates": [ [ -35.928893970979914, -9.375566304940946 ], [ -35.877420095560922, -9.416687015893046 ], [ -35.769502714478612, -9.387610249713191 ], [ -35.769605540263456, -9.389593448179028 ], [ -35.796703843807279, -9.53152545623476 ], [ -35.887242607860003, -9.588838634195554 ], [ -35.935378734041301, -9.550131719803005 ], [ -35.949857443066492, -9.533339705363062 ], [ -35.959740556181657, -9.528010402957703 ], [ -35.93724285867097, -9.492492083442869 ], [ -35.930894362684626, -9.461730608280901 ], [ -35.928893970979914, -9.375566304940946 ] ] } }
]
}
