{
"type": "FeatureCollection",
"features": [
{ "type": "Feature", "properties": { "Name": "ROTEIRO", "Description": "ROTEIRO \/ AL" }, "geometry": { "type": "LineString", "coordinates": [ [ -35.90279074299832, -9.87007572341588 ], [ -35.935266305295727, -9.899186689014414 ], [ -35.962313778258192, -9.941257909624767 ], [ -35.978325192853333, -9.915144043562691 ], [ -35.999260163625593, -9.915608186368672 ], [ -36.014185777251782, -9.907652798837546 ], [ -36.021244108129054, -9.920331343916359 ], [ -36.040978858987103, -9.858359220901264 ], [ -36.044275121599526, -9.849616755708666 ], [ -36.037295920270481, -9.826781316004883 ], [ -36.039106321199711, -9.815436012262126 ], [ -36.026624831970366, -9.811217406757862 ], [ -36.014853361993005, -9.808169855254562 ], [ -35.962383316536773, -9.833602760958627 ], [ -35.954270464909996, -9.843200654986219 ], [ -35.941525766600819, -9.8453718135583 ], [ -35.922712203905064, -9.837892903934346 ], [ -35.91621499422655, -9.83964117340139 ], [ -35.902970986022126, -9.860290523089134 ], [ -35.90279074299832, -9.87007572341588 ] ] } }
]
}
