{
"type": "FeatureCollection",
"features": [
{ "type": "Feature", "properties": { "Name": "SANTANA DO IPANEMA", "Description": "SANTANA DO IPANEMA \/ AL" }, "geometry": { "type": "LineString", "coordinates": [ [ -37.057586247807023, -9.317536599334517 ], [ -37.073835197636235, -9.31815296858457 ], [ -37.088749514878145, -9.33367004653536 ], [ -37.089359389224398, -9.348169862649 ], [ -37.102724366136556, -9.361680302204149 ], [ -37.10667333330764, -9.375006760253711 ], [ -37.119559131648543, -9.387302004383969 ], [ -37.145280568643273, -9.421936829021377 ], [ -37.148862447843669, -9.435970827791436 ], [ -37.198092867291962, -9.432263777351409 ], [ -37.208725743398304, -9.439863959653962 ], [ -37.229672471007682, -9.446323233230601 ], [ -37.255146120497045, -9.446638855698609 ], [ -37.269838783632899, -9.453488395473016 ], [ -37.318561960266209, -9.420576501904009 ], [ -37.331869082891842, -9.42410064732695 ], [ -37.444569086494084, -9.357616113892504 ], [ -37.412284315368815, -9.362286508215732 ], [ -37.396864870517327, -9.359463086652056 ], [ -37.386644851578581, -9.352439098185812 ], [ -37.373231660212923, -9.357251905550982 ], [ -37.34792314963363, -9.354267112337311 ], [ -37.337187963054021, -9.3504169680686 ], [ -37.313607729113357, -9.351139749599723 ], [ -37.283479897379323, -9.342283327713346 ], [ -37.215667487964133, -9.311697359745322 ], [ -37.202864064824666, -9.291612578357785 ], [ -37.180562308004085, -9.272773329225743 ], [ -37.169387128113442, -9.272434290210299 ], [ -37.164334733261285, -9.275705285470508 ], [ -37.142394949966899, -9.268079215283535 ], [ -37.129919786568841, -9.260061788021062 ], [ -37.116475691799678, -9.240930719676953 ], [ -37.108174715490691, -9.238715775812352 ], [ -37.090672477652674, -9.246362051067763 ], [ -37.067303765156566, -9.267240274618928 ], [ -37.057201429702154, -9.281788467064075 ], [ -37.061925536933927, -9.297368756562832 ], [ -37.057586247807023, -9.317536599334517 ] ] } }
]
}
