{
"type": "FeatureCollection",
"features": [
{ "type": "Feature", "properties": { "Name": "TANQUE D'ARCA", "Description": "TANQUE D'ARCA \/ AL" }, "geometry": { "type": "LineString", "coordinates": [ [ -36.350744585694031, -9.592350289833973 ], [ -36.392104896723538, -9.602904886251451 ], [ -36.388606993517897, -9.628772890256641 ], [ -36.380829231084078, -9.635367232112001 ], [ -36.394164739910764, -9.648367597786375 ], [ -36.408606433739862, -9.636431855845444 ], [ -36.401131500018664, -9.619068208031308 ], [ -36.417493473944603, -9.611278570049933 ], [ -36.434278288412258, -9.616232647418713 ], [ -36.446811748563277, -9.605905887047014 ], [ -36.488363888582569, -9.50219916685802 ], [ -36.468415536148029, -9.485518824833832 ], [ -36.450975353329852, -9.505271584615912 ], [ -36.386491455316389, -9.509624470592767 ], [ -36.376084433150027, -9.528117826076766 ], [ -36.383243053723895, -9.543096675071467 ], [ -36.382055621269842, -9.560499642144748 ], [ -36.372076275299833, -9.578316758711422 ], [ -36.350744585694031, -9.592350289833973 ] ] } }
]
}
