{
"type": "FeatureCollection",
"features": [
{ "type": "Feature", "properties": { "Name": "ABEL FIGUEIREDO", "Description": "ABEL FIGUEIREDO \/ PA" }, "geometry": { "type": "LineString", "coordinates": [ [ -48.194630685657557, -4.911016335335545 ], [ -48.451935753132432, -5.112245490536907 ], [ -48.504820655848562, -5.065802933458542 ], [ -48.530536332685585, -5.000538964401642 ], [ -48.526742592996243, -4.922934024285722 ], [ -48.612933899379925, -4.813807446256589 ], [ -48.506488891948777, -4.82373866590666 ], [ -48.455045289508462, -4.893168643617969 ], [ -48.426350767573808, -4.862516046678138 ], [ -48.338763573979691, -4.884784055539683 ], [ -48.270288973057625, -4.923541306785807 ], [ -48.194630685657557, -4.911016335335545 ] ] } }
]
}
