{
"type": "FeatureCollection",
"features": [
{ "type": "Feature", "properties": { "Name": "ÃGUA AZUL DO NORTE", "Description": "ÃGUA AZUL DO NORTE \/ PA" }, "geometry": { "type": "LineString", "coordinates": [ [ -50.482452844323284, -6.513793502468104 ], [ -50.419639488271741, -6.510250952419483 ], [ -50.354031996179629, -6.53561573357922 ], [ -50.301116786310615, -6.628842758286623 ], [ -50.231858788652119, -6.576571121260201 ], [ -50.135946739050716, -6.580018523935678 ], [ -50.070500305644543, -6.538007908638008 ], [ -49.997727920207296, -6.550002810681121 ], [ -49.957792494128284, -6.590613492718489 ], [ -49.843720280666389, -6.658506987707256 ], [ -49.791078578913243, -6.642333230194367 ], [ -49.729776865409967, -6.71471573074632 ], [ -49.733030019020134, -6.71745479050611 ], [ -50.376392712553582, -7.25278959246566 ], [ -50.509142567875188, -7.193014353129853 ], [ -50.562782491918419, -7.076277274876303 ], [ -50.76482459108194, -6.994896188508221 ], [ -50.753816475549854, -6.873562396487387 ], [ -50.827716395894925, -6.827792688781528 ], [ -50.901339855649773, -6.710170794546457 ], [ -50.947299444413773, -6.698304300403095 ], [ -51.012676498721419, -6.636461284960262 ], [ -51.009814889245717, -6.590805020435312 ], [ -51.062234551083634, -6.523985607349857 ], [ -51.036896352084966, -6.475114171181986 ], [ -50.936199671777388, -6.404985590212789 ], [ -50.939090330254487, -6.329218079250893 ], [ -50.816562110852715, -6.272046564297455 ], [ -50.826642001027494, -6.3758626735235 ], [ -50.724117165374821, -6.493907817491731 ], [ -50.715975233270342, -6.541887761111241 ], [ -50.542506475993029, -6.53159056595183 ], [ -50.482452844323284, -6.513793502468104 ] ] } }
]
}
