{
"type": "FeatureCollection",
"features": [
{ "type": "Feature", "properties": { "Name": "ALTAMIRA", "Description": "ALTAMIRA \/ PA" }, "geometry": { "type": "LineString", "coordinates": [ [ -51.958123555757425, -3.477043303905304 ], [ -52.03622681201773, -3.497549771105014 ], [ -52.110767731345675, -3.559641211672556 ], [ -52.168114529561876, -3.563963044059165 ], [ -52.223830609594927, -3.700056433957229 ], [ -52.302618889350242, -3.750465596609956 ], [ -52.278166894886226, -3.951950188050716 ], [ -52.337093001540723, -3.988403916707341 ], [ -52.276789810701189, -4.03198223559167 ], [ -52.06721053214028, -4.074727182413482 ], [ -52.010145828766952, -4.177209614132323 ], [ -51.928792795850825, -4.212506668947583 ], [ -51.915125111634552, -4.26356141442767 ], [ -51.840119525195917, -4.215147248446726 ], [ -51.833319122579383, -4.285711040132355 ], [ -51.801015827218635, -4.336074539708193 ], [ -51.704762416552221, -4.328421249740813 ], [ -51.662290226912376, -4.408841899733829 ], [ -51.772795567261596, -4.473866420698698 ], [ -51.863652233563698, -4.42847078060197 ], [ -51.957316072478697, -4.577939962659116 ], [ -52.050264089715938, -4.636591434347167 ], [ -52.079984501583453, -4.677843946341 ], [ -52.094120194791117, -4.82690232258409 ], [ -52.082542962187915, -4.910997642027496 ], [ -52.042879008159673, -5.016035669110806 ], [ -52.07282318214407, -5.096649089683694 ], [ -52.051074742205564, -5.151400654916245 ], [ -52.068517814545487, -5.243030189591536 ], [ -52.148295753246373, -5.316098146212425 ], [ -52.284016846300396, -5.257634241626874 ], [ -52.295347556744332, -5.194414866852583 ], [ -52.374795901109898, -5.204561296066913 ], [ -52.450098795323129, -5.184995606062329 ], [ -52.527311754234006, -5.229867555643125 ], [ -52.612245848866785, -5.243072071918562 ], [ -52.658042835708272, -5.297780194500319 ], [ -52.644211951520333, -5.396622486238698 ], [ -52.691855445272552, -5.516275692669011 ], [ -52.690241677511381, -5.653714328053752 ], [ -52.771518130457309, -5.722270035233919 ], [ -52.83215884495467, -5.689938676528641 ], [ -52.939376712665137, -5.74402635413287 ], [ -52.975856429030955, -5.845081322544956 ], [ -53.059133053347693, -5.886053222678014 ], [ -53.109380258891804, -5.87198272312412 ], [ -53.149078943838155, -5.937755609533724 ], [ -53.218304941819554, -5.942848888465392 ], [ -53.279243192519289, -5.981767234370295 ], [ -53.270965383645489, -6.019797826208674 ], [ -53.368969847180665, -6.057955829497871 ], [ -53.371166809100941, -6.117721630448841 ], [ -53.306935143941701, -6.165675655606947 ], [ -53.260212442650072, -6.2892690824022 ], [ -53.226468940589086, -6.295007006168362 ], [ -53.19115816211945, -6.400565347712586 ], [ -53.214581279102731, -6.469458165761694 ], [ -53.296719361709101, -6.458349279395691 ], [ -53.373861541277051, -6.594023199411083 ], [ -53.441880953942814, -6.56156951851841 ], [ -53.468520343339151, -6.634716789947845 ], [ -53.394915156009574, -6.717625313657265 ], [ -53.247251983492212, -6.786882653911277 ], [ -53.248007548909179, -6.831490942053279 ], [ -53.311637293326385, -6.916075094290135 ], [ -53.278794189799953, -6.96564004625111 ], [ -53.317438243380195, -7.027456117106055 ], [ -53.307577181641591, -7.074589614319223 ], [ -53.253718871628564, -7.114580530367164 ], [ -53.315387080449341, -7.202982214757355 ], [ -53.234887311700049, -7.298525352562932 ], [ -53.120074667511858, -7.39550642358256 ], [ -53.092353354123929, -7.477566570940439 ], [ -53.138358681507896, -7.546538059883517 ], [ -53.100109764853698, -7.682074770334339 ], [ -53.058104437569682, -7.687834221172295 ], [ -53.034689934292992, -7.776008937362519 ], [ -52.992109922235102, -7.827742072938292 ], [ -53.030579481258023, -7.860046282010273 ], [ -53.037551973644611, -7.930476312132043 ], [ -52.956188621008039, -8.071067265541842 ], [ -52.96544074189665, -8.121549324541659 ], [ -52.92527034814799, -8.162624978559847 ], [ -52.990684748602234, -8.307494544737381 ], [ -52.941187823159453, -8.346701352685216 ], [ -52.955188627053474, -8.441279566498736 ], [ -52.888325666995904, -8.583268230944043 ], [ -52.943603646790841, -8.687409243641639 ], [ -53.006274634766548, -8.704828485745963 ], [ -53.035186706301424, -8.751780028525445 ], [ -52.992603731876663, -8.85078276291415 ], [ -53.017520515759138, -8.922469618078365 ], [ -53.055245845319462, -8.954030565358266 ], [ -53.03824594719265, -9.042189128825214 ], [ -53.084800188377919, -9.116126305384626 ], [ -52.972214571345376, -9.210252404824587 ], [ -52.975220921308448, -9.244055190194842 ], [ -52.922610226380812, -9.380427647817669 ], [ -52.995077954783767, -9.475295382176114 ], [ -53.0424988600343, -9.477299379262888 ], [ -53.056722618454046, -9.530505313869069 ], [ -53.112527661222543, -9.552430537139514 ], [ -53.13338610238668, -9.645178151250661 ], [ -53.58844280319277, -9.611050305027502 ], [ -54.106615492710773, -9.571920721863762 ], [ -54.613454076844107, -9.535826226499125 ], [ -54.671337728953006, -9.485405622671294 ], [ -54.684010563336813, -9.404950923446336 ], [ -54.732290082821009, -9.316493022434997 ], [ -54.772342296659644, -9.300101116373355 ], [ -54.674650078638194, -9.186351040068415 ], [ -54.751059835043286, -9.109495541885678 ], [ -54.874122153714382, -9.063447386987264 ], [ -55.11156693126884, -9.0380675520758 ], [ -55.118485201730607, -8.986726476845377 ], [ -55.172538999175458, -8.966686732606604 ], [ -55.182508654051105, -8.868730776703956 ], [ -55.241897537441332, -8.826891253828251 ], [ -55.235509983898623, -8.781179333859143 ], [ -55.176816785466258, -8.701324146991738 ], [ -55.118864420656443, -8.773181257309147 ], [ -55.068618914831006, -8.718160424264113 ], [ -55.171177620750534, -8.632445321494345 ], [ -55.165956889898496, -8.552978019420038 ], [ -55.208005294708521, -8.474956843383552 ], [ -55.190096061483985, -8.42101393234708 ], [ -55.20009658828689, -8.282901970949126 ], [ -55.237645351251899, -8.232685158892934 ], [ -55.213005043248131, -8.142583534602409 ], [ -55.127538161456926, -8.061777964881115 ], [ -55.144315643751895, -8.004487148562987 ], [ -55.063982853026232, -7.933532769621593 ], [ -55.087623203048338, -7.877071238846554 ], [ -55.00697990609774, -7.817240784734395 ], [ -55.01531945972522, -7.751997798659431 ], [ -55.112143120608494, -7.695344681711617 ], [ -55.079590452237539, -7.653996856869412 ], [ -55.064673942448444, -7.525822655890806 ], [ -55.210371464971104, -7.398277692561408 ], [ -55.193039647761509, -7.352605745658592 ], [ -55.199564635699346, -7.24526347922614 ], [ -55.252481641514521, -7.159280769691748 ], [ -55.239950600539714, -7.108693810171132 ], [ -55.251761191026105, -6.979109960556173 ], [ -55.193875011822286, -6.891081841054074 ], [ -55.204091684383684, -6.773716234716403 ], [ -55.167346850576678, -6.685354133086719 ], [ -55.188175720233289, -6.658658088200184 ], [ -55.191981872365488, -6.548520883531921 ], [ -55.255263183449124, -6.441810904349722 ], [ -55.242561375606954, -6.355454551686137 ], [ -55.302396016063256, -6.313503194516784 ], [ -55.335283702580796, -6.249194609443634 ], [ -55.295286130650368, -6.174516168486321 ], [ -55.339010803405813, -6.096450303338769 ], [ -55.321395347217447, -6.041506829076865 ], [ -55.199755442159862, -6.097383914735814 ], [ -55.133235242512391, -6.039229941708413 ], [ -55.043981715783502, -6.011151020103455 ], [ -55.024287064796162, -5.936232200255802 ], [ -55.087502422298883, -5.846130397899514 ], [ -55.212007774239339, -5.737722369191943 ], [ -55.281927247544381, -5.580463386376152 ], [ -55.279888314494087, -5.515554221450088 ], [ -55.348652221922464, -5.382967401524297 ], [ -55.416172565711285, -5.419756085375013 ], [ -55.474897159476306, -5.382920025238946 ], [ -55.503453871998545, -5.297681303249476 ], [ -55.582289141330762, -5.296679495362354 ], [ -55.623870985957183, -5.252297119616344 ], [ -55.593455262350453, -5.196162391680956 ], [ -55.450230769334496, -5.177947420437079 ], [ -55.424286862548627, -5.123896955879786 ], [ -55.357283435582019, -5.053560176460905 ], [ -55.363395723733611, -5.014092892472945 ], [ -55.428255348605425, -4.933184336887563 ], [ -55.445982971836656, -4.841761305439832 ], [ -55.529119049204724, -4.797071684410639 ], [ -55.482780614733542, -4.73569309955684 ], [ -55.465512758207183, -4.690858104917538 ], [ -55.497794950976186, -4.620392045256608 ], [ -55.460731195088556, -4.609014508912423 ], [ -55.309928147565927, -4.665165043332024 ], [ -55.155256448626176, -4.641702201495377 ], [ -55.128314228718637, -4.604031449991396 ], [ -54.980922819632376, -4.59158956510629 ], [ -54.920177342210536, -4.537280255879068 ], [ -54.929506289483641, -4.490230151899937 ], [ -54.841868805800686, -4.410236237412391 ], [ -54.796752484339663, -4.463711580125278 ], [ -54.735616432252527, -4.424546645511214 ], [ -54.674720892155392, -4.315979021314718 ], [ -54.581945332511054, -4.393303400831257 ], [ -54.516362481843032, -4.280229492397098 ], [ -54.450968957351442, -4.243335870254156 ], [ -54.413280133970943, -4.291104831122992 ], [ -54.366613727541441, -4.264553031197408 ], [ -54.301668031254621, -4.312349596756461 ], [ -54.225805024881929, -4.304407141476361 ], [ -54.200142646365975, -4.202782727740669 ], [ -54.170865591273973, -4.190652832961803 ], [ -54.100057964603366, -4.231921166728398 ], [ -54.043113193019394, -4.219147458988004 ], [ -54.023827958393497, -4.266863036999496 ], [ -53.902385703637265, -4.182870166524935 ], [ -53.757786959300688, -4.118587096117551 ], [ -53.571082221167558, -4.083160057790394 ], [ -53.506329621015141, -4.055522869684637 ], [ -53.519134260937335, -3.965288219475724 ], [ -53.436384459475157, -3.976364876837521 ], [ -53.408188816660527, -3.901287049657582 ], [ -53.236351258703564, -3.789792385809903 ], [ -53.245634712871663, -3.735558838169822 ], [ -53.179019740868284, -3.673736516127291 ], [ -53.171744988140631, -3.716122351964941 ], [ -53.208312210340182, -3.785857162977664 ], [ -53.163606423097917, -3.85854993323278 ], [ -53.002111684706449, -3.935500213663885 ], [ -52.862428612190676, -3.82081895053409 ], [ -52.788661075648065, -3.857889251687595 ], [ -52.698380214675126, -3.818994088506315 ], [ -52.649317256186407, -3.820689237718113 ], [ -52.549121400232366, -3.719575343926919 ], [ -52.45192763685094, -3.662780073841305 ], [ -52.425240184986478, -3.573069793136369 ], [ -52.380989324297843, -3.533053113310473 ], [ -52.403077423784055, -3.435998697182072 ], [ -52.471041756571758, -3.41209688006694 ], [ -52.499155392907028, -3.36613160758759 ], [ -52.496856998251815, -3.263706822411905 ], [ -52.440599074887359, -3.163477482899452 ], [ -52.399794043060581, -3.161135236402003 ], [ -52.359267572640306, -3.075509676430386 ], [ -52.25943428826173, -2.989676493575246 ], [ -52.220106302963472, -3.065904088702666 ], [ -52.162897318656292, -3.116586165019442 ], [ -52.115902759504699, -3.220062033735815 ], [ -52.058708953055707, -3.266613319748842 ], [ -51.951232756886156, -3.41382827015849 ], [ -51.958123555757425, -3.477043303905304 ] ] } }
]
}
