{
"type": "FeatureCollection",
"features": [
{ "type": "Feature", "properties": { "Name": "ANAPU", "Description": "ANAPU \/ PA" }, "geometry": { "type": "LineString", "coordinates": [ [ -51.146695583434386, -3.116027619478984 ], [ -51.239471405680774, -3.201737330813103 ], [ -51.266511064434042, -3.308974725503106 ], [ -51.22350759130228, -3.41382062142452 ], [ -51.167397352805551, -3.448660500481651 ], [ -51.166756820570747, -3.667098451032643 ], [ -51.201286384958678, -3.666910186056213 ], [ -51.256820756073012, -3.872091760026649 ], [ -51.294007676812782, -3.905642720834862 ], [ -51.206781687824616, -4.071854236983427 ], [ -51.11612141457158, -4.081847892965867 ], [ -51.070009603860115, -4.199703392397566 ], [ -51.018807228370861, -4.210979813467588 ], [ -50.993704456595367, -4.271302314550155 ], [ -50.996146910051834, -4.34667885694364 ], [ -50.900454088185597, -4.412341935232064 ], [ -50.894617782184866, -4.581945594313652 ], [ -50.920113012705315, -4.62598028676075 ], [ -50.90656641770596, -4.72879786432992 ], [ -50.940434057685593, -4.761661257461014 ], [ -50.912282190270844, -4.864697838834161 ], [ -50.858449163797836, -4.868854841677546 ], [ -50.860031129732818, -5.00038732791279 ], [ -50.930196281633073, -5.150572940488757 ], [ -51.447819017733423, -5.150214728826654 ], [ -51.412565279663909, -5.075540431945342 ], [ -51.466122048793466, -4.973508170265802 ], [ -51.420811815512813, -4.9133876982836 ], [ -51.311980563152417, -4.715987480437832 ], [ -51.316287075588036, -4.666490059468629 ], [ -51.384455237019552, -4.549230290745299 ], [ -51.322398961742635, -4.411560810183175 ], [ -51.377454923206074, -4.247551027757652 ], [ -51.370514837889402, -4.195524603477622 ], [ -51.417840686598367, -4.080971065662084 ], [ -51.384207034926696, -4.029238950816875 ], [ -51.435199149820846, -3.884004950567942 ], [ -51.500715391302201, -3.861176716232421 ], [ -51.595198890316503, -3.779841531261638 ], [ -51.548213239849076, -3.698154683491794 ], [ -51.585151769638401, -3.586256884147815 ], [ -51.659652051301066, -3.571550000931722 ], [ -51.713953230657012, -3.504807559920891 ], [ -51.802035388622237, -3.504473284614335 ], [ -51.724147716044229, -3.48715573874631 ], [ -51.750564112243921, -3.424765967875089 ], [ -51.73406765909516, -3.320278633452119 ], [ -51.701994222355438, -3.249180184018257 ], [ -51.632024836676806, -3.252938632511814 ], [ -51.60880464721663, -3.152166964034109 ], [ -51.751353719698386, -3.107644867816362 ], [ -51.67864537588332, -3.010604408266772 ], [ -51.627283709775327, -3.000967977390189 ], [ -51.685982235791528, -2.908241973088536 ], [ -51.69384488883054, -2.858945100036294 ], [ -51.748285762577837, -2.845506972268936 ], [ -51.719896949884287, -2.796311411442446 ], [ -51.533032802421872, -2.744235853601708 ], [ -51.449394609273781, -2.76958682836937 ], [ -51.398036134859694, -2.889074466913087 ], [ -51.308531252115529, -2.930765298579615 ], [ -51.161232609897013, -3.01865118310559 ], [ -51.146695583434386, -3.116027619478984 ] ] } }
]
}
