{
"type": "FeatureCollection",
"features": [
{ "type": "Feature", "properties": { "Name": "BOM JESUS DO TOCANTINS", "Description": "BOM JESUS DO TOCANTINS \/ PA" }, "geometry": { "type": "LineString", "coordinates": [ [ -48.612933899379925, -4.813807446256589 ], [ -48.526742592996243, -4.922934024285722 ], [ -48.530536332685585, -5.000538964401642 ], [ -48.504820655848562, -5.065802933458542 ], [ -48.451935753132432, -5.112245490536907 ], [ -48.755150736217445, -5.34916540845677 ], [ -48.863154463008016, -5.341342696108483 ], [ -48.992597742291927, -5.28328867013596 ], [ -49.022105716305703, -5.176514420903743 ], [ -49.002354835207427, -5.12314038502069 ], [ -49.026041156773942, -5.044927438450486 ], [ -48.997266585284642, -4.972912104110264 ], [ -48.931574586597833, -4.946162595427381 ], [ -48.860934268901353, -4.749100714226529 ], [ -48.771745869276401, -4.733960884786939 ], [ -48.612933899379925, -4.813807446256589 ] ] } }
]
}
