{
"type": "FeatureCollection",
"features": [
{ "type": "Feature", "properties": { "Name": "ELDORADO DOS CARAJÃS", "Description": "ELDORADO DOS CARAJÃS \/ PA" }, "geometry": { "type": "LineString", "coordinates": [ [ -48.852242676558298, -5.96513784073869 ], [ -49.199120912300202, -6.26422520273087 ], [ -49.411277289015601, -6.445272854458609 ], [ -49.433298869247402, -6.33044682026451 ], [ -49.5196037348244, -6.332612555924699 ], [ -49.573358574238803, -6.25969314302409 ], [ -49.557717611978099, -6.212288729541169 ], [ -49.4758815235135, -6.10098572920799 ], [ -49.459161617614498, -6.01760694910138 ], [ -49.457470982999403, -5.90157476396416 ], [ -49.233852289051903, -5.79557964238654 ], [ -48.958272682838, -5.85575147105351 ], [ -48.893574056397497, -5.90462141704472 ], [ -48.852242676558298, -5.96513784073869 ] ] } }
]
}
