{
"type": "FeatureCollection",
"features": [
{ "type": "Feature", "properties": { "Name": "INHANGAPI", "Description": "INHANGAPI \/ PA" }, "geometry": { "type": "LineString", "coordinates": [ [ -47.760010558540387, -1.452589539075916 ], [ -47.944061834386105, -1.578631312584946 ], [ -48.002148157711247, -1.570010690241133 ], [ -47.987676344687536, -1.500713554986532 ], [ -48.101542228490977, -1.539726119264969 ], [ -48.134348383371162, -1.515193020341542 ], [ -47.986146082575601, -1.422232595158107 ], [ -47.876606287650013, -1.318191765137783 ], [ -47.854536932733197, -1.397905091146981 ], [ -47.786776976276371, -1.400692733183064 ], [ -47.760010558540387, -1.452589539075916 ] ] } }
]
}
