{
"type": "FeatureCollection",
"features": [
{ "type": "Feature", "properties": { "Name": "MAGALHÃES BARATA", "Description": "MAGALHÃES BARATA \/ PA" }, "geometry": { "type": "LineString", "coordinates": [ [ -47.585822241103529, -0.948329092713436 ], [ -47.644310218741566, -0.87808394072124 ], [ -47.7117860811627, -0.861811516788009 ], [ -47.719925545527474, -0.744669267872382 ], [ -47.626456881979486, -0.701404753026907 ], [ -47.6092295120323, -0.69736837175293 ], [ -47.549960758282332, -0.827443683778938 ], [ -47.585822241103529, -0.948329092713436 ] ] } }
]
}
