{
"type": "FeatureCollection",
"features": [
{ "type": "Feature", "properties": { "Name": "MARABÃ", "Description": "MARABÃ \/ PA" }, "geometry": { "type": "LineString", "coordinates": [ [ -48.992597742291927, -5.28328867013596 ], [ -49.035600482476234, -5.336646331163195 ], [ -49.010358135019885, -5.368589096409607 ], [ -49.015327630365789, -5.460050327460579 ], [ -48.941469635515205, -5.523641380345396 ], [ -48.94465749294892, -5.552856875044711 ], [ -48.933515272311922, -5.653792769620566 ], [ -48.890381644796996, -5.688808421171643 ], [ -48.816846029920328, -5.806232529307749 ], [ -48.731209732043453, -5.86005047684796 ], [ -48.852242676558262, -5.965137840738691 ], [ -48.893574056397533, -5.904621417044723 ], [ -48.958272682838015, -5.855751471053509 ], [ -49.23385228905186, -5.795579642386542 ], [ -49.457470982999432, -5.901574763964163 ], [ -49.511273919955386, -5.882869190960321 ], [ -49.633633646875239, -5.906147446047726 ], [ -49.718772027906702, -5.945982441236652 ], [ -49.755413767031655, -5.93066174824105 ], [ -49.791833626320738, -5.785484744325458 ], [ -49.825914579194432, -5.855666002184194 ], [ -49.932641256988404, -5.859623385211023 ], [ -50.017471603131924, -5.945406465036285 ], [ -50.168976061595913, -5.909948104221598 ], [ -50.246919122519444, -5.917246554085182 ], [ -50.343836504451076, -5.864264885216244 ], [ -50.416223006986115, -5.855569326862906 ], [ -50.531252632403032, -5.88127920667 ], [ -50.575724034736368, -5.918565165250129 ], [ -50.715527977034469, -5.907293052832073 ], [ -50.722870972117612, -5.9546910145786 ], [ -50.977701251911178, -5.988953114294758 ], [ -51.148776778325612, -6.216684257772215 ], [ -51.203927391635773, -6.171427826432989 ], [ -51.245727983759423, -6.172377025779042 ], [ -51.280948678938323, -6.102722633043015 ], [ -51.393285601948946, -6.01615489832983 ], [ -51.357420935527728, -5.966855289539922 ], [ -51.263673704277998, -5.994960679991323 ], [ -51.177621094937535, -5.965809512898658 ], [ -51.126094482374413, -5.91876711341149 ], [ -51.08644910744033, -5.780971168384667 ], [ -50.946155442919292, -5.803749714277842 ], [ -50.878171071437748, -5.632530352094022 ], [ -50.952834485622986, -5.614341668932808 ], [ -50.947397595522538, -5.525828198812292 ], [ -50.874311466301094, -5.491533389853998 ], [ -50.863569329760708, -5.422526845337586 ], [ -50.786868398957374, -5.399654849091974 ], [ -50.791758789036862, -5.31500378639555 ], [ -50.754281732615823, -5.308009588871357 ], [ -50.767059064624107, -5.223778854010845 ], [ -50.720203853624916, -5.174657757049829 ], [ -50.570450963341209, -5.19693748317826 ], [ -50.515647909223617, -5.17842061222143 ], [ -50.476834695864454, -5.276876540819671 ], [ -50.296304682215286, -5.327686316370375 ], [ -50.263918132116089, -5.360114438530445 ], [ -50.09889077129202, -5.39909259384808 ], [ -50.056700736749569, -5.429354215924263 ], [ -49.908383348812436, -5.415874105105843 ], [ -49.849804077396179, -5.392089939998698 ], [ -49.812917234342876, -5.439297252666051 ], [ -49.75552184935384, -5.450306420404956 ], [ -49.668800482556207, -5.417586609434409 ], [ -49.602410776336221, -5.414548806582104 ], [ -49.487107125693221, -5.466958499435179 ], [ -49.421271159036735, -5.449839692048101 ], [ -49.386490202660688, -5.348827159046095 ], [ -49.331271969325883, -5.264150416208679 ], [ -49.311448618159147, -5.193256511278946 ], [ -49.245325338793293, -5.284081190494476 ], [ -49.182995095846927, -5.33667147710696 ], [ -49.134330490259856, -5.125658560494117 ], [ -49.142358670716021, -5.07765244840175 ], [ -49.000332058477682, -4.906930640636516 ], [ -49.000421773945675, -4.833073457873751 ], [ -48.931574586597833, -4.946162595427381 ], [ -48.997266585284642, -4.972912104110264 ], [ -49.026041156773942, -5.044927438450486 ], [ -49.002354835207427, -5.12314038502069 ], [ -49.022105716305703, -5.176514420903743 ], [ -48.992597742291927, -5.28328867013596 ] ] } }
]
}
