{
"type": "FeatureCollection",
"features": [
{ "type": "Feature", "properties": { "Name": "PALESTINA DO PARÃ", "Description": "PALESTINA DO PARÃ \/ PA" }, "geometry": { "type": "LineString", "coordinates": [ [ -48.172277025364394, -5.708647920565056 ], [ -48.275710027895457, -5.726513365799121 ], [ -48.291969841534922, -5.836837416313642 ], [ -48.230125335915488, -5.922518408697556 ], [ -48.334716312707592, -6.004274754276422 ], [ -48.288047319827911, -6.097563684716249 ], [ -48.391292937818775, -6.146703479481971 ], [ -48.483098438342203, -6.093925357769024 ], [ -48.530566620952754, -6.034485427060758 ], [ -48.481875907147355, -5.924402584611528 ], [ -48.361400325564546, -5.6995364680335 ], [ -48.238929523378772, -5.673056273028521 ], [ -48.172277025364394, -5.708647920565056 ] ] } }
]
}
