{
"type": "FeatureCollection",
"features": [
{ "type": "Feature", "properties": { "Name": "PONTA DE PEDRAS", "Description": "PONTA DE PEDRAS \/ PA" }, "geometry": { "type": "LineString", "coordinates": [ [ -49.486276207880614, -0.668711232837097 ], [ -49.299046768393623, -0.771906252271663 ], [ -49.191884357377141, -0.740433278472949 ], [ -49.1904644186979, -0.819829790412427 ], [ -49.04951728429517, -0.901192329162598 ], [ -49.02971609871895, -0.958731165910535 ], [ -48.961797764455241, -0.980244338705233 ], [ -48.928104450859678, -1.040137427899936 ], [ -48.918187479168807, -1.139953994780967 ], [ -48.865102705725235, -1.200472441050294 ], [ -48.801544675945991, -1.213061040434638 ], [ -48.744969192973826, -1.187789065712764 ], [ -48.607519036374413, -1.172108839950965 ], [ -48.624408233353215, -1.192166763984915 ], [ -48.702296924863163, -1.322365868589941 ], [ -48.775929096350687, -1.474092716805387 ], [ -48.83740828026788, -1.521444236662148 ], [ -48.947606779129494, -1.550960569874348 ], [ -48.990548094718747, -1.48419144687773 ], [ -49.102408866276107, -1.403937655298477 ], [ -49.088935170321804, -1.2804688394653 ], [ -49.129524516842935, -1.200842045324066 ], [ -49.212802023394602, -1.107312954529164 ], [ -49.176878264320408, -1.062887021019151 ], [ -49.220080443557599, -1.000397489252691 ], [ -49.326685499735959, -0.971661312519529 ], [ -49.328851835243938, -0.937637238167952 ], [ -49.43647074303032, -0.913536650196193 ], [ -49.479244031087141, -0.989479420139105 ], [ -49.524342594535078, -0.970817134203344 ], [ -49.544047737013386, -0.875981393226652 ], [ -49.482495350979605, -0.712907163834473 ], [ -49.486276207880614, -0.668711232837097 ] ] } }
]
}
