{
"type": "FeatureCollection",
"features": [
{ "type": "Feature", "properties": { "Name": "PRAINHA", "Description": "PRAINHA \/ PA" }, "geometry": { "type": "LineString", "coordinates": [ [ -52.999767021730626, -1.743376161280764 ], [ -53.06046623263051, -1.881547581355733 ], [ -53.172769639707035, -1.977850439446172 ], [ -53.263436727123235, -1.975606453774787 ], [ -53.359630171894878, -2.025449286355411 ], [ -53.276689753729102, -2.087876085912569 ], [ -53.253100327817833, -2.166811564901764 ], [ -53.225699896133278, -2.36529423284253 ], [ -53.384270876499727, -2.504984023294014 ], [ -52.966766146540401, -2.657033545561603 ], [ -53.001529504083294, -2.671615608273669 ], [ -53.106905889395243, -2.685979625858977 ], [ -53.146409351310467, -2.66527259995047 ], [ -53.252941650536684, -2.774304541421429 ], [ -53.358025286737529, -2.737333870761461 ], [ -53.454378640861528, -2.776486891157049 ], [ -53.487156551633518, -2.764888429157622 ], [ -53.59429762353647, -2.813108143725799 ], [ -53.608382608470549, -2.865150758500647 ], [ -53.855412230889726, -2.887467520509631 ], [ -54.103024114870948, -2.886533356029531 ], [ -54.111612992045877, -2.754603498052973 ], [ -54.211836194584691, -2.616752140398887 ], [ -54.254578840940717, -2.578487671768585 ], [ -54.226325611837467, -2.481849059886144 ], [ -54.265915824155911, -2.415412940554688 ], [ -54.1484221228826, -2.360165014303902 ], [ -54.093288242358483, -2.307428704770871 ], [ -54.049164363244699, -2.233495180358261 ], [ -54.036146720694546, -2.112597252860894 ], [ -53.958299372817748, -2.027096204925896 ], [ -53.80033923177006, -1.934060527171539 ], [ -53.793583315017941, -1.884128402703595 ], [ -53.918386876752891, -1.909543190665658 ], [ -53.791037271352934, -1.724311021336518 ], [ -53.927220146492516, -1.665296972677083 ], [ -53.863983517325437, -1.611378245309709 ], [ -53.885110612065034, -1.507492596006443 ], [ -53.824258112621742, -1.429272058258846 ], [ -53.830103499077154, -1.340622331855059 ], [ -53.876094560515526, -1.305408222411472 ], [ -53.854734087208328, -1.243975383257293 ], [ -53.879115603602202, -1.204947801200035 ], [ -53.902444471635022, -1.048331308443096 ], [ -53.959402586460151, -0.994547030620936 ], [ -53.914909366573966, -0.996821569859492 ], [ -53.817161035353472, -0.951125433891605 ], [ -53.70594047227496, -0.980872878480511 ], [ -53.675406218022481, -1.091480747838204 ], [ -53.63288330302197, -1.188134555565227 ], [ -53.564357410166281, -1.22292632808751 ], [ -53.495209988650004, -1.341785911590478 ], [ -53.464051041922005, -1.454454767173729 ], [ -53.383073365343478, -1.625784070578334 ], [ -53.353574079680008, -1.748914191836434 ], [ -53.310877829348328, -1.768785327580758 ], [ -53.216181511167747, -1.758563548668803 ], [ -53.118048366338989, -1.781144896619651 ], [ -52.999767021730626, -1.743376161280764 ] ] } }
]
}
