{
"type": "FeatureCollection",
"features": [
{ "type": "Feature", "properties": { "Name": "PRIMAVERA", "Description": "PRIMAVERA \/ PA" }, "geometry": { "type": "LineString", "coordinates": [ [ -47.012527945907948, -1.013345518880556 ], [ -47.095729680080638, -1.040120466686119 ], [ -47.145215731820542, -0.98726265334875 ], [ -47.211686868953791, -1.000854051673116 ], [ -47.22469879091642, -0.963754561223993 ], [ -47.24278148357854, -0.918849357411886 ], [ -47.133838119033896, -0.899919217397894 ], [ -47.08393894392708, -0.832002525296275 ], [ -47.072730830863122, -0.980077704222651 ], [ -47.012527945907948, -1.013345518880556 ] ] } }
]
}
