{
"type": "FeatureCollection",
"features": [
{ "type": "Feature", "properties": { "Name": "SANTARÃM", "Description": "SANTARÃM \/ PA" }, "geometry": { "type": "LineString", "coordinates": [ [ -54.512275537086339, -2.109368428610026 ], [ -54.328177283354876, -2.399538019663851 ], [ -54.265915824155911, -2.415412940554688 ], [ -54.226325611837467, -2.481849059886144 ], [ -54.254578840940717, -2.578487671768585 ], [ -54.211836194584691, -2.616752140398887 ], [ -54.111612992045877, -2.754603498052973 ], [ -54.103024114870948, -2.886533356029531 ], [ -54.088770066385393, -2.961010276003378 ], [ -54.046049376077804, -2.998768475784459 ], [ -54.050703016031321, -3.082541464716769 ], [ -54.109861560562535, -3.170409310641105 ], [ -54.207917063321759, -3.209101666808408 ], [ -54.24892875485812, -3.266521453102541 ], [ -54.247410817954851, -3.143207022985677 ], [ -54.225000429326315, -3.075000659252964 ], [ -54.260278398729099, -2.999166379924475 ], [ -54.25000037082043, -2.952222275437634 ], [ -54.330392515901849, -2.874268028746485 ], [ -54.366666726388246, -2.787500420607898 ], [ -54.475121782444262, -2.784292217811583 ], [ -54.565346212757447, -2.672717460342483 ], [ -54.625000000449624, -2.620832442763003 ], [ -54.7180557249917, -2.59361076392554 ], [ -54.73888969380431, -2.649999618687389 ], [ -54.832448931672843, -2.661098093602106 ], [ -54.830081305407873, -2.570564111244664 ], [ -54.958335775375701, -2.570682727325959 ], [ -55.058390305568082, -2.549334747400621 ], [ -55.102258761932255, -2.820286337144693 ], [ -55.161558607943334, -2.978720880464209 ], [ -55.233869727505862, -3.241920745845675 ], [ -55.346924361669892, -3.221696164846094 ], [ -55.375140607053311, -3.236252925132362 ], [ -55.885729320052064, -3.251405541132783 ], [ -56.344628868027769, -3.264795071335413 ], [ -56.001304332129166, -2.683549822266457 ], [ -55.773956950952481, -2.297574837608636 ], [ -55.692255408260451, -2.26231867676546 ], [ -55.62164093438156, -2.158307394870349 ], [ -55.576591593527155, -2.17031693877567 ], [ -55.468896283836386, -2.131719459285591 ], [ -55.370756516400093, -2.137551458432995 ], [ -55.359174598328991, -2.174053246859785 ], [ -55.28386925706053, -2.215856901175016 ], [ -55.197729181456509, -2.22681642273966 ], [ -55.12797821861983, -2.263239757009103 ], [ -55.069924646804964, -2.232775367489182 ], [ -55.09489570387359, -2.166946103479859 ], [ -54.988807310009292, -2.161638423474415 ], [ -54.93952766167223, -2.132315626165166 ], [ -54.842915965599275, -2.141606176883499 ], [ -54.7388034901889, -2.071511236854064 ], [ -54.61614286090429, -2.078110252486112 ], [ -54.512275537086339, -2.109368428610026 ] ] } }
]
}
