{
"type": "FeatureCollection",
"features": [
{ "type": "Feature", "properties": { "Name": "SÃO DOMINGOS DO CAPIM", "Description": "SÃO DOMINGOS DO CAPIM \/ PA" }, "geometry": { "type": "LineString", "coordinates": [ [ -47.619861533782732, -1.632362721062691 ], [ -47.57076311502567, -1.724874518544141 ], [ -47.56320362434775, -1.789027147684692 ], [ -47.590261497070401, -1.882575376052728 ], [ -47.614926971702346, -1.9233543140503 ], [ -47.587011884990424, -2.000274329596607 ], [ -47.746287504864426, -2.000862753313356 ], [ -47.794065701770705, -2.039174371599927 ], [ -47.84969811697448, -2.172118071291891 ], [ -47.932177404163838, -2.190693685964789 ], [ -47.967083987735805, -2.221782311104732 ], [ -47.993649712764011, -2.158938969857502 ], [ -47.988566410011735, -2.096627147724632 ], [ -47.90756364234818, -1.966561383800751 ], [ -47.878682206218798, -1.842336369427869 ], [ -47.889423408363541, -1.769737446126214 ], [ -47.880887585793396, -1.6619380201235 ], [ -47.857702625475724, -1.629265683464496 ], [ -47.774508091275322, -1.672940584140576 ], [ -47.619861533782732, -1.632362721062691 ] ] } }
]
}
