{
"type": "FeatureCollection",
"features": [
{ "type": "Feature", "properties": { "Name": "TAILÃNDIA", "Description": "TAILÃNDIA \/ PA" }, "geometry": { "type": "LineString", "coordinates": [ [ -48.495377321106439, -2.558951836557981 ], [ -48.463326298170102, -2.601285128605753 ], [ -48.454852405613956, -2.688564709993329 ], [ -48.557318678314289, -2.962285487685051 ], [ -48.493926021268805, -3.09765452943293 ], [ -48.530568571582251, -3.195670686852679 ], [ -48.632878145509949, -3.229580689397267 ], [ -48.69000890408762, -3.293169753880988 ], [ -48.819534296870245, -3.380068073982386 ], [ -48.925905511330249, -3.407045140820571 ], [ -48.966959977321039, -3.216912982947747 ], [ -48.911851828199246, -3.151282723618749 ], [ -48.946989061795705, -3.086184466340001 ], [ -48.99052014648754, -3.063280665570232 ], [ -48.991523037158402, -2.984276353370944 ], [ -49.037243197615453, -2.909885797991137 ], [ -49.032217143906053, -2.857711758990433 ], [ -48.939655609418821, -2.730183981705352 ], [ -48.835017048597877, -2.638595698932306 ], [ -48.828237034511517, -2.601528160496173 ], [ -48.824597581613027, -2.535621134807457 ], [ -48.754323804200169, -2.431825654230522 ], [ -48.694436150507897, -2.467431485874329 ], [ -48.628373526816745, -2.451290546421546 ], [ -48.567431068189194, -2.483188689106669 ], [ -48.495377321106439, -2.558951836557981 ] ] } }
]
}
