{
"type": "FeatureCollection",
"features": [
{ "type": "Feature", "properties": { "Name": "CUMBE", "Description": "CUMBE \/ SE" }, "geometry": { "type": "LineString", "coordinates": [ [ -37.163837729227794, -10.340282730763363 ], [ -37.148008301441905, -10.362685750347055 ], [ -37.139914669226584, -10.36043078845006 ], [ -37.12490678921688, -10.375617279213998 ], [ -37.117103178468881, -10.391118254803587 ], [ -37.118183476486195, -10.4101164968788 ], [ -37.178355073128095, -10.416896919257397 ], [ -37.18993547584148, -10.40681890147107 ], [ -37.20831879387719, -10.402155679241162 ], [ -37.212701681237547, -10.390461434947213 ], [ -37.228291391134746, -10.377898381704881 ], [ -37.239729336739458, -10.359646735208628 ], [ -37.239642071024718, -10.34252486203269 ], [ -37.249251103155871, -10.31851054782345 ], [ -37.23858433250092, -10.309493365826143 ], [ -37.23965129716958, -10.29798705465879 ], [ -37.241656208866907, -10.28732510616868 ], [ -37.256173000583487, -10.280118184806327 ], [ -37.258228990175724, -10.26815930061116 ], [ -37.286674712867637, -10.255888174499603 ], [ -37.261479484490565, -10.237659076704972 ], [ -37.242624123104747, -10.262782946575669 ], [ -37.227618857424261, -10.29474116217483 ], [ -37.216234666996229, -10.301362484590925 ], [ -37.199671218851613, -10.297436433944197 ], [ -37.18592654007773, -10.301912677228245 ], [ -37.171476335964087, -10.314977070135626 ], [ -37.17403027837463, -10.334243858767024 ], [ -37.163837729227794, -10.340282730763363 ] ] } }
]
}
