{
"type": "FeatureCollection",
"features": [
{ "type": "Feature", "properties": { "Name": "FEIRA NOVA", "Description": "FEIRA NOVA \/ SE" }, "geometry": { "type": "LineString", "coordinates": [ [ -37.23965129716958, -10.29798705465879 ], [ -37.274023768881761, -10.306493869596352 ], [ -37.303107041656631, -10.329313304065693 ], [ -37.303475615307377, -10.339515017304166 ], [ -37.325768556973287, -10.373931081853925 ], [ -37.341212193587808, -10.384228115135386 ], [ -37.349616703448078, -10.371649387609125 ], [ -37.344939447297634, -10.362479604150337 ], [ -37.38573028422519, -10.307960215091782 ], [ -37.393178142956906, -10.291871145836637 ], [ -37.390762808556701, -10.274638813430442 ], [ -37.398552657878838, -10.255743912451578 ], [ -37.384635968475088, -10.218291550514607 ], [ -37.332312731946956, -10.210849097607705 ], [ -37.261479484490565, -10.237659076704972 ], [ -37.286674712867637, -10.255888174499603 ], [ -37.258228990175724, -10.26815930061116 ], [ -37.256173000583487, -10.280118184806327 ], [ -37.241656208866907, -10.28732510616868 ], [ -37.23965129716958, -10.29798705465879 ] ] } }
]
}
