{
"type": "FeatureCollection",
"features": [
{ "type": "Feature", "properties": { "Name": "ITABAIANA", "Description": "ITABAIANA \/ SE" }, "geometry": { "type": "LineString", "coordinates": [ [ -37.394940103702766, -10.582477087047891 ], [ -37.387923782856255, -10.629316738876355 ], [ -37.370824492556267, -10.63064078374515 ], [ -37.354911079782482, -10.657363525905964 ], [ -37.328903921878464, -10.6536764458113 ], [ -37.320473348765972, -10.692159482074373 ], [ -37.336322129962291, -10.721795483574681 ], [ -37.36171565345461, -10.738504633581954 ], [ -37.40304344589827, -10.824371166895787 ], [ -37.431412032838971, -10.831316011424747 ], [ -37.449139912377007, -10.789723683401235 ], [ -37.442040566119204, -10.778334794015505 ], [ -37.452596335252622, -10.770067439760508 ], [ -37.451828457217452, -10.739404344135153 ], [ -37.462804364429815, -10.714134770603152 ], [ -37.500688734597361, -10.688080043059472 ], [ -37.507874891512984, -10.672269260917629 ], [ -37.521006418811112, -10.661442493676075 ], [ -37.53046106342731, -10.645798627504632 ], [ -37.509459977196173, -10.626232027386095 ], [ -37.47428726444565, -10.566525749863445 ], [ -37.462012050915348, -10.595582785816873 ], [ -37.422644383931129, -10.576290791886493 ], [ -37.394940103702766, -10.582477087047891 ] ] } }
]
}
