{
"type": "FeatureCollection",
"features": [
{ "type": "Feature", "properties": { "Name": "MURIBECA", "Description": "MURIBECA \/ SE" }, "geometry": { "type": "LineString", "coordinates": [ [ -37.009345364097214, -10.302314577955372 ], [ -36.969286635569738, -10.337436878309234 ], [ -36.915757175253418, -10.393414512669551 ], [ -36.903155963776669, -10.403321400262371 ], [ -36.904903064125051, -10.416883576016174 ], [ -36.932703210284899, -10.427229468565088 ], [ -36.93536560194093, -10.450449099546233 ], [ -36.961863800473964, -10.442862959258093 ], [ -36.967441457856971, -10.425436527073998 ], [ -36.98360012204796, -10.402469628970152 ], [ -36.986873255896001, -10.38552993595772 ], [ -36.979439937403129, -10.378357612413822 ], [ -37.000453598854449, -10.352608212798714 ], [ -37.000570186065204, -10.328607227441521 ], [ -37.01816968378381, -10.332446643697606 ], [ -37.009345364097214, -10.302314577955372 ] ] } }
]
}
