{
"type": "FeatureCollection",
"features": [
{ "type": "Feature", "properties": { "Name": "NOSSA SENHORA DA GLÃRIA", "Description": "NOSSA SENHORA DA GLÃRIA \/ SE" }, "geometry": { "type": "LineString", "coordinates": [ [ -37.314144838413533, -10.153769134537868 ], [ -37.332312731946956, -10.210849097607705 ], [ -37.384635968475088, -10.218291550514607 ], [ -37.398552657878838, -10.255743912451578 ], [ -37.405194349939279, -10.257648665753266 ], [ -37.403402992154319, -10.292189927623042 ], [ -37.418282173783268, -10.306896782060788 ], [ -37.455763477702305, -10.290996604609575 ], [ -37.490752492233696, -10.284542516523855 ], [ -37.496114689141564, -10.293305982684897 ], [ -37.529944545004696, -10.283011710322114 ], [ -37.539576443298188, -10.263443268392052 ], [ -37.561012233927379, -10.261063495883604 ], [ -37.582086383779533, -10.240630307242839 ], [ -37.596589126287085, -10.250817080943477 ], [ -37.638821309355876, -10.234451033987966 ], [ -37.653836542222621, -10.218803004854749 ], [ -37.67381464423039, -10.20641882586807 ], [ -37.701097831299819, -10.201156571518538 ], [ -37.717334034138325, -10.18789890980679 ], [ -37.746809113649647, -10.19849178676651 ], [ -37.765703145883428, -10.196217082052669 ], [ -37.780164838836185, -10.187873117250488 ], [ -37.78076280795716, -10.163311386611156 ], [ -37.774380376952763, -10.144796165910293 ], [ -37.777152200813354, -10.13379770460034 ], [ -37.780078478738744, -10.098215678910435 ], [ -37.754520496223904, -10.107280590626715 ], [ -37.729984318921133, -10.111860408830751 ], [ -37.723207925505335, -10.119116709268667 ], [ -37.695973671447746, -10.128880801607636 ], [ -37.68558097728021, -10.123347130065952 ], [ -37.660924664941263, -10.129266117037616 ], [ -37.645269331514385, -10.110958477851396 ], [ -37.623546899969426, -10.106641312046861 ], [ -37.61447624158523, -10.095824226007153 ], [ -37.603726430230552, -10.103087523170586 ], [ -37.589978282771483, -10.090674632428318 ], [ -37.559755148980912, -10.115881810097392 ], [ -37.540027513558869, -10.110083886262316 ], [ -37.532488176687934, -10.114006914287643 ], [ -37.49036563536572, -10.102000148388072 ], [ -37.464296816344927, -10.092097755606915 ], [ -37.460613439658459, -10.101670593622941 ], [ -37.436180683491727, -10.101029370708829 ], [ -37.442633642928229, -10.076768471387821 ], [ -37.429407823512179, -10.077389499126014 ], [ -37.420105661646915, -10.062236821971737 ], [ -37.410758644295981, -10.064863256034414 ], [ -37.331698275554913, -10.128610002249729 ], [ -37.346329086018443, -10.156356690009204 ], [ -37.314144838413533, -10.153769134537868 ] ] } }
]
}
