{
"type": "FeatureCollection",
"features": [
{ "type": "Feature", "properties": { "Name": "NOSSA SENHORA DO SOCORRO", "Description": "NOSSA SENHORA DO SOCORRO \/ SE" }, "geometry": { "type": "LineString", "coordinates": [ [ -37.064879398865116, -10.823034152903801 ], [ -37.045781262795003, -10.825882730303704 ], [ -37.028352742385096, -10.847374583769975 ], [ -37.033909066949832, -10.87008419842698 ], [ -37.052457051751503, -10.862681691606724 ], [ -37.066058865124489, -10.876317558708308 ], [ -37.083335930708586, -10.863138040887804 ], [ -37.0973247088682, -10.88235252315036 ], [ -37.107517402805854, -10.904797418765838 ], [ -37.102062382372992, -10.917132133241296 ], [ -37.108953481617846, -10.914921297479848 ], [ -37.146046338667531, -10.928686456514695 ], [ -37.168778011895711, -10.913416445712357 ], [ -37.174642394730711, -10.899152929164302 ], [ -37.187881032183839, -10.888392719848071 ], [ -37.198351586956107, -10.890601957514264 ], [ -37.205790843672446, -10.877483250051908 ], [ -37.219038824182348, -10.878808044055916 ], [ -37.246159401235332, -10.865001302168309 ], [ -37.250936279785435, -10.855061904083584 ], [ -37.291337364028095, -10.852499213068199 ], [ -37.308540870464753, -10.833942612761348 ], [ -37.318082707051246, -10.832202436293358 ], [ -37.317672341904995, -10.831640211626393 ], [ -37.243622907471149, -10.8339360980724 ], [ -37.21494749612998, -10.848122516640784 ], [ -37.181199560411358, -10.854976418127137 ], [ -37.175718360713745, -10.844655286612124 ], [ -37.156262124497403, -10.831945578225827 ], [ -37.147728737291345, -10.835028917350598 ], [ -37.117921952735912, -10.832026406593341 ], [ -37.101477812251176, -10.81812547151327 ], [ -37.091144201743475, -10.823409436396332 ], [ -37.064879398865116, -10.823034152903801 ] ] } }
]
}
