{
"type": "FeatureCollection",
"features": [
{ "type": "Feature", "properties": { "Name": "NOSSA SENHORA DAS DORES", "Description": "NOSSA SENHORA DAS DORES \/ SE" }, "geometry": { "type": "LineString", "coordinates": [ [ -37.23965129716958, -10.29798705465879 ], [ -37.23858433250092, -10.309493365826143 ], [ -37.249251103155871, -10.31851054782345 ], [ -37.239642071024718, -10.34252486203269 ], [ -37.239729336739458, -10.359646735208628 ], [ -37.228291391134746, -10.377898381704881 ], [ -37.212701681237547, -10.390461434947213 ], [ -37.20831879387719, -10.402155679241162 ], [ -37.18993547584148, -10.40681890147107 ], [ -37.178355073128095, -10.416896919257397 ], [ -37.118183476486195, -10.4101164968788 ], [ -37.111089014446407, -10.414844715810942 ], [ -37.118139415101894, -10.440760275066623 ], [ -37.135559543937745, -10.451990329789851 ], [ -37.138097668172804, -10.470564714190175 ], [ -37.139667845794406, -10.507033395874487 ], [ -37.180814541757627, -10.562802401009947 ], [ -37.177940574697743, -10.58163447984731 ], [ -37.194639688270968, -10.592302588693485 ], [ -37.207271261759274, -10.607593286600832 ], [ -37.205040605839251, -10.624890360301833 ], [ -37.21885331113134, -10.611661744893581 ], [ -37.24906248654446, -10.595052109367316 ], [ -37.263165014553749, -10.577328337033064 ], [ -37.303854720019267, -10.574679736480617 ], [ -37.321025979465333, -10.540422539868246 ], [ -37.346807308610373, -10.506830364929328 ], [ -37.359766364825816, -10.483268982577442 ], [ -37.349337270598539, -10.491559369369327 ], [ -37.274846739385453, -10.465433627759694 ], [ -37.288104434372087, -10.453713339099295 ], [ -37.304343685013009, -10.430204417799587 ], [ -37.322292518984511, -10.434727853907303 ], [ -37.341212193587808, -10.384228115135386 ], [ -37.325768556973287, -10.373931081853925 ], [ -37.303475615307377, -10.339515017304166 ], [ -37.303107041656631, -10.329313304065693 ], [ -37.274023768881761, -10.306493869596352 ], [ -37.23965129716958, -10.29798705465879 ] ] } }
]
}
