{
"type": "FeatureCollection",
"features": [
{ "type": "Feature", "properties": { "Name": "NOSSA SENHORA APARECIDA", "Description": "NOSSA SENHORA APARECIDA \/ SE" }, "geometry": { "type": "LineString", "coordinates": [ [ -37.403402992154319, -10.292189927623042 ], [ -37.405203220851938, -10.315249040410833 ], [ -37.411899282325976, -10.331500656729872 ], [ -37.409761275462472, -10.355763072307866 ], [ -37.411084958803769, -10.416735271515506 ], [ -37.420885606785305, -10.402407692660859 ], [ -37.47451282340802, -10.459909124806245 ], [ -37.54775189853126, -10.462466412694766 ], [ -37.558318008069584, -10.444054736336966 ], [ -37.575532773118937, -10.371300916504024 ], [ -37.577974053859464, -10.330346181730874 ], [ -37.611431069688081, -10.277494169020656 ], [ -37.596589126287085, -10.250817080943477 ], [ -37.582086383779533, -10.240630307242839 ], [ -37.561012233927379, -10.261063495883604 ], [ -37.539576443298188, -10.263443268392052 ], [ -37.529944545004696, -10.283011710322114 ], [ -37.496114689141564, -10.293305982684897 ], [ -37.490752492233696, -10.284542516523855 ], [ -37.455763477702305, -10.290996604609575 ], [ -37.418282173783268, -10.306896782060788 ], [ -37.403402992154319, -10.292189927623042 ] ] } }
]
}
