{
"type": "FeatureCollection",
"features": [
{ "type": "Feature", "properties": { "Name": "PINHÃO", "Description": "PINHÃO \/ SE" }, "geometry": { "type": "LineString", "coordinates": [ [ -37.725259771920889, -10.509645372435953 ], [ -37.688632645879864, -10.533372476458567 ], [ -37.695372029495495, -10.582010602407308 ], [ -37.700470118001476, -10.584563829856791 ], [ -37.719659104484037, -10.624374185420265 ], [ -37.706584029429393, -10.633272348440073 ], [ -37.714648391410094, -10.644629158109126 ], [ -37.738807373261636, -10.632963425022012 ], [ -37.75012206228331, -10.621071233650467 ], [ -37.766906629437358, -10.618245791310187 ], [ -37.767340662041875, -10.605838701195067 ], [ -37.800472764506416, -10.591441254909967 ], [ -37.830471445500791, -10.584750405906448 ], [ -37.830544516316309, -10.583370040095247 ], [ -37.8341249530041, -10.559111390877945 ], [ -37.815643925426791, -10.517393432061169 ], [ -37.797724528963784, -10.509120481325112 ], [ -37.772851544762943, -10.506606312331428 ], [ -37.729932743701113, -10.515525961054207 ], [ -37.725259771920889, -10.509645372435953 ] ] } }
]
}
