{
"type": "FeatureCollection",
"features": [
{ "type": "Feature", "properties": { "Name": "PIRAMBU", "Description": "PIRAMBU \/ SE" }, "geometry": { "type": "LineString", "coordinates": [ [ -36.750104023881534, -10.594921247217711 ], [ -36.673651731342261, -10.628772628354056 ], [ -36.680790308725705, -10.633845349683099 ], [ -36.729038441870557, -10.652782758917169 ], [ -36.80031551914584, -10.697214121634374 ], [ -36.854064631677375, -10.743593716276962 ], [ -36.872812367596623, -10.741234857502604 ], [ -36.867983095443435, -10.732162461628262 ], [ -36.870505809795247, -10.707086821499558 ], [ -36.877658719674116, -10.698425886145685 ], [ -36.892750050474433, -10.701359126622322 ], [ -36.90053068804076, -10.693747611962692 ], [ -36.910024967578117, -10.677680952014271 ], [ -36.923548915849722, -10.67686589014869 ], [ -36.903198358717248, -10.662168333801503 ], [ -36.894085559001326, -10.661007811761067 ], [ -36.783651985450717, -10.57591722340112 ], [ -36.765007837941312, -10.581330383990007 ], [ -36.750104023881534, -10.594921247217711 ] ] } }
]
}
