{
"type": "FeatureCollection",
"features": [
{ "type": "Feature", "properties": { "Name": "ACRELÃNDIA", "Description": "ACRELÃNDIA \/ AC" }, "geometry": { "type": "LineString", "coordinates": [ [ -67.134236970659629, -9.676245097333322 ], [ -66.847772810366834, -9.8016255750602 ], [ -66.626719690661147, -9.898101245076361 ], [ -66.635184157422884, -9.927864907139679 ], [ -66.664023137457775, -9.937445038657586 ], [ -66.675608297584802, -9.965811906993849 ], [ -66.720487882409813, -9.974261956723865 ], [ -66.742423248234275, -9.995804862004718 ], [ -66.789799627150998, -10.020890579936292 ], [ -66.808347596664191, -10.048963356473678 ], [ -66.833863888407677, -10.059390643063693 ], [ -66.848365974410171, -10.085024201905355 ], [ -66.87110250577598, -10.095022158445827 ], [ -66.946718310101915, -10.160739789609579 ], [ -66.951587490570205, -10.186599663743436 ], [ -66.980198932234885, -10.194315584296701 ], [ -67.001221650758509, -10.229427102678583 ], [ -67.002387512073994, -10.20225319942557 ], [ -67.075959455064776, -10.20241847862985 ], [ -67.076122257536099, -10.088027530146347 ], [ -67.100336419989731, -10.103557903674242 ], [ -67.124553724674627, -9.970684018352699 ], [ -67.08997759518985, -9.957963158372991 ], [ -67.102333814254109, -9.9294868101681 ], [ -67.185120773005224, -9.709915090608888 ], [ -67.188070570000775, -9.693131384106039 ], [ -67.134236970659629, -9.676245097333322 ] ] } }
]
}
