{
"type": "FeatureCollection",
"features": [
{ "type": "Feature", "properties": { "Name": "ASSIS BRASIL", "Description": "ASSIS BRASIL \/ AC" }, "geometry": { "type": "LineString", "coordinates": [ [ -69.507875312295766, -10.505000928949642 ], [ -69.510867164288186, -10.556487905692222 ], [ -69.551226792482439, -10.615965789589495 ], [ -69.65212337769168, -10.689661312919213 ], [ -69.670535399389109, -10.731273899071141 ], [ -69.755684295293975, -10.741449978034041 ], [ -69.777889478416682, -10.781872637911874 ], [ -69.725295785172307, -10.82817979126429 ], [ -69.716513935069997, -10.823986997202098 ], [ -69.552325562574595, -10.873366091671755 ], [ -69.520860083725836, -10.848177605512035 ], [ -69.484815326266244, -10.793834973705032 ], [ -69.497871922950821, -10.749228911385103 ], [ -69.497927217766858, -10.700381692161329 ], [ -69.473454187260856, -10.710600214628128 ], [ -69.435234341191858, -10.703163036245087 ], [ -69.392722175787753, -10.732083307798348 ], [ -69.390042636758267, -10.826260351134236 ], [ -69.423038406497199, -10.925899790243077 ], [ -69.453305691604328, -10.946350951834916 ], [ -69.492712426936919, -10.950253769395886 ], [ -69.517065110166641, -10.936404096571778 ], [ -69.543504278999251, -10.952329733830084 ], [ -69.585871677835598, -10.939829520715762 ], [ -69.636469681030917, -10.956810089713827 ], [ -69.659807420875723, -10.951945525465588 ], [ -69.702715969666201, -10.965243656669372 ], [ -69.739208906965459, -10.963332662072673 ], [ -69.76055014017679, -10.93824087821389 ], [ -69.801311196954146, -10.925278021463498 ], [ -69.932540656625974, -10.920607248525641 ], [ -69.999536138981568, -10.962874006929837 ], [ -70.045529440631128, -10.97812150590272 ], [ -70.068410599169795, -10.992922443815701 ], [ -70.095411939609278, -10.988956207862657 ], [ -70.141849082768942, -11.029534535890091 ], [ -70.211285450163359, -11.049547259998008 ], [ -70.255318213564692, -11.04946001047108 ], [ -70.313736998263835, -11.069077591357711 ], [ -70.34900173054541, -11.06455415794801 ], [ -70.435717123146674, -11.038774792022991 ], [ -70.449669121732541, -10.999946629233534 ], [ -70.530077901573861, -10.934813871263088 ], [ -70.621006622457628, -10.99964114302429 ], [ -70.620869741145611, -10.706389006947063 ], [ -70.54924248944927, -10.690870563825399 ], [ -70.534811303298966, -10.70975195968515 ], [ -70.501968889552572, -10.723196505913961 ], [ -70.458285403948196, -10.711718376801628 ], [ -70.406086239688193, -10.714673201906692 ], [ -70.365168662203985, -10.727195061702673 ], [ -70.341320852974945, -10.704509944578206 ], [ -70.324775589122112, -10.712082525787878 ], [ -70.293128272751574, -10.699351334396509 ], [ -70.265785845540279, -10.712198787444038 ], [ -70.227891522575646, -10.688297405600736 ], [ -70.208160846545809, -10.701780156828704 ], [ -70.161772682263461, -10.663749089248995 ], [ -70.142809655840892, -10.666938382000694 ], [ -70.092398957146088, -10.652036216398244 ], [ -70.069962647358238, -10.616019217412884 ], [ -70.008586463694314, -10.59160006529072 ], [ -69.960864853929806, -10.579125178883826 ], [ -69.919339993945528, -10.559402167775772 ], [ -69.879068525392086, -10.558853727917153 ], [ -69.863736967686862, -10.539729325348048 ], [ -69.831524902252397, -10.537745940722516 ], [ -69.827539751758081, -10.515365011186248 ], [ -69.806886931586575, -10.50503980394376 ], [ -69.785558061355403, -10.461578173893542 ], [ -69.729137397572799, -10.454514219555563 ], [ -69.64959756877272, -10.419083928380529 ], [ -69.628803135955934, -10.394233388559995 ], [ -69.590254216259041, -10.370969356250725 ], [ -69.553678690619051, -10.399599698966881 ], [ -69.540428101175905, -10.422078412688561 ], [ -69.532864389979579, -10.484817937997375 ], [ -69.507875312295766, -10.505000928949642 ] ] } }
]
}
