{
"type": "FeatureCollection",
"features": [
{ "type": "Feature", "properties": { "Name": "BRASILÃIA", "Description": "BRASILÃIA \/ AC" }, "geometry": { "type": "LineString", "coordinates": [ [ -68.834842345897528, -10.739541500639687 ], [ -68.786438302685497, -10.833205761336785 ], [ -68.784449495148067, -10.868808896813107 ], [ -68.734607625741319, -10.897025662903957 ], [ -68.686225619516676, -10.937847524643473 ], [ -68.687155661504562, -10.968186813070929 ], [ -68.741556591863173, -10.9913919047126 ], [ -68.748627851394176, -11.018687150791321 ], [ -68.762499134927111, -11.003305434298282 ], [ -68.816826490849849, -11.004243239234029 ], [ -68.848377917906518, -10.991446527735036 ], [ -68.880136501098605, -11.021126600512162 ], [ -68.907653313149865, -11.020098759949747 ], [ -68.968720883661817, -10.986603799925375 ], [ -69.009417346633199, -10.994229273861833 ], [ -69.073418294318799, -10.965220777916498 ], [ -69.102534291624238, -10.979946978570183 ], [ -69.126177179533158, -10.965907641424451 ], [ -69.148903553056471, -10.970748059775076 ], [ -69.199034199268851, -10.94698768533334 ], [ -69.216115565181155, -10.955999337399476 ], [ -69.26384292790874, -10.939219240775287 ], [ -69.289873302710703, -10.949392419424555 ], [ -69.353906985718766, -10.935372878155761 ], [ -69.38568791256705, -10.941645409308137 ], [ -69.423038406497199, -10.925899790243077 ], [ -69.390042636758267, -10.826260351134236 ], [ -69.392722175787753, -10.732083307798348 ], [ -69.435234341191858, -10.703163036245087 ], [ -69.473454187260856, -10.710600214628128 ], [ -69.497927217766858, -10.700381692161329 ], [ -69.497871922950821, -10.749228911385103 ], [ -69.484815326266244, -10.793834973705032 ], [ -69.520860083725836, -10.848177605512035 ], [ -69.552325562574595, -10.873366091671755 ], [ -69.716513935069997, -10.823986997202098 ], [ -69.725295785172307, -10.82817979126429 ], [ -69.777889478416682, -10.781872637911874 ], [ -69.755684295293975, -10.741449978034041 ], [ -69.670535399389109, -10.731273899071141 ], [ -69.65212337769168, -10.689661312919213 ], [ -69.551226792482439, -10.615965789589495 ], [ -69.510867164288186, -10.556487905692222 ], [ -69.507875312295766, -10.505000928949642 ], [ -69.341808221871929, -10.485328955267049 ], [ -69.322230873955618, -10.472031333079485 ], [ -69.288007239142757, -10.470248044011951 ], [ -69.248864288456105, -10.454872430318346 ], [ -69.246899704157954, -10.437448459578716 ], [ -69.219411343058994, -10.415011664156907 ], [ -69.18337795303006, -10.399035898687714 ], [ -69.149509019825345, -10.397279891453763 ], [ -69.13156349356035, -10.385028002740114 ], [ -69.128655723682641, -10.399253369147628 ], [ -69.157610236922835, -10.467398980978146 ], [ -69.168350089185253, -10.476514693598176 ], [ -69.157634676898795, -10.51263002265739 ], [ -69.1338839072165, -10.514711876751676 ], [ -69.106686692636742, -10.53708839691194 ], [ -69.067152798562745, -10.589132925444119 ], [ -69.001752664054152, -10.586448706342651 ], [ -68.983422766647323, -10.57701678759463 ], [ -68.922973002502033, -10.577987295477271 ], [ -68.904111364747621, -10.583957631939143 ], [ -68.92476856102023, -10.614399706581139 ], [ -68.915476743157114, -10.636858573164545 ], [ -68.932554921872111, -10.676716749278512 ], [ -68.948873990941877, -10.677813283656064 ], [ -68.948756502610479, -10.713150559750488 ], [ -68.980122356361619, -10.753665510754672 ], [ -68.975867313026015, -10.770989037114305 ], [ -68.900206851964583, -10.775449110587942 ], [ -68.877566970739039, -10.758067294669843 ], [ -68.852831580113275, -10.757821413727243 ], [ -68.834842345897528, -10.739541500639687 ] ] } }
]
}
