{
"type": "FeatureCollection",
"features": [
{ "type": "Feature", "properties": { "Name": "BUJARI", "Description": "BUJARI \/ AC" }, "geometry": { "type": "LineString", "coordinates": [ [ -68.219898214630859, -9.242753094179932 ], [ -67.976837447889864, -9.352731913846696 ], [ -67.997693254040428, -9.359037941148017 ], [ -68.031820865540453, -9.343717896563646 ], [ -68.045273409440256, -9.352488693997998 ], [ -68.059359657921846, -9.392204087448647 ], [ -68.056125723723142, -9.412256823293715 ], [ -68.018402939244183, -9.459186324589155 ], [ -68.027943200218488, -9.491549788192115 ], [ -68.072861110551798, -9.523332578435713 ], [ -68.090338656603706, -9.557801932313282 ], [ -67.910035763139945, -9.669265946366295 ], [ -67.922203582329416, -9.693545217937412 ], [ -67.906030330235524, -9.711921120163538 ], [ -67.875485488264644, -9.720475515532542 ], [ -67.86462263752469, -9.7407956989623 ], [ -67.795800775984958, -9.761998263908707 ], [ -67.822745546369845, -9.774924004738978 ], [ -67.833673060163562, -9.833034962293651 ], [ -67.949500799722102, -9.853559847608835 ], [ -67.990705209677628, -9.854381624712175 ], [ -68.045051935198615, -9.891681732326049 ], [ -68.06820434185687, -9.894896133249915 ], [ -68.098918189822541, -9.929644616006158 ], [ -68.134833881078691, -9.934509769310353 ], [ -68.153116529004592, -9.961066239415345 ], [ -68.267756351374487, -9.823480317562542 ], [ -68.300248048408662, -9.794731741876319 ], [ -68.366795908504344, -9.780447831402228 ], [ -68.390050407999865, -9.788753992302873 ], [ -68.453835514797092, -9.844437638286308 ], [ -68.422499958306389, -9.691666625014705 ], [ -68.440080643107137, -9.642414953687137 ], [ -68.455462144662192, -9.62515494104764 ], [ -68.427199992485612, -9.599375422237925 ], [ -68.418007321280811, -9.545500214862955 ], [ -68.397124516583119, -9.501838483858876 ], [ -68.356211442903714, -9.490947971771448 ], [ -68.3313811216414, -9.440159663937322 ], [ -68.40075199500852, -9.323836961806307 ], [ -68.366553335268179, -9.29945006207066 ], [ -68.316430426822706, -9.295409213864103 ], [ -68.246315821318035, -9.263558699274483 ], [ -68.219898214630859, -9.242753094179932 ] ] } }
]
}
