{
"type": "FeatureCollection",
"features": [
{ "type": "Feature", "properties": { "Name": "CAPIXABA", "Description": "CAPIXABA \/ AC" }, "geometry": { "type": "LineString", "coordinates": [ [ -67.637026388756794, -10.363440770774901 ], [ -67.657022972731966, -10.397818454957701 ], [ -67.678529335860105, -10.389595454366656 ], [ -67.710837519036261, -10.440576758510529 ], [ -67.670664097270219, -10.479993400774788 ], [ -67.621271841222438, -10.480044189088005 ], [ -67.606511129984597, -10.504389009545093 ], [ -67.587680715792374, -10.510411746804607 ], [ -67.612348344300585, -10.563394839300372 ], [ -67.634779869695194, -10.581146737032213 ], [ -67.657788573683661, -10.614487093704383 ], [ -67.674993555907861, -10.602010217097813 ], [ -67.704936568867538, -10.699231594162711 ], [ -67.732408686411702, -10.712727274044425 ], [ -67.760861129737293, -10.683828105982286 ], [ -67.863656953605471, -10.640424247481008 ], [ -67.909532430577144, -10.641719228959175 ], [ -67.935653486718991, -10.655839647181949 ], [ -68.002391251255176, -10.648034448231158 ], [ -68.010749190622619, -10.610201127180233 ], [ -67.985516780674857, -10.591366898963145 ], [ -68.015322578674045, -10.568470099415492 ], [ -68.02851077765024, -10.541496312404831 ], [ -68.043043328187025, -10.472551149316018 ], [ -68.063709686752588, -10.425446447495517 ], [ -68.040640138231765, -10.388910313060478 ], [ -68.02597999548037, -10.369597022284722 ], [ -68.038324209494647, -10.351628376248527 ], [ -67.997318214264098, -10.315892653722926 ], [ -67.959884896370852, -10.31402178777523 ], [ -67.946111040891765, -10.287499991031723 ], [ -67.846631854676318, -10.287499922683253 ], [ -67.812411999713945, -10.22494893124815 ], [ -67.80447442505465, -10.197940299105483 ], [ -67.78640698399505, -10.211961920506155 ], [ -67.778974612488355, -10.240867410802309 ], [ -67.756611314160807, -10.269498640249992 ], [ -67.730668768049156, -10.281547404489061 ], [ -67.70528515328715, -10.306774214358482 ], [ -67.686249222423612, -10.356347994963926 ], [ -67.637026388756794, -10.363440770774901 ] ] } }
]
}
