{
"type": "FeatureCollection",
"features": [
{ "type": "Feature", "properties": { "Name": "MARECHAL THAUMATURGO", "Description": "MARECHAL THAUMATURGO \/ AC" }, "geometry": { "type": "LineString", "coordinates": [ [ -72.213975050408223, -8.700822586093407 ], [ -72.144023952443433, -8.711828575628203 ], [ -72.124835403031398, -8.82853310112165 ], [ -72.07789571241716, -8.868134673676193 ], [ -72.044007584982012, -8.900407260786436 ], [ -72.053796227913551, -8.933981228051209 ], [ -72.036235408237459, -8.944819556077617 ], [ -72.029419587643815, -9.002032484811252 ], [ -72.042691356121168, -9.028657939212451 ], [ -72.031897596696695, -9.068850119037734 ], [ -72.052527763845205, -9.142522554072571 ], [ -72.067781748728692, -9.175238657138266 ], [ -72.044170267843526, -9.197971995011528 ], [ -72.097606249029127, -9.293198575054134 ], [ -72.12042258173669, -9.318766411440663 ], [ -72.160919014800641, -9.393839295946691 ], [ -72.183153346749521, -9.388675296127984 ], [ -72.222581560590513, -9.415047285603691 ], [ -72.249292981186102, -9.444511689262981 ], [ -72.272761874560842, -9.487390149435782 ], [ -72.304004036457044, -9.508421194782272 ], [ -72.340474148063436, -9.508669605517809 ], [ -72.434901715541685, -9.480370791578707 ], [ -72.515384882806075, -9.484980634548606 ], [ -72.535933019193465, -9.470249431865739 ], [ -72.642808541980571, -9.441264503553953 ], [ -72.711052526153125, -9.429464478302975 ], [ -72.717387647421958, -9.411647296985109 ], [ -73.211897214284988, -9.411669450884403 ], [ -73.193536614922778, -9.392810202628709 ], [ -73.18603698941547, -9.360023858014584 ], [ -73.15667917160647, -9.350896219484866 ], [ -73.139308324719366, -9.321799995573315 ], [ -73.10077882408342, -9.3041985876946 ], [ -73.111505751289371, -9.282141115520005 ], [ -73.086588898159093, -9.244483329541993 ], [ -73.056200493258132, -9.225296404305595 ], [ -73.022059058278899, -9.225943899990966 ], [ -72.995310510071931, -9.190354702207685 ], [ -73.008657507737766, -9.167729719151168 ], [ -72.964365846606469, -9.146982570888895 ], [ -72.943835264086147, -9.102238119093897 ], [ -72.940150314485379, -9.069015963016227 ], [ -72.956919758639913, -9.010669334522106 ], [ -72.939204374282383, -8.996849630705867 ], [ -72.966227627602905, -8.979110398126352 ], [ -72.99480735287699, -8.919846353226546 ], [ -73.04323099051777, -8.915288805833654 ], [ -73.056223826168605, -8.906902238347582 ], [ -73.077479318915366, -8.860913289416715 ], [ -73.111819182109514, -8.815563338477261 ], [ -73.111613224770451, -8.791938950522081 ], [ -73.128025827829674, -8.771237433860449 ], [ -73.090965682720025, -8.751749964189457 ], [ -73.06160841439673, -8.76368874583892 ], [ -73.013572391752447, -8.753059115385838 ], [ -72.990184626219502, -8.755307382729484 ], [ -72.954307542858771, -8.744152657918789 ], [ -72.927715527049884, -8.759068770207534 ], [ -72.891562702556655, -8.746406377851997 ], [ -72.865762879753049, -8.750054646804472 ], [ -72.852061898138061, -8.730174297505755 ], [ -72.774422863824029, -8.726729403938805 ], [ -72.720104949883478, -8.687245604800751 ], [ -72.704849549467099, -8.686780744335863 ], [ -72.667458434958746, -8.717314531840145 ], [ -72.663840063068392, -8.745967953857926 ], [ -72.630677546431571, -8.773788825793645 ], [ -72.57460129241565, -8.765609801151356 ], [ -72.49650755727788, -8.776738864706772 ], [ -72.445666791089479, -8.755270577974727 ], [ -72.417942456878848, -8.750355353117016 ], [ -72.358848685118687, -8.781250644701458 ], [ -72.303063725110789, -8.761508953775149 ], [ -72.257223825319272, -8.724005870074791 ], [ -72.213975050408223, -8.700822586093407 ] ] } }
]
}
