{
"type": "FeatureCollection",
"features": [
{ "type": "Feature", "properties": { "Name": "ABATIÃ", "Description": "ABATIÃ \/ PR" }, "geometry": { "type": "LineString", "coordinates": [ [ -50.234761969289423, -23.356726386613389 ], [ -50.258631883854321, -23.354530762884337 ], [ -50.304177425647651, -23.382411538661529 ], [ -50.31709480188357, -23.35593839973734 ], [ -50.379061975929396, -23.359817394257277 ], [ -50.41370727946736, -23.324559350233756 ], [ -50.460097365600909, -23.308239431304685 ], [ -50.481038564178334, -23.268636276842638 ], [ -50.468042219372869, -23.260327227319632 ], [ -50.466865058075932, -23.260185357468231 ], [ -50.439662339645224, -23.281197533239549 ], [ -50.358915483962384, -23.285352782404914 ], [ -50.346010483297107, -23.299852525673487 ], [ -50.304163030199611, -23.259160126738436 ], [ -50.250486410219587, -23.246099269965271 ], [ -50.22493883645808, -23.224428890280986 ], [ -50.202281423848603, -23.248141207650576 ], [ -50.194400200708628, -23.285763780673904 ], [ -50.234761969289423, -23.356726386613389 ] ] } }
]
}
