{
"type": "FeatureCollection",
"features": [
{ "type": "Feature", "properties": { "Name": "AMPÃRE", "Description": "AMPÃRE \/ PR" }, "geometry": { "type": "LineString", "coordinates": [ [ -53.576769576055028, -25.799420144623923 ], [ -53.533319171342669, -25.83222684629186 ], [ -53.503124881508029, -25.811064862353476 ], [ -53.478995955898597, -25.864284719364264 ], [ -53.432255879705053, -25.900038820435157 ], [ -53.346924637262134, -25.926847015277474 ], [ -53.345509024321977, -25.94656415740991 ], [ -53.371223872883377, -25.967526234647949 ], [ -53.360902730576527, -26.015905944004089 ], [ -53.364985779470089, -26.020314123897663 ], [ -53.418533326951433, -25.99398959614291 ], [ -53.445096785688065, -26.002104491928719 ], [ -53.484003396339631, -25.994240645489356 ], [ -53.516400737404069, -25.964010528463064 ], [ -53.538804940495531, -25.970857723704967 ], [ -53.566076957085841, -25.957328835457357 ], [ -53.57450771995525, -25.929631799268066 ], [ -53.569760590978433, -25.860137553305378 ], [ -53.587205318970234, -25.817362007050917 ], [ -53.603226063132233, -25.81339621626233 ], [ -53.596519426530278, -25.801935057356957 ], [ -53.576769576055028, -25.799420144623923 ] ] } }
]
}
