{
"type": "FeatureCollection",
"features": [
{ "type": "Feature", "properties": { "Name": "ANTÃNIO OLINTO", "Description": "ANTÃNIO OLINTO \/ PR" }, "geometry": { "type": "LineString", "coordinates": [ [ -49.993432321044736, -26.011350033377312 ], [ -50.12423656326672, -26.050784856336005 ], [ -50.140163190678663, -26.026583422886631 ], [ -50.183151347456658, -26.0777939750119 ], [ -50.233620804256645, -26.048886452247924 ], [ -50.268465782469832, -26.042787261822639 ], [ -50.220082014473348, -25.94100653242549 ], [ -50.217599709359028, -25.920685308480131 ], [ -50.234155089685594, -25.860388508223021 ], [ -50.263520503168643, -25.83956456235461 ], [ -50.228187867575969, -25.812765674596164 ], [ -50.210195114313024, -25.816270078101581 ], [ -50.143359902837233, -25.887460057835369 ], [ -50.120608006554221, -25.883507693025589 ], [ -50.08316391838008, -25.899410410162261 ], [ -50.040064477693477, -25.879015461594236 ], [ -50.013051545892097, -25.894654173751064 ], [ -50.011162426404837, -25.931021099843857 ], [ -49.973294263819177, -25.959084947911947 ], [ -49.96776429748428, -26.005076728807918 ], [ -49.993432321044736, -26.011350033377312 ] ] } }
]
}
