{
"type": "FeatureCollection",
"features": [
{ "type": "Feature", "properties": { "Name": "ARAPOTI", "Description": "ARAPOTI \/ PR" }, "geometry": { "type": "LineString", "coordinates": [ [ -49.793027142688459, -24.003827891044295 ], [ -49.755254487204745, -24.065588971953446 ], [ -49.759402132602304, -24.084097247190186 ], [ -49.766919773328823, -24.114497280325164 ], [ -49.751368094861611, -24.170054782002524 ], [ -49.739872620524977, -24.173638700865297 ], [ -49.786501007215691, -24.235313807486193 ], [ -49.910528501688987, -24.193643639542298 ], [ -49.932847303360347, -24.200368766205539 ], [ -49.986073732616603, -24.245418913751848 ], [ -50.043076343198663, -24.264300015533252 ], [ -50.123721292203811, -24.301353636061435 ], [ -50.185051604148157, -24.290598210239182 ], [ -50.205970490545667, -24.244293539015587 ], [ -50.184712631682544, -24.172760195426633 ], [ -50.120818830124847, -24.142992953162207 ], [ -50.096692579998546, -24.119686801104933 ], [ -50.107532611340901, -24.076920016045843 ], [ -50.131915090908642, -24.047650729297686 ], [ -50.181780643062211, -24.028865960195844 ], [ -50.220816982717508, -23.997456057650879 ], [ -50.161703583253711, -23.942085567295067 ], [ -50.118324089185307, -23.962107271133615 ], [ -50.081491587666619, -23.961079410786112 ], [ -50.064778563379946, -23.985972222340138 ], [ -50.04214870869589, -23.98965657299243 ], [ -49.993385127321737, -23.976202519130936 ], [ -49.970423591875196, -23.956365371464699 ], [ -49.973112741959426, -23.902144347783405 ], [ -49.964783785942927, -23.869694424258228 ], [ -49.923499451438481, -23.843793251457324 ], [ -49.870095100308617, -23.897657712833109 ], [ -49.853414959732561, -23.900839328072493 ], [ -49.830293358451677, -23.936271472750207 ], [ -49.829250621518952, -23.978858468943145 ], [ -49.793027142688459, -24.003827891044295 ] ] } }
]
}
