{
"type": "FeatureCollection",
"features": [
{ "type": "Feature", "properties": { "Name": "ASSIS CHATEAUBRIAND", "Description": "ASSIS CHATEAUBRIAND \/ PR" }, "geometry": { "type": "LineString", "coordinates": [ [ -53.666593528368594, -24.208842264858617 ], [ -53.641927976394975, -24.239435538918936 ], [ -53.591774946956207, -24.241453493483903 ], [ -53.555644679258478, -24.258486914739251 ], [ -53.488845027875698, -24.229891716629368 ], [ -53.481129555184793, -24.218123587633443 ], [ -53.468104295376854, -24.22118253714433 ], [ -53.458708043741183, -24.239431402936873 ], [ -53.461223429517638, -24.285070148668353 ], [ -53.472598672590607, -24.313722698343781 ], [ -53.44903708879059, -24.35625391858343 ], [ -53.470294703937384, -24.393905893142403 ], [ -53.44831888570797, -24.407983240134399 ], [ -53.455936915056554, -24.460437574434479 ], [ -53.444201653583377, -24.539407110749494 ], [ -53.440267184383003, -24.567316245748088 ], [ -53.551283902629962, -24.520138042336722 ], [ -53.57465825477459, -24.600560786850792 ], [ -53.563234862898582, -24.620146341080726 ], [ -53.594871962970664, -24.636685278203004 ], [ -53.595968196075376, -24.689494182810222 ], [ -53.715429582509159, -24.575100892492173 ], [ -53.715419440854468, -24.467481895672904 ], [ -53.691636113915479, -24.440201225805879 ], [ -53.667569469955026, -24.387929104044868 ], [ -53.686528586125291, -24.369572879884458 ], [ -53.704058791979605, -24.328049584720532 ], [ -53.692709452978811, -24.284151653975584 ], [ -53.67167801462864, -24.258683207064337 ], [ -53.697642191234081, -24.238744768756018 ], [ -53.69243852231989, -24.20225628489959 ], [ -53.666593528368594, -24.208842264858617 ] ] } }
]
}
