{
"type": "FeatureCollection",
"features": [
{ "type": "Feature", "properties": { "Name": "BANDEIRANTES", "Description": "BANDEIRANTES \/ PR" }, "geometry": { "type": "LineString", "coordinates": [ [ -50.369986602399756, -23.059507026228232 ], [ -50.311134241052343, -23.075474210366451 ], [ -50.2614537190139, -23.105925091169979 ], [ -50.250112852526058, -23.101149265726008 ], [ -50.24062338616028, -23.135473954659229 ], [ -50.215050133157092, -23.163999220587527 ], [ -50.209445913398156, -23.187648698728424 ], [ -50.22493883645808, -23.224428890280986 ], [ -50.250486410219587, -23.246099269965271 ], [ -50.304163030199611, -23.259160126738436 ], [ -50.329991327337837, -23.275506325656352 ], [ -50.358410159401274, -23.247224763412074 ], [ -50.393343684863112, -23.247914034405142 ], [ -50.449609442221913, -23.209613090171953 ], [ -50.468463851225692, -23.208710427144467 ], [ -50.465159017174869, -23.194382939121279 ], [ -50.454292153659935, -23.145318230551879 ], [ -50.447808453597183, -23.031301147330055 ], [ -50.41357049887938, -23.045849717490398 ], [ -50.403272963776203, -23.069314765364084 ], [ -50.369986602399756, -23.059507026228232 ] ] } }
]
}
