{
"type": "FeatureCollection",
"features": [
{ "type": "Feature", "properties": { "Name": "BOM SUCESSO DO SUL", "Description": "BOM SUCESSO DO SUL \/ PR" }, "geometry": { "type": "LineString", "coordinates": [ [ -52.743143253658161, -26.109694908293363 ], [ -52.71934319753052, -26.144150313685998 ], [ -52.75334118524745, -26.157725665407099 ], [ -52.799339572563156, -26.163506059656864 ], [ -52.819992026710622, -26.146685625740982 ], [ -52.843290730582737, -26.127388803350527 ], [ -52.87800194093677, -26.120985533255691 ], [ -52.933143881185117, -26.08879352899811 ], [ -52.930001040215814, -26.070881460211183 ], [ -52.914397973587597, -26.024399893240457 ], [ -52.892952887565684, -26.002473918136786 ], [ -52.838127839628044, -26.023721262126514 ], [ -52.808989427619963, -26.026063482543634 ], [ -52.812372612406079, -26.073726995204595 ], [ -52.743143253658161, -26.109694908293363 ] ] } }
]
}
