{
"type": "FeatureCollection",
"features": [
{ "type": "Feature", "properties": { "Name": "BOM JESUS DO SUL", "Description": "BOM JESUS DO SUL \/ PR" }, "geometry": { "type": "LineString", "coordinates": [ [ -53.53618634132652, -26.092889327580338 ], [ -53.482048444679947, -26.123644053330338 ], [ -53.461904477109897, -26.164945536107552 ], [ -53.473762880952165, -26.199104121158197 ], [ -53.505800541761566, -26.219038355135922 ], [ -53.541015199791616, -26.197546391053038 ], [ -53.565526896648919, -26.210156676689223 ], [ -53.63354958464555, -26.201905989569696 ], [ -53.651720556558416, -26.206921688485064 ], [ -53.672293507039676, -26.176214223007946 ], [ -53.644621111375152, -26.172062530661208 ], [ -53.585082558313388, -26.12632598995242 ], [ -53.567986984911386, -26.096750081151299 ], [ -53.53618634132652, -26.092889327580338 ] ] } }
]
}
