{
"type": "FeatureCollection",
"features": [
{ "type": "Feature", "properties": { "Name": "CASCAVEL", "Description": "CASCAVEL \/ PR" }, "geometry": { "type": "LineString", "coordinates": [ [ -53.345299855503868, -24.790345689501919 ], [ -53.358368662283901, -24.807427864804083 ], [ -53.406365486178231, -24.835949401243848 ], [ -53.283552937118316, -24.832175916984909 ], [ -53.272833340286404, -24.838432376353065 ], [ -53.272716352877353, -24.904759781138921 ], [ -53.221310386165328, -24.925966635851523 ], [ -53.207116664202658, -24.953490053423195 ], [ -53.184627346574757, -24.937566084407251 ], [ -53.15968328265734, -24.917894153892064 ], [ -53.091505540748074, -24.911506016689259 ], [ -53.083093919049077, -24.919462251381727 ], [ -53.104125925770802, -24.960513240593514 ], [ -53.075747348261473, -25.003404629420061 ], [ -53.10092756875224, -25.09577120257887 ], [ -53.167044238101084, -25.100948525853767 ], [ -53.221549222718409, -25.136195425478434 ], [ -53.226422280164059, -25.164223780902713 ], [ -53.253905677904697, -25.193702719404939 ], [ -53.260663209839208, -25.235593617851123 ], [ -53.282565650584274, -25.290853850424806 ], [ -53.326313578908525, -25.3031703536289 ], [ -53.315336423437145, -25.370418944778407 ], [ -53.331857853457109, -25.36828063124608 ], [ -53.4750416530498, -25.350129389559637 ], [ -53.475335438179911, -25.349731451245418 ], [ -53.463430263295947, -25.319308801959608 ], [ -53.433461161003713, -25.292595517968717 ], [ -53.425562224816758, -25.240897911909087 ], [ -53.443503737407525, -25.224908590059325 ], [ -53.532109259434719, -25.217075976175295 ], [ -53.527756235861546, -25.169115876096782 ], [ -53.541787808260715, -25.100989799339743 ], [ -53.522244595012012, -25.086341149024744 ], [ -53.518413598208944, -25.052543608500685 ], [ -53.560629063780254, -25.023848623415176 ], [ -53.571489550202557, -24.985726397854933 ], [ -53.550600271285475, -24.949207880239442 ], [ -53.594590271923494, -24.92682693901196 ], [ -53.621730969508576, -24.89350208305467 ], [ -53.625010806003836, -24.870936202543646 ], [ -53.654644905437969, -24.867830887585342 ], [ -53.691042140482352, -24.813175455382918 ], [ -53.723687431829489, -24.794419379151005 ], [ -53.684167119317067, -24.779896965772309 ], [ -53.63171444876275, -24.786862921886268 ], [ -53.608595569729744, -24.80278851417853 ], [ -53.574375190462604, -24.803160912645978 ], [ -53.536893230038515, -24.760508172414173 ], [ -53.5370637639815, -24.746769618023393 ], [ -53.456982444384266, -24.743701453159474 ], [ -53.456178418998768, -24.799619325771232 ], [ -53.345299855503868, -24.790345689501919 ] ] } }
]
}
