{
"type": "FeatureCollection",
"features": [
{ "type": "Feature", "properties": { "Name": "CORONEL VIVIDA", "Description": "CORONEL VIVIDA \/ PR" }, "geometry": { "type": "LineString", "coordinates": [ [ -52.722508131245206, -25.871676770666397 ], [ -52.714508145434536, -25.886948617884343 ], [ -52.656978958412139, -25.887745198681955 ], [ -52.618836181544509, -25.881041850900658 ], [ -52.564780506315287, -25.930652644903603 ], [ -52.448702255204857, -25.929546107366889 ], [ -52.382614480174084, -25.944979585239647 ], [ -52.38469653661582, -26.002333528569466 ], [ -52.375181160781885, -26.040899202636069 ], [ -52.361113813351778, -26.064958690690958 ], [ -52.415004372153987, -26.104936458650627 ], [ -52.465869402950538, -26.092146889567232 ], [ -52.516643228102453, -26.08878105899862 ], [ -52.537613680726736, -26.114660202006689 ], [ -52.57525210969709, -26.114432319196112 ], [ -52.607094604132612, -26.109526343865639 ], [ -52.589811111093866, -26.076742256549835 ], [ -52.626226316391353, -26.063700040924118 ], [ -52.67014217871855, -26.030717997537522 ], [ -52.663588367509135, -26.013032312391257 ], [ -52.701282114677774, -25.997500219359608 ], [ -52.734610819733518, -26.010266156058204 ], [ -52.745867739904213, -25.989227882860462 ], [ -52.741225270429823, -25.955189758400593 ], [ -52.799258375473585, -25.939255962492609 ], [ -52.808362680193511, -25.906663768018461 ], [ -52.770039788905073, -25.901528035690262 ], [ -52.722508131245206, -25.871676770666397 ] ] } }
]
}
