{
"type": "FeatureCollection",
"features": [
{ "type": "Feature", "properties": { "Name": "CORUMBATAÃ DO SUL", "Description": "CORUMBATAÃ DO SUL \/ PR" }, "geometry": { "type": "LineString", "coordinates": [ [ -52.227580429093507, -24.178403893624761 ], [ -52.19208660890984, -24.135041406635533 ], [ -52.207222221428303, -24.095899878676388 ], [ -52.188249063243632, -24.05318487118484 ], [ -52.1865098355604, -24.05226262991641 ], [ -52.16454264272874, -24.07355289315143 ], [ -52.120833706310464, -24.066967361954141 ], [ -52.100435812462706, -24.050176790926116 ], [ -52.050171193345875, -24.123580459070865 ], [ -52.083636450561691, -24.147165001663438 ], [ -52.116367780948273, -24.149537069679976 ], [ -52.125309234633448, -24.174627203282736 ], [ -52.151364133048276, -24.197019250238153 ], [ -52.210641748717705, -24.169593081755295 ], [ -52.227580429093507, -24.178403893624761 ] ] } }
]
}
