{
"type": "FeatureCollection",
"features": [
{ "type": "Feature", "properties": { "Name": "DIAMANTE D'OESTE", "Description": "DIAMANTE D'OESTE \/ PR" }, "geometry": { "type": "LineString", "coordinates": [ [ -54.065509672733185, -24.872673672951578 ], [ -54.0446015521199, -24.890685167186685 ], [ -54.034439173429064, -24.929949736790885 ], [ -53.965538894604265, -25.076537861533041 ], [ -53.98474925077727, -25.077799495250474 ], [ -54.012658856121277, -25.029614111402054 ], [ -54.069923212586161, -25.037578456180768 ], [ -54.16834266378288, -25.030499699901156 ], [ -54.164431677679715, -25.017733881013726 ], [ -54.145076673649555, -24.983924522498683 ], [ -54.201219594408713, -24.931324606845067 ], [ -54.219942586381194, -24.898582355091545 ], [ -54.208696387028624, -24.86834347057464 ], [ -54.143403230474689, -24.859325106868141 ], [ -54.095360740805511, -24.878679017322725 ], [ -54.065509672733185, -24.872673672951578 ] ] } }
]
}
