{
"type": "FeatureCollection",
"features": [
{ "type": "Feature", "properties": { "Name": "FAXINAL", "Description": "FAXINAL \/ PR" }, "geometry": { "type": "LineString", "coordinates": [ [ -51.275121232159101, -23.888962068144906 ], [ -51.233317540072392, -23.915960214192467 ], [ -51.198401824784355, -23.910928700698943 ], [ -51.174860746426248, -23.925154475398696 ], [ -51.164646940004218, -23.96341707973437 ], [ -51.114797178147228, -23.992998126362409 ], [ -51.095527598919489, -23.988009758743317 ], [ -51.096036234784378, -24.032877413162055 ], [ -51.085441224632746, -24.074418168663499 ], [ -51.114270120569586, -24.08527416746881 ], [ -51.133174801675686, -24.06957743195289 ], [ -51.178007204468884, -24.10042557028379 ], [ -51.211062754842203, -24.105749009109445 ], [ -51.234397328174111, -24.086506698225492 ], [ -51.262683914031356, -24.110732229009102 ], [ -51.28047602944514, -24.098171123698364 ], [ -51.312868001556978, -24.129478342551408 ], [ -51.37253526109339, -24.142583781416363 ], [ -51.447758801827206, -24.138738756088685 ], [ -51.453332459925029, -24.119604709189957 ], [ -51.397016818071677, -24.087571691580251 ], [ -51.380208569070192, -24.058935152535241 ], [ -51.416677753475483, -24.024311952534561 ], [ -51.392109792333031, -24.008206189164241 ], [ -51.395600311205328, -23.958982367142482 ], [ -51.420117727750892, -23.937426048473299 ], [ -51.435510035559673, -23.891971111577504 ], [ -51.459321272059007, -23.883247414336665 ], [ -51.457330119089704, -23.880209962219904 ], [ -51.423290302105727, -23.863123819108921 ], [ -51.365030053494131, -23.85770516725961 ], [ -51.333825176590608, -23.864596601052256 ], [ -51.294201850335071, -23.899203744557099 ], [ -51.275121232159101, -23.888962068144906 ] ] } }
]
}
