{
"type": "FeatureCollection",
"features": [
{ "type": "Feature", "properties": { "Name": "FLORAÃ", "Description": "FLORAÃ \/ PR" }, "geometry": { "type": "LineString", "coordinates": [ [ -52.244029770357599, -23.268232127810393 ], [ -52.218900575601026, -23.288658636286982 ], [ -52.238503585671879, -23.314341945624221 ], [ -52.274241681508329, -23.321493976865497 ], [ -52.299551702049371, -23.344165818197894 ], [ -52.311765970323222, -23.378970448327493 ], [ -52.358332826298863, -23.404760944262136 ], [ -52.421195514661235, -23.413285398502293 ], [ -52.421240619259152, -23.266074059770006 ], [ -52.420760103395992, -23.250781726895127 ], [ -52.398817882039559, -23.278801814851818 ], [ -52.343909355432345, -23.300112455825115 ], [ -52.244029770357599, -23.268232127810393 ] ] } }
]
}
