{
"type": "FeatureCollection",
"features": [
{ "type": "Feature", "properties": { "Name": "FLÃRIDA", "Description": "FLÃRIDA \/ PR" }, "geometry": { "type": "LineString", "coordinates": [ [ -51.915033339417043, -23.048705784444337 ], [ -51.914528742407462, -23.136916782883191 ], [ -51.962538828604011, -23.161619313180722 ], [ -51.973376534299575, -23.155601682271765 ], [ -51.990068321995402, -23.120729333192116 ], [ -52.013432682672146, -23.098233763477367 ], [ -52.011829559286696, -23.077085656078111 ], [ -51.987613552323523, -23.081177507535926 ], [ -51.915033339417043, -23.048705784444337 ] ] } }
]
}
