{
"type": "FeatureCollection",
"features": [
{ "type": "Feature", "properties": { "Name": "GODOY MOREIRA", "Description": "GODOY MOREIRA \/ PR" }, "geometry": { "type": "LineString", "coordinates": [ [ -51.84157273969015, -24.175265797478513 ], [ -51.958069229511288, -24.240933190714145 ], [ -51.992742042411294, -24.202659249524686 ], [ -51.962100692392987, -24.200482079884011 ], [ -51.968488544510706, -24.17016324743588 ], [ -51.940847984846584, -24.155784817315407 ], [ -51.917807192148132, -24.103813204915408 ], [ -51.848933003555203, -24.072794527245605 ], [ -51.817401741996768, -24.095363446565784 ], [ -51.896006021360733, -24.141987835769953 ], [ -51.83822725088686, -24.156629527130914 ], [ -51.84157273969015, -24.175265797478513 ] ] } }
]
}
