{
"type": "FeatureCollection",
"features": [
{ "type": "Feature", "properties": { "Name": "HONÃRIO SERPA", "Description": "HONÃRIO SERPA \/ PR" }, "geometry": { "type": "LineString", "coordinates": [ [ -52.316225921489035, -26.271440999102765 ], [ -52.33627746932973, -26.279786867769698 ], [ -52.385807141786124, -26.26104597838912 ], [ -52.403221109366655, -26.274697732014658 ], [ -52.440090053213339, -26.246054211532567 ], [ -52.443398659020829, -26.206491321517202 ], [ -52.471318824204332, -26.194156170870539 ], [ -52.474117846261542, -26.168157802040866 ], [ -52.534537904900333, -26.171294049180972 ], [ -52.561980789082099, -26.149721094852623 ], [ -52.57525210969709, -26.114432319196112 ], [ -52.537613680726736, -26.114660202006689 ], [ -52.516643228102453, -26.08878105899862 ], [ -52.465869402950538, -26.092146889567232 ], [ -52.415004372153987, -26.104936458650627 ], [ -52.361113813351778, -26.064958690690958 ], [ -52.375181160781885, -26.040899202636069 ], [ -52.305246886434645, -26.076852371339839 ], [ -52.294762667363159, -26.110758055339943 ], [ -52.262854692390079, -26.107493392206266 ], [ -52.253652536934965, -26.139216322675111 ], [ -52.213753113415407, -26.137804295331932 ], [ -52.223057492109547, -26.20881403384055 ], [ -52.283922682785544, -26.23737142535094 ], [ -52.316225921489035, -26.271440999102765 ] ] } }
]
}
