{
"type": "FeatureCollection",
"features": [
{ "type": "Feature", "properties": { "Name": "IBAITI", "Description": "IBAITI \/ PR" }, "geometry": { "type": "LineString", "coordinates": [ [ -50.120303441250769, -23.855868088841188 ], [ -50.115347790068427, -23.884011111423604 ], [ -50.163878269866245, -23.93083215358098 ], [ -50.161703583253711, -23.942085567295067 ], [ -50.220816982717508, -23.997456057650879 ], [ -50.232495543734331, -23.97133550243143 ], [ -50.268485730332145, -23.954907535354437 ], [ -50.290320168840651, -23.958992568152439 ], [ -50.321888085866419, -23.944385515978752 ], [ -50.35633035216398, -23.878289541828849 ], [ -50.383618548457207, -23.859249648552407 ], [ -50.399967778090456, -23.819210696116667 ], [ -50.391887324540335, -23.789286622879274 ], [ -50.415829690287921, -23.762267062175109 ], [ -50.44979193804744, -23.756107789842588 ], [ -50.475244196262622, -23.75025936727593 ], [ -50.444115050369248, -23.748326386953124 ], [ -50.4190235893671, -23.706410361449002 ], [ -50.421307272012932, -23.677650937240912 ], [ -50.440924711706032, -23.659085877910911 ], [ -50.424804349640965, -23.627564941468847 ], [ -50.387552177690793, -23.597919712025032 ], [ -50.298118311710653, -23.588334409405434 ], [ -50.241048305035235, -23.582189626949685 ], [ -50.224117623229681, -23.605251421515845 ], [ -50.236409920281574, -23.634753440219072 ], [ -50.201313442161563, -23.673772461629767 ], [ -50.208649892878213, -23.721419798185082 ], [ -50.171926167958247, -23.816356217365467 ], [ -50.120303441250769, -23.855868088841188 ] ] } }
]
}
