{
"type": "FeatureCollection",
"features": [
{ "type": "Feature", "properties": { "Name": "IMBITUVA", "Description": "IMBITUVA \/ PR" }, "geometry": { "type": "LineString", "coordinates": [ [ -50.699560362120963, -25.038294611507069 ], [ -50.695977186997538, -25.063416038819071 ], [ -50.666920682543434, -25.087952548870987 ], [ -50.621010827187888, -25.077659267561099 ], [ -50.563763666659838, -25.105651649204219 ], [ -50.498232718565077, -25.155170406588923 ], [ -50.469363809092499, -25.170232836775934 ], [ -50.448487432748777, -25.215022129667489 ], [ -50.491888936824921, -25.207233560080681 ], [ -50.54314005466972, -25.214722709385509 ], [ -50.575490599511511, -25.243568514375397 ], [ -50.564098657826776, -25.309109610420137 ], [ -50.599369653886356, -25.369049417596496 ], [ -50.601920359636836, -25.410676191453035 ], [ -50.670716542834157, -25.367695599772048 ], [ -50.727025243719993, -25.35486415375766 ], [ -50.771413278000352, -25.366786216110938 ], [ -50.786726951787323, -25.381668740519899 ], [ -50.81292608527059, -25.352552920380901 ], [ -50.816865183281543, -25.326528577331942 ], [ -50.804523888466633, -25.273729263994309 ], [ -50.751885132892539, -25.258901398580633 ], [ -50.751209721351529, -25.236679997983458 ], [ -50.728650375314544, -25.181381669228585 ], [ -50.768834502610162, -25.159180005153075 ], [ -50.779218131611458, -25.127276140081733 ], [ -50.739749294494288, -25.075640462237516 ], [ -50.699560362120963, -25.038294611507069 ] ] } }
]
}
