{
"type": "FeatureCollection",
"features": [
{ "type": "Feature", "properties": { "Name": "INAJÃ", "Description": "INAJÃ \/ PR" }, "geometry": { "type": "LineString", "coordinates": [ [ -52.18277106333386, -22.655381515744295 ], [ -52.164084409367945, -22.711992165805782 ], [ -52.163293551855872, -22.764121323240431 ], [ -52.176589641598639, -22.804994717931834 ], [ -52.238407886114999, -22.816233914263705 ], [ -52.275268113732409, -22.729970276307142 ], [ -52.291774083507107, -22.649294887948653 ], [ -52.289960337999162, -22.628230441781398 ], [ -52.250413112375213, -22.615426389116521 ], [ -52.228098636442894, -22.642516918920645 ], [ -52.222577228056593, -22.675534908209386 ], [ -52.18277106333386, -22.655381515744295 ] ] } }
]
}
