{
"type": "FeatureCollection",
"features": [
{ "type": "Feature", "properties": { "Name": "INDIANÃPOLIS", "Description": "INDIANÃPOLIS \/ PR" }, "geometry": { "type": "LineString", "coordinates": [ [ -52.616299512412525, -23.414808751122901 ], [ -52.595348835880031, -23.465351669044253 ], [ -52.600560359472979, -23.476837176194692 ], [ -52.653594774479245, -23.505571150488148 ], [ -52.670889937120876, -23.537465093339335 ], [ -52.696017413272955, -23.566740183412659 ], [ -52.747883670095234, -23.555175875865924 ], [ -52.669264774050021, -23.39802045807761 ], [ -52.650654003079751, -23.440267343263258 ], [ -52.616299512412525, -23.414808751122901 ] ] } }
]
}
