{
"type": "FeatureCollection",
"features": [
{ "type": "Feature", "properties": { "Name": "IPORÃ", "Description": "IPORÃ \/ PR" }, "geometry": { "type": "LineString", "coordinates": [ [ -53.555738927309619, -24.091100023347337 ], [ -53.666593528368594, -24.208842264858617 ], [ -53.69243852231989, -24.20225628489959 ], [ -53.709011192112769, -24.179052510764734 ], [ -53.765688064652409, -24.159886182701143 ], [ -53.793230574831114, -24.048869861055206 ], [ -53.790190530868244, -24.010800244035973 ], [ -53.833329583093757, -24.007716670188131 ], [ -53.876135959007286, -24.025549075229605 ], [ -53.90159773834489, -24.022083392034858 ], [ -53.963022192220365, -24.03311915002871 ], [ -53.968059659225844, -24.023575202733355 ], [ -53.966207385862106, -24.002426072804951 ], [ -53.952226868874845, -24.000176923226377 ], [ -53.922924184003875, -23.958816280347037 ], [ -53.884688748187159, -23.941788532015096 ], [ -53.859830798852272, -23.948840963339762 ], [ -53.738841609052997, -23.950852477859542 ], [ -53.680401562582006, -23.911033020257662 ], [ -53.644101110777619, -23.944932587069218 ], [ -53.605806631770577, -23.957129706170974 ], [ -53.580040007440346, -23.996706616617018 ], [ -53.606444695366342, -24.028101094889564 ], [ -53.55623306970034, -24.074119043359133 ], [ -53.555738927309619, -24.091100023347337 ] ] } }
]
}
