{
"type": "FeatureCollection",
"features": [
{ "type": "Feature", "properties": { "Name": "ITAIPULÃNDIA", "Description": "ITAIPULÃNDIA \/ PR" }, "geometry": { "type": "LineString", "coordinates": [ [ -54.401483563015965, -25.033936352080957 ], [ -54.418194854309036, -25.060332036893954 ], [ -54.365711628388908, -25.076772913738921 ], [ -54.358926310101083, -25.095976917100984 ], [ -54.308591280363252, -25.127745143723356 ], [ -54.224145951974037, -25.160805778863562 ], [ -54.201230650673949, -25.194161800826407 ], [ -54.193581162140902, -25.218016442204998 ], [ -54.230499478767911, -25.229599497918457 ], [ -54.299677444858162, -25.19992507018577 ], [ -54.317076070903909, -25.221125128721667 ], [ -54.346168518562251, -25.209195530049612 ], [ -54.35683480268397, -25.229023475852671 ], [ -54.391521948978721, -25.235650883081743 ], [ -54.460606997115178, -25.22734542095435 ], [ -54.47091974515007, -25.212247733745869 ], [ -54.430307798665922, -25.159468245962728 ], [ -54.433451833035633, -25.131604944912226 ], [ -54.458865288202446, -25.104087710179613 ], [ -54.459430494121989, -25.039020573940263 ], [ -54.401483563015965, -25.033936352080957 ] ] } }
]
}
