{
"type": "FeatureCollection",
"features": [
{ "type": "Feature", "properties": { "Name": "IVAIPORÃ", "Description": "IVAIPORÃ \/ PR" }, "geometry": { "type": "LineString", "coordinates": [ [ -51.486238351418763, -24.301630389830564 ], [ -51.487797059086972, -24.329269612202779 ], [ -51.523352696869431, -24.321564408870302 ], [ -51.567233823781919, -24.337648429331523 ], [ -51.622369467876574, -24.317706374849251 ], [ -51.674794319702073, -24.342005533128827 ], [ -51.640588194689371, -24.37536338701068 ], [ -51.659519073046738, -24.394120940828714 ], [ -51.738943673511699, -24.405369797677963 ], [ -51.726939009327793, -24.351732175899141 ], [ -51.756562903255315, -24.348022100139758 ], [ -51.771053098421703, -24.323634173378366 ], [ -51.765167569827433, -24.244236909605661 ], [ -51.71763031298849, -24.255431205485706 ], [ -51.688279826452792, -24.209344729575548 ], [ -51.622923990749541, -24.211006867372987 ], [ -51.586540906537543, -24.192526136571928 ], [ -51.558797163158488, -24.157166542002244 ], [ -51.546402553834753, -24.17870503880647 ], [ -51.512339705213208, -24.190278320687923 ], [ -51.516150148910185, -24.214861596385504 ], [ -51.495512629803954, -24.242061923518918 ], [ -51.500502977730207, -24.263192846672496 ], [ -51.486238351418763, -24.301630389830564 ] ] } }
]
}
