{
"type": "FeatureCollection",
"features": [
{ "type": "Feature", "properties": { "Name": "JAGUAPITÃ", "Description": "JAGUAPITÃ \/ PR" }, "geometry": { "type": "LineString", "coordinates": [ [ -51.531866869160638, -22.931010066661202 ], [ -51.492078763723953, -23.066725654964955 ], [ -51.39831462881704, -23.090320147656655 ], [ -51.396335910773644, -23.129482624423531 ], [ -51.418039437669847, -23.168750298487453 ], [ -51.473611675638267, -23.167178356395993 ], [ -51.483794762118521, -23.190492142798121 ], [ -51.520287902664506, -23.196186468330779 ], [ -51.552179763585173, -23.158172293616417 ], [ -51.55471013296625, -23.137201998373484 ], [ -51.592984832284117, -23.130586576409314 ], [ -51.594954493255216, -23.11617975738983 ], [ -51.672302361264933, -23.086875862031377 ], [ -51.749376995451939, -23.039158573509326 ], [ -51.750380016524502, -23.028118185805564 ], [ -51.669207306671801, -22.994849078821858 ], [ -51.623444031816568, -23.005618898293445 ], [ -51.591406319745829, -22.990458149723789 ], [ -51.590174848390518, -22.949680370052988 ], [ -51.577761912682092, -22.912969404714204 ], [ -51.549785817761233, -22.900888696556081 ], [ -51.531866869160638, -22.931010066661202 ] ] } }
]
}
