{
"type": "FeatureCollection",
"features": [
{ "type": "Feature", "properties": { "Name": "JANIÃPOLIS", "Description": "JANIÃPOLIS \/ PR" }, "geometry": { "type": "LineString", "coordinates": [ [ -52.766671249578451, -24.029134272928331 ], [ -52.74708994734317, -24.081805056058442 ], [ -52.701918595466793, -24.139516208306304 ], [ -52.727292045191689, -24.17884557856058 ], [ -52.752968750807149, -24.188240883210142 ], [ -52.805494942737369, -24.186839771837978 ], [ -52.820402070798878, -24.203665113354248 ], [ -52.83052403125901, -24.244558505370662 ], [ -52.813979103752615, -24.287662028080092 ], [ -52.869376881337978, -24.316312990452104 ], [ -52.868156834969909, -24.250564462180133 ], [ -52.869026266249136, -24.139764805201537 ], [ -52.862582985316465, -24.138514142313795 ], [ -52.854977805481269, -24.117730047203846 ], [ -52.885894964081274, -24.042622853561795 ], [ -52.872548627417189, -23.992261989898847 ], [ -52.835627707252854, -23.994740453109387 ], [ -52.782143938791705, -24.011543805302324 ], [ -52.766671249578451, -24.029134272928331 ] ] } }
]
}
