{
"type": "FeatureCollection",
"features": [
{ "type": "Feature", "properties": { "Name": "JARDIM OLINDA", "Description": "JARDIM OLINDA \/ PR" }, "geometry": { "type": "LineString", "coordinates": [ [ -52.028352073889039, -22.539512891206925 ], [ -52.003709097596754, -22.581162913437652 ], [ -52.003980682062775, -22.61513355007321 ], [ -52.069528819799132, -22.61424615303747 ], [ -52.080159525841395, -22.641789404257565 ], [ -52.12994713015587, -22.597413876848918 ], [ -52.152336211147201, -22.569233446066619 ], [ -52.127602244148193, -22.51992303192236 ], [ -52.089617366648099, -22.521249907856941 ], [ -52.051877844886576, -22.539326482431193 ], [ -52.028352073889039, -22.539512891206925 ] ] } }
]
}
