{
"type": "FeatureCollection",
"features": [
{ "type": "Feature", "properties": { "Name": "LINDOESTE", "Description": "LINDOESTE \/ PR" }, "geometry": { "type": "LineString", "coordinates": [ [ -53.527756235861546, -25.169115876096782 ], [ -53.532109259434719, -25.217075976175295 ], [ -53.443503737407525, -25.224908590059325 ], [ -53.425562224816758, -25.240897911909087 ], [ -53.433461161003713, -25.292595517968717 ], [ -53.463430263295947, -25.319308801959608 ], [ -53.475335438179911, -25.349731451245418 ], [ -53.547789129064995, -25.342201402572638 ], [ -53.6241331081564, -25.351163079312641 ], [ -53.65722077511861, -25.355620974628206 ], [ -53.652581944301232, -25.30562506214687 ], [ -53.637815365886404, -25.239975653553529 ], [ -53.653424777231635, -25.197272452361741 ], [ -53.654987425729068, -25.146530800456048 ], [ -53.587430975059419, -25.168331915485453 ], [ -53.527756235861546, -25.169115876096782 ] ] } }
]
}
