{
"type": "FeatureCollection",
"features": [
{ "type": "Feature", "properties": { "Name": "MALLET", "Description": "MALLET \/ PR" }, "geometry": { "type": "LineString", "coordinates": [ [ -50.67698883566618, -25.873617686606906 ], [ -50.673980223008869, -25.904305564849892 ], [ -50.657007190329523, -25.917332737515775 ], [ -50.670632148654704, -25.96884455982854 ], [ -50.687865834540617, -25.957905161493954 ], [ -50.722694003525419, -26.000146636358124 ], [ -50.735978395786276, -25.990832591750689 ], [ -50.854252898352506, -25.994944279554829 ], [ -50.887063328609713, -26.007818634922042 ], [ -50.897453914766288, -26.057190840584781 ], [ -50.930207896377283, -26.027415888432472 ], [ -50.95284456162716, -25.976586432118097 ], [ -50.937474694601406, -25.940608486192616 ], [ -50.972189236044358, -25.932941276518644 ], [ -51.006375937499449, -25.907532828776993 ], [ -51.005914463881368, -25.866502584226851 ], [ -51.034107382649552, -25.833423209013858 ], [ -51.039867239081779, -25.807474899147223 ], [ -50.982406740478666, -25.78439929818904 ], [ -50.975859669687956, -25.756605948205902 ], [ -50.943992560807999, -25.741679353419386 ], [ -50.791791575620664, -25.794326122852226 ], [ -50.764478263960655, -25.831913557564576 ], [ -50.747815707828629, -25.827564406472163 ], [ -50.716147526287273, -25.858712591912532 ], [ -50.67698883566618, -25.873617686606906 ] ] } }
]
}
