{
"type": "FeatureCollection",
"features": [
{ "type": "Feature", "properties": { "Name": "MAMBORÃ", "Description": "MAMBORÃ \/ PR" }, "geometry": { "type": "LineString", "coordinates": [ [ -52.522896313214225, -24.224009127918862 ], [ -52.506451621445137, -24.212251681969519 ], [ -52.473209239614675, -24.234710834537339 ], [ -52.44298893599057, -24.298060749503918 ], [ -52.42610768452198, -24.331587367462987 ], [ -52.483517708675265, -24.426733033702472 ], [ -52.516349450166956, -24.459602169004825 ], [ -52.508614816520549, -24.522966733028284 ], [ -52.530287053304846, -24.527579551854785 ], [ -52.559222539588518, -24.498815046477144 ], [ -52.577651982952595, -24.512903673665562 ], [ -52.635046356204327, -24.487682121232865 ], [ -52.656947420986626, -24.498655080467529 ], [ -52.707482891622135, -24.489454739844348 ], [ -52.736499591183133, -24.472957576231121 ], [ -52.767111733919364, -24.494697584126186 ], [ -52.768781779455537, -24.466243615550354 ], [ -52.7334382665627, -24.420988794896914 ], [ -52.737273786056328, -24.387505442422196 ], [ -52.71285013282732, -24.358923559674505 ], [ -52.716429932795101, -24.336229934064136 ], [ -52.701538823457895, -24.298764088591781 ], [ -52.656051447116567, -24.294615297457995 ], [ -52.627643691103401, -24.241690124 ], [ -52.649134872776131, -24.20850962182152 ], [ -52.584512645542127, -24.171293056729155 ], [ -52.561974476740659, -24.185811818860312 ], [ -52.558691122097571, -24.214252302102011 ], [ -52.522896313214225, -24.224009127918862 ] ] } }
]
}
