{
"type": "FeatureCollection",
"features": [
{ "type": "Feature", "properties": { "Name": "MANDIRITUBA", "Description": "MANDIRITUBA \/ PR" }, "geometry": { "type": "LineString", "coordinates": [ [ -49.245521380207492, -25.754037777621306 ], [ -49.241497692864179, -25.797708988379043 ], [ -49.207803252418103, -25.825137023854495 ], [ -49.221336887287464, -25.881170305565092 ], [ -49.25755542164535, -25.895067583102445 ], [ -49.258610731100305, -25.920295951496939 ], [ -49.293858082184727, -25.923566838838497 ], [ -49.305642292857499, -25.945268957396422 ], [ -49.360839805812354, -25.95211300051454 ], [ -49.37423811519681, -25.934120906454606 ], [ -49.431712351843544, -25.939613189397107 ], [ -49.45049423142359, -25.920425303684794 ], [ -49.434288967961429, -25.881338593001601 ], [ -49.395851346562324, -25.851824526080975 ], [ -49.369722804463834, -25.788883942040229 ], [ -49.357350960578337, -25.727606204462745 ], [ -49.355173101157675, -25.673491489640469 ], [ -49.32866160434952, -25.718338490229087 ], [ -49.294276821817846, -25.737831624729665 ], [ -49.265411291997509, -25.736244613597989 ], [ -49.245521380207492, -25.754037777621306 ] ] } }
]
}
