{
"type": "FeatureCollection",
"features": [
{ "type": "Feature", "properties": { "Name": "MARILÃNDIA DO SUL", "Description": "MARILÃNDIA DO SUL \/ PR" }, "geometry": { "type": "LineString", "coordinates": [ [ -51.219731411775165, -23.58743216186474 ], [ -51.208349920212584, -23.644772023609956 ], [ -51.242072429399059, -23.735976562967949 ], [ -51.167347814549942, -23.779116257309397 ], [ -51.145869386163213, -23.766373604957835 ], [ -51.157188072671374, -23.791977342280461 ], [ -51.186007326976494, -23.815184179506215 ], [ -51.178459135380763, -23.839533350883414 ], [ -51.212901469127473, -23.859255586775873 ], [ -51.256262257297294, -23.846451094342513 ], [ -51.275121232159101, -23.888962068144906 ], [ -51.294201850335071, -23.899203744557099 ], [ -51.333825176590608, -23.864596601052256 ], [ -51.365030053494131, -23.85770516725961 ], [ -51.423290302105727, -23.863123819108921 ], [ -51.394542625741565, -23.836189147211311 ], [ -51.358309123966876, -23.820076046272444 ], [ -51.373146853144696, -23.742613192744614 ], [ -51.420592467268534, -23.725372307785733 ], [ -51.438459109500286, -23.709512659181822 ], [ -51.429020248885308, -23.699210980002704 ], [ -51.40390003116147, -23.711898458946678 ], [ -51.359947837122945, -23.715967113291583 ], [ -51.346289913248881, -23.705699813395654 ], [ -51.301507796947249, -23.715541665615319 ], [ -51.275656963697884, -23.698000326154098 ], [ -51.24902977180647, -23.663815703931562 ], [ -51.239737756991872, -23.624930258824349 ], [ -51.219731411775165, -23.58743216186474 ] ] } }
]
}
