{
"type": "FeatureCollection",
"features": [
{ "type": "Feature", "properties": { "Name": "MARILUZ", "Description": "MARILUZ \/ PR" }, "geometry": { "type": "LineString", "coordinates": [ [ -53.107208103870839, -23.928595475800535 ], [ -53.13158808961861, -24.102873660690818 ], [ -53.138026995349485, -24.153029061641856 ], [ -53.203580966988, -24.136509330441186 ], [ -53.240201858928629, -24.166391629270208 ], [ -53.304651606086736, -24.198304286113853 ], [ -53.320846966214503, -24.198394471027996 ], [ -53.311869052214945, -24.171241242289454 ], [ -53.326033630747418, -24.129518921760791 ], [ -53.320975348933189, -24.091599175861234 ], [ -53.294136426954481, -24.056814137462425 ], [ -53.293266554108129, -24.036284603551564 ], [ -53.237570067604508, -23.95979291261278 ], [ -53.207361082847626, -23.920268115181326 ], [ -53.163922540193028, -23.912016526041782 ], [ -53.107208103870839, -23.928595475800535 ] ] } }
]
}
