{
"type": "FeatureCollection",
"features": [
{ "type": "Feature", "properties": { "Name": "MARILENA", "Description": "MARILENA \/ PR" }, "geometry": { "type": "LineString", "coordinates": [ [ -53.0342415242269, -22.855160419717549 ], [ -53.080779368073301, -22.854068023120703 ], [ -53.099050939049562, -22.836142915962736 ], [ -53.115347564638341, -22.782060290749769 ], [ -53.109723444681208, -22.715199168007132 ], [ -53.127879533713497, -22.652349445170728 ], [ -53.091503974129068, -22.644848926636595 ], [ -53.038525382740204, -22.618413569130894 ], [ -53.024552840041508, -22.633805528901974 ], [ -52.994727415238003, -22.70857117891671 ], [ -53.017153926912151, -22.749474671219048 ], [ -53.038874784643554, -22.808676687179343 ], [ -53.0342415242269, -22.855160419717549 ] ] } }
]
}
