{
"type": "FeatureCollection",
"features": [
{ "type": "Feature", "properties": { "Name": "MARIA HELENA", "Description": "MARIA HELENA \/ PR" }, "geometry": { "type": "LineString", "coordinates": [ [ -53.116387822140211, -23.471176639989892 ], [ -53.11946209699812, -23.503206532455465 ], [ -53.141671427794108, -23.728146588594143 ], [ -53.17582472123388, -23.711517006104884 ], [ -53.336408748564843, -23.65270985367675 ], [ -53.343524438202223, -23.636881255965136 ], [ -53.310697464916018, -23.601984780772963 ], [ -53.32275677100813, -23.545515273910723 ], [ -53.351373703933234, -23.510656734820429 ], [ -53.351792797899236, -23.484629159608001 ], [ -53.30851331743559, -23.503535526043663 ], [ -53.274140478800007, -23.49520633530409 ], [ -53.216285606795282, -23.4539231402407 ], [ -53.14733820619324, -23.482396314738082 ], [ -53.116387822140211, -23.471176639989892 ] ] } }
]
}
