{
"type": "FeatureCollection",
"features": [
{ "type": "Feature", "properties": { "Name": "MARINGÃ", "Description": "MARINGÃ \/ PR" }, "geometry": { "type": "LineString", "coordinates": [ [ -51.939374496036123, -23.263947611892718 ], [ -51.923793751480389, -23.286889042994915 ], [ -51.892324707719062, -23.304876703397099 ], [ -51.868474360603216, -23.288011320466012 ], [ -51.842238671477446, -23.311409548711651 ], [ -51.846399799511119, -23.327923937039998 ], [ -51.84301712194258, -23.393663415434215 ], [ -51.877918537110759, -23.415934293133091 ], [ -51.911539446288373, -23.477066758723879 ], [ -51.948615061535804, -23.485142476444082 ], [ -51.98116032578838, -23.516207554634889 ], [ -51.999750113776713, -23.556570866452262 ], [ -52.10027074100185, -23.519663284133227 ], [ -52.100259580415241, -23.519553935565625 ], [ -52.070487248887389, -23.484235798842974 ], [ -52.006470840057197, -23.454908010296379 ], [ -52.04503938026312, -23.439411374835061 ], [ -52.047878746806703, -23.422673467206721 ], [ -52.094986329155745, -23.400338042466611 ], [ -52.072450064219026, -23.368213186988953 ], [ -52.065128110573824, -23.339126324120514 ], [ -51.992345079861479, -23.308307869712394 ], [ -51.965813824948036, -23.270411561044682 ], [ -51.965718075029088, -23.253864601070461 ], [ -51.939374496036123, -23.263947611892718 ] ] } }
]
}
