{
"type": "FeatureCollection",
"features": [
{ "type": "Feature", "properties": { "Name": "MAUÃ DA SERRA", "Description": "MAUÃ DA SERRA \/ PR" }, "geometry": { "type": "LineString", "coordinates": [ [ -51.081900517294962, -23.905956714230911 ], [ -51.089226373997917, -23.929612910307526 ], [ -51.112563710047134, -23.942674056662327 ], [ -51.095527598919489, -23.988009758743317 ], [ -51.114797178147228, -23.992998126362409 ], [ -51.164646940004218, -23.96341707973437 ], [ -51.174860746426248, -23.925154475398696 ], [ -51.198401824784355, -23.910928700698943 ], [ -51.233317540072392, -23.915960214192467 ], [ -51.275121232159101, -23.888962068144906 ], [ -51.256262257297294, -23.846451094342513 ], [ -51.212901469127473, -23.859255586775873 ], [ -51.178459135380763, -23.839533350883414 ], [ -51.183978635405651, -23.8714005910644 ], [ -51.169098239691941, -23.893551442545004 ], [ -51.173844411790121, -23.924005432304796 ], [ -51.123868195360899, -23.926448628601293 ], [ -51.081900517294962, -23.905956714230911 ] ] } }
]
}
