{
"type": "FeatureCollection",
"features": [
{ "type": "Feature", "properties": { "Name": "MEDIANEIRA", "Description": "MEDIANEIRA \/ PR" }, "geometry": { "type": "LineString", "coordinates": [ [ -54.099626261242918, -25.166230991267184 ], [ -54.099300316356448, -25.176520482833947 ], [ -54.021318143917142, -25.175239694456309 ], [ -54.01093684775725, -25.175063891385431 ], [ -54.008561134788522, -25.332602604726389 ], [ -53.992997670705904, -25.363191764388375 ], [ -54.014904798717453, -25.361689077289043 ], [ -54.043264947319408, -25.334373931911387 ], [ -54.085313960071169, -25.361157793797076 ], [ -54.113869841619874, -25.361525737023101 ], [ -54.149285391107867, -25.330521417029729 ], [ -54.173109236102327, -25.329432871329914 ], [ -54.17150435993824, -25.296438995563165 ], [ -54.193581162140902, -25.218016442204998 ], [ -54.201230650673949, -25.194161800826407 ], [ -54.159978960660453, -25.191957163192455 ], [ -54.099626261242918, -25.166230991267184 ] ] } }
]
}
