{
"type": "FeatureCollection",
"features": [
{ "type": "Feature", "properties": { "Name": "MUNHOZ DE MELO", "Description": "MUNHOZ DE MELO \/ PR" }, "geometry": { "type": "LineString", "coordinates": [ [ -51.672302361264933, -23.086875862031377 ], [ -51.679600500862364, -23.130062806753074 ], [ -51.694150068370902, -23.156918457021106 ], [ -51.723853192570743, -23.170185897960778 ], [ -51.731866991968047, -23.222481353531577 ], [ -51.779056785841931, -23.209324009395459 ], [ -51.795701625329684, -23.174393996685581 ], [ -51.788544695481278, -23.146635765228325 ], [ -51.763593286800699, -23.122981641189767 ], [ -51.754295589170056, -23.096252402326456 ], [ -51.759318042893312, -23.065879919922338 ], [ -51.749376995451939, -23.039158573509326 ], [ -51.672302361264933, -23.086875862031377 ] ] } }
]
}
