{
"type": "FeatureCollection",
"features": [
{ "type": "Feature", "properties": { "Name": "NOVA OLÃMPIA", "Description": "NOVA OLÃMPIA \/ PR" }, "geometry": { "type": "LineString", "coordinates": [ [ -53.027976253301397, -23.35615710766433 ], [ -53.036164369190253, -23.383856702424847 ], [ -53.023571421583824, -23.476261411335031 ], [ -53.039653719843272, -23.49313245100177 ], [ -53.11946209699812, -23.503206532455465 ], [ -53.116387822140211, -23.471176639989892 ], [ -53.103768385902242, -23.344067625720299 ], [ -53.027976253301397, -23.35615710766433 ] ] } }
]
}
