{
"type": "FeatureCollection",
"features": [
{ "type": "Feature", "properties": { "Name": "NOVA FÃTIMA", "Description": "NOVA FÃTIMA \/ PR" }, "geometry": { "type": "LineString", "coordinates": [ [ -50.482752554186959, -23.325625268091585 ], [ -50.449242535914266, -23.375354924590056 ], [ -50.450587211230754, -23.426525161007305 ], [ -50.44094426476596, -23.447769143331243 ], [ -50.412110106895852, -23.46380154360628 ], [ -50.427905818198894, -23.482461338419967 ], [ -50.565995375685986, -23.482657254828382 ], [ -50.599742229520245, -23.494170256951744 ], [ -50.629588965558298, -23.455338147937137 ], [ -50.637724152747403, -23.41885535139329 ], [ -50.657085829747189, -23.363590066428401 ], [ -50.640684401663748, -23.345240635746677 ], [ -50.589524947218479, -23.34743065669943 ], [ -50.580279114389555, -23.366492438575108 ], [ -50.533696445634398, -23.370149257382252 ], [ -50.499781858346068, -23.348714748286966 ], [ -50.482752554186959, -23.325625268091585 ] ] } }
]
}
