{
"type": "FeatureCollection",
"features": [
{ "type": "Feature", "properties": { "Name": "OURIZONA", "Description": "OURIZONA \/ PR" }, "geometry": { "type": "LineString", "coordinates": [ [ -52.148636389457742, -23.414249029269229 ], [ -52.213272950086541, -23.48068388775118 ], [ -52.224216992520155, -23.522964326642295 ], [ -52.266411753899263, -23.555277576598826 ], [ -52.304826572987906, -23.572977574455479 ], [ -52.324665884422984, -23.554018422312311 ], [ -52.294653633558312, -23.521298136499752 ], [ -52.296366607333027, -23.500731027115137 ], [ -52.276279395078006, -23.469008674910356 ], [ -52.275357179889909, -23.44008299213635 ], [ -52.179014461148427, -23.34997974367019 ], [ -52.178395116041713, -23.349354240905427 ], [ -52.150243291794425, -23.37056798802217 ], [ -52.148636389457742, -23.414249029269229 ] ] } }
]
}
