{
"type": "FeatureCollection",
"features": [
{ "type": "Feature", "properties": { "Name": "PITANGA", "Description": "PITANGA \/ PR" }, "geometry": { "type": "LineString", "coordinates": [ [ -51.468432380150198, -24.555047432692845 ], [ -51.454870698124182, -24.581093498865812 ], [ -51.48910047530665, -24.625933499131634 ], [ -51.47192855935549, -24.647483291420713 ], [ -51.511880686744234, -24.657134736478838 ], [ -51.517552298999362, -24.705299340592035 ], [ -51.531746130679316, -24.718911644556727 ], [ -51.546516199363055, -24.784407182745266 ], [ -51.614201608317501, -24.824881408849873 ], [ -51.640329097309973, -24.866861422916315 ], [ -51.69154370178034, -24.896078843963437 ], [ -51.78048944183422, -24.877770534782314 ], [ -51.834383839842296, -24.844258944494641 ], [ -51.867468856502512, -24.813124755203262 ], [ -51.868699793660483, -24.789564406172357 ], [ -51.927091691328428, -24.752969133218869 ], [ -52.003986747090664, -24.776625428220882 ], [ -52.030512817412557, -24.762620682598367 ], [ -52.052268935762754, -24.788369896953153 ], [ -52.079295136161591, -24.773482107912912 ], [ -52.106830860056107, -24.783625100817687 ], [ -52.119972587464872, -24.779067175709542 ], [ -52.104333827643984, -24.739070049842894 ], [ -52.07620421395324, -24.694376342294333 ], [ -52.092498558861337, -24.675356422061157 ], [ -52.094630682360048, -24.596849247894454 ], [ -52.079681381490502, -24.575732146421387 ], [ -52.047536585345078, -24.566720558207123 ], [ -52.000658484801193, -24.59160540806306 ], [ -51.981684001915141, -24.617114884744069 ], [ -51.943983887546324, -24.599127652419156 ], [ -51.908793303468144, -24.605558261904203 ], [ -51.880906150598321, -24.594303638602014 ], [ -51.877588958963258, -24.551254364797046 ], [ -51.839019956505751, -24.532700650414654 ], [ -51.855464926165382, -24.502228735367794 ], [ -51.833593190073593, -24.490540317781377 ], [ -51.824502610806803, -24.449757432659339 ], [ -51.791653997134226, -24.473715021231214 ], [ -51.790844712513433, -24.493387427487733 ], [ -51.757089429333632, -24.529447989632956 ], [ -51.746995846980717, -24.567651736038727 ], [ -51.724896108468613, -24.596122253039482 ], [ -51.690744428412586, -24.58165733062128 ], [ -51.662105624874641, -24.58457507937635 ], [ -51.604566059675847, -24.555889364502544 ], [ -51.576153663160987, -24.556770832308018 ], [ -51.560196224975748, -24.574960293382784 ], [ -51.533691251849746, -24.554024479945721 ], [ -51.502196927246359, -24.574796338879874 ], [ -51.468432380150198, -24.555047432692845 ] ] } }
]
}
