{
"type": "FeatureCollection",
"features": [
{ "type": "Feature", "properties": { "Name": "PLANALTO", "Description": "PLANALTO \/ PR" }, "geometry": { "type": "LineString", "coordinates": [ [ -53.62202344522575, -25.648225097010595 ], [ -53.611771406824914, -25.652669054633119 ], [ -53.613406717845692, -25.717792438969866 ], [ -53.573134295111572, -25.782628631106373 ], [ -53.576769576055028, -25.799420144623923 ], [ -53.596519426530278, -25.801935057356957 ], [ -53.66334597213887, -25.808376653859455 ], [ -53.687779211241548, -25.822268636188536 ], [ -53.748366566263996, -25.779519594753424 ], [ -53.760454651560906, -25.792524565856013 ], [ -53.810745961656778, -25.794053760472647 ], [ -53.843032570096966, -25.770764107377602 ], [ -53.865796746622486, -25.742373151599622 ], [ -53.84978636624777, -25.690813038390957 ], [ -53.820936910909658, -25.70918569946042 ], [ -53.779457837209407, -25.705710493344554 ], [ -53.73091937053249, -25.666227996424823 ], [ -53.708872736987189, -25.674241014311292 ], [ -53.66777885281175, -25.648340863140277 ], [ -53.62202344522575, -25.648225097010595 ] ] } }
]
}
