{
"type": "FeatureCollection",
"features": [
{ "type": "Feature", "properties": { "Name": "PORTO BARREIRO", "Description": "PORTO BARREIRO \/ PR" }, "geometry": { "type": "LineString", "coordinates": [ [ -52.298512137924767, -25.484017179549141 ], [ -52.269058241944265, -25.499199903053011 ], [ -52.274754075640033, -25.576717473132813 ], [ -52.304689394899633, -25.648289223169058 ], [ -52.342945400010137, -25.641779458954829 ], [ -52.377200263781106, -25.663795423819689 ], [ -52.413840056773154, -25.665300825972281 ], [ -52.395280622702558, -25.700266181139284 ], [ -52.431200563255345, -25.679098276963884 ], [ -52.467118821176598, -25.678693888711958 ], [ -52.530646765036124, -25.645973573221795 ], [ -52.517615874572918, -25.616964362315397 ], [ -52.469965907500573, -25.599417680881231 ], [ -52.443691597888915, -25.561789211003259 ], [ -52.434396238495587, -25.505230734210954 ], [ -52.365710155699098, -25.48497400784413 ], [ -52.349607775578356, -25.493838164799396 ], [ -52.298512137924767, -25.484017179549141 ] ] } }
]
}
