{
"type": "FeatureCollection",
"features": [
{ "type": "Feature", "properties": { "Name": "PORTO AMAZONAS", "Description": "PORTO AMAZONAS \/ PR" }, "geometry": { "type": "LineString", "coordinates": [ [ -49.767160463384641, -25.466718960111848 ], [ -49.799045232251615, -25.497356863928072 ], [ -49.809399024445383, -25.553750513875059 ], [ -49.87695215571739, -25.544400615096265 ], [ -49.879192046775472, -25.571712415895206 ], [ -49.938502526370421, -25.606854193765969 ], [ -49.986038301126648, -25.5997107114801 ], [ -49.990026072245364, -25.56238423664314 ], [ -49.961290032209149, -25.507261922299847 ], [ -49.932719807373189, -25.503450751950595 ], [ -49.910073529269937, -25.448884051357822 ], [ -49.860735487053034, -25.496635786612217 ], [ -49.84652464739451, -25.47610674283186 ], [ -49.767160463384641, -25.466718960111848 ] ] } }
]
}
