{
"type": "FeatureCollection",
"features": [
{ "type": "Feature", "properties": { "Name": "PRADO FERREIRA", "Description": "PRADO FERREIRA \/ PR" }, "geometry": { "type": "LineString", "coordinates": [ [ -51.320382860680411, -23.012812572642073 ], [ -51.343596656860193, -23.026841746549334 ], [ -51.383281717077523, -23.08232647059009 ], [ -51.39831462881704, -23.090320147656655 ], [ -51.492078763723953, -23.066725654964955 ], [ -51.47107047752047, -23.048787828695311 ], [ -51.455864527226083, -22.977536483721678 ], [ -51.42801462427547, -22.994413406753267 ], [ -51.403325119758449, -22.977248267193715 ], [ -51.344150362249358, -22.961675657905232 ], [ -51.320382860680411, -23.012812572642073 ] ] } }
]
}
