{
"type": "FeatureCollection",
"features": [
{ "type": "Feature", "properties": { "Name": "PRANCHITA", "Description": "PRANCHITA \/ PR" }, "geometry": { "type": "LineString", "coordinates": [ [ -53.57450771995525, -25.929631799268066 ], [ -53.566076957085841, -25.957328835457357 ], [ -53.575075292890403, -25.97341482183651 ], [ -53.607876163354206, -25.970790529958943 ], [ -53.628913892462151, -25.990956261122506 ], [ -53.649691555620727, -25.986361399059263 ], [ -53.73472524747217, -26.043082209776117 ], [ -53.771136558705159, -26.030826485453872 ], [ -53.781441282089474, -26.007553081309592 ], [ -53.836019060531157, -25.971940946317599 ], [ -53.841413526013355, -25.932374819642177 ], [ -53.818656984732002, -25.912373792116796 ], [ -53.7708073079109, -25.915697229543468 ], [ -53.749774427048123, -25.927335250921033 ], [ -53.697087060419449, -25.901819418731119 ], [ -53.683520356579145, -25.923847944427052 ], [ -53.60958025092782, -25.951573013383836 ], [ -53.57450771995525, -25.929631799268066 ] ] } }
]
}
