{
"type": "FeatureCollection",
"features": [
{ "type": "Feature", "properties": { "Name": "PRUDENTÃPOLIS", "Description": "PRUDENTÃPOLIS \/ PR" }, "geometry": { "type": "LineString", "coordinates": [ [ -51.017594055521215, -24.969114385420482 ], [ -51.000486393432247, -25.003804590309528 ], [ -50.970539447737281, -25.005542425842236 ], [ -50.952836489312517, -25.071467716761671 ], [ -50.938152121523153, -25.072842540051109 ], [ -50.927424865165335, -25.103351597098477 ], [ -50.943398528019593, -25.147568073108062 ], [ -50.89019826903484, -25.201969498093828 ], [ -50.814841604356502, -25.231067572810218 ], [ -50.819106723696279, -25.263472725385896 ], [ -50.804523888466633, -25.273729263994309 ], [ -50.816865183281543, -25.326528577331942 ], [ -50.81292608527059, -25.352552920380901 ], [ -50.786726951787323, -25.381668740519899 ], [ -50.815697869561006, -25.391140161988858 ], [ -50.832894877496585, -25.378839501241941 ], [ -50.890200608171476, -25.378039391504672 ], [ -50.922127049823473, -25.390463140661378 ], [ -50.984214066625839, -25.434191389121278 ], [ -51.01619641103548, -25.444729687125289 ], [ -51.022358057578231, -25.464153876899839 ], [ -51.069537725085922, -25.482864355705431 ], [ -51.080933978120527, -25.500580956845621 ], [ -51.118812985630768, -25.511894100832023 ], [ -51.115482023576476, -25.475829509724061 ], [ -51.095925101961825, -25.430371549307495 ], [ -51.134432110553405, -25.422460683613622 ], [ -51.154764569729075, -25.399589434704581 ], [ -51.13490821973852, -25.368282500936626 ], [ -51.139397518480671, -25.339658562292755 ], [ -51.209817052614824, -25.305131753427645 ], [ -51.18967638285875, -25.243011737801396 ], [ -51.201569960085521, -25.171783748221344 ], [ -51.245378344434982, -25.104092075488836 ], [ -51.225599078934287, -25.082355486816198 ], [ -51.256813231445442, -25.04846289154915 ], [ -51.297720353411535, -25.065451993314806 ], [ -51.329439545398657, -25.016649218586508 ], [ -51.327931244731133, -24.948030477024872 ], [ -51.343376140396515, -24.92686269605656 ], [ -51.369577302750258, -24.928586456299854 ], [ -51.39960229880699, -24.909507571117445 ], [ -51.393376319261677, -24.877352670189509 ], [ -51.371510804679872, -24.874127857814358 ], [ -51.365677558172706, -24.808940723235764 ], [ -51.316182668795079, -24.781961363126356 ], [ -51.332849850140406, -24.759622541646934 ], [ -51.282429839865188, -24.774550202130058 ], [ -51.222706120890734, -24.772661606048242 ], [ -51.194264021567278, -24.798193560384448 ], [ -51.156430316505862, -24.808035840681441 ], [ -51.116819221030198, -24.866535940281377 ], [ -51.118789618546032, -24.900995927719862 ], [ -51.086624228825031, -24.936815411302121 ], [ -51.056894888488266, -24.938487726727143 ], [ -51.017594055521215, -24.969114385420482 ] ] } }
]
}
