{
"type": "FeatureCollection",
"features": [
{ "type": "Feature", "properties": { "Name": "RANCHO ALEGRE D'OESTE", "Description": "RANCHO ALEGRE D'OESTE \/ PR" }, "geometry": { "type": "LineString", "coordinates": [ [ -52.862582985316465, -24.138514142313795 ], [ -52.869026266249136, -24.139764805201537 ], [ -52.868156834969909, -24.250564462180133 ], [ -52.869376881337978, -24.316312990452104 ], [ -52.945790175676052, -24.328672154796038 ], [ -52.975008818901806, -24.346836612019956 ], [ -53.03715328979245, -24.378111118932964 ], [ -53.061462603216512, -24.404833061596488 ], [ -53.078337989306704, -24.398927144472111 ], [ -53.074586934139631, -24.312160194637215 ], [ -53.008791953186062, -24.281530253418396 ], [ -52.984022775930327, -24.261749274709189 ], [ -52.956334573781533, -24.258877086508278 ], [ -52.895446669827891, -24.189040864344349 ], [ -52.89848256521816, -24.158027686928165 ], [ -52.883569778622359, -24.143188486459451 ], [ -52.869202144863038, -24.135093559220309 ], [ -52.862582985316465, -24.138514142313795 ] ] } }
]
}
