{
"type": "FeatureCollection",
"features": [
{ "type": "Feature", "properties": { "Name": "RANCHO ALEGRE", "Description": "RANCHO ALEGRE \/ PR" }, "geometry": { "type": "LineString", "coordinates": [ [ -50.855123532025345, -23.111512052938846 ], [ -50.871392177007294, -23.146787925122624 ], [ -50.903281879555038, -23.147331282912319 ], [ -50.959550144223726, -23.14789153446668 ], [ -50.97090842158633, -23.12871324901721 ], [ -50.948358801717283, -23.106380144527972 ], [ -50.977154660159385, -23.094799578137952 ], [ -50.988715995446796, -23.047563156214665 ], [ -50.94126804128706, -23.031423710535762 ], [ -50.953712266208072, -23.015133625716203 ], [ -50.946353797389804, -22.981879988870332 ], [ -50.896355783192803, -23.009116353636781 ], [ -50.879451012654044, -23.044994410063907 ], [ -50.855009310031619, -23.068171038162859 ], [ -50.855123532025345, -23.111512052938846 ] ] } }
]
}
