{
"type": "FeatureCollection",
"features": [
{ "type": "Feature", "properties": { "Name": "RIBEIRÃO DO PINHAL", "Description": "RIBEIRÃO DO PINHAL \/ PR" }, "geometry": { "type": "LineString", "coordinates": [ [ -50.468042219372869, -23.260327227319632 ], [ -50.481038564178334, -23.268636276842638 ], [ -50.460097365600909, -23.308239431304685 ], [ -50.41370727946736, -23.324559350233756 ], [ -50.379061975929396, -23.359817394257277 ], [ -50.31709480188357, -23.35593839973734 ], [ -50.304177425647651, -23.382411538661529 ], [ -50.299073101242584, -23.38651071150008 ], [ -50.298118311710653, -23.588334409405434 ], [ -50.387552177690793, -23.597919712025032 ], [ -50.398299868444148, -23.592177190924584 ], [ -50.401638917202206, -23.540767371516949 ], [ -50.427905818198894, -23.482461338419967 ], [ -50.412110106895852, -23.46380154360628 ], [ -50.44094426476596, -23.447769143331243 ], [ -50.450587211230754, -23.426525161007305 ], [ -50.449242535914266, -23.375354924590056 ], [ -50.482752554186959, -23.325625268091585 ], [ -50.484775236487899, -23.305301321898469 ], [ -50.472135738173733, -23.291083750814376 ], [ -50.480467275244507, -23.280988614432943 ], [ -50.478798609268381, -23.273771317592203 ], [ -50.497663873988529, -23.272492043672855 ], [ -50.481086558297989, -23.261418640957455 ], [ -50.468042219372869, -23.260327227319632 ] ] } }
]
}
