{
"type": "FeatureCollection",
"features": [
{ "type": "Feature", "properties": { "Name": "SANTO ANTÃNIO DA PLATINA", "Description": "SANTO ANTÃNIO DA PLATINA \/ PR" }, "geometry": { "type": "LineString", "coordinates": [ [ -50.134200100054557, -23.144839713881652 ], [ -50.117969329121195, -23.169296610550077 ], [ -50.049690168866164, -23.188824456183681 ], [ -50.037827455472666, -23.205725864157273 ], [ -49.970633862362831, -23.237882040323882 ], [ -49.932783475776716, -23.294446605526389 ], [ -49.932903758301784, -23.306105441712702 ], [ -49.935903445187819, -23.373169010841139 ], [ -49.925159177254152, -23.390755169815179 ], [ -49.949244367033884, -23.43183666942673 ], [ -50.004300902264781, -23.445191120673655 ], [ -50.046353003288402, -23.41301798149459 ], [ -50.106158923895173, -23.393213883014255 ], [ -50.142498045648267, -23.402977013078669 ], [ -50.171018421063245, -23.397338349285349 ], [ -50.221867074305976, -23.378200375946562 ], [ -50.234761969289423, -23.356726386613389 ], [ -50.194400200708628, -23.285763780673904 ], [ -50.202281423848603, -23.248141207650576 ], [ -50.22493883645808, -23.224428890280986 ], [ -50.209445913398156, -23.187648698728424 ], [ -50.215050133157092, -23.163999220587527 ], [ -50.24062338616028, -23.135473954659229 ], [ -50.16725560186449, -23.134675318910809 ], [ -50.134200100054557, -23.144839713881652 ] ] } }
]
}
