{
"type": "FeatureCollection",
"features": [
{ "type": "Feature", "properties": { "Name": "SANTA MARIA DO OESTE", "Description": "SANTA MARIA DO OESTE \/ PR" }, "geometry": { "type": "LineString", "coordinates": [ [ -51.78048944183422, -24.877770534782314 ], [ -51.735550594384392, -24.937322895135477 ], [ -51.757465129212271, -24.982132270787645 ], [ -51.722577871171779, -24.993682689204718 ], [ -51.70870023033131, -25.012220048516379 ], [ -51.642559375514736, -25.016567032242676 ], [ -51.664100527117569, -25.061562272580773 ], [ -51.692309945747354, -25.046005845693173 ], [ -51.749506504121825, -25.042246801848364 ], [ -51.772873478228405, -25.023664765116791 ], [ -51.807238639351674, -25.01895994924223 ], [ -51.833715202894261, -24.99753043498157 ], [ -51.894772805320656, -25.015932914872053 ], [ -51.909369415466124, -25.027124047836477 ], [ -51.946691332538933, -25.005994338767664 ], [ -51.97846722588173, -25.021504611548551 ], [ -52.026852725073184, -24.988559781208892 ], [ -52.077676039017945, -24.997433106752453 ], [ -52.105931647727338, -24.984907765680813 ], [ -52.105844450361076, -24.965447528380707 ], [ -52.149878859521721, -24.968164973834405 ], [ -52.139698014151975, -24.922638829518348 ], [ -52.097939354717425, -24.887048022847921 ], [ -52.039897410237245, -24.874816837427034 ], [ -52.057882406847568, -24.849145776856059 ], [ -52.053051711966873, -24.821133830461861 ], [ -52.098955995123049, -24.806248107164375 ], [ -52.106830860056107, -24.783625100817687 ], [ -52.079295136161591, -24.773482107912912 ], [ -52.052268935762754, -24.788369896953153 ], [ -52.030512817412557, -24.762620682598367 ], [ -52.003986747090664, -24.776625428220882 ], [ -51.927091691328428, -24.752969133218869 ], [ -51.868699793660483, -24.789564406172357 ], [ -51.867468856502512, -24.813124755203262 ], [ -51.834383839842296, -24.844258944494641 ], [ -51.78048944183422, -24.877770534782314 ] ] } }
]
}
