{
"type": "FeatureCollection",
"features": [
{ "type": "Feature", "properties": { "Name": "SARANDI", "Description": "SARANDI \/ PR" }, "geometry": { "type": "LineString", "coordinates": [ [ -51.911539446288373, -23.477066758723879 ], [ -51.877918537110759, -23.415934293133091 ], [ -51.84301712194258, -23.393663415434215 ], [ -51.816973230330291, -23.393829182970364 ], [ -51.800477485847239, -23.41244277331532 ], [ -51.806476304737657, -23.445080376358248 ], [ -51.853494022331233, -23.457930588525812 ], [ -51.852960531902959, -23.510818702720879 ], [ -51.876292865023686, -23.522579408712716 ], [ -51.902475037293073, -23.557688803795202 ], [ -51.928031455886916, -23.533417814980112 ], [ -51.909438906080588, -23.509914295008684 ], [ -51.911539446288373, -23.477066758723879 ] ] } }
]
}
