{
"type": "FeatureCollection",
"features": [
{ "type": "Feature", "properties": { "Name": "SIQUEIRA CAMPOS", "Description": "SIQUEIRA CAMPOS \/ PR" }, "geometry": { "type": "LineString", "coordinates": [ [ -49.652367910950261, -23.546709640137749 ], [ -49.67302809656934, -23.600133753869613 ], [ -49.704582726111873, -23.599437148905281 ], [ -49.780594000112949, -23.612097301049573 ], [ -49.784497451695984, -23.629625999640151 ], [ -49.747909412889044, -23.658022724569037 ], [ -49.738109085965505, -23.714137994772614 ], [ -49.762447582389996, -23.737099532017737 ], [ -49.825627220619708, -23.765641098158085 ], [ -49.860170643560302, -23.716731669231081 ], [ -49.850438407006834, -23.692577313492166 ], [ -49.873350363728264, -23.637320664716867 ], [ -49.902666546523847, -23.600486273722478 ], [ -49.877603478917358, -23.607330440947067 ], [ -49.850290637602825, -23.571405869784996 ], [ -49.818677263444897, -23.558893371032184 ], [ -49.737061487297751, -23.560315639854874 ], [ -49.674114811249517, -23.555391697868515 ], [ -49.652367910950261, -23.546709640137749 ] ] } }
]
}
