{
"type": "FeatureCollection",
"features": [
{ "type": "Feature", "properties": { "Name": "TERRA BOA", "Description": "TERRA BOA \/ PR" }, "geometry": { "type": "LineString", "coordinates": [ [ -52.269773681410236, -23.625326897618208 ], [ -52.264104476640227, -23.642842271853336 ], [ -52.282281056725367, -23.676058306245807 ], [ -52.444485253191829, -23.807029431163297 ], [ -52.483001308063876, -23.83812183345583 ], [ -52.496222298120529, -23.831091337495195 ], [ -52.518849117592652, -23.776160748719519 ], [ -52.327758900252995, -23.552491005655327 ], [ -52.324665884422984, -23.554018422312311 ], [ -52.304826572987906, -23.572977574455479 ], [ -52.294246165128357, -23.618521067593122 ], [ -52.269773681410236, -23.625326897618208 ] ] } }
]
}
