{
"type": "FeatureCollection",
"features": [
{ "type": "Feature", "properties": { "Name": "TIJUCAS DO SUL", "Description": "TIJUCAS DO SUL \/ PR" }, "geometry": { "type": "LineString", "coordinates": [ [ -48.962750336258978, -25.830919016199569 ], [ -48.974944573033554, -25.889658061170564 ], [ -48.992452535056429, -25.921653163362748 ], [ -48.954481491827323, -25.96543139794062 ], [ -48.968278140623624, -25.986731595986328 ], [ -49.020160939575646, -26.01574738183615 ], [ -49.073762009309235, -26.00110403212534 ], [ -49.091503529764054, -26.010128629032977 ], [ -49.125580883550867, -25.996105056103431 ], [ -49.138579098046868, -26.013489807408632 ], [ -49.16750213861274, -26.000701210492423 ], [ -49.234478012150475, -26.030661356436383 ], [ -49.236925497313791, -25.978787722475374 ], [ -49.293199813520509, -25.968173729434 ], [ -49.305642292857499, -25.945268957396422 ], [ -49.293858082184727, -25.923566838838497 ], [ -49.258610731100305, -25.920295951496939 ], [ -49.25755542164535, -25.895067583102445 ], [ -49.221336887287464, -25.881170305565092 ], [ -49.207803252418103, -25.825137023854495 ], [ -49.192487036247655, -25.803350535398863 ], [ -49.16294442394598, -25.805473242995731 ], [ -49.147045831999492, -25.752502001765944 ], [ -49.087687955434774, -25.744370279664622 ], [ -49.070012429030328, -25.797025961378949 ], [ -49.002772282514798, -25.795473779191525 ], [ -48.984949365320908, -25.827974846262123 ], [ -48.962750336258978, -25.830919016199569 ] ] } }
]
}
