{
"type": "FeatureCollection",
"features": [
{ "type": "Feature", "properties": { "Name": "TOLEDO", "Description": "TOLEDO \/ PR" }, "geometry": { "type": "LineString", "coordinates": [ [ -53.715429582509159, -24.575100892492173 ], [ -53.595968196075376, -24.689494182810222 ], [ -53.5370637639815, -24.746769618023393 ], [ -53.536893230038515, -24.760508172414173 ], [ -53.574375190462604, -24.803160912645978 ], [ -53.608595569729744, -24.80278851417853 ], [ -53.63171444876275, -24.786862921886268 ], [ -53.684167119317067, -24.779896965772309 ], [ -53.723687431829489, -24.794419379151005 ], [ -53.691042140482352, -24.813175455382918 ], [ -53.654644905437969, -24.867830887585342 ], [ -53.625010806003836, -24.870936202543646 ], [ -53.635608473652098, -24.881577887509479 ], [ -53.636604129277089, -24.93393785504793 ], [ -53.684443963917772, -24.939771125836728 ], [ -53.741811818860299, -24.934558039222111 ], [ -53.778460945915867, -24.906940410471517 ], [ -53.819210672134773, -24.91456767765618 ], [ -53.849115657261734, -24.8763510493614 ], [ -53.78696665019072, -24.82786019459229 ], [ -53.808125782378909, -24.769497743426086 ], [ -53.854121803578323, -24.743044114394309 ], [ -53.924345522927524, -24.717536496611956 ], [ -53.976760199823332, -24.733572721703691 ], [ -53.987869616789339, -24.72307649668295 ], [ -54.029354296863289, -24.740762288848487 ], [ -54.035383234048986, -24.726525951611336 ], [ -54.032045030653592, -24.65565535531033 ], [ -54.005201225356238, -24.658467259256554 ], [ -53.960915378342001, -24.650190908183845 ], [ -53.96051790407796, -24.629384172641437 ], [ -53.917595502130666, -24.575511427610252 ], [ -53.931608374027178, -24.566019186835945 ], [ -53.95954596717263, -24.506657292100329 ], [ -53.915936210687505, -24.512947215241752 ], [ -53.8923536555967, -24.527527883105279 ], [ -53.854167331756912, -24.511473742619103 ], [ -53.866139677004469, -24.473781788698542 ], [ -53.881652216076873, -24.46750124188878 ], [ -53.845504646322354, -24.455116359632253 ], [ -53.812465343101053, -24.482929737517335 ], [ -53.805651003690798, -24.507698617996763 ], [ -53.776019400774658, -24.526165898537329 ], [ -53.769516337409009, -24.55037187716033 ], [ -53.715429582509159, -24.575100892492173 ] ] } }
]
}
