{
"type": "FeatureCollection",
"features": [
{ "type": "Feature", "properties": { "Name": "TUNAS DO PARANÃ", "Description": "TUNAS DO PARANÃ \/ PR" }, "geometry": { "type": "LineString", "coordinates": [ [ -48.650314894716587, -24.943989493919958 ], [ -48.684688274744019, -24.968111689003194 ], [ -48.718705910849053, -24.970276345476918 ], [ -48.76006017933377, -25.001112081257475 ], [ -48.796777323914341, -25.004817234127984 ], [ -48.826004627611439, -25.03073990522239 ], [ -48.926939472678498, -25.034335636680225 ], [ -48.934309627287405, -25.047653052945972 ], [ -49.012257758588646, -25.037039236171776 ], [ -49.054043968754108, -25.050918651374612 ], [ -49.092923284082246, -25.038180452465834 ], [ -49.094392226819764, -25.010127059016497 ], [ -49.115935793102324, -24.984527768841417 ], [ -49.103565689405002, -24.970695021258166 ], [ -49.123334133363528, -24.897459104554002 ], [ -49.10539286628773, -24.892272793454595 ], [ -48.9948948518159, -24.923941815862065 ], [ -48.970000348637136, -24.913694261480941 ], [ -48.929011544846894, -24.87929441170769 ], [ -48.851557876095058, -24.827349716915876 ], [ -48.832456745282514, -24.862957387673244 ], [ -48.730766181014417, -24.868336227434895 ], [ -48.712121190840257, -24.916410770740413 ], [ -48.675906095489893, -24.921219889985878 ], [ -48.650314894716587, -24.943989493919958 ] ] } }
]
}
