{
"type": "FeatureCollection",
"features": [
{ "type": "Feature", "properties": { "Name": "URAÃ", "Description": "URAÃ \/ PR" }, "geometry": { "type": "LineString", "coordinates": [ [ -50.802009996464108, -23.136729010735223 ], [ -50.80260537373897, -23.165612848953799 ], [ -50.783256331314583, -23.171822750419551 ], [ -50.735948161478404, -23.250899867235031 ], [ -50.760839678008665, -23.28751614475425 ], [ -50.802044737274741, -23.305171528143489 ], [ -50.845625768514367, -23.282934956882681 ], [ -50.900293899144117, -23.282529439082282 ], [ -50.903281879555038, -23.147331282912319 ], [ -50.871392177007294, -23.146787925122624 ], [ -50.855123532025345, -23.111512052938846 ], [ -50.842670464969956, -23.110331890604243 ], [ -50.802009996464108, -23.136729010735223 ] ] } }
]
}
