{
"type": "FeatureCollection",
"features": [
{ "type": "Feature", "properties": { "Name": "VERA CRUZ DO OESTE", "Description": "VERA CRUZ DO OESTE \/ PR" }, "geometry": { "type": "LineString", "coordinates": [ [ -53.811280023154488, -24.97664006518681 ], [ -53.813723408308583, -25.096670603765286 ], [ -53.954025053413432, -25.103128465406314 ], [ -53.965538894604265, -25.076537861533041 ], [ -54.034439173429064, -24.929949736790885 ], [ -54.0446015521199, -24.890685167186685 ], [ -53.998212385992758, -24.908141271602346 ], [ -53.956078157081265, -24.90286179883293 ], [ -53.945827221249203, -24.917484923690207 ], [ -53.910432852594056, -24.908530563834404 ], [ -53.921576140726245, -24.946914808671465 ], [ -53.896097669971425, -24.984155760679755 ], [ -53.863299508265641, -24.987744756215477 ], [ -53.846738845321397, -24.971483666438019 ], [ -53.811280023154488, -24.97664006518681 ] ] } }
]
}
