{
"type": "FeatureCollection",
"features": [
{ "type": "Feature", "properties": { "Name": "VIRMOND", "Description": "VIRMOND \/ PR" }, "geometry": { "type": "LineString", "coordinates": [ [ -52.221106298716677, -25.26373966845091 ], [ -52.205174200728713, -25.330457479728864 ], [ -52.172306051083353, -25.365225147722356 ], [ -52.176130436070707, -25.429089981217601 ], [ -52.205327110657599, -25.45624017204625 ], [ -52.192782200338229, -25.478117694376067 ], [ -52.217364680135852, -25.4849346040487 ], [ -52.242301577355875, -25.565365307562843 ], [ -52.274754075640033, -25.576717473132813 ], [ -52.269058241944265, -25.499199903053011 ], [ -52.298512137924767, -25.484017179549141 ], [ -52.264859962916887, -25.472987170021838 ], [ -52.277560904711947, -25.441486601425478 ], [ -52.289662682186986, -25.377244134509166 ], [ -52.287169595100693, -25.338390066748161 ], [ -52.256190841034424, -25.310193655912428 ], [ -52.262525160107991, -25.289592469416903 ], [ -52.221106298716677, -25.26373966845091 ] ] } }
]
}
