{
"type": "FeatureCollection",
"features": [
{ "type": "Feature", "properties": { "Name": "VITORINO", "Description": "VITORINO \/ PR" }, "geometry": { "type": "LineString", "coordinates": [ [ -52.799339572563156, -26.163506059656864 ], [ -52.776941108944982, -26.229754993198352 ], [ -52.730042628864169, -26.274843936598359 ], [ -52.687367038657833, -26.269036887342452 ], [ -52.6608977560266, -26.301426071555909 ], [ -52.684959805350672, -26.301665753471696 ], [ -52.700585176964296, -26.357994744861514 ], [ -52.737763236683968, -26.342184961866451 ], [ -52.775391333343293, -26.347888497356223 ], [ -52.846928539520434, -26.344406535533153 ], [ -52.866331928875354, -26.358157323401709 ], [ -52.908319651031036, -26.35941777091335 ], [ -52.897943840735593, -26.305700561831429 ], [ -52.927861319244464, -26.258459755713091 ], [ -52.878817370625086, -26.241877568395012 ], [ -52.848997119621338, -26.202203232593089 ], [ -52.849550613669862, -26.171323567628516 ], [ -52.819992026710622, -26.146685625740982 ], [ -52.799339572563156, -26.163506059656864 ] ] } }
]
}
