{
"type": "FeatureCollection",
"features": [
{ "type": "Feature", "properties": { "Name": "ALAGOA NOVA", "Description": "ALAGOA NOVA \/ PB" }, "geometry": { "type": "LineString", "coordinates": [ [ -35.693083669875421, -7.027877221056883 ], [ -35.679070154064327, -7.040131724099751 ], [ -35.702209267843386, -7.066557512818918 ], [ -35.711279858778425, -7.088953802775734 ], [ -35.723025895928288, -7.098944998213028 ], [ -35.756949455752761, -7.108597384861355 ], [ -35.81363278092806, -7.102532063803665 ], [ -35.815793152132244, -7.082231826437578 ], [ -35.834691924692549, -7.0600142191808 ], [ -35.855742290174533, -7.050720004624451 ], [ -35.831396276317037, -7.02909151985773 ], [ -35.779518342697315, -7.027754392551117 ], [ -35.762730118000491, -7.033481782558169 ], [ -35.733426188467774, -7.021531521962117 ], [ -35.693083669875421, -7.027877221056883 ] ] } }
]
}
