{
"type": "FeatureCollection",
"features": [
{ "type": "Feature", "properties": { "Name": "ARARA", "Description": "ARARA \/ PB" }, "geometry": { "type": "LineString", "coordinates": [ [ -35.700875720737884, -6.814721697548237 ], [ -35.705127626338822, -6.843434918186858 ], [ -35.692889316488731, -6.860210061345185 ], [ -35.658897217532513, -6.868102301180214 ], [ -35.645474400722939, -6.882787607861758 ], [ -35.650070992182521, -6.91002956820995 ], [ -35.680081470483458, -6.891132341584238 ], [ -35.727181271898132, -6.894663184258491 ], [ -35.767586391398822, -6.875188581188013 ], [ -35.802863136824271, -6.866296412149666 ], [ -35.810167166981103, -6.863620028841183 ], [ -35.811499940669705, -6.842544908620595 ], [ -35.786849889410803, -6.824182801994652 ], [ -35.756433631606797, -6.825125676408788 ], [ -35.736299238219203, -6.814228990475499 ], [ -35.718817765727238, -6.822240550560934 ], [ -35.700875720737884, -6.814721697548237 ] ] } }
]
}
