{
"type": "FeatureCollection",
"features": [
{ "type": "Feature", "properties": { "Name": "AROEIRAS", "Description": "AROEIRAS \/ PB" }, "geometry": { "type": "LineString", "coordinates": [ [ -35.583972589863095, -7.450592320778924 ], [ -35.582500490505197, -7.462074410505579 ], [ -35.593912616573959, -7.494753323007387 ], [ -35.593690937286908, -7.535091788355316 ], [ -35.600277248196392, -7.556965759262311 ], [ -35.600318262677661, -7.589122944468271 ], [ -35.591158149628882, -7.600640680622859 ], [ -35.596028773509033, -7.617880612300382 ], [ -35.618866313129786, -7.605758596482018 ], [ -35.656133224068981, -7.617627302058281 ], [ -35.670447308596351, -7.622407600730127 ], [ -35.678917656024964, -7.638586935838362 ], [ -35.711500350061044, -7.641936137043046 ], [ -35.733562202833347, -7.629985441175109 ], [ -35.734126354747445, -7.597829834279366 ], [ -35.795986236975239, -7.535439434782063 ], [ -35.817420409724093, -7.522573308211577 ], [ -35.82999463704283, -7.494139349551289 ], [ -35.831812730772867, -7.466293207565457 ], [ -35.824857374068522, -7.46032070103945 ], [ -35.807720331128337, -7.47180627473972 ], [ -35.788773217310109, -7.464856296880555 ], [ -35.770745773598549, -7.481715155230177 ], [ -35.754685525816342, -7.469815007556519 ], [ -35.747801026695981, -7.474645268064648 ], [ -35.707783291965313, -7.472628535678325 ], [ -35.686637375314604, -7.476351713660619 ], [ -35.675251085868865, -7.460354024518551 ], [ -35.631560192548811, -7.449997935456281 ], [ -35.583972589863095, -7.450592320778924 ] ] } }
]
}
