{
"type": "FeatureCollection",
"features": [
{ "type": "Feature", "properties": { "Name": "BANANEIRAS", "Description": "BANANEIRAS \/ PB" }, "geometry": { "type": "LineString", "coordinates": [ [ -35.536795341531729, -6.601986624183326 ], [ -35.525536571455575, -6.608753649361404 ], [ -35.525979520838177, -6.644650385606781 ], [ -35.525937739235246, -6.662746657132459 ], [ -35.538412965585849, -6.684243627741181 ], [ -35.546957813752044, -6.713730667336392 ], [ -35.537785152462781, -6.737439910823183 ], [ -35.521592573038788, -6.758528957945032 ], [ -35.528539579537949, -6.771528718375578 ], [ -35.536302880873222, -6.770931567637716 ], [ -35.56710954516933, -6.792144921750719 ], [ -35.590630286258659, -6.784482565717781 ], [ -35.64419283982766, -6.774975670490733 ], [ -35.647201329277891, -6.758515316128864 ], [ -35.67649855976066, -6.727234343090402 ], [ -35.672976990895393, -6.703672361790041 ], [ -35.688898296119419, -6.670197805584223 ], [ -35.683556582170468, -6.659357361453033 ], [ -35.661145536137553, -6.636586007438267 ], [ -35.628404870788131, -6.656035528416851 ], [ -35.610432210178317, -6.652608805651823 ], [ -35.587709649780493, -6.616897152581487 ], [ -35.562671097692942, -6.600656229201547 ], [ -35.552147748219966, -6.609543582370407 ], [ -35.536795341531729, -6.601986624183326 ] ] } }
]
}
