{
"type": "FeatureCollection",
"features": [
{ "type": "Feature", "properties": { "Name": "BAYEUX", "Description": "BAYEUX \/ PB" }, "geometry": { "type": "LineString", "coordinates": [ [ -34.889616704946945, -7.092318162952836 ], [ -34.894130502120959, -7.121798059233015 ], [ -34.919097234349863, -7.134950036215173 ], [ -34.909892298190982, -7.150840665564203 ], [ -34.92330020963692, -7.171751702678876 ], [ -34.936694139323031, -7.166439123166981 ], [ -34.954094510952871, -7.148445933732829 ], [ -34.941036445675365, -7.1229648333603 ], [ -34.91327990044698, -7.114307937761054 ], [ -34.905772928377871, -7.089297424736344 ], [ -34.889616704946945, -7.092318162952836 ] ] } }
]
}
