{
"type": "FeatureCollection",
"features": [
{ "type": "Feature", "properties": { "Name": "BELÃM DO BREJO DO CRUZ", "Description": "BELÃM DO BREJO DO CRUZ \/ PB" }, "geometry": { "type": "LineString", "coordinates": [ [ -37.234271500529296, -6.213278337225461 ], [ -37.251790164484468, -6.190855194411653 ], [ -37.289205951893109, -6.18604106594239 ], [ -37.301092537790339, -6.189177417403869 ], [ -37.332952325289511, -6.170767908412188 ], [ -37.376965674126495, -6.174505961181126 ], [ -37.401256931861887, -6.19272591916581 ], [ -37.434021393272644, -6.199353891169095 ], [ -37.445592692148978, -6.216874637954105 ], [ -37.484568042481158, -6.243761796869364 ], [ -37.545608226838169, -6.240579546708659 ], [ -37.57637412036933, -6.246732979743172 ], [ -37.613024179122533, -6.270846672635798 ], [ -37.623791902274434, -6.248340379404965 ], [ -37.616249136288559, -6.176197514004002 ], [ -37.604170525349438, -6.175337520210348 ], [ -37.569620459116834, -6.15543874470228 ], [ -37.539994959000126, -6.165930313932789 ], [ -37.536350781063668, -6.152835980795828 ], [ -37.482991107353655, -6.151680995881236 ], [ -37.458947430279636, -6.145002224772782 ], [ -37.445693067281184, -6.112201845338859 ], [ -37.393631924673514, -6.10938765171869 ], [ -37.382338787005374, -6.08555377928343 ], [ -37.354434164804836, -6.086485947268613 ], [ -37.335779480838312, -6.067459493460831 ], [ -37.295571883935217, -6.050094748473839 ], [ -37.27247735674456, -6.055702517856843 ], [ -37.256473980289911, -6.028470630814923 ], [ -37.231860240957303, -6.027594927663756 ], [ -37.222687222637148, -6.042148094259119 ], [ -37.202158897415131, -6.038842000258057 ], [ -37.175572744286683, -6.054939288417359 ], [ -37.171571166775884, -6.101300273388858 ], [ -37.166975287579419, -6.110355681969111 ], [ -37.175096167454114, -6.142182742239697 ], [ -37.162419501059105, -6.159863684361482 ], [ -37.174221022781914, -6.180103617687735 ], [ -37.193523798684339, -6.18425308601104 ], [ -37.201581323119512, -6.205703988847972 ], [ -37.234271500529296, -6.213278337225461 ] ] } }
]
}
