{
"type": "FeatureCollection",
"features": [
{ "type": "Feature", "properties": { "Name": "BERNARDINO BATISTA", "Description": "BERNARDINO BATISTA \/ PB" }, "geometry": { "type": "LineString", "coordinates": [ [ -38.513361759437601, -6.493397068220077 ], [ -38.537080799239448, -6.49205703790193 ], [ -38.536355790986931, -6.51126158355521 ], [ -38.592096400028822, -6.519264488565227 ], [ -38.607084545315438, -6.529514828146773 ], [ -38.612288204337112, -6.513191322721297 ], [ -38.594972341999949, -6.500442174566672 ], [ -38.570410105941619, -6.470195139494024 ], [ -38.555445270183043, -6.437509771658597 ], [ -38.535074114978386, -6.444965328586989 ], [ -38.513361759437601, -6.493397068220077 ] ] } }
]
}
