{
"type": "FeatureCollection",
"features": [
{ "type": "Feature", "properties": { "Name": "CABACEIRAS", "Description": "CABACEIRAS \/ PB" }, "geometry": { "type": "LineString", "coordinates": [ [ -36.147658338561428, -7.34629657073009 ], [ -36.142482780655769, -7.356117248412261 ], [ -36.14604388641618, -7.39149514778279 ], [ -36.189087830838673, -7.398386067163244 ], [ -36.19413118660492, -7.424509499313898 ], [ -36.217015027821212, -7.445168353036991 ], [ -36.216870425829427, -7.500623566724187 ], [ -36.224338647910201, -7.554804598453416 ], [ -36.225431136237887, -7.542184196343555 ], [ -36.247659181925656, -7.53316566086653 ], [ -36.26225917801861, -7.552735851078636 ], [ -36.284533625126642, -7.56356659961881 ], [ -36.299841750995995, -7.579947602299966 ], [ -36.301799011215337, -7.598238672376794 ], [ -36.314471645949652, -7.593524091663425 ], [ -36.33358366125691, -7.565416382759792 ], [ -36.328086217105181, -7.550560129346422 ], [ -36.350193333655398, -7.54755977246549 ], [ -36.381249353874523, -7.511953836500311 ], [ -36.427405123447663, -7.488724553095608 ], [ -36.330845471141515, -7.307532465750626 ], [ -36.345854697436266, -7.367560024275632 ], [ -36.317421118289928, -7.3720312592352 ], [ -36.281259809592484, -7.369832279236276 ], [ -36.268447890557638, -7.360393436607751 ], [ -36.235450915727142, -7.370044593882881 ], [ -36.195904564244188, -7.361764961183952 ], [ -36.175723108434681, -7.347417599942219 ], [ -36.147658338561428, -7.34629657073009 ] ] } }
]
}
