{
"type": "FeatureCollection",
"features": [
{ "type": "Feature", "properties": { "Name": "CARAÃBAS", "Description": "CARAÃBAS \/ PB" }, "geometry": { "type": "LineString", "coordinates": [ [ -36.47928170538637, -7.653399411153828 ], [ -36.44331492454409, -7.653841961237447 ], [ -36.445749466664495, -7.67452197780699 ], [ -36.399199013423697, -7.76608393292713 ], [ -36.396427688686849, -7.808697269363449 ], [ -36.424047567541152, -7.815778199304419 ], [ -36.429964235161265, -7.827111489003983 ], [ -36.429695220957626, -7.886559188056026 ], [ -36.446301334738784, -7.916379628816741 ], [ -36.461251111349668, -7.914656102397145 ], [ -36.480136377891483, -7.924763256419112 ], [ -36.499387848370475, -7.920314644804988 ], [ -36.536464240632142, -7.901609358684937 ], [ -36.567970205160805, -7.861705974551057 ], [ -36.556458774153043, -7.828582725912042 ], [ -36.555722728521062, -7.807263700559303 ], [ -36.571029018874071, -7.797433355165139 ], [ -36.58960476664663, -7.771627449347251 ], [ -36.613915413765312, -7.761376280590809 ], [ -36.624683967890739, -7.729835653492557 ], [ -36.617312618982105, -7.705355118144154 ], [ -36.578867759839227, -7.717884775062259 ], [ -36.54906255089594, -7.667529320821473 ], [ -36.589458862436516, -7.633862037203186 ], [ -36.578491853116475, -7.625839611508809 ], [ -36.52501240409913, -7.641231503830795 ], [ -36.494372722323241, -7.632869558882987 ], [ -36.47928170538637, -7.653399411153828 ] ] } }
]
}
