{
"type": "FeatureCollection",
"features": [
{ "type": "Feature", "properties": { "Name": "CUITÃ DE MAMANGUAPE", "Description": "CUITÃ DE MAMANGUAPE \/ PB" }, "geometry": { "type": "LineString", "coordinates": [ [ -35.227326514307151, -6.869056239953466 ], [ -35.223766235922994, -6.887951335185903 ], [ -35.193895898077187, -6.918998828033466 ], [ -35.17716195016385, -6.929249263842394 ], [ -35.179080430717249, -6.950670978282972 ], [ -35.205710587673423, -6.941432111602636 ], [ -35.240293648233262, -6.954545974417158 ], [ -35.263527692648836, -6.956108159763687 ], [ -35.286527516731496, -6.944356529730044 ], [ -35.306458143528459, -6.882286862648527 ], [ -35.318776871655245, -6.860816278148661 ], [ -35.300425168386766, -6.851604124031041 ], [ -35.273583435127357, -6.845898286276849 ], [ -35.24073708055181, -6.87053533603688 ], [ -35.227326514307151, -6.869056239953466 ] ] } }
]
}
