{
"type": "FeatureCollection",
"features": [
{ "type": "Feature", "properties": { "Name": "CURRAL VELHO", "Description": "CURRAL VELHO \/ PB" }, "geometry": { "type": "LineString", "coordinates": [ [ -38.095052771168412, -7.477153177776869 ], [ -38.07371896186055, -7.52812657777929 ], [ -38.107654697606165, -7.548012098179753 ], [ -38.102360287996873, -7.569353747777199 ], [ -38.103765258359942, -7.570550184243587 ], [ -38.105450461969212, -7.571552520032753 ], [ -38.13287722490395, -7.598880019397313 ], [ -38.169608742449441, -7.613201928925832 ], [ -38.183505298730495, -7.613351811736663 ], [ -38.242964020772888, -7.58142336549588 ], [ -38.247668937371543, -7.569186767055611 ], [ -38.232437392371708, -7.536565843738628 ], [ -38.257459431107797, -7.484045170947808 ], [ -38.222006831350143, -7.486957344805545 ], [ -38.153662508917591, -7.46376673224887 ], [ -38.144353711854251, -7.478957010057911 ], [ -38.095052771168412, -7.477153177776869 ] ] } }
]
}
