{
"type": "FeatureCollection",
"features": [
{ "type": "Feature", "properties": { "Name": "FREI MARTINHO", "Description": "FREI MARTINHO \/ PB" }, "geometry": { "type": "LineString", "coordinates": [ [ -36.343992836400218, -6.302538261731343 ], [ -36.336399205658779, -6.322379394293591 ], [ -36.35463145917447, -6.351743665637628 ], [ -36.376877628899422, -6.378210176558355 ], [ -36.375026011141472, -6.392727565424764 ], [ -36.39044117252206, -6.412022327468378 ], [ -36.420556045924741, -6.403628977295398 ], [ -36.43881527550451, -6.431762851074666 ], [ -36.419315433860163, -6.464816171129371 ], [ -36.421647302181213, -6.478161894455809 ], [ -36.459544624384876, -6.518413482596088 ], [ -36.469190530518517, -6.549096152865104 ], [ -36.480956551503596, -6.523082750968114 ], [ -36.52584679689209, -6.501161337225881 ], [ -36.530971554793382, -6.452071557356419 ], [ -36.510731905652904, -6.407478027089211 ], [ -36.499848478424497, -6.358164971636086 ], [ -36.432603458482788, -6.363098081311364 ], [ -36.394561407482904, -6.293974776015034 ], [ -36.362604812462109, -6.309978802679552 ], [ -36.343992836400218, -6.302538261731343 ] ] } }
]
}
