{
"type": "FeatureCollection",
"features": [
{ "type": "Feature", "properties": { "Name": "JUAZEIRINHO", "Description": "JUAZEIRINHO \/ PB" }, "geometry": { "type": "LineString", "coordinates": [ [ -36.476708011165719, -6.994208431973505 ], [ -36.488515379381226, -7.027169000448964 ], [ -36.470503329365101, -7.132319592974795 ], [ -36.488469611982964, -7.160407210124617 ], [ -36.486325432172919, -7.189976721148695 ], [ -36.568039569870223, -7.179272375020049 ], [ -36.591643261727079, -7.172613374607521 ], [ -36.613329822912924, -7.129033810162183 ], [ -36.662316101606734, -7.130646731661272 ], [ -36.66132117802988, -7.127099373836983 ], [ -36.668752306673582, -7.09030102856957 ], [ -36.657609547342695, -7.04996280693797 ], [ -36.675990767260032, -7.014953975845287 ], [ -36.654543838527275, -7.009770994935422 ], [ -36.635279345865058, -7.019975601292912 ], [ -36.61490343054885, -6.9907269944552 ], [ -36.598764835628629, -6.98023507718699 ], [ -36.571892475956929, -6.977113196716629 ], [ -36.574878096546854, -6.938356753061669 ], [ -36.571325942638111, -6.920104924002999 ], [ -36.556272931050898, -6.90984374219488 ], [ -36.558022086350149, -6.889138219952827 ], [ -36.472045047041263, -6.950734078315008 ], [ -36.476708011165719, -6.994208431973505 ] ] } }
]
}
