{
"type": "FeatureCollection",
"features": [
{ "type": "Feature", "properties": { "Name": "MARI", "Description": "MARI \/ PB" }, "geometry": { "type": "LineString", "coordinates": [ [ -35.287817396355706, -7.108960164180189 ], [ -35.307290056890558, -7.118115580069912 ], [ -35.332047555550218, -7.097230920970162 ], [ -35.375862156013618, -7.033122297456031 ], [ -35.375865669664897, -7.032597897375013 ], [ -35.366588649246687, -6.999393428264057 ], [ -35.317171553924027, -6.985467626030072 ], [ -35.277947054512936, -6.969316342575098 ], [ -35.263527692648836, -6.956108159763687 ], [ -35.254027683530751, -6.981685115275809 ], [ -35.259189662572851, -7.035654843196425 ], [ -35.248282129017014, -7.051233535499193 ], [ -35.263832087081084, -7.084389225382381 ], [ -35.287817396355706, -7.108960164180189 ] ] } }
]
}
