{
"type": "FeatureCollection",
"features": [
{ "type": "Feature", "properties": { "Name": "MATURÃIA", "Description": "MATURÃIA \/ PB" }, "geometry": { "type": "LineString", "coordinates": [ [ -37.334441956930732, -7.228200901050684 ], [ -37.308791730054281, -7.247909031076858 ], [ -37.306007859774866, -7.262191134812951 ], [ -37.313959359536796, -7.289361329261908 ], [ -37.328215346061313, -7.288058117188314 ], [ -37.357008235841363, -7.320989055700295 ], [ -37.349376338946854, -7.335118160474678 ], [ -37.385713734001563, -7.356693827158323 ], [ -37.395977038209708, -7.331000422031821 ], [ -37.397665695215608, -7.308004602630262 ], [ -37.380914313045075, -7.295935794301442 ], [ -37.40901632834084, -7.267489289199318 ], [ -37.399597906618055, -7.257633841928225 ], [ -37.357643746261829, -7.241840961690968 ], [ -37.334441956930732, -7.228200901050684 ] ] } }
]
}
