{
"type": "FeatureCollection",
"features": [
{ "type": "Feature", "properties": { "Name": "MONTEIRO", "Description": "MONTEIRO \/ PB" }, "geometry": { "type": "LineString", "coordinates": [ [ -36.961692432859422, -7.831115435329025 ], [ -36.934475126525797, -7.873718299160146 ], [ -36.925143177315761, -8.036980043494166 ], [ -36.96911297648262, -8.060607612351362 ], [ -37.025145704210843, -8.041530391814092 ], [ -37.038388639524044, -8.044048202162742 ], [ -37.06853472659634, -8.033711069909884 ], [ -37.092993040596298, -8.050977061242349 ], [ -37.123620449324221, -8.041025609544192 ], [ -37.130207806145279, -8.024584794752457 ], [ -37.149570341997617, -8.023738172978254 ], [ -37.160418939382502, -7.997152918272491 ], [ -37.175309263611602, -7.996858303967485 ], [ -37.193394607475113, -7.982866729815668 ], [ -37.192675588707402, -7.960598181360922 ], [ -37.20791986990605, -7.951866177981685 ], [ -37.219588774901979, -7.972793435268785 ], [ -37.291779347538807, -7.965310855511517 ], [ -37.312426820341443, -7.967758459385322 ], [ -37.340288957669202, -7.979683277261415 ], [ -37.352010436132673, -7.968522274283487 ], [ -37.343453351790679, -7.947020860124553 ], [ -37.308976362668943, -7.93417624174009 ], [ -37.303651490324, -7.90417571263896 ], [ -37.287394449294368, -7.90387646412745 ], [ -37.244093513704627, -7.873845562222868 ], [ -37.247150251782671, -7.846803934853654 ], [ -37.222813676310068, -7.836209265545107 ], [ -37.230561764713627, -7.806740967821383 ], [ -37.217416028127161, -7.806685878950133 ], [ -37.191537653140131, -7.791169415236253 ], [ -37.158481260102008, -7.792332351057098 ], [ -37.151950733239687, -7.779844203247308 ], [ -37.137846339137177, -7.782249389697541 ], [ -37.115107233012338, -7.769952776799186 ], [ -37.059182538143602, -7.75174085245834 ], [ -37.025208069496784, -7.717852649480164 ], [ -37.012941031703235, -7.751029387995799 ], [ -36.961692432859422, -7.831115435329025 ] ] } }
]
}
