{
"type": "FeatureCollection",
"features": [
{ "type": "Feature", "properties": { "Name": "NATUBA", "Description": "NATUBA \/ PB" }, "geometry": { "type": "LineString", "coordinates": [ [ -35.551407446096725, -7.441576882567005 ], [ -35.550231869405195, -7.46804961589703 ], [ -35.521671218751692, -7.481274186154736 ], [ -35.494926452193965, -7.483911514604642 ], [ -35.527211048850795, -7.569961437670145 ], [ -35.537272346441561, -7.580643421256866 ], [ -35.518316465132727, -7.603961903019353 ], [ -35.531687070002242, -7.621666104307223 ], [ -35.519631904388859, -7.640017507202173 ], [ -35.534612056501146, -7.655484049549216 ], [ -35.559563391437337, -7.661330038550374 ], [ -35.587685931960152, -7.65022426653661 ], [ -35.619496956419368, -7.662513421357289 ], [ -35.63593987202745, -7.632077801149535 ], [ -35.656133224068981, -7.617627302058281 ], [ -35.618866313129786, -7.605758596482018 ], [ -35.596028773509033, -7.617880612300382 ], [ -35.591158149628882, -7.600640680622859 ], [ -35.600318262677661, -7.589122944468271 ], [ -35.600277248196392, -7.556965759262311 ], [ -35.593690937286908, -7.535091788355316 ], [ -35.593912616573959, -7.494753323007387 ], [ -35.582500490505197, -7.462074410505579 ], [ -35.583972589863095, -7.450592320778924 ], [ -35.56604881550038, -7.438633086747529 ], [ -35.551407446096725, -7.441576882567005 ] ] } }
]
}
