{
"type": "FeatureCollection",
"features": [
{ "type": "Feature", "properties": { "Name": "NOVA PALMEIRA", "Description": "NOVA PALMEIRA \/ PB" }, "geometry": { "type": "LineString", "coordinates": [ [ -36.2816988019581, -6.678166541752431 ], [ -36.30997811319935, -6.686272164628633 ], [ -36.315161411569818, -6.69781973129551 ], [ -36.339933248120872, -6.712632448528609 ], [ -36.344893615348035, -6.743005813167713 ], [ -36.368857467697921, -6.739006815811877 ], [ -36.377508349530672, -6.7476338188456 ], [ -36.402546740639536, -6.742365908659735 ], [ -36.458052075342948, -6.719759241195959 ], [ -36.489681431352949, -6.727389803496578 ], [ -36.508136882211318, -6.725136044892508 ], [ -36.533518090387531, -6.733486087313054 ], [ -36.544204454571855, -6.73120350453803 ], [ -36.558693023763965, -6.707651790797456 ], [ -36.547414768077033, -6.695149713388502 ], [ -36.541746147866377, -6.666063275000112 ], [ -36.513810751764765, -6.594393000636444 ], [ -36.471708645737344, -6.616554362493786 ], [ -36.460517975024459, -6.634393625765142 ], [ -36.438222299419522, -6.629283496236326 ], [ -36.406040574412941, -6.659797986088165 ], [ -36.384647990812084, -6.629359615753629 ], [ -36.380295489745038, -6.593441274195412 ], [ -36.307838420106975, -6.64596615311541 ], [ -36.2816988019581, -6.678166541752431 ] ] } }
]
}
