{
"type": "FeatureCollection",
"features": [
{ "type": "Feature", "properties": { "Name": "PASSAGEM", "Description": "PASSAGEM \/ PB" }, "geometry": { "type": "LineString", "coordinates": [ [ -37.006933296034731, -7.052492073750158 ], [ -37.006026413388213, -7.075053982854968 ], [ -36.993706426210565, -7.119407182795214 ], [ -37.004841381224708, -7.127744694961677 ], [ -36.996435346114311, -7.14834645252671 ], [ -37.00026968389875, -7.174307005763637 ], [ -37.063310406549988, -7.154947174172719 ], [ -37.088844537245564, -7.169105874736259 ], [ -37.09775632589367, -7.117316838201475 ], [ -37.086977804581977, -7.109133036360504 ], [ -37.093135024661592, -7.09775406200032 ], [ -37.083148606422981, -7.072667662382685 ], [ -37.06479790050264, -7.071725625237377 ], [ -37.039777544398135, -7.057180534553993 ], [ -37.006933296034731, -7.052492073750158 ] ] } }
]
}
