{
"type": "FeatureCollection",
"features": [
{ "type": "Feature", "properties": { "Name": "PICUÃ", "Description": "PICUÃ \/ PB" }, "geometry": { "type": "LineString", "coordinates": [ [ -36.226534924547082, -6.434028174060927 ], [ -36.225063998804444, -6.559366666938103 ], [ -36.234223704460355, -6.594838460026835 ], [ -36.250331699048616, -6.580702267695471 ], [ -36.291169491378859, -6.558231077702033 ], [ -36.299024960633403, -6.566342204429134 ], [ -36.271543349845672, -6.61192128284091 ], [ -36.277458326740316, -6.657236553224323 ], [ -36.266431320049321, -6.696242765591137 ], [ -36.2816988019581, -6.678166541752431 ], [ -36.307838420106975, -6.64596615311541 ], [ -36.380295489745038, -6.593441274195412 ], [ -36.384647990812084, -6.629359615753629 ], [ -36.406040574412941, -6.659797986088165 ], [ -36.438222299419522, -6.629283496236326 ], [ -36.44223251671724, -6.564705875375807 ], [ -36.469190530518517, -6.549096152865104 ], [ -36.459544624384876, -6.518413482596088 ], [ -36.421647302181213, -6.478161894455809 ], [ -36.419315433860163, -6.464816171129371 ], [ -36.43881527550451, -6.431762851074666 ], [ -36.420556045924741, -6.403628977295398 ], [ -36.39044117252206, -6.412022327468378 ], [ -36.375026011141472, -6.392727565424764 ], [ -36.376877628899422, -6.378210176558355 ], [ -36.35463145917447, -6.351743665637628 ], [ -36.336399205658779, -6.322379394293591 ], [ -36.343992836400218, -6.302538261731343 ], [ -36.313640000585508, -6.283356092109898 ], [ -36.303523881222077, -6.283033732820456 ], [ -36.279872700664548, -6.30886152004308 ], [ -36.27674745313243, -6.340430467691874 ], [ -36.299244551694642, -6.382057108448748 ], [ -36.291610559379755, -6.395995695444924 ], [ -36.251162868671429, -6.404423479759714 ], [ -36.249772072523058, -6.437359913129455 ], [ -36.226534924547082, -6.434028174060927 ] ] } }
]
}
