{
"type": "FeatureCollection",
"features": [
{ "type": "Feature", "properties": { "Name": "PILAR", "Description": "PILAR \/ PB" }, "geometry": { "type": "LineString", "coordinates": [ [ -35.232551784936902, -7.205526071271151 ], [ -35.242543475001355, -7.239802254370487 ], [ -35.220349775321836, -7.300105213185019 ], [ -35.271677406587003, -7.363522017926754 ], [ -35.292105422327325, -7.321239973745718 ], [ -35.308732622512473, -7.32289083044742 ], [ -35.322296747996461, -7.29169447731823 ], [ -35.294940445145357, -7.288408748464917 ], [ -35.287245176623571, -7.266132136688725 ], [ -35.304744879272732, -7.216041448254203 ], [ -35.237128232481894, -7.211006452585649 ], [ -35.232551784936902, -7.205526071271151 ] ] } }
]
}
