{
"type": "FeatureCollection",
"features": [
{ "type": "Feature", "properties": { "Name": "PILÃEZINHOS", "Description": "PILÃEZINHOS \/ PB" }, "geometry": { "type": "LineString", "coordinates": [ [ -35.565409777938832, -6.886452062812396 ], [ -35.587815621393759, -6.839284556836787 ], [ -35.580354779149673, -6.822325648010177 ], [ -35.503217220298438, -6.819665277130809 ], [ -35.508537612220998, -6.834624015485871 ], [ -35.530919129014535, -6.859022855520323 ], [ -35.530914429157519, -6.880369162706643 ], [ -35.565409777938832, -6.886452062812396 ] ] } }
]
}
