{
"type": "FeatureCollection",
"features": [
{ "type": "Feature", "properties": { "Name": "PITIMBU", "Description": "PITIMBU \/ PB" }, "geometry": { "type": "LineString", "coordinates": [ [ -34.802295943602871, -7.38347897777254 ], [ -34.811364344688741, -7.454514330771701 ], [ -34.80419100311223, -7.470718499758903 ], [ -34.81450897980551, -7.493544375172746 ], [ -34.809547375111208, -7.509061856019797 ], [ -34.825890310389468, -7.54964801984022 ], [ -34.853841780074049, -7.539645939908155 ], [ -34.854913906851266, -7.463649472345252 ], [ -34.849479330706515, -7.438876423508077 ], [ -34.874344642791016, -7.427972439576364 ], [ -34.881539345064652, -7.417327968510905 ], [ -34.910819582857407, -7.41073996957391 ], [ -34.859849623661141, -7.343341733933812 ], [ -34.820158507409133, -7.349775739258916 ], [ -34.802295943602871, -7.38347897777254 ] ] } }
]
}
