{
"type": "FeatureCollection",
"features": [
{ "type": "Feature", "properties": { "Name": "POMBAL", "Description": "POMBAL \/ PB" }, "geometry": { "type": "LineString", "coordinates": [ [ -37.784826813706445, -6.642968597622655 ], [ -37.657348907426069, -6.722665787096332 ], [ -37.630953423161884, -6.75707953139522 ], [ -37.622706002380085, -6.780121453642153 ], [ -37.631040491925091, -6.806620162990099 ], [ -37.730371730670804, -6.799475047535395 ], [ -37.75157589461179, -6.813679307753829 ], [ -37.751137874413303, -6.839707630302826 ], [ -37.78428607744047, -6.848001943534825 ], [ -37.785203536114238, -6.880058437047182 ], [ -37.840984933907521, -6.868549932433382 ], [ -37.856044597779942, -6.897538982338119 ], [ -37.871183546783186, -6.90265225499752 ], [ -37.876953410871181, -6.925754743886273 ], [ -37.892041139886658, -6.946649110268197 ], [ -37.906709302792024, -6.952950914353153 ], [ -37.919351974813765, -6.971999804447363 ], [ -37.905846618226803, -6.990406583996617 ], [ -37.870576887513323, -7.018934214242563 ], [ -37.929635410345895, -6.994316167157365 ], [ -38.006418632713689, -6.944301009184187 ], [ -38.014642293407064, -6.88466548942074 ], [ -37.997508997042523, -6.872893973577959 ], [ -37.944446795683007, -6.871232552540221 ], [ -37.917873297814424, -6.842106377607195 ], [ -37.886660416045345, -6.838889172597192 ], [ -37.874354058093274, -6.816336868251824 ], [ -37.892486644243206, -6.807690124199837 ], [ -37.89742968423252, -6.788773527975877 ], [ -37.897806220480675, -6.73453832558323 ], [ -37.927375811544437, -6.737130571918328 ], [ -37.986242985625267, -6.749548892767166 ], [ -38.024856258109764, -6.764090531852503 ], [ -38.029170501117676, -6.717579096598001 ], [ -37.986179460213854, -6.711927079670943 ], [ -37.983176346910852, -6.696893542003295 ], [ -37.998176000821729, -6.677143257155535 ], [ -38.011911730441959, -6.675391477634548 ], [ -38.01747559582202, -6.646841193466286 ], [ -37.966504443225404, -6.614024803401889 ], [ -37.959544205900322, -6.627949105566699 ], [ -37.90185528129615, -6.619190518227811 ], [ -37.892163020506928, -6.631479914066745 ], [ -37.877516931461166, -6.62675844724447 ], [ -37.862149301948698, -6.63977660870347 ], [ -37.784826813706445, -6.642968597622655 ] ] } }
]
}
