{
"type": "FeatureCollection",
"features": [
{ "type": "Feature", "properties": { "Name": "SÃO FRANCISCO", "Description": "SÃO FRANCISCO \/ PB" }, "geometry": { "type": "LineString", "coordinates": [ [ -37.966504443225404, -6.614024803401889 ], [ -38.01747559582202, -6.646841193466286 ], [ -38.011911730441959, -6.675391477634548 ], [ -38.039003640705396, -6.668999537198829 ], [ -38.069356903698122, -6.673141101380678 ], [ -38.091915165152727, -6.689177739261197 ], [ -38.092604544963763, -6.667521453752045 ], [ -38.102328672330316, -6.645158299315995 ], [ -38.107765292634099, -6.604406726788966 ], [ -38.091444674931779, -6.587399992015946 ], [ -38.049631684754388, -6.583810364256863 ], [ -38.043247656554058, -6.609841681548346 ], [ -38.028056023466661, -6.615469203640771 ], [ -37.992941459980329, -6.605012483139546 ], [ -37.966504443225404, -6.614024803401889 ] ] } }
]
}
