{
"type": "FeatureCollection",
"features": [
{ "type": "Feature", "properties": { "Name": "SÃO MIGUEL DE TAIPU", "Description": "SÃO MIGUEL DE TAIPU \/ PB" }, "geometry": { "type": "LineString", "coordinates": [ [ -35.151217773581315, -7.213178819846632 ], [ -35.16942171464035, -7.252985720214781 ], [ -35.171900990838026, -7.277436335118749 ], [ -35.193470191396159, -7.311141416343219 ], [ -35.220349775321836, -7.300105213185019 ], [ -35.242543475001355, -7.239802254370487 ], [ -35.232551784936902, -7.205526071271151 ], [ -35.230348552044006, -7.191956249481279 ], [ -35.203431876479897, -7.1881942090954 ], [ -35.187829030185526, -7.177445741327858 ], [ -35.187387951392793, -7.177377032224228 ], [ -35.151217773581315, -7.213178819846632 ] ] } }
]
}
