{
"type": "FeatureCollection",
"features": [
{ "type": "Feature", "properties": { "Name": "SOLEDADE", "Description": "SOLEDADE \/ PB" }, "geometry": { "type": "LineString", "coordinates": [ [ -36.224562374953621, -7.197426079050273 ], [ -36.326106509807516, -7.188755653150849 ], [ -36.40605670555248, -7.218295594466042 ], [ -36.418526625003722, -7.199458658390313 ], [ -36.486325432172919, -7.189976721148695 ], [ -36.488469611982964, -7.160407210124617 ], [ -36.470503329365101, -7.132319592974795 ], [ -36.488515379381226, -7.027169000448964 ], [ -36.476708011165719, -6.994208431973505 ], [ -36.394006330627633, -6.983334247077778 ], [ -36.351530287392791, -6.955943521776078 ], [ -36.281550019018141, -7.091692149373158 ], [ -36.233625229021072, -7.105105348832751 ], [ -36.22542497318392, -7.12169820570756 ], [ -36.218763451072391, -7.177783380998164 ], [ -36.224562374953621, -7.197426079050273 ] ] } }
]
}
