{
"type": "FeatureCollection",
"features": [
{ "type": "Feature", "properties": { "Name": "TEIXEIRA", "Description": "TEIXEIRA \/ PB" }, "geometry": { "type": "LineString", "coordinates": [ [ -37.17631353384246, -7.230659463163647 ], [ -37.145840044082711, -7.246478805052789 ], [ -37.147454042969684, -7.265954400075429 ], [ -37.176924955022628, -7.30955248875631 ], [ -37.196673983517485, -7.294670064172067 ], [ -37.214175477616145, -7.291300749629841 ], [ -37.23417876333923, -7.273886873780157 ], [ -37.275267752504703, -7.274288448952688 ], [ -37.288332756951149, -7.288288886822613 ], [ -37.313959359536796, -7.289361329261908 ], [ -37.306007859774866, -7.262191134812951 ], [ -37.308791730054281, -7.247909031076858 ], [ -37.334441956930732, -7.228200901050684 ], [ -37.335556284394954, -7.214390285782997 ], [ -37.30371395363602, -7.191787403565796 ], [ -37.247275071387378, -7.197758499055453 ], [ -37.210477279203019, -7.204820532441545 ], [ -37.17631353384246, -7.230659463163647 ] ] } }
]
}
