{
"type": "FeatureCollection",
"features": [
{ "type": "Feature", "properties": { "Name": "VIEIRÃPOLIS", "Description": "VIEIRÃPOLIS \/ PB" }, "geometry": { "type": "LineString", "coordinates": [ [ -38.2271195221482, -6.483947764677565 ], [ -38.19543203486046, -6.554655581889563 ], [ -38.209564636198934, -6.55366332030593 ], [ -38.224535706057964, -6.580386260317595 ], [ -38.246298537847224, -6.597791036826834 ], [ -38.283715669742321, -6.646145357422256 ], [ -38.292541009260106, -6.630083614966792 ], [ -38.314189383433245, -6.613262732289229 ], [ -38.35308636504368, -6.614772116639813 ], [ -38.334619648378009, -6.578323277597121 ], [ -38.304008303340481, -6.57249262563414 ], [ -38.298870476491231, -6.561404783403987 ], [ -38.305220736048113, -6.526729565716835 ], [ -38.283454305172029, -6.522893323168262 ], [ -38.288719842946364, -6.505617308891658 ], [ -38.256531110422372, -6.483209356526515 ], [ -38.2271195221482, -6.483947764677565 ] ] } }
]
}
