{
"type": "FeatureCollection",
"features": [
{ "type": "Feature", "properties": { "Name": "CAIÃARA DO NORTE", "Description": "CAIÃARA DO NORTE \/ RN" }, "geometry": { "type": "LineString", "coordinates": [ [ -36.00194857896372, -5.256109287313734 ], [ -36.050817665203056, -5.298755943631818 ], [ -36.062365835315006, -5.304014939737613 ], [ -36.070920092188487, -5.296569950742594 ], [ -36.103540169243388, -5.286518622136668 ], [ -36.151730317699958, -5.257187094208973 ], [ -36.099225279622885, -5.076384478061186 ], [ -36.073538371198822, -5.064254805414919 ], [ -36.058612779156356, -5.062900656639954 ], [ -36.038000433872867, -5.052460856882988 ], [ -36.043499989632778, -5.064190181031961 ], [ -36.033582443275066, -5.073816049371146 ], [ -36.042067566564924, -5.083806135045051 ], [ -36.042535235612604, -5.108616061481996 ], [ -36.048786493301975, -5.155815194815318 ], [ -36.055033192327926, -5.180370648186795 ], [ -36.053950203539046, -5.202813311684963 ], [ -36.060969650429001, -5.228698884845584 ], [ -36.042652190646038, -5.239152952346842 ], [ -36.00194857896372, -5.256109287313734 ] ] } }
]
}
