{
"type": "FeatureCollection",
"features": [
{ "type": "Feature", "properties": { "Name": "CARNAÃBA DOS DANTAS", "Description": "CARNAÃBA DOS DANTAS \/ RN" }, "geometry": { "type": "LineString", "coordinates": [ [ -36.528210950874659, -6.479284171027643 ], [ -36.52584679689209, -6.501161337225881 ], [ -36.516474101198753, -6.502907330508833 ], [ -36.480956551503596, -6.523082750968114 ], [ -36.479267913383467, -6.539869500776773 ], [ -36.471544290136819, -6.548351578062807 ], [ -36.454500323431148, -6.551709973936113 ], [ -36.44223251671724, -6.564705875375807 ], [ -36.441445093716084, -6.595101987466705 ], [ -36.435858140940404, -6.625877964196661 ], [ -36.449348793611875, -6.624197627718274 ], [ -36.460517975024459, -6.634393625765142 ], [ -36.471708645737344, -6.616554362493786 ], [ -36.513810751764765, -6.594393000636444 ], [ -36.524542719670706, -6.599653547173432 ], [ -36.520742647854881, -6.610601336182697 ], [ -36.550025294931345, -6.608023524865757 ], [ -36.557210832214082, -6.600248547632305 ], [ -36.575492329907036, -6.597927490960898 ], [ -36.587507298522951, -6.584798662528215 ], [ -36.612135353263909, -6.585087861115824 ], [ -36.636405751224402, -6.59240167859457 ], [ -36.651563930430989, -6.585808191994431 ], [ -36.679747983682432, -6.579349155838827 ], [ -36.658431367613503, -6.554602269179327 ], [ -36.648099490998675, -6.532872320201363 ], [ -36.642605680108026, -6.535029062641057 ], [ -36.623183275487747, -6.516709068568616 ], [ -36.611690422674826, -6.498644354253486 ], [ -36.585354968157219, -6.482041072437482 ], [ -36.581319414259497, -6.474318669570891 ], [ -36.54566545899371, -6.484145622722281 ], [ -36.528210950874659, -6.479284171027643 ] ] } }
]
}
