{
"type": "FeatureCollection",
"features": [
{ "type": "Feature", "properties": { "Name": "CEARÃ-MIRIM", "Description": "CEARÃ-MIRIM \/ RN" }, "geometry": { "type": "LineString", "coordinates": [ [ -35.253845503367245, -5.519531652163948 ], [ -35.249199026513793, -5.545103698276989 ], [ -35.237132357672124, -5.569975872188706 ], [ -35.225805223831962, -5.581198299761695 ], [ -35.227699119618649, -5.612250728987931 ], [ -35.284811367450629, -5.62429158189093 ], [ -35.361034659322002, -5.728511454340094 ], [ -35.383843131954904, -5.734735002118612 ], [ -35.413374828285662, -5.737437704086744 ], [ -35.446864189130963, -5.73335838378233 ], [ -35.458206886638436, -5.717837963051522 ], [ -35.480699633381334, -5.714905147954141 ], [ -35.499916099548329, -5.716999886635392 ], [ -35.547355213372327, -5.709590045843868 ], [ -35.551899897762041, -5.703347146453609 ], [ -35.548194114466753, -5.688077972020722 ], [ -35.494445698010509, -5.66600066709708 ], [ -35.512082665982234, -5.650059332172418 ], [ -35.521407749767768, -5.577669584883381 ], [ -35.501806019432188, -5.492303737427505 ], [ -35.472056332833461, -5.48581151448974 ], [ -35.4543351487481, -5.469826240488543 ], [ -35.429898144183937, -5.466913784243672 ], [ -35.418494075141439, -5.457670983928721 ], [ -35.382332661223302, -5.469029493316441 ], [ -35.372204460367527, -5.464409677764365 ], [ -35.357398566290783, -5.470060628994759 ], [ -35.33151246073146, -5.488705610175714 ], [ -35.297498259137285, -5.487067826918633 ], [ -35.279617571293841, -5.496267917530304 ], [ -35.2620111236144, -5.527072759799978 ], [ -35.253845503367245, -5.519531652163948 ] ] } }
]
}
