{
"type": "FeatureCollection",
"features": [
{ "type": "Feature", "properties": { "Name": "CORONEL EZEQUIEL", "Description": "CORONEL EZEQUIEL \/ RN" }, "geometry": { "type": "LineString", "coordinates": [ [ -36.153763556243064, -6.299836571500521 ], [ -36.139437240036557, -6.329763077404039 ], [ -36.096104260703044, -6.420198619070959 ], [ -36.096481071244398, -6.420259560730074 ], [ -36.177343375596251, -6.407295573531826 ], [ -36.221197074984957, -6.402802618146267 ], [ -36.265832473190017, -6.379870107419492 ], [ -36.296338359227832, -6.370410423002568 ], [ -36.281552422905975, -6.35460443874382 ], [ -36.27674745313243, -6.340430467691874 ], [ -36.279135443645771, -6.317627033960378 ], [ -36.272634414546523, -6.307172041956107 ], [ -36.246214206120669, -6.302121895409073 ], [ -36.239759271772925, -6.310779586009062 ], [ -36.205540191126886, -6.301350743841681 ], [ -36.181620372282339, -6.297911868537881 ], [ -36.153763556243064, -6.299836571500521 ] ] } }
]
}
