{
"type": "FeatureCollection",
"features": [
{ "type": "Feature", "properties": { "Name": "ENCANTO", "Description": "ENCANTO \/ RN" }, "geometry": { "type": "LineString", "coordinates": [ [ -38.249116004100244, -6.163794067042488 ], [ -38.277553997119242, -6.181038484538362 ], [ -38.288544216142611, -6.187901536626555 ], [ -38.311007629698281, -6.176394915193156 ], [ -38.339914815216503, -6.189593134415588 ], [ -38.357499609919039, -6.201383308492836 ], [ -38.364962901916329, -6.172896766472546 ], [ -38.367345798669646, -6.163436553254257 ], [ -38.353848466733325, -6.144997589666957 ], [ -38.349057543470792, -6.123453607897658 ], [ -38.345864086858057, -6.089115155739819 ], [ -38.339587390945269, -6.07769145809425 ], [ -38.319921447216984, -6.077038877642053 ], [ -38.306501183582725, -6.08703337718856 ], [ -38.290789171283166, -6.073151425897549 ], [ -38.274900409825982, -6.065798793679335 ], [ -38.261334108881954, -6.074867750546218 ], [ -38.261959141301304, -6.102318983134523 ], [ -38.266965675225663, -6.112150671216455 ], [ -38.249573365118636, -6.135930756998789 ], [ -38.249116004100244, -6.163794067042488 ] ] } }
]
}
