{
"type": "FeatureCollection",
"features": [
{ "type": "Feature", "properties": { "Name": "GOIANINHA", "Description": "GOIANINHA \/ RN" }, "geometry": { "type": "LineString", "coordinates": [ [ -35.14994210594341, -6.218108175951499 ], [ -35.155247757078257, -6.246062612499543 ], [ -35.155426620542073, -6.267674527257554 ], [ -35.14871226146164, -6.273364729398678 ], [ -35.145251572202255, -6.299027643910563 ], [ -35.167441529802716, -6.322001268943382 ], [ -35.162828684895828, -6.336134726436455 ], [ -35.16738672421792, -6.353999404548858 ], [ -35.19866931333808, -6.359285393805806 ], [ -35.221683073315148, -6.357521603838904 ], [ -35.236051621684958, -6.349284795057201 ], [ -35.272214640892912, -6.370207467600494 ], [ -35.266691164965266, -6.324288458945205 ], [ -35.285676355179589, -6.205322250921085 ], [ -35.231050749892177, -6.242335425339547 ], [ -35.208452407452626, -6.232266815361186 ], [ -35.202423358750934, -6.222667942871226 ], [ -35.169558770420849, -6.214533453555987 ], [ -35.14994210594341, -6.218108175951499 ] ] } }
]
}
