{
"type": "FeatureCollection",
"features": [
{ "type": "Feature", "properties": { "Name": "JARDIM DE ANGICOS", "Description": "JARDIM DE ANGICOS \/ RN" }, "geometry": { "type": "LineString", "coordinates": [ [ -35.934210354624099, -5.714874914545646 ], [ -35.970632127670513, -5.714306865869105 ], [ -36.023987322756682, -5.698012168426771 ], [ -36.062534840410535, -5.655286794449978 ], [ -35.992408198379621, -5.463787551953884 ], [ -35.984261492673681, -5.479292692303886 ], [ -35.911279477066159, -5.629661131655837 ], [ -35.924379592843877, -5.636613753521885 ], [ -35.941665221772496, -5.668778510120092 ], [ -35.934210354624099, -5.714874914545646 ] ] } }
]
}
