{
"type": "FeatureCollection",
"features": [
{ "type": "Feature", "properties": { "Name": "LAGOA NOVA", "Description": "LAGOA NOVA \/ RN" }, "geometry": { "type": "LineString", "coordinates": [ [ -36.411699792211607, -6.104200317190816 ], [ -36.404751787464988, -6.11310484381346 ], [ -36.411141845619625, -6.128367946023842 ], [ -36.424208422980314, -6.130931987820929 ], [ -36.428977279577737, -6.112677125349022 ], [ -36.44462526644287, -6.117015549328073 ], [ -36.459902926878556, -6.115301180704876 ], [ -36.492043337929658, -6.136602309548891 ], [ -36.503298657307141, -6.137426046274982 ], [ -36.509173467781295, -6.122917505838188 ], [ -36.491789575328596, -6.114936965168738 ], [ -36.495579264471417, -6.105613765462863 ], [ -36.515711834933199, -6.099871136443766 ], [ -36.52630509590341, -6.113803401205928 ], [ -36.530287780456661, -6.130395157310602 ], [ -36.550698850271658, -6.141221922753459 ], [ -36.560410736965878, -6.134242478607462 ], [ -36.592551396229908, -6.130149058732002 ], [ -36.605966409622056, -6.124465990013391 ], [ -36.622307170339582, -6.131764598157645 ], [ -36.62389546210585, -6.11534769094311 ], [ -36.634445730086327, -6.102803527061099 ], [ -36.638715387405171, -6.089008200268154 ], [ -36.547439140603778, -6.056274614381891 ], [ -36.521788552199894, -6.046670619353563 ], [ -36.470662830425219, -6.045249511555653 ], [ -36.444167495333602, -6.041420010325168 ], [ -36.426756019774473, -6.092566840986876 ], [ -36.411699792211607, -6.104200317190816 ] ] } }
]
}
