{
"type": "FeatureCollection",
"features": [
{ "type": "Feature", "properties": { "Name": "LAGOA DE PEDRAS", "Description": "LAGOA DE PEDRAS \/ RN" }, "geometry": { "type": "LineString", "coordinates": [ [ -35.381389844365792, -6.15845969515874 ], [ -35.40302004324036, -6.210324608393933 ], [ -35.436425156495716, -6.253426451169729 ], [ -35.46850001146629, -6.230748580782347 ], [ -35.567721054483059, -6.205741634468836 ], [ -35.550418547977586, -6.199901684415181 ], [ -35.527037778270824, -6.201312116361009 ], [ -35.499787768090982, -6.180060170540401 ], [ -35.485849939223272, -6.176479262607813 ], [ -35.457655610318113, -6.158220486286382 ], [ -35.44549099990968, -6.15411221051005 ], [ -35.443740847262234, -6.140551071674565 ], [ -35.413510478425792, -6.132415996900704 ], [ -35.381389844365792, -6.15845969515874 ] ] } }
]
}
