{
"type": "FeatureCollection",
"features": [
{ "type": "Feature", "properties": { "Name": "LAJES PINTADAS", "Description": "LAJES PINTADAS \/ RN" }, "geometry": { "type": "LineString", "coordinates": [ [ -36.080351532497161, -6.102012924956454 ], [ -36.076667778095441, -6.16847463539608 ], [ -36.077861089417695, -6.196145761217849 ], [ -36.13375942245932, -6.210572781708435 ], [ -36.157538000078603, -6.16604328047299 ], [ -36.226198817321517, -6.164124191977804 ], [ -36.225173789838493, -6.143351552432136 ], [ -36.20829836237948, -6.132900678423539 ], [ -36.173767230473288, -6.121740728551742 ], [ -36.162906212551604, -6.106472091014155 ], [ -36.121071193480759, -6.088850898050453 ], [ -36.107064392008056, -6.098612384154137 ], [ -36.080351532497161, -6.102012924956454 ] ] } }
]
}
