{
"type": "FeatureCollection",
"features": [
{ "type": "Feature", "properties": { "Name": "MONTE ALEGRE", "Description": "MONTE ALEGRE \/ RN" }, "geometry": { "type": "LineString", "coordinates": [ [ -35.365137301745051, -6.055533530747823 ], [ -35.353347118674542, -6.049887739827283 ], [ -35.325083117491829, -6.046776245627199 ], [ -35.298624452256604, -6.071991170056378 ], [ -35.315375521463125, -6.106839749155029 ], [ -35.324075892088729, -6.112813994070507 ], [ -35.327427491785272, -6.142559625626177 ], [ -35.342498646295439, -6.156906001210928 ], [ -35.340393185896744, -6.164804059659559 ], [ -35.352381567855048, -6.181966598379745 ], [ -35.381389844365792, -6.15845969515874 ], [ -35.413510478425792, -6.132415996900704 ], [ -35.443740847262234, -6.140551071674565 ], [ -35.465554148105412, -6.121642595429363 ], [ -35.50022110282157, -6.112147271779121 ], [ -35.526521567416353, -6.090539449835716 ], [ -35.531720784686399, -6.091641327984859 ], [ -35.54538838616503, -6.055633979624417 ], [ -35.512567882601672, -6.051107885120757 ], [ -35.476076171078375, -6.071950074636163 ], [ -35.456557081244284, -6.078450380680465 ], [ -35.432207896377292, -6.065462138766634 ], [ -35.429392213479844, -6.050480145742085 ], [ -35.411597724755154, -6.053786531123477 ], [ -35.391287409586255, -6.051842418093088 ], [ -35.37945777505621, -6.060891057476283 ], [ -35.365137301745051, -6.055533530747823 ] ] } }
]
}
