{
"type": "FeatureCollection",
"features": [
{ "type": "Feature", "properties": { "Name": "PARAÃ", "Description": "PARAÃ \/ RN" }, "geometry": { "type": "LineString", "coordinates": [ [ -37.035788374833601, -5.891008631942782 ], [ -37.101199872276247, -5.87239034353945 ], [ -37.130628007176767, -5.873133842752565 ], [ -37.148730484923874, -5.866342357813494 ], [ -37.194958763236286, -5.823740703570593 ], [ -37.179488436542044, -5.8190609014394 ], [ -37.2254042678926, -5.789836205776226 ], [ -37.219048549450974, -5.725944148003975 ], [ -37.220578941065241, -5.717496978802501 ], [ -37.203500375641795, -5.72513009607701 ], [ -37.185444094269485, -5.716681237948706 ], [ -37.176777869103319, -5.723693582892508 ], [ -37.163566962245454, -5.713307551802018 ], [ -37.142634318918624, -5.687587976403961 ], [ -37.104593950550331, -5.656221501221239 ], [ -37.054560506662028, -5.745787980330988 ], [ -37.021363140396545, -5.755093725994584 ], [ -36.994097490107038, -5.771708020908363 ], [ -37.035788374833601, -5.891008631942782 ] ] } }
]
}
