{
"type": "FeatureCollection",
"features": [
{ "type": "Feature", "properties": { "Name": "PORTO DO MANGUE", "Description": "PORTO DO MANGUE \/ RN" }, "geometry": { "type": "LineString", "coordinates": [ [ -36.712414893832261, -5.073298941892631 ], [ -36.716965483170441, -5.082730321946769 ], [ -36.744255872910173, -5.089506437472039 ], [ -36.750419372056342, -5.100479865253533 ], [ -36.730429403494156, -5.118472911695449 ], [ -36.732795839955998, -5.148818681536852 ], [ -36.74870455107412, -5.152067343932742 ], [ -36.764575895361247, -5.154358776935965 ], [ -36.774415634174147, -5.173065907565557 ], [ -36.791718843050148, -5.167947091485019 ], [ -36.828609063957117, -5.148388866752725 ], [ -36.896104929099181, -5.133359965090278 ], [ -36.92904915599371, -5.134972432431766 ], [ -36.929071930425209, -5.131273393152526 ], [ -36.97213019834993, -5.131693019517172 ], [ -36.97224323413792, -5.102979065031775 ], [ -36.95411312831817, -5.076073347706767 ], [ -36.911199630558485, -5.076081225767894 ], [ -36.911892040185478, -5.016189555703362 ], [ -36.879567615253222, -5.010070960606299 ], [ -36.863011837426313, -4.99385486031349 ], [ -36.855078667646353, -4.971986340197417 ], [ -36.849018681366999, -4.9821467727553 ], [ -36.810803547745479, -5.028200609570433 ], [ -36.799370194079131, -5.038750691391272 ], [ -36.777492211296476, -5.049495664393362 ], [ -36.734747455130901, -5.065193158037744 ], [ -36.723035557145181, -5.075352407987168 ], [ -36.712414893832261, -5.073298941892631 ] ] } }
]
}
