{
"type": "FeatureCollection",
"features": [
{ "type": "Feature", "properties": { "Name": "SANTANA DO SERIDÃ", "Description": "SANTANA DO SERIDÃ \/ RN" }, "geometry": { "type": "LineString", "coordinates": [ [ -36.726020817106978, -6.816602452441202 ], [ -36.730198010629636, -6.836396082812938 ], [ -36.769465080349107, -6.838748052780375 ], [ -36.772728709262481, -6.787065161428018 ], [ -36.835029624417587, -6.731070935475259 ], [ -36.841268407610862, -6.717816029286269 ], [ -36.841354044653372, -6.698691865037517 ], [ -36.850763990265875, -6.689611102770129 ], [ -36.842645820048517, -6.674623805544115 ], [ -36.816688195903453, -6.679581014352266 ], [ -36.7648128883041, -6.669199587790672 ], [ -36.744427084042627, -6.652079577110725 ], [ -36.722267814907696, -6.646712986115346 ], [ -36.727829707175204, -6.658646607454898 ], [ -36.706648761930744, -6.679939595635801 ], [ -36.715235169567393, -6.707606010808718 ], [ -36.707742811481523, -6.709139190321309 ], [ -36.712088247474583, -6.753172161466011 ], [ -36.723507817231962, -6.781650264248242 ], [ -36.73126114148846, -6.792140017747556 ], [ -36.726020817106978, -6.816602452441202 ] ] } }
]
}
