{
"type": "FeatureCollection",
"features": [
{ "type": "Feature", "properties": { "Name": "SÃO PAULO DO POTENGI", "Description": "SÃO PAULO DO POTENGI \/ RN" }, "geometry": { "type": "LineString", "coordinates": [ [ -35.683247342191066, -5.868980386835347 ], [ -35.68745206216289, -5.91909646852713 ], [ -35.674121237005465, -5.974378998891665 ], [ -35.668406004933161, -5.983888684714998 ], [ -35.709240400524038, -6.000551270524682 ], [ -35.778337501374551, -6.015874965457214 ], [ -35.834772016515331, -5.947096352314759 ], [ -35.849818074544487, -5.915366262343071 ], [ -35.832728622827631, -5.908802596362705 ], [ -35.796818054109849, -5.853288952822879 ], [ -35.78624571586704, -5.858979810569735 ], [ -35.763208058205294, -5.861881296884292 ], [ -35.742122589485859, -5.872273005394845 ], [ -35.703866383826494, -5.861467846164146 ], [ -35.691626072085512, -5.87089186706595 ], [ -35.683247342191066, -5.868980386835347 ] ] } }
]
}
