{
"type": "FeatureCollection",
"features": [
{ "type": "Feature", "properties": { "Name": "SÃO MIGUEL", "Description": "SÃO MIGUEL \/ RN" }, "geometry": { "type": "LineString", "coordinates": [ [ -38.349057543470792, -6.123453607897658 ], [ -38.353848466733325, -6.144997589666957 ], [ -38.367345798669646, -6.163436553254257 ], [ -38.364962901916329, -6.172896766472546 ], [ -38.418026611438904, -6.218836294059656 ], [ -38.430396823054878, -6.236447168202176 ], [ -38.448491568431109, -6.221854918869383 ], [ -38.462328597686565, -6.231415770721185 ], [ -38.469943341811756, -6.252709274213601 ], [ -38.481525189735692, -6.252019880912712 ], [ -38.488187260433676, -6.283115814842915 ], [ -38.481359713579877, -6.30439863169147 ], [ -38.492284528508151, -6.295301127644905 ], [ -38.542543179723907, -6.286162440044507 ], [ -38.570377364323861, -6.292950217078783 ], [ -38.579092821976133, -6.279082625262902 ], [ -38.5544209657549, -6.263395633002006 ], [ -38.545851196475496, -6.245426429386157 ], [ -38.528347976577834, -6.239176228400197 ], [ -38.519712047772771, -6.223037492286379 ], [ -38.529285905619986, -6.213740397201547 ], [ -38.527203936412491, -6.193377979809895 ], [ -38.501325271843768, -6.190947070950529 ], [ -38.500758336527952, -6.179682455281067 ], [ -38.47548531499524, -6.157040296072751 ], [ -38.473424762242928, -6.136003231563847 ], [ -38.465979613168535, -6.121443888424665 ], [ -38.424207148241237, -6.168058373395183 ], [ -38.408799869418374, -6.177872975257571 ], [ -38.396465473302896, -6.173789144853116 ], [ -38.388843482440734, -6.163032076868831 ], [ -38.374005059885576, -6.167194545791631 ], [ -38.349057543470792, -6.123453607897658 ] ] } }
]
}
