{
"type": "FeatureCollection",
"features": [
{ "type": "Feature", "properties": { "Name": "SÃO FERNANDO", "Description": "SÃO FERNANDO \/ RN" }, "geometry": { "type": "LineString", "coordinates": [ [ -37.045715618580914, -6.223915688358261 ], [ -37.048669732322253, -6.236356646042339 ], [ -37.080885457098127, -6.290572773814403 ], [ -37.075371274764443, -6.307454946188783 ], [ -37.081617257030757, -6.354228574289209 ], [ -37.072849788886629, -6.392481227626489 ], [ -37.076169372718311, -6.402349853562839 ], [ -37.101955963796627, -6.417620005558773 ], [ -37.140802876551447, -6.427970554797241 ], [ -37.140375352340584, -6.448480885484457 ], [ -37.188468851556195, -6.43900673097579 ], [ -37.22048815990064, -6.430322429436501 ], [ -37.260899315650875, -6.40432339061192 ], [ -37.219532068150386, -6.368087103636866 ], [ -37.216619833138736, -6.245462458025997 ], [ -37.221419671380659, -6.234107873279696 ], [ -37.193047298294118, -6.21227168469045 ], [ -37.163002954222918, -6.201345161949632 ], [ -37.150663209839188, -6.184986462455242 ], [ -37.140719624511007, -6.180951805181621 ], [ -37.132886095117158, -6.187674672747902 ], [ -37.130465875599612, -6.209280289553647 ], [ -37.116126344754946, -6.207529761888963 ], [ -37.105944015503887, -6.2148359405262 ], [ -37.097091697224016, -6.231186806925564 ], [ -37.082631100544802, -6.238388646218993 ], [ -37.070079781656538, -6.237475872113747 ], [ -37.062943350954868, -6.218217701685546 ], [ -37.045715618580914, -6.223915688358261 ] ] } }
]
}
