{
"type": "FeatureCollection",
"features": [
{ "type": "Feature", "properties": { "Name": "TIBAU DO SUL", "Description": "TIBAU DO SUL \/ RN" }, "geometry": { "type": "LineString", "coordinates": [ [ -35.034918870209651, -6.286193603352046 ], [ -35.044288921896168, -6.28384533139689 ], [ -35.059741004943362, -6.279905957294034 ], [ -35.075605896594823, -6.265927573498686 ], [ -35.103898845155527, -6.270310990559722 ], [ -35.116763824191082, -6.281752991207553 ], [ -35.131289988642038, -6.286415905869319 ], [ -35.145251572202255, -6.299027643910563 ], [ -35.14871226146164, -6.273364729398678 ], [ -35.155426620542073, -6.267674527257554 ], [ -35.155247757078257, -6.246062612499543 ], [ -35.14994210594341, -6.218108175951499 ], [ -35.110788825643731, -6.186945132811558 ], [ -35.097914008024986, -6.187609310920891 ], [ -35.091556455865714, -6.178786478712993 ], [ -35.083609180219469, -6.189687943643662 ], [ -35.072249946877491, -6.221826771887947 ], [ -35.060728456952688, -6.227251656039073 ], [ -35.044484192591362, -6.226775679054299 ], [ -35.036513300748197, -6.239408850637914 ], [ -35.037777213347681, -6.264215679809752 ], [ -35.034918870209651, -6.286193603352046 ] ] } }
]
}
