{
"type": "FeatureCollection",
"features": [
{ "type": "Feature", "properties": { "Name": "TIBAU", "Description": "TIBAU \/ RN" }, "geometry": { "type": "LineString", "coordinates": [ [ -37.307847542629929, -4.945602199082202 ], [ -37.328595961634278, -4.942751657562894 ], [ -37.345263879524396, -4.93501059376382 ], [ -37.361653771104606, -4.916939740676469 ], [ -37.365072346011914, -4.90744042853288 ], [ -37.394315433710233, -4.911818228428444 ], [ -37.41159551562049, -4.905840441982774 ], [ -37.427259617437358, -4.911494078588817 ], [ -37.446445923040869, -4.880961413438455 ], [ -37.253291189636627, -4.831555524567761 ], [ -37.221635283841238, -4.881740106720486 ], [ -37.234173611123197, -4.892994935967465 ], [ -37.262352732492559, -4.903873861189709 ], [ -37.268961775565458, -4.911651158673976 ], [ -37.27035026225473, -4.945534978356534 ], [ -37.285643504344193, -4.94119796721236 ], [ -37.307847542629929, -4.945602199082202 ] ] } }
]
}
