{
"type": "FeatureCollection",
"features": [
{ "type": "Feature", "properties": { "Name": "ACAJUTIBA", "Description": "ACAJUTIBA \/ BA" }, "geometry": { "type": "LineString", "coordinates": [ [ -37.980093805484671, -11.594612992695431 ], [ -37.947188573194069, -11.61629202026046 ], [ -37.911802145552542, -11.680546423878296 ], [ -38.044736110982683, -11.764923332745582 ], [ -38.051453463906171, -11.668325950282336 ], [ -38.058591529575381, -11.610944502986399 ], [ -37.980093805484671, -11.594612992695431 ] ] } }
]
}
