{
"type": "FeatureCollection",
"features": [
{ "type": "Feature", "properties": { "Name": "ADUSTINA", "Description": "ADUSTINA \/ BA" }, "geometry": { "type": "LineString", "coordinates": [ [ -37.914751366981925, -10.442278211969835 ], [ -37.908898523348114, -10.448682588230838 ], [ -37.914955180337245, -10.575573283979848 ], [ -37.99454974817229, -10.670790532656895 ], [ -38.042122975195127, -10.700743644103852 ], [ -38.144937493270675, -10.718240946462458 ], [ -38.130079031122364, -10.579099515829967 ], [ -38.149792427578404, -10.45728636627274 ], [ -38.088052130901076, -10.437606197967625 ], [ -38.024854118622606, -10.451032712789413 ], [ -37.978825910687192, -10.434471398736036 ], [ -37.914751366981925, -10.442278211969835 ] ] } }
]
}
