{
"type": "FeatureCollection",
"features": [
{ "type": "Feature", "properties": { "Name": "ANAGÃ", "Description": "ANAGÃ \/ BA" }, "geometry": { "type": "LineString", "coordinates": [ [ -40.659959942697128, -14.462961637069839 ], [ -40.6467575164462, -14.546979113894963 ], [ -40.756799065624357, -14.584270203107337 ], [ -40.783255103040517, -14.563021817702689 ], [ -40.893666827562015, -14.557802165137785 ], [ -40.968458387944224, -14.593615042300314 ], [ -40.963409409616531, -14.789849184791988 ], [ -41.057988963419859, -14.835595168382268 ], [ -41.100594782423229, -14.794296997808145 ], [ -41.166292048439232, -14.808455852155817 ], [ -41.161773885956052, -14.769271493084887 ], [ -41.222372141660969, -14.711437468264476 ], [ -41.218204059169977, -14.668649415138361 ], [ -41.143507894373784, -14.587265501301772 ], [ -41.093081199437734, -14.489122028658642 ], [ -41.093671064767761, -14.441621673701205 ], [ -40.997402396203597, -14.421993534773774 ], [ -40.924008418253834, -14.439510654592993 ], [ -40.823142889332814, -14.436462699294111 ], [ -40.724257514672502, -14.395841532061013 ], [ -40.704735013709865, -14.444204684898237 ], [ -40.659959942697128, -14.462961637069839 ] ] } }
]
}
