{
"type": "FeatureCollection",
"features": [
{ "type": "Feature", "properties": { "Name": "ANGICAL", "Description": "ANGICAL \/ BA" }, "geometry": { "type": "LineString", "coordinates": [ [ -44.345396199874699, -12.10271287419971 ], [ -44.443480999848248, -12.092952999681131 ], [ -44.466052009192822, -12.144082780096198 ], [ -44.579831943889076, -12.15509423211307 ], [ -44.617836905049103, -12.140785632550831 ], [ -44.705387221043395, -12.168701736395974 ], [ -44.735519871344934, -12.110797756910927 ], [ -44.841373053823361, -12.119020627999532 ], [ -44.882411466915634, -12.050833566415918 ], [ -44.92918206250215, -12.007295985021642 ], [ -44.879941531076781, -11.983146188845467 ], [ -44.869392871983393, -11.940802911625042 ], [ -44.819809750119816, -11.881607072208567 ], [ -44.75346704966455, -11.865956178734619 ], [ -44.697009700737055, -11.807288351076522 ], [ -44.662330079069875, -11.748269786921071 ], [ -44.653897227075333, -11.752777385967532 ], [ -44.34853981426096, -12.080544699977848 ], [ -44.345396199874699, -12.10271287419971 ] ] } }
]
}
