{
"type": "FeatureCollection",
"features": [
{ "type": "Feature", "properties": { "Name": "ANGUERA", "Description": "ANGUERA \/ BA" }, "geometry": { "type": "LineString", "coordinates": [ [ -39.287427116767958, -12.176740652059379 ], [ -39.225220493730774, -12.082946819739902 ], [ -39.176552927575521, -12.118021649379557 ], [ -39.186511221315754, -12.181543474251894 ], [ -39.075945584121371, -12.232240523381392 ], [ -39.148542814898917, -12.269269084300731 ], [ -39.192199406277545, -12.223569714370797 ], [ -39.287427116767958, -12.176740652059379 ] ] } }
]
}
