{
"type": "FeatureCollection",
"features": [
{ "type": "Feature", "properties": { "Name": "ARAÃAS", "Description": "ARAÃAS \/ BA" }, "geometry": { "type": "LineString", "coordinates": [ [ -38.082505477645611, -12.157913668780736 ], [ -38.076621602904595, -12.239533347985571 ], [ -38.174153151646571, -12.261192001409709 ], [ -38.273062336757391, -12.278367598285968 ], [ -38.38053266934719, -12.235286902168752 ], [ -38.303787096197482, -12.20739119135038 ], [ -38.321017965406725, -12.173753712164057 ], [ -38.281679921191369, -12.13339354887313 ], [ -38.282822204980732, -12.039530098235389 ], [ -38.238487726227561, -12.014676228225312 ], [ -38.211277818616395, -12.050991881270249 ], [ -38.175233715863271, -12.143120142180749 ], [ -38.082505477645611, -12.157913668780736 ] ] } }
]
}
