{
"type": "FeatureCollection",
"features": [
{ "type": "Feature", "properties": { "Name": "ARACATU", "Description": "ARACATU \/ BA" }, "geometry": { "type": "LineString", "coordinates": [ [ -41.10754577921432, -14.367490837132378 ], [ -41.069548340883159, -14.403987189157418 ], [ -41.093671064767761, -14.441621673701205 ], [ -41.129127628737024, -14.488746118338668 ], [ -41.182672486346121, -14.480132436063002 ], [ -41.244533346136961, -14.515468819130659 ], [ -41.328845775412162, -14.502843388011911 ], [ -41.399705757914376, -14.558542305383014 ], [ -41.434466465155197, -14.551350516013486 ], [ -41.637624846909091, -14.509199949118283 ], [ -41.551005984838298, -14.488720522733898 ], [ -41.569037664356699, -14.386628716941685 ], [ -41.570584179016578, -14.304748362047235 ], [ -41.493163109789634, -14.148315599884995 ], [ -41.381106659244892, -14.101867237682825 ], [ -41.368454411242055, -14.136361825637719 ], [ -41.402528843131563, -14.261124145362999 ], [ -41.295379415627508, -14.278996856219919 ], [ -41.10754577921432, -14.367490837132378 ] ] } }
]
}
