{
"type": "FeatureCollection",
"features": [
{ "type": "Feature", "properties": { "Name": "BAIXA GRANDE", "Description": "BAIXA GRANDE \/ BA" }, "geometry": { "type": "LineString", "coordinates": [ [ -39.959911680179857, -11.974722132220563 ], [ -40.02965616789777, -12.110765299478942 ], [ -40.21735787106882, -12.096733413216384 ], [ -40.33278754371014, -11.978612826021049 ], [ -40.274496485224574, -11.908262699763723 ], [ -40.326280577286752, -11.886492899127973 ], [ -40.354256825092364, -11.835136660428475 ], [ -40.321091331699563, -11.802169041268201 ], [ -40.047211870431454, -11.872560872686051 ], [ -39.959911680179857, -11.974722132220563 ] ] } }
]
}
