{
"type": "FeatureCollection",
"features": [
{ "type": "Feature", "properties": { "Name": "BARRO ALTO", "Description": "BARRO ALTO \/ BA" }, "geometry": { "type": "LineString", "coordinates": [ [ -41.67642647969825, -11.944504394362239 ], [ -41.681125443684209, -11.991200972147112 ], [ -41.882081841703609, -11.89126293563595 ], [ -42.021469584054046, -11.815199238354124 ], [ -42.003181202950088, -11.798037822887181 ], [ -41.942807666240753, -11.805045970694948 ], [ -41.903972497732525, -11.755897021730105 ], [ -41.865805465249991, -11.714320853624427 ], [ -41.812580805859447, -11.74816278918132 ], [ -41.751693430707235, -11.876133264038856 ], [ -41.702418010982399, -11.894023125866511 ], [ -41.67642647969825, -11.944504394362239 ] ] } }
]
}
