{
"type": "FeatureCollection",
"features": [
{ "type": "Feature", "properties": { "Name": "BARROCAS", "Description": "BARROCAS \/ BA" }, "geometry": { "type": "LineString", "coordinates": [ [ -39.158280751355555, -11.632923272790777 ], [ -39.140767634418751, -11.493465986765839 ], [ -39.053792543690918, -11.398850076070119 ], [ -39.065546064099514, -11.488154704975614 ], [ -39.028459180346829, -11.552496638708872 ], [ -39.072624518206908, -11.61557572014334 ], [ -39.158280751355555, -11.632923272790777 ] ] } }
]
}
