{
"type": "FeatureCollection",
"features": [
{ "type": "Feature", "properties": { "Name": "BONINAL", "Description": "BONINAL \/ BA" }, "geometry": { "type": "LineString", "coordinates": [ [ -41.648757345874742, -12.679637290928213 ], [ -41.605385291897676, -12.711544978118184 ], [ -41.636547338588741, -12.78136929865417 ], [ -41.621204184125759, -12.82868029955614 ], [ -41.64033210933934, -12.898069609025185 ], [ -41.699664418178315, -12.994865030296863 ], [ -41.797824738720685, -12.808580122674471 ], [ -41.859488700942734, -12.824973605247633 ], [ -41.978011032383222, -12.830378489375732 ], [ -42.018454825429785, -12.856112319927604 ], [ -42.031266714787023, -12.764336036578754 ], [ -42.018026660901626, -12.72003579591518 ], [ -42.027989920698246, -12.657577959854905 ], [ -41.897463554599312, -12.684266040345449 ], [ -41.845780031023594, -12.67638998201204 ], [ -41.648757345874742, -12.679637290928213 ] ] } }
]
}
