{
"type": "FeatureCollection",
"features": [
{ "type": "Feature", "properties": { "Name": "BREJOLÃNDIA", "Description": "BREJOLÃNDIA \/ BA" }, "geometry": { "type": "LineString", "coordinates": [ [ -43.928904786426692, -12.243164234841514 ], [ -43.852255804961366, -12.242306221354966 ], [ -43.781776259067044, -12.258036459315122 ], [ -43.710690499966574, -12.322161624059673 ], [ -43.707406710051593, -12.370777319117963 ], [ -43.553544991807883, -12.506503308980484 ], [ -43.443597709566575, -12.551435500547882 ], [ -43.536422044841451, -12.636858748132681 ], [ -43.945150436643303, -12.704830934699828 ], [ -43.978757989989219, -12.675997135659257 ], [ -44.067944653023289, -12.697365765817379 ], [ -44.083423966642727, -12.645267227600414 ], [ -44.073987536895288, -12.543742337338925 ], [ -44.110945820293345, -12.480220790357123 ], [ -44.070556522565425, -12.471255716877806 ], [ -44.02048109292803, -12.407479659058993 ], [ -43.988170004941708, -12.29746302379948 ], [ -43.958243948699248, -12.238268619700989 ], [ -43.958237741578444, -12.238271430981683 ], [ -43.928904786426692, -12.243164234841514 ] ] } }
]
}
