{
"type": "FeatureCollection",
"features": [
{ "type": "Feature", "properties": { "Name": "BRUMADO", "Description": "BRUMADO \/ BA" }, "geometry": { "type": "LineString", "coordinates": [ [ -41.31840088998905, -14.085329409424673 ], [ -41.381106659244892, -14.101867237682825 ], [ -41.493163109789634, -14.148315599884995 ], [ -41.570584179016578, -14.304748362047235 ], [ -41.569037664356699, -14.386628716941685 ], [ -41.551005984838298, -14.488720522733898 ], [ -41.637624846909091, -14.509199949118283 ], [ -41.693923374663939, -14.475490632086975 ], [ -41.72086372038433, -14.446375625834433 ], [ -41.763681209220408, -14.255838921429017 ], [ -41.799051558782367, -14.260957483001391 ], [ -41.922980142219728, -14.228009280204047 ], [ -41.968509532189103, -14.233979854086954 ], [ -41.994286519407297, -14.167277466182099 ], [ -42.015992471775121, -14.118862545669913 ], [ -42.086990125194063, -14.056857627977079 ], [ -41.981389939993676, -14.071051977666571 ], [ -41.89996519783557, -14.053669715684803 ], [ -41.829836089863591, -13.974335446723442 ], [ -41.768154087241271, -13.982850306995999 ], [ -41.717628428209366, -13.977445209728613 ], [ -41.660439541951234, -14.001043726886451 ], [ -41.559163507589744, -13.944305293054811 ], [ -41.493884909261112, -13.916493186811067 ], [ -41.463750784071408, -14.000199634905186 ], [ -41.31840088998905, -14.085329409424673 ] ] } }
]
}
