{
"type": "FeatureCollection",
"features": [
{ "type": "Feature", "properties": { "Name": "BURITIRAMA", "Description": "BURITIRAMA \/ BA" }, "geometry": { "type": "LineString", "coordinates": [ [ -43.900710899088665, -10.857066801391738 ], [ -43.941141353390719, -10.716505826882383 ], [ -43.997034760845509, -10.640527316982059 ], [ -44.058198416723485, -10.621820144084325 ], [ -44.083429149435631, -10.589090141097074 ], [ -44.025843686436929, -10.475470726392871 ], [ -44.027765271450043, -10.412474041743565 ], [ -43.93673482105509, -10.436130287282877 ], [ -43.91588937419521, -10.393084828402039 ], [ -43.770792331700697, -10.393088143303146 ], [ -43.726022027994127, -10.356183481082724 ], [ -43.66106836371398, -10.373970223047309 ], [ -43.664680225412042, -10.326306180685663 ], [ -43.583667547219477, -10.248231348397951 ], [ -43.467874265185166, -10.234719880917735 ], [ -43.38471599344831, -10.239955968593051 ], [ -43.37249890579983, -10.283454871944741 ], [ -43.388690343984138, -10.341954979638558 ], [ -43.377937423673131, -10.402998552641066 ], [ -43.382348878897574, -10.650371211562117 ], [ -43.377385977380918, -10.718252557609389 ], [ -43.39472852889844, -10.796109308797497 ], [ -43.388169870343177, -10.858458989690575 ], [ -43.549429403644012, -10.869977276230259 ], [ -43.759324505221684, -10.909202770291584 ], [ -43.785539195177648, -10.907462617205965 ], [ -43.842376858405252, -10.849785299252119 ], [ -43.900710899088665, -10.857066801391738 ] ] } }
]
}
