{
"type": "FeatureCollection",
"features": [
{ "type": "Feature", "properties": { "Name": "CACULÃ", "Description": "CACULÃ \/ BA" }, "geometry": { "type": "LineString", "coordinates": [ [ -42.230933518267186, -14.377631177037131 ], [ -42.173369442945386, -14.408107101261692 ], [ -42.150452417644942, -14.48897316208172 ], [ -42.15690635644313, -14.597041643656894 ], [ -42.247750888192904, -14.609035328017908 ], [ -42.269344739168332, -14.631251559311979 ], [ -42.33725535994688, -14.619505955635304 ], [ -42.334011786814472, -14.543100295642091 ], [ -42.354282476055396, -14.467108929933147 ], [ -42.392574483725404, -14.426318397875718 ], [ -42.501621365633461, -14.399695888754195 ], [ -42.524234861649518, -14.409747964696749 ], [ -42.461135752313055, -14.351732554713578 ], [ -42.375817854010727, -14.391566796270579 ], [ -42.357164069366263, -14.377523109104175 ], [ -42.230933518267186, -14.377631177037131 ] ] } }
]
}
