{
"type": "FeatureCollection",
"features": [
{ "type": "Feature", "properties": { "Name": "CAFARNAUM", "Description": "CAFARNAUM \/ BA" }, "geometry": { "type": "LineString", "coordinates": [ [ -41.55749494863295, -11.558793908412099 ], [ -41.435171256648111, -11.635532081939971 ], [ -41.364274364170512, -11.701291803174115 ], [ -41.393044472324505, -11.771574850798686 ], [ -41.420667345021911, -11.86827163083103 ], [ -41.653054653749223, -11.888924701014105 ], [ -41.585392449102187, -11.768749714227907 ], [ -41.60469358823849, -11.7406614819418 ], [ -41.59247628205474, -11.613461014714005 ], [ -41.55749494863295, -11.558793908412099 ] ] } }
]
}
