{
"type": "FeatureCollection",
"features": [
{ "type": "Feature", "properties": { "Name": "CAIRU", "Description": "CAIRU \/ BA" }, "geometry": { "type": "LineString", "coordinates": [ [ -38.949146813474613, -13.389603280566917 ], [ -38.902292318335753, -13.386296684744137 ], [ -38.886671874107662, -13.450169516809694 ], [ -38.926361548746456, -13.513366181903734 ], [ -38.933241918179931, -13.564697936560492 ], [ -38.887367371107246, -13.627376268400042 ], [ -38.890862523286785, -13.66070401118111 ], [ -38.967731073330299, -13.67311526965392 ], [ -38.970447856883027, -13.640425350349574 ], [ -39.019876003974389, -13.575484801782125 ], [ -39.080032178142453, -13.563334730713223 ], [ -39.070530867705315, -13.487935365324802 ], [ -39.041661722610343, -13.388430702215089 ], [ -38.9891427702226, -13.372093682677244 ], [ -38.949146813474613, -13.389603280566917 ] ] } }
]
}
