{
"type": "FeatureCollection",
"features": [
{ "type": "Feature", "properties": { "Name": "CAMPO FORMOSO", "Description": "CAMPO FORMOSO \/ BA" }, "geometry": { "type": "LineString", "coordinates": [ [ -40.231178159444482, -10.370980498850882 ], [ -40.251280984829521, -10.398232479445312 ], [ -40.234393476777484, -10.462796551119879 ], [ -40.248491927260602, -10.517130067398625 ], [ -40.384937574409491, -10.545351472192634 ], [ -40.458387186219625, -10.578460666226704 ], [ -40.559803214446731, -10.676154655013249 ], [ -40.945407776447666, -10.606608392263466 ], [ -40.916566718978856, -10.552897019781597 ], [ -40.941189771690574, -10.509585333696121 ], [ -41.020061536410708, -10.43148555421493 ], [ -41.106935625178885, -10.466663160176665 ], [ -41.181566846332828, -10.430911848802737 ], [ -41.224880674603412, -10.453894922112909 ], [ -41.255787365094761, -10.414435830049456 ], [ -41.27786872775954, -10.347183870938863 ], [ -41.143994246836996, -10.223005233704498 ], [ -41.193225126738184, -10.065620052623274 ], [ -41.169456105314964, -10.032431675981002 ], [ -41.255915502298535, -9.974115697281547 ], [ -41.121176405066983, -9.923956146858643 ], [ -41.058578263975676, -9.91641930290848 ], [ -40.969125889947804, -9.945944078056696 ], [ -40.810295578378202, -9.917112887949372 ], [ -40.64332644995568, -9.886804351839315 ], [ -40.316384756751063, -9.907899734684975 ], [ -40.319299382160686, -9.975245637875844 ], [ -40.340920663357906, -10.031508201742042 ], [ -40.388777186717732, -10.062152916124148 ], [ -40.41651686336251, -10.112586515155499 ], [ -40.299246014092262, -10.128399631038121 ], [ -40.247086929917828, -10.205846366916262 ], [ -40.255349769576185, -10.227554599964776 ], [ -40.227297949940407, -10.310281972335133 ], [ -40.231178159444482, -10.370980498850882 ] ] } }
]
}
