{
"type": "FeatureCollection",
"features": [
{ "type": "Feature", "properties": { "Name": "CAPELA DO ALTO ALEGRE", "Description": "CAPELA DO ALTO ALEGRE \/ BA" }, "geometry": { "type": "LineString", "coordinates": [ [ -39.89136862466227, -11.486421110645665 ], [ -39.890324206896594, -11.579501625899297 ], [ -39.765594272657495, -11.590663633419922 ], [ -39.728649176917941, -11.624031955410373 ], [ -39.696008625897321, -11.728260630423733 ], [ -39.695430329446083, -11.81781422584578 ], [ -39.740825942563163, -11.842273282685824 ], [ -39.748444980951092, -11.883599875433843 ], [ -39.909827478555258, -11.729272978365202 ], [ -39.919627377401525, -11.68762134724733 ], [ -39.95828392706153, -11.485964845001547 ], [ -39.89136862466227, -11.486421110645665 ] ] } }
]
}
