{
"type": "FeatureCollection",
"features": [
{ "type": "Feature", "properties": { "Name": "CARAÃBAS", "Description": "CARAÃBAS \/ BA" }, "geometry": { "type": "LineString", "coordinates": [ [ -41.093671064767761, -14.441621673701205 ], [ -41.093081199437734, -14.489122028658642 ], [ -41.143507894373784, -14.587265501301772 ], [ -41.218204059169977, -14.668649415138361 ], [ -41.222372141660969, -14.711437468264476 ], [ -41.28012225523787, -14.763530463959682 ], [ -41.26928315289512, -14.798203623998004 ], [ -41.309411273111721, -14.783326057551449 ], [ -41.382301047954968, -14.825378691873082 ], [ -41.449264885865773, -14.795729136690284 ], [ -41.393997855316741, -14.767488018757035 ], [ -41.387783037257293, -14.680955252382942 ], [ -41.4003839366693, -14.639835481222462 ], [ -41.447205828685973, -14.59458277037851 ], [ -41.434466465155197, -14.551350516013486 ], [ -41.399705757914376, -14.558542305383014 ], [ -41.328845775412162, -14.502843388011911 ], [ -41.244533346136961, -14.515468819130659 ], [ -41.182672486346121, -14.480132436063002 ], [ -41.129127628737024, -14.488746118338668 ], [ -41.093671064767761, -14.441621673701205 ] ] } }
]
}
