{
"type": "FeatureCollection",
"features": [
{ "type": "Feature", "properties": { "Name": "CASA NOVA", "Description": "CASA NOVA \/ BA" }, "geometry": { "type": "LineString", "coordinates": [ [ -40.767159398587353, -9.445411875557568 ], [ -40.837860006833807, -9.422865712682436 ], [ -40.863115077898499, -9.394096582990869 ], [ -40.931193978918941, -9.395880990815044 ], [ -41.016628343023569, -9.383941408768976 ], [ -41.117420415319884, -9.403590814864174 ], [ -41.143538405672814, -9.495927916340236 ], [ -41.188737775927564, -9.559959099232969 ], [ -41.212685462963691, -9.622153147050028 ], [ -41.247222157176793, -9.647091397749762 ], [ -41.400215489153481, -9.695047882553693 ], [ -41.513207949587184, -9.666174638348819 ], [ -41.637153669606107, -9.715302715847599 ], [ -41.684419041605452, -9.768423680708224 ], [ -41.839568038634013, -9.73215911455145 ], [ -41.903144653802713, -9.704350548938635 ], [ -41.85466201434042, -9.240668933324571 ], [ -41.800070338675141, -9.148026601046752 ], [ -41.732659031389119, -9.087725361736034 ], [ -41.730821757817807, -9.02795720366197 ], [ -41.605794728943522, -8.95740387738698 ], [ -41.541410138567016, -8.933556715669852 ], [ -41.48784338156679, -8.843903399822011 ], [ -41.424266706143548, -8.802555356444486 ], [ -41.381251534630564, -8.707272369124496 ], [ -41.278264836852713, -8.735313038965558 ], [ -41.225265705847619, -8.704669786881139 ], [ -41.131324976466431, -8.704252870173775 ], [ -41.103351208991057, -8.780442621829479 ], [ -41.036234504318884, -8.785875895755964 ], [ -41.0212409136372, -8.843560915503815 ], [ -40.979093747978027, -8.823417084630705 ], [ -40.921337251912576, -8.835430447956753 ], [ -40.851011600704794, -8.954244313524214 ], [ -40.821008040888323, -9.079891426747906 ], [ -40.709889301749854, -9.140880974777131 ], [ -40.669873158819193, -9.18613251110645 ], [ -40.693445281774302, -9.231275585599747 ], [ -40.687233980963406, -9.278333138663356 ], [ -40.720088161439435, -9.305896697474566 ], [ -40.767159398587353, -9.445411875557568 ] ] } }
]
}
