{
"type": "FeatureCollection",
"features": [
{ "type": "Feature", "properties": { "Name": "CÃCERO DANTAS", "Description": "CÃCERO DANTAS \/ BA" }, "geometry": { "type": "LineString", "coordinates": [ [ -38.417341804680518, -10.441866041884282 ], [ -38.367002204588005, -10.476360220647621 ], [ -38.21986176570789, -10.476654099307211 ], [ -38.250461132675071, -10.524766331401054 ], [ -38.29391378569261, -10.543165063816616 ], [ -38.246285488684293, -10.709531174324184 ], [ -38.300255142860522, -10.651524049794999 ], [ -38.389074942754348, -10.633778592108285 ], [ -38.458194041022125, -10.661733829952254 ], [ -38.482658629592038, -10.607916494850315 ], [ -38.546819091827558, -10.564194618087129 ], [ -38.583424401215098, -10.532684409657747 ], [ -38.735827989270263, -10.602668892255506 ], [ -38.627171691020692, -10.525048338110253 ], [ -38.656077020338159, -10.485336413344726 ], [ -38.622078459753084, -10.440705895760459 ], [ -38.649197559219942, -10.36857555611698 ], [ -38.57863528469062, -10.334092642261567 ], [ -38.501419044153522, -10.383103912215745 ], [ -38.479331051686643, -10.451541136414278 ], [ -38.417341804680518, -10.441866041884282 ] ] } }
]
}
