{
"type": "FeatureCollection",
"features": [
{ "type": "Feature", "properties": { "Name": "COCOS", "Description": "COCOS \/ BA" }, "geometry": { "type": "LineString", "coordinates": [ [ -44.379594271458416, -14.044399900634858 ], [ -44.418678707756101, -14.101155402699646 ], [ -44.461683731319106, -14.194450400865264 ], [ -44.411781951775595, -14.281584283088137 ], [ -44.488258873148425, -14.328626748225815 ], [ -44.566123894502084, -14.341375145446532 ], [ -44.658878359648554, -14.395757312350041 ], [ -44.72565783833852, -14.457649223033172 ], [ -44.81076609388009, -14.503101175978429 ], [ -44.87637986593802, -14.597390553631099 ], [ -44.980961934945299, -14.645629897701554 ], [ -45.047693834103143, -14.69053697210353 ], [ -45.095849436901972, -14.752998941447968 ], [ -45.166462445785207, -14.73530104980358 ], [ -45.205573677383256, -14.744738945445929 ], [ -45.318043151470249, -14.852569457414461 ], [ -45.363975789351173, -14.871695478763286 ], [ -45.410296384870207, -14.923438811751735 ], [ -45.490051532052519, -14.960762676756076 ], [ -45.536103433526591, -14.938126233638741 ], [ -45.649972426286411, -15.023802517172385 ], [ -45.673189465421444, -15.077834547426392 ], [ -45.751109460533144, -15.122582172928901 ], [ -45.811665490370046, -15.11283783509799 ], [ -45.872158894117604, -15.158803131858972 ], [ -45.918724731161376, -15.133369657783417 ], [ -45.960611845260409, -15.143930083606447 ], [ -45.984505303177173, -15.195961039570248 ], [ -46.029523683970808, -15.201808335286389 ], [ -46.058112976232849, -15.262741802492144 ], [ -46.11650707813908, -15.204820935537725 ], [ -46.047775566988776, -15.163729627020645 ], [ -46.043720190234524, -15.118129571022848 ], [ -45.975005565654271, -15.036877791876519 ], [ -45.966080911304971, -14.965645482852722 ], [ -46.037389567374589, -14.874914961756019 ], [ -45.964206516417562, -14.810931766687643 ], [ -45.858867465561048, -14.696671557146601 ], [ -45.68385340321197, -14.547671489347691 ], [ -45.624756670883578, -14.505182326802867 ], [ -45.584495782854049, -14.454684026046889 ], [ -45.494062965233638, -14.372672177678796 ], [ -45.417764487341174, -14.316612366867218 ], [ -45.374961002748023, -14.257417744233464 ], [ -45.26754352781154, -14.202162704345255 ], [ -45.192223129194019, -14.127332408363884 ], [ -45.113478455766085, -14.114053787052569 ], [ -45.075640394388643, -14.076440648816856 ], [ -44.953800520577538, -14.033080420025328 ], [ -44.915679804978993, -14.004753002249231 ], [ -44.903481576113791, -13.925253901945949 ], [ -44.864927292860216, -13.902598045163584 ], [ -44.795563924335617, -13.82630504414243 ], [ -44.711952861935004, -13.889211376603724 ], [ -44.670566920227145, -13.889101217746939 ], [ -44.518761081858372, -14.002622896829166 ], [ -44.467804495580936, -14.032441388759024 ], [ -44.379594271458416, -14.044399900634858 ] ] } }
]
}
