{
"type": "FeatureCollection",
"features": [
{ "type": "Feature", "properties": { "Name": "CORIBE", "Description": "CORIBE \/ BA" }, "geometry": { "type": "LineString", "coordinates": [ [ -44.02904517759282, -13.792662243667564 ], [ -44.013120956766727, -13.853609196207401 ], [ -44.065643526227689, -13.944592647132936 ], [ -44.107269213703205, -13.985095515745398 ], [ -44.195129457658311, -13.926390817682034 ], [ -44.25283398460067, -13.971633682748232 ], [ -44.277125116430909, -14.031478559288018 ], [ -44.379594271458416, -14.044399900634858 ], [ -44.467804495580936, -14.032441388759024 ], [ -44.518761081858372, -14.002622896829166 ], [ -44.670566920227145, -13.889101217746939 ], [ -44.711952861935004, -13.889211376603724 ], [ -44.795563924335617, -13.82630504414243 ], [ -44.799081323943874, -13.801122971048242 ], [ -44.656648279294579, -13.723822086320183 ], [ -44.542161061084073, -13.67760731672422 ], [ -44.454017725837332, -13.627721810413162 ], [ -44.357237298062785, -13.598875886712733 ], [ -44.264109727581797, -13.507140293189934 ], [ -44.239331831398879, -13.5886233473895 ], [ -44.188166835331117, -13.658222403940725 ], [ -44.02904517759282, -13.792662243667564 ] ] } }
]
}
