{
"type": "FeatureCollection",
"features": [
{ "type": "Feature", "properties": { "Name": "DIAS D'ÃVILA", "Description": "DIAS D'ÃVILA \/ BA" }, "geometry": { "type": "LineString", "coordinates": [ [ -38.215031798378725, -12.56676856012092 ], [ -38.178082404779104, -12.541122399079427 ], [ -38.138341942726413, -12.576684639684343 ], [ -38.219210010833308, -12.642686676948529 ], [ -38.313773378638473, -12.622834846051262 ], [ -38.375782454796422, -12.677035115178398 ], [ -38.396996865612834, -12.664085463173533 ], [ -38.39462757919938, -12.61052044006618 ], [ -38.367027221029389, -12.590441060906187 ], [ -38.378186917292339, -12.53863035610601 ], [ -38.346353632813866, -12.574361682745405 ], [ -38.278994362100093, -12.611141878794626 ], [ -38.215031798378725, -12.56676856012092 ] ] } }
]
}
