{
"type": "FeatureCollection",
"features": [
{ "type": "Feature", "properties": { "Name": "DOM MACEDO COSTA", "Description": "DOM MACEDO COSTA \/ BA" }, "geometry": { "type": "LineString", "coordinates": [ [ -39.119970268912709, -12.963238463983885 ], [ -39.154710352900395, -12.966320324623211 ], [ -39.223223327894232, -12.928657467368168 ], [ -39.226287696719794, -12.898437459620991 ], [ -39.161889743316976, -12.84966733118233 ], [ -39.13107485292209, -12.884752381617091 ], [ -39.119970268912709, -12.963238463983885 ] ] } }
]
}
