{
"type": "FeatureCollection",
"features": [
{ "type": "Feature", "properties": { "Name": "ESPLANADA", "Description": "ESPLANADA \/ BA" }, "geometry": { "type": "LineString", "coordinates": [ [ -37.911802145552542, -11.680546423878296 ], [ -37.865739988209839, -11.683737029640154 ], [ -37.813157289177518, -11.736756920595383 ], [ -37.858859911955335, -11.775068355420217 ], [ -37.767895417839213, -11.857640227814215 ], [ -37.767453652863765, -11.955738728959147 ], [ -37.748257708326548, -12.006393555817908 ], [ -37.685768056950216, -12.098902306396269 ], [ -37.767726954135583, -12.233216055776325 ], [ -37.797196958772588, -12.189325433821693 ], [ -37.837480794802786, -12.215509527042968 ], [ -37.905030621965572, -12.222859312906905 ], [ -37.952507986654211, -12.190838600720781 ], [ -37.937100531564226, -12.142032536272495 ], [ -37.924560196096138, -12.149727698674326 ], [ -37.852601950719418, -12.002068343778999 ], [ -37.866289408329465, -11.973182560326848 ], [ -37.951294943306948, -11.934223214329847 ], [ -38.026367448299084, -11.84746327920692 ], [ -38.09974388407295, -11.842662029029384 ], [ -38.156555897736439, -11.802723913977388 ], [ -38.144845561873126, -11.763722671264247 ], [ -38.051453463906171, -11.668325950282336 ], [ -38.044736110982683, -11.764923332745582 ], [ -37.911802145552542, -11.680546423878296 ] ] } }
]
}
