{
"type": "FeatureCollection",
"features": [
{ "type": "Feature", "properties": { "Name": "EUNÃPOLIS", "Description": "EUNÃPOLIS \/ BA" }, "geometry": { "type": "LineString", "coordinates": [ [ -39.402695501396238, -16.098036028240074 ], [ -39.420665887620601, -16.232852138015687 ], [ -39.456792109268406, -16.391875104152689 ], [ -39.505121034807871, -16.444030769104643 ], [ -39.51909501372387, -16.495340103662784 ], [ -39.608503455869766, -16.468721522780015 ], [ -39.698414872648186, -16.54782131869888 ], [ -39.740738725411802, -16.503248153579364 ], [ -39.772788814851879, -16.415549068134965 ], [ -39.778678601736033, -16.354215829796654 ], [ -39.842637260601066, -16.295005405175289 ], [ -39.863876633899508, -16.252760389680191 ], [ -39.753107948672834, -16.197235161973083 ], [ -39.595289750321683, -16.153693280920152 ], [ -39.492987530150344, -16.083087194118662 ], [ -39.469527537365934, -16.094371295398901 ], [ -39.433040843160313, -16.076814250177449 ], [ -39.402695501396238, -16.098036028240074 ] ] } }
]
}
