{
"type": "FeatureCollection",
"features": [
{ "type": "Feature", "properties": { "Name": "FIRMINO ALVES", "Description": "FIRMINO ALVES \/ BA" }, "geometry": { "type": "LineString", "coordinates": [ [ -39.874829193812218, -14.817662719159101 ], [ -39.881747081162814, -14.866100325969228 ], [ -39.862550367705232, -14.978324051313848 ], [ -39.884877589728944, -15.012998717716584 ], [ -39.91035753357329, -15.033439231335421 ], [ -39.976551443893982, -14.958913167908348 ], [ -39.94435254633288, -14.909526717883693 ], [ -39.940538269725323, -14.855552023007419 ], [ -39.905663103069678, -14.811195458703422 ], [ -39.874829193812218, -14.817662719159101 ] ] } }
]
}
