{
"type": "FeatureCollection",
"features": [
{ "type": "Feature", "properties": { "Name": "IBIASSUCÃ", "Description": "IBIASSUCÃ \/ BA" }, "geometry": { "type": "LineString", "coordinates": [ [ -42.229380348624147, -14.199165834135897 ], [ -42.172532746988622, -14.245774452828698 ], [ -42.230933518267186, -14.377631177037131 ], [ -42.357164069366263, -14.377523109104175 ], [ -42.375817854010727, -14.391566796270579 ], [ -42.461135752313055, -14.351732554713578 ], [ -42.347163494899348, -14.195460889908077 ], [ -42.302870606193494, -14.175248857148972 ], [ -42.229380348624147, -14.199165834135897 ] ] } }
]
}
