{
"type": "FeatureCollection",
"features": [
{ "type": "Feature", "properties": { "Name": "IBIPEBA", "Description": "IBIPEBA \/ BA" }, "geometry": { "type": "LineString", "coordinates": [ [ -42.04453513778634, -11.550036125067095 ], [ -41.903972497732525, -11.755897021730105 ], [ -41.942807666240753, -11.805045970694948 ], [ -42.003181202950088, -11.798037822887181 ], [ -41.960596636725363, -11.758062430037057 ], [ -42.360024598756183, -11.713986795953815 ], [ -42.353730351674358, -11.632711257618382 ], [ -42.329510595437569, -11.57124602578341 ], [ -42.36155029590941, -11.481373216900407 ], [ -42.300235952327284, -11.404048190771334 ], [ -42.299931690095377, -11.346184105212217 ], [ -42.326254197972844, -11.290006126181709 ], [ -42.240290093612884, -11.261235026974873 ], [ -42.180755298817928, -11.345722509286304 ], [ -42.159655746715316, -11.404882279593494 ], [ -42.164080260995206, -11.480226484164858 ], [ -42.120211831610675, -11.519385133417131 ], [ -42.04453513778634, -11.550036125067095 ] ] } }
]
}
