{
"type": "FeatureCollection",
"features": [
{ "type": "Feature", "properties": { "Name": "IBITITÃ", "Description": "IBITITÃ \/ BA" }, "geometry": { "type": "LineString", "coordinates": [ [ -41.865805465249991, -11.714320853624427 ], [ -41.903972497732525, -11.755897021730105 ], [ -42.04453513778634, -11.550036125067095 ], [ -41.992201622007201, -11.406257970728744 ], [ -41.97852498414067, -11.368683540213169 ], [ -41.874171558770399, -11.493065572618036 ], [ -41.757377093877722, -11.668257991213295 ], [ -41.865805465249991, -11.714320853624427 ] ] } }
]
}
