{
"type": "FeatureCollection",
"features": [
{ "type": "Feature", "properties": { "Name": "IBOTIRAMA", "Description": "IBOTIRAMA \/ BA" }, "geometry": { "type": "LineString", "coordinates": [ [ -43.136552736019894, -12.019485022815502 ], [ -43.058572361325389, -12.094512513141922 ], [ -43.06360035037585, -12.139949239665611 ], [ -42.990634374176977, -12.193851988778192 ], [ -42.963714915211142, -12.268722388227616 ], [ -42.972335454817369, -12.332485987738094 ], [ -43.086541053926453, -12.311911903211694 ], [ -43.252743754020962, -12.380090449114903 ], [ -43.286478818642536, -12.331037056714763 ], [ -43.263430289076553, -12.220902249639037 ], [ -43.226303654390108, -12.192301822870775 ], [ -43.282193824285507, -12.135685598811278 ], [ -43.2990226659632, -12.055940987186771 ], [ -43.349098022755527, -12.016361402156917 ], [ -43.35272075276049, -11.904419659239863 ], [ -43.315363215340078, -11.875152288946936 ], [ -43.34919914972096, -11.798330151115522 ], [ -43.348097661877539, -11.735740281089079 ], [ -43.382202314585129, -11.689400273703598 ], [ -43.378936179261245, -11.628232625735052 ], [ -43.353345423652343, -11.588991004131513 ], [ -43.283859766215187, -11.560639593342501 ], [ -43.276033366646516, -11.63560167237921 ], [ -43.22622269921817, -11.676705254843569 ], [ -43.245442416434344, -11.704935844413624 ], [ -43.226824729677503, -11.781859772010819 ], [ -43.195775443581795, -11.806317329680951 ], [ -43.186432726788894, -11.890347536409649 ], [ -43.139912482674902, -11.973395170850381 ], [ -43.136552736019894, -12.019485022815502 ] ] } }
]
}
