{
"type": "FeatureCollection",
"features": [
{ "type": "Feature", "properties": { "Name": "IGAPORÃ", "Description": "IGAPORÃ \/ BA" }, "geometry": { "type": "LineString", "coordinates": [ [ -42.704822316796424, -13.63309965462531 ], [ -42.656244691838992, -13.730352179709255 ], [ -42.618919147800398, -13.760101156742962 ], [ -42.587477296839722, -13.834711678201359 ], [ -42.511211119897212, -13.920597069399207 ], [ -42.556544883939175, -13.946057088763609 ], [ -42.799850301350254, -14.037173197784794 ], [ -42.917964803732673, -13.983040835566044 ], [ -42.951612475835077, -13.956876153311782 ], [ -42.893923536841726, -13.944919437382111 ], [ -42.807605025851217, -13.974024188665339 ], [ -42.780038016341337, -13.897636242618432 ], [ -42.772825010166059, -13.746556728210408 ], [ -42.770866287649028, -13.656352807835788 ], [ -42.704822316796424, -13.63309965462531 ] ] } }
]
}
