{
"type": "FeatureCollection",
"features": [
{ "type": "Feature", "properties": { "Name": "INHAMBUPE", "Description": "INHAMBUPE \/ BA" }, "geometry": { "type": "LineString", "coordinates": [ [ -38.182104055157993, -11.887812066073934 ], [ -38.273112476659435, -11.962880137408376 ], [ -38.349873162016756, -11.96992561427561 ], [ -38.386118658948931, -11.934077720210553 ], [ -38.475006110343656, -11.949056616869314 ], [ -38.520681387436014, -11.936082272179078 ], [ -38.597050025937904, -11.953037832829693 ], [ -38.62912859870584, -11.708198928337822 ], [ -38.542064278143869, -11.754533923801489 ], [ -38.43474304325678, -11.724763068061122 ], [ -38.425435676115512, -11.521240922230731 ], [ -38.296058765899254, -11.574841891240226 ], [ -38.295895392358432, -11.639988537441013 ], [ -38.26487761311131, -11.709707185837885 ], [ -38.295402827378553, -11.866328674328827 ], [ -38.182104055157993, -11.887812066073934 ] ] } }
]
}
