{
"type": "FeatureCollection",
"features": [
{ "type": "Feature", "properties": { "Name": "IRAJUBA", "Description": "IRAJUBA \/ BA" }, "geometry": { "type": "LineString", "coordinates": [ [ -39.944428134350858, -13.215120989142292 ], [ -39.913685381275279, -13.259027321353756 ], [ -39.975628790736039, -13.314925059044185 ], [ -39.982200921135586, -13.3257551618712 ], [ -40.045803057265232, -13.313354535183578 ], [ -40.077172082925244, -13.333770206829511 ], [ -40.15062670036189, -13.337229139712974 ], [ -40.136667125887122, -13.233867117073771 ], [ -40.15205659813347, -13.106986384014363 ], [ -40.053789659365236, -13.114374970228651 ], [ -39.944428134350858, -13.215120989142292 ] ] } }
]
}
