{
"type": "FeatureCollection",
"features": [
{ "type": "Feature", "properties": { "Name": "IRARÃ", "Description": "IRARÃ \/ BA" }, "geometry": { "type": "LineString", "coordinates": [ [ -38.656636393254928, -12.05367990989987 ], [ -38.728854736956521, -12.173097770945331 ], [ -38.76331378640208, -12.118711068760774 ], [ -38.837209779407772, -12.110760711137857 ], [ -38.805842296984395, -12.012508005939651 ], [ -38.824872464092891, -11.94681278767996 ], [ -38.683632121025539, -11.947207111618866 ], [ -38.724089774423533, -12.012738914069585 ], [ -38.699918025796194, -12.05417565128522 ], [ -38.656636393254928, -12.05367990989987 ] ] } }
]
}
