{
"type": "FeatureCollection",
"features": [
{ "type": "Feature", "properties": { "Name": "ITAGIBÃ", "Description": "ITAGIBÃ \/ BA" }, "geometry": { "type": "LineString", "coordinates": [ [ -39.66401550760952, -14.184707405722122 ], [ -39.696571176118816, -14.369579299445093 ], [ -39.790119125697053, -14.350616506846279 ], [ -39.823685301235621, -14.382598944785398 ], [ -39.871727218036654, -14.386106257597644 ], [ -39.948333297343765, -14.362948044916264 ], [ -40.005466666653319, -14.266174797328972 ], [ -39.974232054565618, -14.162713271899918 ], [ -39.936045184837376, -14.173534323949864 ], [ -39.85988008359891, -14.145706573999121 ], [ -39.812036666958591, -14.102100259219526 ], [ -39.699876198127981, -14.152694357558516 ], [ -39.66401550760952, -14.184707405722122 ] ] } }
]
}
