{
"type": "FeatureCollection",
"features": [
{ "type": "Feature", "properties": { "Name": "ITAGI", "Description": "ITAGI \/ BA" }, "geometry": { "type": "LineString", "coordinates": [ [ -39.937171387849219, -14.078660072204512 ], [ -39.936045184837376, -14.173534323949864 ], [ -39.974232054565618, -14.162713271899918 ], [ -40.005466666653319, -14.266174797328972 ], [ -40.054351217634519, -14.283263148275637 ], [ -40.097652709005274, -14.266930628945317 ], [ -40.082157546633425, -14.213782277030418 ], [ -40.11291686342247, -14.170273866945365 ], [ -40.055386962338389, -14.07136166820635 ], [ -39.990766754981735, -14.050265883363807 ], [ -39.937171387849219, -14.078660072204512 ] ] } }
]
}
