{
"type": "FeatureCollection",
"features": [
{ "type": "Feature", "properties": { "Name": "ITANAGRA", "Description": "ITANAGRA \/ BA" }, "geometry": { "type": "LineString", "coordinates": [ [ -37.891961755830323, -12.385608822289271 ], [ -38.045563381145087, -12.431147664133334 ], [ -38.097202222804299, -12.434457688171731 ], [ -38.142602882017343, -12.372010577426181 ], [ -38.174153151646571, -12.261192001409709 ], [ -38.076621602904595, -12.239533347985571 ], [ -38.082505477645611, -12.157913668780736 ], [ -38.044416244613956, -12.157784653838632 ], [ -38.017529023645466, -12.218184519999568 ], [ -37.921557992007706, -12.264195483434776 ], [ -37.971051939795132, -12.369867021745618 ], [ -37.891961755830323, -12.385608822289271 ] ] } }
]
}
