{
"type": "FeatureCollection",
"features": [
{ "type": "Feature", "properties": { "Name": "ITAPÃ", "Description": "ITAPÃ \/ BA" }, "geometry": { "type": "LineString", "coordinates": [ [ -39.41892596206344, -15.011928430052933 ], [ -39.519857240419242, -15.075971379675366 ], [ -39.569739245669609, -15.047256347802147 ], [ -39.59670672033883, -14.990956927020532 ], [ -39.678413558239072, -14.93868118728693 ], [ -39.638255240586822, -14.917320728368848 ], [ -39.603151345757965, -14.903980547564174 ], [ -39.495714131601858, -14.908806762022378 ], [ -39.476936682082169, -14.851183458249977 ], [ -39.405021621250796, -14.837213648590987 ], [ -39.358827733013413, -14.876172169909694 ], [ -39.41892596206344, -15.011928430052933 ] ] } }
]
}
