{
"type": "FeatureCollection",
"features": [
{ "type": "Feature", "properties": { "Name": "JOÃO DOURADO", "Description": "JOÃO DOURADO \/ BA" }, "geometry": { "type": "LineString", "coordinates": [ [ -41.36533453086389, -11.183876726829453 ], [ -41.604790018044866, -11.362609530805173 ], [ -41.719510925089082, -11.425137438441993 ], [ -41.751819358276748, -11.407873385148548 ], [ -41.742156818282467, -11.34045996535508 ], [ -41.747146313651399, -11.21846651341883 ], [ -41.6547188249138, -11.18820746700095 ], [ -41.434956466167932, -11.006606528968064 ], [ -41.436895897327759, -11.022101003358555 ], [ -41.368506239171552, -11.142910701067933 ], [ -41.36533453086389, -11.183876726829453 ] ] } }
]
}
