{
"type": "FeatureCollection",
"features": [
{ "type": "Feature", "properties": { "Name": "JUAZEIRO", "Description": "JUAZEIRO \/ BA" }, "geometry": { "type": "LineString", "coordinates": [ [ -39.978444425070101, -9.054861947021209 ], [ -39.969396464675071, -9.119959293286684 ], [ -39.921636333350072, -9.111658128120098 ], [ -39.868897661297979, -9.199794822772787 ], [ -39.886402037723826, -9.329811891105862 ], [ -39.871062154095114, -9.414558813438418 ], [ -39.867865596619929, -9.527128659959658 ], [ -39.897450257623234, -9.634859074686517 ], [ -39.889096391285364, -9.672992773797432 ], [ -39.902259544142623, -9.787517348047118 ], [ -40.107060119428922, -9.840352324899811 ], [ -40.316384756751063, -9.907899734684975 ], [ -40.64332644995568, -9.886804351839315 ], [ -40.810295578378202, -9.917112887949372 ], [ -40.755493099826644, -9.799179655616568 ], [ -40.768360549299871, -9.778294325622596 ], [ -40.742541894692636, -9.700187974795142 ], [ -40.768729281231288, -9.650867113226639 ], [ -40.769879265915336, -9.569409955005369 ], [ -40.715245300530171, -9.448806161575078 ], [ -40.623165672257926, -9.482897444061734 ], [ -40.555758513544504, -9.457938112353929 ], [ -40.510726616839854, -9.407178859816497 ], [ -40.467755118204082, -9.420568131014363 ], [ -40.418145290972348, -9.352053271940916 ], [ -40.356397292501015, -9.376994340216584 ], [ -40.309535371660047, -9.275506665699993 ], [ -40.286172655843359, -9.185611404342808 ], [ -40.293330175647043, -9.1467428592955 ], [ -40.273192198461174, -9.082421580291623 ], [ -40.2389835283671, -9.054365348581939 ], [ -40.163086733565876, -9.10730896983307 ], [ -40.129894920614049, -9.110304606172576 ], [ -40.065563054791085, -9.063065193104137 ], [ -39.978444425070101, -9.054861947021209 ] ] } }
]
}
