{
"type": "FeatureCollection",
"features": [
{ "type": "Feature", "properties": { "Name": "JUSSARI", "Description": "JUSSARI \/ BA" }, "geometry": { "type": "LineString", "coordinates": [ [ -39.412405711754154, -15.033229012109189 ], [ -39.406390271593693, -15.133331627252744 ], [ -39.481704771557929, -15.209925106158666 ], [ -39.489206243373417, -15.246120488369797 ], [ -39.571167665855057, -15.231684515128222 ], [ -39.57875623521204, -15.287586553376684 ], [ -39.593559070694539, -15.27313616220408 ], [ -39.566894940049387, -15.192528633089919 ], [ -39.585421565952458, -15.141264751167283 ], [ -39.569739245669609, -15.047256347802147 ], [ -39.519857240419242, -15.075971379675366 ], [ -39.41892596206344, -15.011928430052933 ], [ -39.412405711754154, -15.033229012109189 ] ] } }
]
}
