{
"type": "FeatureCollection",
"features": [
{ "type": "Feature", "properties": { "Name": "JUSSARA", "Description": "JUSSARA \/ BA" }, "geometry": { "type": "LineString", "coordinates": [ [ -41.909178218000307, -11.177798674069493 ], [ -42.022044482866534, -11.106321217050493 ], [ -42.075604845687053, -11.029774249282127 ], [ -42.005536843950154, -11.021713052015684 ], [ -41.889877310889119, -10.838675154734574 ], [ -41.810441334899622, -10.712963132042887 ], [ -41.659446382844237, -10.806280651930479 ], [ -41.662756066938861, -10.811204373582939 ], [ -41.909178218000307, -11.177798674069493 ] ] } }
]
}
