{
"type": "FeatureCollection",
"features": [
{ "type": "Feature", "properties": { "Name": "LAURO DE FREITAS", "Description": "LAURO DE FREITAS \/ BA" }, "geometry": { "type": "LineString", "coordinates": [ [ -38.332278232854094, -12.812325617333329 ], [ -38.280165238035238, -12.880688636671207 ], [ -38.304049583121689, -12.91053650675434 ], [ -38.35486298114165, -12.894665621121476 ], [ -38.378894043425298, -12.822571507968689 ], [ -38.332278232854094, -12.812325617333329 ] ] } }
]
}
