{
"type": "FeatureCollection",
"features": [
{ "type": "Feature", "properties": { "Name": "MACURURÃ", "Description": "MACURURÃ \/ BA" }, "geometry": { "type": "LineString", "coordinates": [ [ -38.846299730947806, -9.627645571186122 ], [ -39.116280955801408, -9.642607360940929 ], [ -39.170440367828689, -9.639248645808323 ], [ -39.140083586688149, -9.601558262104048 ], [ -39.070884526999293, -9.563741306016425 ], [ -39.004101192915698, -9.571305437196145 ], [ -38.957052142042691, -9.46358795561963 ], [ -39.000002173861219, -9.368044825008608 ], [ -39.024291693207033, -9.35324897995639 ], [ -39.081839497994395, -9.201777075151824 ], [ -39.065367830161158, -9.129596649565656 ], [ -39.110928645140802, -9.0607907941598 ], [ -39.096499539122362, -9.016540938913181 ], [ -38.982201889005921, -8.870394635803734 ], [ -38.84281361515616, -9.0392003264339 ], [ -38.682354636757047, -9.295323449117859 ], [ -38.846299730947806, -9.627645571186122 ] ] } }
]
}
