{
"type": "FeatureCollection",
"features": [
{ "type": "Feature", "properties": { "Name": "MANSIDÃO", "Description": "MANSIDÃO \/ BA" }, "geometry": { "type": "LineString", "coordinates": [ [ -43.900710899088665, -10.857066801391738 ], [ -43.957441754333445, -10.92823887382491 ], [ -44.025288650950408, -10.953728301020249 ], [ -43.908063343348601, -11.124314607932774 ], [ -43.861678445403868, -11.28081040357722 ], [ -43.829886134037793, -11.34897095764353 ], [ -43.83696375177567, -11.353056699107356 ], [ -43.975222353029153, -11.375029311253684 ], [ -44.005386163040953, -11.412477103735284 ], [ -44.079877528824852, -11.420735695895587 ], [ -44.215247617383568, -11.469261415581798 ], [ -44.332095400382393, -11.482987251760219 ], [ -44.417472117044497, -11.363514386379791 ], [ -44.495848956064435, -11.40268420251391 ], [ -44.346781747579541, -11.224086722224397 ], [ -44.271764593161379, -11.163434556659409 ], [ -44.220592498744786, -11.087904823748543 ], [ -44.223355216070331, -11.043604756654133 ], [ -44.16160165079549, -10.956216473311542 ], [ -44.134927799378374, -10.829059925375191 ], [ -44.108206887337921, -10.808322642675762 ], [ -44.165540127374925, -10.642901250192494 ], [ -44.083429149435631, -10.589090141097074 ], [ -44.058198416723485, -10.621820144084325 ], [ -43.997034760845509, -10.640527316982059 ], [ -43.941141353390719, -10.716505826882383 ], [ -43.900710899088665, -10.857066801391738 ] ] } }
]
}
