{
"type": "FeatureCollection",
"features": [
{ "type": "Feature", "properties": { "Name": "MARAÃ", "Description": "MARAÃ \/ BA" }, "geometry": { "type": "LineString", "coordinates": [ [ -38.953675738144739, -13.874104167373389 ], [ -38.928553482557106, -13.906944070212603 ], [ -38.942816904676363, -14.014578822254805 ], [ -38.989402405396667, -14.218988882231088 ], [ -39.02755186872372, -14.247301366764646 ], [ -39.119202137268758, -14.253137522578584 ], [ -39.160592965892647, -14.274944823145006 ], [ -39.222681508844516, -14.264223811679528 ], [ -39.264824518736532, -14.290698279801745 ], [ -39.323427021439841, -14.254577226557728 ], [ -39.44418811798721, -14.241539810613745 ], [ -39.443822840351743, -14.199902701748215 ], [ -39.372389043619421, -14.17488234204643 ], [ -39.346095866231217, -14.148243304285018 ], [ -39.284889724581092, -14.138395943717796 ], [ -39.143342411423077, -14.091623260804793 ], [ -39.097369465928068, -14.110807874783573 ], [ -39.02081774164543, -14.099808658942434 ], [ -38.982470869035353, -14.07394459756506 ], [ -39.004735979381898, -14.032153803555161 ], [ -38.986203025848909, -13.972953133879969 ], [ -39.000566037092881, -13.93569256406056 ], [ -38.953675738144739, -13.874104167373389 ] ] } }
]
}
