{
"type": "FeatureCollection",
"features": [
{ "type": "Feature", "properties": { "Name": "MATINA", "Description": "MATINA \/ BA" }, "geometry": { "type": "LineString", "coordinates": [ [ -42.772825010166059, -13.746556728210408 ], [ -42.780038016341337, -13.897636242618432 ], [ -42.807605025851217, -13.974024188665339 ], [ -42.893923536841726, -13.944919437382111 ], [ -42.951612475835077, -13.956876153311782 ], [ -43.022391536440239, -13.919642323934056 ], [ -43.104467208794624, -13.931716155875847 ], [ -43.138588670730542, -13.84418833282524 ], [ -43.101746970945889, -13.794675326604986 ], [ -43.028593456422811, -13.734194292132825 ], [ -42.943696253779024, -13.752970475407094 ], [ -42.772825010166059, -13.746556728210408 ] ] } }
]
}
