{
"type": "FeatureCollection",
"features": [
{ "type": "Feature", "properties": { "Name": "MEDEIROS NETO", "Description": "MEDEIROS NETO \/ BA" }, "geometry": { "type": "LineString", "coordinates": [ [ -40.131549013076437, -17.246569720915829 ], [ -40.064470408182729, -17.26306980192976 ], [ -40.045833743932121, -17.309188852183752 ], [ -39.933401115069387, -17.433762076858329 ], [ -39.936119431066857, -17.464830592257954 ], [ -40.031534860645252, -17.478543741700264 ], [ -40.155972267006462, -17.446052106719321 ], [ -40.220784376197969, -17.409109493108588 ], [ -40.256907654364738, -17.40912270504873 ], [ -40.339647342950457, -17.406187468976437 ], [ -40.353346552001703, -17.450249152776109 ], [ -40.391534395695771, -17.453333017105024 ], [ -40.463315041156186, -17.499438335610648 ], [ -40.483000091880683, -17.488512970297279 ], [ -40.57747059299345, -17.413618230696727 ], [ -40.609025149690858, -17.326968372592262 ], [ -40.5477509842205, -17.283706131232918 ], [ -40.21775968456177, -17.24725227667119 ], [ -40.196802121920371, -17.229587362266898 ], [ -40.131549013076437, -17.246569720915829 ] ] } }
]
}
