{
"type": "FeatureCollection",
"features": [
{ "type": "Feature", "properties": { "Name": "MIRANGABA", "Description": "MIRANGABA \/ BA" }, "geometry": { "type": "LineString", "coordinates": [ [ -40.445399440731535, -10.752137640839408 ], [ -40.449923495572818, -10.851624570217723 ], [ -40.491494889177766, -10.917978244200581 ], [ -40.458290501905083, -10.962838957651741 ], [ -40.48185651936285, -11.049789165037906 ], [ -40.58330902319284, -10.988610103773226 ], [ -40.68790917396916, -10.941932162639148 ], [ -40.810303192038646, -10.834116695429088 ], [ -40.826239149916773, -10.791924381105275 ], [ -40.926261977208412, -10.78937432016869 ], [ -41.005924580554904, -10.730077949137979 ], [ -41.189765451014694, -10.702451105034413 ], [ -40.945407776447666, -10.606608392263466 ], [ -40.559803214446731, -10.676154655013249 ], [ -40.478485255090391, -10.69075916660222 ], [ -40.445399440731535, -10.752137640839408 ] ] } }
]
}
