{
"type": "FeatureCollection",
"features": [
{ "type": "Feature", "properties": { "Name": "MIRANTE", "Description": "MIRANTE \/ BA" }, "geometry": { "type": "LineString", "coordinates": [ [ -40.387905762540868, -14.265742426671579 ], [ -40.505222137291746, -14.337646590417762 ], [ -40.54066945173377, -14.317273443214788 ], [ -40.699667412221231, -14.29862578205416 ], [ -40.817866901436332, -14.253794577157976 ], [ -40.871919492890235, -14.21556998986307 ], [ -41.004338243914788, -14.164480835422182 ], [ -41.025846409284327, -14.094891566192757 ], [ -41.007600323296231, -14.047223301514123 ], [ -40.978219284092631, -14.02234963023119 ], [ -40.980852958597097, -13.944544680892248 ], [ -40.949767794947718, -13.906309889889485 ], [ -40.930287765368007, -13.982876470972315 ], [ -40.889454143194087, -13.984193287090477 ], [ -40.869073374236791, -14.031416824426856 ], [ -40.687350939594126, -14.119051717162961 ], [ -40.575556503829546, -14.179856238674404 ], [ -40.496076166082162, -14.203323633778609 ], [ -40.466039744138811, -14.265317262281769 ], [ -40.387905762540868, -14.265742426671579 ] ] } }
]
}
