{
"type": "FeatureCollection",
"features": [
{ "type": "Feature", "properties": { "Name": "MORPARÃ", "Description": "MORPARÃ \/ BA" }, "geometry": { "type": "LineString", "coordinates": [ [ -42.750988226225608, -11.729040461348177 ], [ -42.861193157038542, -11.793959499031585 ], [ -42.8135363740044, -11.941049857364987 ], [ -42.872899568260436, -11.964039009192902 ], [ -43.136552736019894, -12.019485022815502 ], [ -43.139912482674902, -11.973395170850381 ], [ -43.186432726788894, -11.890347536409649 ], [ -43.195775443581795, -11.806317329680951 ], [ -43.226824729677503, -11.781859772010819 ], [ -43.245442416434344, -11.704935844413624 ], [ -43.22622269921817, -11.676705254843569 ], [ -43.276033366646516, -11.63560167237921 ], [ -43.283859766215187, -11.560639593342501 ], [ -43.264495659247238, -11.483298731950867 ], [ -43.225174319938844, -11.49883896114909 ], [ -43.056771196433544, -11.528529465162649 ], [ -43.003472616368128, -11.597042819670321 ], [ -42.953828902681664, -11.624358567593788 ], [ -42.939788721072603, -11.586043287267842 ], [ -42.854913346773515, -11.611955618856655 ], [ -42.750988226225608, -11.729040461348177 ] ] } }
]
}
