{
"type": "FeatureCollection",
"features": [
{ "type": "Feature", "properties": { "Name": "MULUNGU DO MORRO", "Description": "MULUNGU DO MORRO \/ BA" }, "geometry": { "type": "LineString", "coordinates": [ [ -41.354873872231394, -12.168396569446086 ], [ -41.468867637831181, -12.108049737205532 ], [ -41.45390114462208, -12.099040771414421 ], [ -41.681125443684209, -11.991200972147112 ], [ -41.67642647969825, -11.944504394362239 ], [ -41.653054653749223, -11.888924701014105 ], [ -41.420667345021911, -11.86827163083103 ], [ -41.425546510662912, -11.934142051414483 ], [ -41.455656269621102, -11.969638994943637 ], [ -41.416612657148384, -11.998016844002109 ], [ -41.354873872231394, -12.168396569446086 ] ] } }
]
}
