{
"type": "FeatureCollection",
"features": [
{ "type": "Feature", "properties": { "Name": "MUNDO NOVO", "Description": "MUNDO NOVO \/ BA" }, "geometry": { "type": "LineString", "coordinates": [ [ -40.370670052281071, -11.61623284936644 ], [ -40.354256825092364, -11.835136660428475 ], [ -40.326280577286752, -11.886492899127973 ], [ -40.274496485224574, -11.908262699763723 ], [ -40.33278754371014, -11.978612826021049 ], [ -40.385149646239142, -12.028779655556605 ], [ -40.460499776443498, -12.028779678938974 ], [ -40.455614282273245, -12.110722942309906 ], [ -40.525460766601043, -12.0915365359823 ], [ -40.873593514329173, -12.125741431621748 ], [ -40.90896970408852, -12.059576495658689 ], [ -40.897077137699682, -11.990282159094305 ], [ -40.853585908263028, -11.963599731742192 ], [ -40.777884462397992, -11.963052698423269 ], [ -40.745293691550557, -12.001175486059765 ], [ -40.578306276313583, -11.897448898947459 ], [ -40.611453226585063, -11.855159817571462 ], [ -40.697415630327043, -11.798803131559223 ], [ -40.581635246369501, -11.839308593816497 ], [ -40.484429381710527, -11.82459799999765 ], [ -40.433559188805475, -11.746976479980503 ], [ -40.449779008694236, -11.698657727572026 ], [ -40.370670052281071, -11.61623284936644 ] ] } }
]
}
