{
"type": "FeatureCollection",
"features": [
{ "type": "Feature", "properties": { "Name": "NOVO TRIUNFO", "Description": "NOVO TRIUNFO \/ BA" }, "geometry": { "type": "LineString", "coordinates": [ [ -38.436181614090174, -10.321899849798172 ], [ -38.43289915786977, -10.306198031314068 ], [ -38.41857271575816, -10.307775755146963 ], [ -38.339810083768327, -10.331090529903975 ], [ -38.341269212204338, -10.374177518577595 ], [ -38.417341804680518, -10.441866041884282 ], [ -38.479331051686643, -10.451541136414278 ], [ -38.501419044153522, -10.383103912215745 ], [ -38.57863528469062, -10.334092642261567 ], [ -38.58136198776549, -10.305038218838661 ], [ -38.436181614090174, -10.321899849798172 ] ] } }
]
}
