{
"type": "FeatureCollection",
"features": [
{ "type": "Feature", "properties": { "Name": "OLINDINA", "Description": "OLINDINA \/ BA" }, "geometry": { "type": "LineString", "coordinates": [ [ -38.212147284969205, -11.351249025821858 ], [ -38.265921351888835, -11.388616402724779 ], [ -38.296058765899254, -11.574841891240226 ], [ -38.425435676115512, -11.521240922230731 ], [ -38.499096997328536, -11.49072190249376 ], [ -38.459825626151655, -11.464345446984737 ], [ -38.412895488136201, -11.31393704266037 ], [ -38.373218723265431, -11.264084690755851 ], [ -38.307709829245198, -11.310166042328945 ], [ -38.212147284969205, -11.351249025821858 ] ] } }
]
}
