{
"type": "FeatureCollection",
"features": [
{ "type": "Feature", "properties": { "Name": "OURIÃANGAS", "Description": "OURIÃANGAS \/ BA" }, "geometry": { "type": "LineString", "coordinates": [ [ -38.606617841240336, -11.961819798944532 ], [ -38.605727635621861, -12.02183926177247 ], [ -38.57662616506542, -12.094040789051121 ], [ -38.656636393254928, -12.05367990989987 ], [ -38.699918025796194, -12.05417565128522 ], [ -38.724089774423533, -12.012738914069585 ], [ -38.683632121025539, -11.947207111618866 ], [ -38.606617841240336, -11.961819798944532 ] ] } }
]
}
