{
"type": "FeatureCollection",
"features": [
{ "type": "Feature", "properties": { "Name": "PINTADAS", "Description": "PINTADAS \/ BA" }, "geometry": { "type": "LineString", "coordinates": [ [ -39.748444980951092, -11.883599875433843 ], [ -39.724550912394648, -11.906449278911055 ], [ -39.780756566262475, -11.90613519788104 ], [ -39.904861899756838, -12.02883109497901 ], [ -39.959911680179857, -11.974722132220563 ], [ -40.047211870431454, -11.872560872686051 ], [ -39.909827478555258, -11.729272978365202 ], [ -39.748444980951092, -11.883599875433843 ] ] } }
]
}
