{
"type": "FeatureCollection",
"features": [
{ "type": "Feature", "properties": { "Name": "QUIXABEIRA", "Description": "QUIXABEIRA \/ BA" }, "geometry": { "type": "LineString", "coordinates": [ [ -39.997467598151104, -11.225623647413329 ], [ -40.070204006209842, -11.434219741248 ], [ -40.117223640258764, -11.521548895964713 ], [ -40.166495110161179, -11.521770480822964 ], [ -40.198303755913564, -11.490396029553096 ], [ -40.189167402053897, -11.429440136852802 ], [ -40.20405100115272, -11.381810875771237 ], [ -40.188191676304768, -11.338983550150658 ], [ -40.108499892655857, -11.303405678429272 ], [ -40.065669066873909, -11.231186564008681 ], [ -39.997467598151104, -11.225623647413329 ] ] } }
]
}
