{
"type": "FeatureCollection",
"features": [
{ "type": "Feature", "properties": { "Name": "RIBEIRA DO POMBAL", "Description": "RIBEIRA DO POMBAL \/ BA" }, "geometry": { "type": "LineString", "coordinates": [ [ -38.389074942754348, -10.633778592108285 ], [ -38.377148721935946, -10.876100036087735 ], [ -38.530705930634156, -10.960471055294931 ], [ -38.64336202213957, -10.718400892686986 ], [ -38.563046939964231, -10.646759601674205 ], [ -38.546819091827558, -10.564194618087129 ], [ -38.482658629592038, -10.607916494850315 ], [ -38.458194041022125, -10.661733829952254 ], [ -38.389074942754348, -10.633778592108285 ] ] } }
]
}
