{
"type": "FeatureCollection",
"features": [
{ "type": "Feature", "properties": { "Name": "RIO REAL", "Description": "RIO REAL \/ BA" }, "geometry": { "type": "LineString", "coordinates": [ [ -37.79996002863237, -11.521369913790465 ], [ -37.822090493381495, -11.596496578654126 ], [ -37.752993214465221, -11.657079169068368 ], [ -37.783835090816751, -11.722185415024853 ], [ -37.813157289177518, -11.736756920595383 ], [ -37.865739988209839, -11.683737029640154 ], [ -37.911802145552542, -11.680546423878296 ], [ -37.947188573194069, -11.61629202026046 ], [ -37.980093805484671, -11.594612992695431 ], [ -38.05753226310344, -11.525611013137677 ], [ -38.080335663559993, -11.465130509265521 ], [ -37.989673374926262, -11.341758272526192 ], [ -37.951831501322658, -11.405329219268026 ], [ -37.897848266484289, -11.43782073463916 ], [ -37.79996002863237, -11.521369913790465 ] ] } }
]
}
