{
"type": "FeatureCollection",
"features": [
{ "type": "Feature", "properties": { "Name": "SALVADOR", "Description": "SALVADOR \/ BA" }, "geometry": { "type": "LineString", "coordinates": [ [ -38.535033109490364, -12.738733015116507 ], [ -38.503842244923646, -12.779329518442465 ], [ -38.462270692138702, -12.791483111256525 ], [ -38.463994432596962, -12.829351774764575 ], [ -38.416353327444085, -12.867372805010916 ], [ -38.378894043425298, -12.822571507968689 ], [ -38.35486298114165, -12.894665621121476 ], [ -38.304049583121689, -12.91053650675434 ], [ -38.353537713194839, -12.957058848087343 ], [ -38.389026739092685, -12.957278711643198 ], [ -38.46755460306241, -13.012543588315905 ], [ -38.585584848861629, -13.012702828572628 ], [ -38.56415772499895, -12.923237813674119 ], [ -38.588799489005169, -12.892617329725963 ], [ -38.674896676840149, -12.845424896341852 ], [ -38.69558405975652, -12.816417219678897 ], [ -38.698564550613469, -12.800553411710553 ], [ -38.695220544792271, -12.754111720679305 ], [ -38.587901815416387, -12.753955371742961 ], [ -38.587934263855168, -12.733882086389144 ], [ -38.535033109490364, -12.738733015116507 ] ] } }
]
}
