{
"type": "FeatureCollection",
"features": [
{ "type": "Feature", "properties": { "Name": "SANTA TEREZINHA", "Description": "SANTA TEREZINHA \/ BA" }, "geometry": { "type": "LineString", "coordinates": [ [ -39.439715913558501, -12.6146773430849 ], [ -39.434983196217495, -12.675950090324399 ], [ -39.504469675634994, -12.761368430308798 ], [ -39.502715045263102, -12.8127586471938 ], [ -39.474405743430303, -12.847631847931398 ], [ -39.475600315601994, -12.853866367438901 ], [ -39.622812827949602, -12.913220249215099 ], [ -39.637670640787398, -12.9301517413098 ], [ -39.678746866774389, -12.887261135792798 ], [ -39.673856890383099, -12.7547526971792 ], [ -39.651129434076097, -12.7171526953406 ], [ -39.670889639345297, -12.634907983716399 ], [ -39.6351186984691, -12.5828424362294 ], [ -39.5773108969803, -12.550415120761199 ], [ -39.538846589098704, -12.5788411842732 ], [ -39.439715913558501, -12.6146773430849 ] ] } }
]
}
