{
"type": "FeatureCollection",
"features": [
{ "type": "Feature", "properties": { "Name": "SANTA BRÃGIDA", "Description": "SANTA BRÃGIDA \/ BA" }, "geometry": { "type": "LineString", "coordinates": [ [ -38.03908024495729, -9.583477337509066 ], [ -38.00700901335523, -9.65172947403596 ], [ -38.043933878845394, -9.69802085148109 ], [ -38.028203076111026, -9.776078236921023 ], [ -37.966671908681576, -9.816052384210138 ], [ -37.99118384295997, -9.90152826102036 ], [ -38.179719698805002, -9.892937202090138 ], [ -38.246663952179631, -9.855224874028693 ], [ -38.372568225643072, -9.71779824009667 ], [ -38.322815599560215, -9.703117953430763 ], [ -38.278054811580262, -9.65403748694041 ], [ -38.237648945642263, -9.678527468767639 ], [ -38.157366254349142, -9.677567547704141 ], [ -38.122775392170574, -9.620407499106761 ], [ -38.03908024495729, -9.583477337509066 ] ] } }
]
}
