{
"type": "FeatureCollection",
"features": [
{ "type": "Feature", "properties": { "Name": "SANTA RITA DE CÃSSIA", "Description": "SANTA RITA DE CÃSSIA \/ BA" }, "geometry": { "type": "LineString", "coordinates": [ [ -44.165540127374925, -10.642901250192494 ], [ -44.108206887337921, -10.808322642675762 ], [ -44.134927799378374, -10.829059925375191 ], [ -44.16160165079549, -10.956216473311542 ], [ -44.223355216070331, -11.043604756654133 ], [ -44.220592498744786, -11.087904823748543 ], [ -44.271764593161379, -11.163434556659409 ], [ -44.346781747579541, -11.224086722224397 ], [ -44.495848956064435, -11.40268420251391 ], [ -44.685375245171365, -11.407828298537082 ], [ -44.771022539958203, -11.421917140663481 ], [ -44.872455177764209, -11.346439816644192 ], [ -44.944401911818716, -11.341043090266339 ], [ -44.992699293637429, -11.362135324585495 ], [ -44.959040815281348, -11.312531944593502 ], [ -44.959516705031888, -11.214593329418562 ], [ -45.008440893632262, -11.121620174331554 ], [ -44.959313778408102, -11.069626515950915 ], [ -44.980477625741798, -10.96931640562758 ], [ -44.944694556608454, -10.918999597953018 ], [ -44.808329150569811, -10.866149482812318 ], [ -44.788061917423533, -10.808521576309658 ], [ -44.714574257995594, -10.76172511712042 ], [ -44.662782849049222, -10.750561774106529 ], [ -44.668797400679466, -10.687087219399587 ], [ -44.626999118014844, -10.675578355956304 ], [ -44.57777943107584, -10.626768771561501 ], [ -44.500505152790538, -10.649701881236808 ], [ -44.451751725661552, -10.606637009590258 ], [ -44.392256357145129, -10.600704262991314 ], [ -44.354760986030612, -10.558007215860298 ], [ -44.314547155027128, -10.5573629910092 ], [ -44.26665544209493, -10.623153035584096 ], [ -44.218377019783581, -10.615180454814094 ], [ -44.165540127374925, -10.642901250192494 ] ] } }
]
}
