{
"type": "FeatureCollection",
"features": [
{ "type": "Feature", "properties": { "Name": "SANTA INÃS", "Description": "SANTA INÃS \/ BA" }, "geometry": { "type": "LineString", "coordinates": [ [ -39.922803459112288, -13.161735239589575 ], [ -39.831516900684392, -13.205515506635265 ], [ -39.759022393168891, -13.247460023561189 ], [ -39.72911351667539, -13.312917651728185 ], [ -39.752875876820212, -13.369906024243562 ], [ -39.812580756796422, -13.337003596039095 ], [ -39.877356373297971, -13.39132554523769 ], [ -39.975628790736039, -13.314925059044185 ], [ -39.913685381275279, -13.259027321353756 ], [ -39.944428134350858, -13.215120989142292 ], [ -39.922803459112288, -13.161735239589575 ] ] } }
]
}
