{
"type": "FeatureCollection",
"features": [
{ "type": "Feature", "properties": { "Name": "SÃO FELIPE", "Description": "SÃO FELIPE \/ BA" }, "geometry": { "type": "LineString", "coordinates": [ [ -39.026364099923221, -12.938964481325684 ], [ -39.041720094906395, -12.951214115439029 ], [ -39.107577424058832, -12.935757243501939 ], [ -39.113202143863809, -12.968811957505807 ], [ -39.119970268912709, -12.963238463983885 ], [ -39.13107485292209, -12.884752381617091 ], [ -39.161889743316976, -12.84966733118233 ], [ -39.119239328731965, -12.817367173556191 ], [ -39.144560163620611, -12.741232711320549 ], [ -39.057510297861931, -12.729874747821327 ], [ -39.045810644145888, -12.792714030428101 ], [ -39.075194050365091, -12.851595218644377 ], [ -39.026364099923221, -12.938964481325684 ] ] } }
]
}
