{
"type": "FeatureCollection",
"features": [
{ "type": "Feature", "properties": { "Name": "SIMÃES FILHO", "Description": "SIMÃES FILHO \/ BA" }, "geometry": { "type": "LineString", "coordinates": [ [ -38.396996865612834, -12.664085463173533 ], [ -38.375782454796422, -12.677035115178398 ], [ -38.332278232854094, -12.812325617333329 ], [ -38.378894043425298, -12.822571507968689 ], [ -38.416353327444085, -12.867372805010916 ], [ -38.463994432596962, -12.829351774764575 ], [ -38.462270692138702, -12.791483111256525 ], [ -38.419446498856814, -12.668919786818662 ], [ -38.396996865612834, -12.664085463173533 ] ] } }
]
}
