{
"type": "FeatureCollection",
"features": [
{ "type": "Feature", "properties": { "Name": "SOUTO SOARES", "Description": "SOUTO SOARES \/ BA" }, "geometry": { "type": "LineString", "coordinates": [ [ -41.681125443684209, -11.991200972147112 ], [ -41.45390114462208, -12.099040771414421 ], [ -41.468867637831181, -12.108049737205532 ], [ -41.604385229594641, -12.144610245966021 ], [ -41.770841194065838, -12.138358639339685 ], [ -41.809935658703637, -12.153220454160587 ], [ -41.969782166413779, -12.092240288758262 ], [ -41.982631356951515, -12.044406740378747 ], [ -41.949535466588486, -12.022235455401926 ], [ -41.993255821698767, -11.965224295864516 ], [ -41.996964493616417, -11.906931828141296 ], [ -42.026393240055938, -11.870310231132237 ], [ -42.021469584054046, -11.815199238354124 ], [ -41.882081841703609, -11.89126293563595 ], [ -41.681125443684209, -11.991200972147112 ] ] } }
]
}
