{
"type": "FeatureCollection",
"features": [
{ "type": "Feature", "properties": { "Name": "TABOCAS DO BREJO VELHO", "Description": "TABOCAS DO BREJO VELHO \/ BA" }, "geometry": { "type": "LineString", "coordinates": [ [ -43.945150436643303, -12.704830934699828 ], [ -44.081381692610989, -12.77015172022567 ], [ -44.179168298078423, -12.741215613409793 ], [ -44.265215372991008, -12.634548458144764 ], [ -44.23339262676825, -12.570624758625684 ], [ -44.314902380940111, -12.523387309676536 ], [ -44.330316452342345, -12.467022843629309 ], [ -44.312600001388887, -12.306573999690272 ], [ -44.2440876757056, -12.264886076431253 ], [ -44.081099774035295, -12.253060931316895 ], [ -44.049787586427954, -12.272675234174699 ], [ -43.958243948699248, -12.238268619700989 ], [ -43.988170004941708, -12.29746302379948 ], [ -44.02048109292803, -12.407479659058993 ], [ -44.070556522565425, -12.471255716877806 ], [ -44.110945820293345, -12.480220790357123 ], [ -44.073987536895288, -12.543742337338925 ], [ -44.083423966642727, -12.645267227600414 ], [ -44.067944653023289, -12.697365765817379 ], [ -43.978757989989219, -12.675997135659257 ], [ -43.945150436643303, -12.704830934699828 ] ] } }
]
}
