{
"type": "FeatureCollection",
"features": [
{ "type": "Feature", "properties": { "Name": "TREMEDAL", "Description": "TREMEDAL \/ BA" }, "geometry": { "type": "LineString", "coordinates": [ [ -41.26928315289512, -14.798203623998004 ], [ -41.263502637236854, -14.912587734935981 ], [ -41.218564235850749, -14.997728034221382 ], [ -41.302168182815365, -15.023959317568426 ], [ -41.294587960066281, -15.078912974853838 ], [ -41.333136633348886, -15.126983717624396 ], [ -41.413193770176292, -15.164686314122035 ], [ -41.394973815788944, -15.25344277386489 ], [ -41.415553863719765, -15.328076084143902 ], [ -41.456104444964126, -15.410335439428932 ], [ -41.759908431828649, -15.137975092276632 ], [ -41.728509956069558, -15.113157146585023 ], [ -41.639546582109062, -15.093558861552195 ], [ -41.582012653860829, -15.021303346172431 ], [ -41.610924070689293, -14.960821819771125 ], [ -41.655036229838117, -14.918122895755003 ], [ -41.648106094620516, -14.878477794214803 ], [ -41.574837920133852, -14.861553291651035 ], [ -41.546023257767104, -14.814418916699593 ], [ -41.50985263389191, -14.823881561684686 ], [ -41.449264885865773, -14.795729136690284 ], [ -41.382301047954968, -14.825378691873082 ], [ -41.309411273111721, -14.783326057551449 ], [ -41.26928315289512, -14.798203623998004 ] ] } }
]
}
