{
"type": "FeatureCollection",
"features": [
{ "type": "Feature", "properties": { "Name": "TUCANO", "Description": "TUCANO \/ BA" }, "geometry": { "type": "LineString", "coordinates": [ [ -38.64336202213957, -10.718400892686986 ], [ -38.530705930634156, -10.960471055294931 ], [ -38.573031375197786, -11.053738219443233 ], [ -38.558928650236965, -11.127244844673783 ], [ -38.588453162783196, -11.143703358123444 ], [ -38.785333385427343, -11.354605552004557 ], [ -38.872342644097721, -11.346236882825849 ], [ -38.943613430615301, -11.078380028415552 ], [ -39.047495166069041, -11.02113904533064 ], [ -39.115013026829672, -11.018171803286066 ], [ -38.973744355117844, -10.786313027923825 ], [ -38.912670689001061, -10.778626049352622 ], [ -38.839413070756564, -10.73265063701723 ], [ -38.811541479755419, -10.637895388960999 ], [ -38.64336202213957, -10.718400892686986 ] ] } }
]
}
