{
"type": "FeatureCollection",
"features": [
{ "type": "Feature", "properties": { "Name": "VERA CRUZ", "Description": "VERA CRUZ \/ BA" }, "geometry": { "type": "LineString", "coordinates": [ [ -38.585584848861629, -13.012702828572628 ], [ -38.64182299973163, -13.015310082794031 ], [ -38.709205639328729, -13.059286601695248 ], [ -38.794971596062283, -13.141008467266884 ], [ -38.801283770229759, -13.061535394242981 ], [ -38.751460046443924, -12.966850689907346 ], [ -38.724710913677654, -12.928953505300001 ], [ -38.627590528679889, -12.940493404347079 ], [ -38.56415772499895, -12.923237813674119 ], [ -38.585584848861629, -13.012702828572628 ] ] } }
]
}
