{
"type": "FeatureCollection",
"features": [
{ "type": "Feature", "properties": { "Name": "WAGNER", "Description": "WAGNER \/ BA" }, "geometry": { "type": "LineString", "coordinates": [ [ -40.983489592770468, -12.262608064910239 ], [ -41.062759670822118, -12.284937722298025 ], [ -41.158603037400212, -12.386000423980363 ], [ -41.193776091893078, -12.365863032253117 ], [ -41.24904659832179, -12.239279224756386 ], [ -41.2750744891963, -12.148723636186787 ], [ -41.229148080919174, -12.137398821698239 ], [ -41.120807573310792, -12.113508461945912 ], [ -41.040877605117316, -12.147600485473959 ], [ -41.040771512994866, -12.21114882415884 ], [ -40.983489592770468, -12.262608064910239 ] ] } }
]
}
