{
"type": "FeatureCollection",
"features": [
{ "type": "Feature", "properties": { "Name": "ACEGUÃ", "Description": "ACEGUÃ \/ RS" }, "geometry": { "type": "LineString", "coordinates": [ [ -53.957636566174529, -31.493806809636506 ], [ -53.990639489121065, -31.550406907952375 ], [ -53.957760123131145, -31.614459816667136 ], [ -53.958004867330715, -31.670213515341398 ], [ -53.979810876470708, -31.750008249780876 ], [ -53.906385319726667, -31.808456852401779 ], [ -53.914042495664603, -31.85574227298747 ], [ -53.945699055267134, -31.95648903204312 ], [ -53.969636144692288, -31.919157711659011 ], [ -54.03955895628075, -31.897503987419043 ], [ -54.089203557598069, -31.935737214500815 ], [ -54.141767331297274, -31.885261735840405 ], [ -54.454513557854398, -31.653409349262002 ], [ -54.392953310846558, -31.620169981959062 ], [ -54.375310694233114, -31.593285192757374 ], [ -54.327400809599624, -31.583322289991653 ], [ -54.274820040512395, -31.51020006647985 ], [ -54.222949408488375, -31.516462635841947 ], [ -54.142506672944535, -31.482425680500679 ], [ -54.113310527159058, -31.429804875394666 ], [ -54.070987578214101, -31.456571179816024 ], [ -54.014409679662947, -31.537600584499327 ], [ -53.957636566174529, -31.493806809636506 ] ] } }
]
}
