{
"type": "FeatureCollection",
"features": [
{ "type": "Feature", "properties": { "Name": "ALEGRIA", "Description": "ALEGRIA \/ RS" }, "geometry": { "type": "LineString", "coordinates": [ [ -53.978777609399117, -27.780280286805748 ], [ -53.966021469914836, -27.824455342739839 ], [ -54.047267114785484, -27.866376395454267 ], [ -54.114371726274101, -27.883401151741733 ], [ -54.161008478458477, -27.79748702900315 ], [ -54.12541326061347, -27.768873772506534 ], [ -54.067102867603239, -27.74387458104701 ], [ -54.017328802582142, -27.750346451427561 ], [ -53.978777609399117, -27.780280286805748 ] ] } }
]
}
