{
"type": "FeatureCollection",
"features": [
{ "type": "Feature", "properties": { "Name": "ALTO ALEGRE", "Description": "ALTO ALEGRE \/ RS" }, "geometry": { "type": "LineString", "coordinates": [ [ -52.964170683330337, -28.870086434141566 ], [ -53.061110819908379, -28.830601071981846 ], [ -53.063769140333534, -28.799399078304759 ], [ -53.034690197794362, -28.764235169917129 ], [ -52.952407615718869, -28.742146732285846 ], [ -52.933689027726409, -28.74663854013647 ], [ -52.926887843599047, -28.813857526503625 ], [ -52.964170683330337, -28.870086434141566 ] ] } }
]
}
