{
"type": "FeatureCollection",
"features": [
{ "type": "Feature", "properties": { "Name": "ALVORADA", "Description": "ALVORADA \/ RS" }, "geometry": { "type": "LineString", "coordinates": [ [ -50.949306027051477, -29.966566699493566 ], [ -50.962414738549285, -29.990116567825282 ], [ -51.039631215608097, -30.0066056249496 ], [ -51.084771971649097, -30.04607410593519 ], [ -51.086367788042928, -29.970881204204144 ], [ -51.074016764362163, -29.966698708278727 ], [ -51.009905990568996, -29.956604318334598 ], [ -50.949306027051477, -29.966566699493566 ] ] } }
]
}
