{
"type": "FeatureCollection",
"features": [
{ "type": "Feature", "properties": { "Name": "AMETISTA DO SUL", "Description": "AMETISTA DO SUL \/ RS" }, "geometry": { "type": "LineString", "coordinates": [ [ -53.202476630092349, -27.311092048559146 ], [ -53.113255845880524, -27.376469785452173 ], [ -53.142838850332616, -27.405648340498487 ], [ -53.183978449745609, -27.40859143214885 ], [ -53.261437951500227, -27.373279792128642 ], [ -53.257624601194316, -27.339676447609914 ], [ -53.202476630092349, -27.311092048559146 ] ] } }
]
}
