{
"type": "FeatureCollection",
"features": [
{ "type": "Feature", "properties": { "Name": "ARROIO DO PADRE", "Description": "ARROIO DO PADRE \/ RS" }, "geometry": { "type": "LineString", "coordinates": [ [ -52.348296053220224, -31.372622552388865 ], [ -52.350439623289958, -31.506654921887108 ], [ -52.433025140198026, -31.479121074877639 ], [ -52.446075450621493, -31.450034759696333 ], [ -52.435846694769111, -31.396226603075206 ], [ -52.379470069887752, -31.391549954866488 ], [ -52.348296053220224, -31.372622552388865 ] ] } }
]
}
