{
"type": "FeatureCollection",
"features": [
{ "type": "Feature", "properties": { "Name": "ARROIO GRANDE", "Description": "ARROIO GRANDE \/ RS" }, "geometry": { "type": "LineString", "coordinates": [ [ -52.419258927157728, -32.016723666663836 ], [ -52.442975361623603, -32.065507693225413 ], [ -52.493821244954454, -32.060668702998214 ], [ -52.530067463142871, -32.093403087482443 ], [ -52.616536699608957, -32.129619243133504 ], [ -52.622417138040419, -32.143978684068998 ], [ -52.719205547298138, -32.174343420612331 ], [ -52.795104842214641, -32.27013096806968 ], [ -52.819889332226865, -32.339900815769965 ], [ -52.791341400685042, -32.375696969139767 ], [ -52.741543046774154, -32.363663924150728 ], [ -52.722150911535323, -32.385128860908139 ], [ -52.789587097666356, -32.444326436915503 ], [ -52.897653597135779, -32.464408961904041 ], [ -52.970201146665538, -32.499222410785592 ], [ -52.973104475690945, -32.460308493142406 ], [ -53.008909816534754, -32.423576147321285 ], [ -53.140641013372033, -32.365809052745533 ], [ -53.186036389068072, -32.371846994842883 ], [ -53.260993481364039, -32.325045778240053 ], [ -53.292330656634476, -32.272727478989907 ], [ -53.305303129835522, -32.218303689663514 ], [ -53.307184459395216, -32.190811184488552 ], [ -53.258556398658811, -32.172597647663281 ], [ -53.209601630410873, -32.083224163963962 ], [ -53.124087960490947, -32.002633674304604 ], [ -53.046230246128914, -32.002688226280554 ], [ -53.008757409326961, -32.030396986931351 ], [ -52.859814577081011, -32.043687751788298 ], [ -52.806369601775657, -32.073940239450451 ], [ -52.781640441652996, -32.064447868274442 ], [ -52.661716771311887, -31.901140218046574 ], [ -52.612327897614364, -31.934622391510114 ], [ -52.52780660439123, -31.958137672815326 ], [ -52.419258927157728, -32.016723666663836 ] ] } }
]
}
