{
"type": "FeatureCollection",
"features": [
{ "type": "Feature", "properties": { "Name": "ARVOREZINHA", "Description": "ARVOREZINHA \/ RS" }, "geometry": { "type": "LineString", "coordinates": [ [ -52.063337630527201, -28.80959005004075 ], [ -52.016959280546303, -28.841914554113313 ], [ -52.009847046104255, -28.877028740783718 ], [ -52.079468060502556, -28.877870553882929 ], [ -52.165928525880702, -28.886596145095947 ], [ -52.228111018308816, -28.964817007498876 ], [ -52.228057749665368, -28.970834509804718 ], [ -52.299422980286295, -28.875593308584254 ], [ -52.327316063285643, -28.813626864787921 ], [ -52.27037527749701, -28.807676722602594 ], [ -52.182264396084967, -28.823910298521415 ], [ -52.131818451160541, -28.804804541596297 ], [ -52.063337630527201, -28.80959005004075 ] ] } }
]
}
