{
"type": "FeatureCollection",
"features": [
{ "type": "Feature", "properties": { "Name": "AUGUSTO PESTANA", "Description": "AUGUSTO PESTANA \/ RS" }, "geometry": { "type": "LineString", "coordinates": [ [ -53.98275697815199, -28.441509283526557 ], [ -53.959734667420946, -28.487891103991213 ], [ -53.935225947319566, -28.484200238650033 ], [ -53.880827370486706, -28.523642702248878 ], [ -53.909253379140068, -28.546265394732131 ], [ -53.894205967631251, -28.583677994943457 ], [ -53.969024794558607, -28.653216625147078 ], [ -54.0401824310743, -28.592110907192591 ], [ -54.127114768931385, -28.554989375259421 ], [ -54.127769085974478, -28.490819142789174 ], [ -54.109540354203943, -28.468823347919109 ], [ -54.046619736911282, -28.471172977850586 ], [ -54.033779697874706, -28.408994981133446 ], [ -53.98275697815199, -28.441509283526557 ] ] } }
]
}
