{
"type": "FeatureCollection",
"features": [
{ "type": "Feature", "properties": { "Name": "BARRA DO RIO AZUL", "Description": "BARRA DO RIO AZUL \/ RS" }, "geometry": { "type": "LineString", "coordinates": [ [ -52.397834426617464, -27.29249179605949 ], [ -52.362425316275278, -27.417579664070217 ], [ -52.362945880747759, -27.500328892664239 ], [ -52.399318656031085, -27.478879139160878 ], [ -52.43705756625365, -27.494665752922117 ], [ -52.453423930669828, -27.437448446288727 ], [ -52.436275247804417, -27.326547010336242 ], [ -52.419197328094185, -27.282383375792108 ], [ -52.397834426617464, -27.29249179605949 ] ] } }
]
}
