{
"type": "FeatureCollection",
"features": [
{ "type": "Feature", "properties": { "Name": "BARRACÃO", "Description": "BARRACÃO \/ RS" }, "geometry": { "type": "LineString", "coordinates": [ [ -51.308805973416895, -27.719462220604953 ], [ -51.334725316120391, -27.790524448944097 ], [ -51.363083572548817, -27.799183897718645 ], [ -51.377497423367338, -27.849100646477609 ], [ -51.415581529364033, -27.915469872436628 ], [ -51.457981016910367, -27.92900350460803 ], [ -51.46349060820495, -27.893542092393602 ], [ -51.44791897827821, -27.846422140769164 ], [ -51.501245510172112, -27.788935971018191 ], [ -51.500203600615635, -27.723616103700181 ], [ -51.530832855651731, -27.70926486008517 ], [ -51.521475690350769, -27.673484327040001 ], [ -51.562073025549637, -27.632599145833861 ], [ -51.578369832801513, -27.576988263097803 ], [ -51.554876048890492, -27.563991724038772 ], [ -51.483341767308673, -27.563227577290832 ], [ -51.475282636684312, -27.600740865598425 ], [ -51.436606203913129, -27.629849707897677 ], [ -51.381288630565784, -27.62549653323839 ], [ -51.360112778182099, -27.678794282330216 ], [ -51.315106044508298, -27.675070068328921 ], [ -51.308805973416895, -27.719462220604953 ] ] } }
]
}
