{
"type": "FeatureCollection",
"features": [
{ "type": "Feature", "properties": { "Name": "BARRA DO GUARITA", "Description": "BARRA DO GUARITA \/ RS" }, "geometry": { "type": "LineString", "coordinates": [ [ -53.717695327277511, -27.182501758249487 ], [ -53.706559972065008, -27.198243627141604 ], [ -53.763613841305691, -27.279009961240661 ], [ -53.770130874740062, -27.262109640547408 ], [ -53.784762878603935, -27.213221173018667 ], [ -53.819654856286547, -27.175653586343909 ], [ -53.776011677396973, -27.147487368447226 ], [ -53.751589504451999, -27.18805260864093 ], [ -53.717695327277511, -27.182501758249487 ] ] } }
]
}
