{
"type": "FeatureCollection",
"features": [
{ "type": "Feature", "properties": { "Name": "BENJAMIN CONSTANT DO SUL", "Description": "BENJAMIN CONSTANT DO SUL \/ RS" }, "geometry": { "type": "LineString", "coordinates": [ [ -52.618425210255225, -27.432243769234503 ], [ -52.592775001365169, -27.467664366617154 ], [ -52.559595098135212, -27.509048895490082 ], [ -52.579554420500067, -27.53533149505239 ], [ -52.663329035406605, -27.534165224545404 ], [ -52.70603336165027, -27.495362455912584 ], [ -52.726614846697771, -27.43587354452842 ], [ -52.726305945762761, -27.431591052085366 ], [ -52.618425210255225, -27.432243769234503 ] ] } }
]
}
