{
"type": "FeatureCollection",
"features": [
{ "type": "Feature", "properties": { "Name": "BOZANO", "Description": "BOZANO \/ RS" }, "geometry": { "type": "LineString", "coordinates": [ [ -53.713069467381956, -28.298739011995735 ], [ -53.659645843780652, -28.319780190003712 ], [ -53.683497068634779, -28.393442907863857 ], [ -53.759232635677556, -28.437920998455297 ], [ -53.777510455143322, -28.436859407235829 ], [ -53.837973261256934, -28.387416005843928 ], [ -53.819872056050485, -28.36905281103833 ], [ -53.811470197391657, -28.285770635206632 ], [ -53.713069467381956, -28.298739011995735 ] ] } }
]
}
