{
"type": "FeatureCollection",
"features": [
{ "type": "Feature", "properties": { "Name": "BROCHIER", "Description": "BROCHIER \/ RS" }, "geometry": { "type": "LineString", "coordinates": [ [ -51.601757063237805, -29.475654706799215 ], [ -51.587802913473638, -29.476620004909247 ], [ -51.589153954191602, -29.537278329031608 ], [ -51.569955041891596, -29.56205319090202 ], [ -51.575522720397203, -29.613490873105267 ], [ -51.608147931681685, -29.592233895577746 ], [ -51.66273734105539, -29.590103936747255 ], [ -51.66499680855582, -29.500774266219363 ], [ -51.690773271469254, -29.500759645940885 ], [ -51.669373680351036, -29.480862107899895 ], [ -51.601757063237805, -29.475654706799215 ] ] } }
]
}
