{
"type": "FeatureCollection",
"features": [
{ "type": "Feature", "properties": { "Name": "CERRO GRANDE", "Description": "CERRO GRANDE \/ RS" }, "geometry": { "type": "LineString", "coordinates": [ [ -53.118700832577304, -27.588501722976105 ], [ -53.100529812101115, -27.646449916730205 ], [ -53.113273352982787, -27.650202758850185 ], [ -53.155071230952501, -27.661913763809082 ], [ -53.219918425394951, -27.652707175595651 ], [ -53.206289218672453, -27.60007951315896 ], [ -53.14795539652431, -27.605241771890231 ], [ -53.118700832577304, -27.588501722976105 ] ] } }
]
}
