{
"type": "FeatureCollection",
"features": [
{ "type": "Feature", "properties": { "Name": "CERRO LARGO", "Description": "CERRO LARGO \/ RS" }, "geometry": { "type": "LineString", "coordinates": [ [ -54.738222493073579, -28.059065387957219 ], [ -54.696749586923822, -28.067807225423053 ], [ -54.695429147437146, -28.159945799758816 ], [ -54.639953437301237, -28.201793857200698 ], [ -54.706704758217988, -28.231370440493379 ], [ -54.745371987327303, -28.207109043847254 ], [ -54.794919373730067, -28.176310995056326 ], [ -54.807800274363103, -28.047268508534785 ], [ -54.738222493073579, -28.059065387957219 ] ] } }
]
}
