{
"type": "FeatureCollection",
"features": [
{ "type": "Feature", "properties": { "Name": "CERRITO", "Description": "CERRITO \/ RS" }, "geometry": { "type": "LineString", "coordinates": [ [ -52.70966482227368, -31.611354108705083 ], [ -52.698814621397617, -31.63672349619236 ], [ -52.711762201364479, -31.71121954474614 ], [ -52.736550297658077, -31.740570928805251 ], [ -52.734565323930489, -31.813282089296933 ], [ -52.662025833225584, -31.879187353213752 ], [ -52.665312997396882, -31.899999474795887 ], [ -52.707620663262958, -31.869856163031439 ], [ -52.773605940761513, -31.873341062939684 ], [ -52.825579913881882, -31.858151965940412 ], [ -52.866563766004958, -31.807567754748046 ], [ -52.867595877447734, -31.771774847930825 ], [ -52.90075762786222, -31.722701833222974 ], [ -52.903358241489627, -31.672068993888896 ], [ -52.853596163532067, -31.596094144229312 ], [ -52.801478768330462, -31.609769479877567 ], [ -52.70966482227368, -31.611354108705083 ] ] } }
]
}
