{
"type": "FeatureCollection",
"features": [
{ "type": "Feature", "properties": { "Name": "CORONEL BARROS", "Description": "CORONEL BARROS \/ RS" }, "geometry": { "type": "LineString", "coordinates": [ [ -53.98275697815199, -28.441509283526557 ], [ -54.033779697874706, -28.408994981133446 ], [ -54.046619736911282, -28.471172977850586 ], [ -54.109540354203943, -28.468823347919109 ], [ -54.127769085974478, -28.490819142789174 ], [ -54.138690479881681, -28.466130438668756 ], [ -54.148252359658613, -28.43352631378832 ], [ -54.092972551542005, -28.426414552389645 ], [ -54.109114268009023, -28.373973590109074 ], [ -54.1326057514542, -28.356246563128366 ], [ -54.066503710477832, -28.342935944837958 ], [ -53.984461237496078, -28.347330241897112 ], [ -53.98275697815199, -28.441509283526557 ] ] } }
]
}
