{
"type": "FeatureCollection",
"features": [
{ "type": "Feature", "properties": { "Name": "DAVID CANABARRO", "Description": "DAVID CANABARRO \/ RS" }, "geometry": { "type": "LineString", "coordinates": [ [ -51.833443468241398, -28.356880632834869 ], [ -51.785676200795983, -28.381901318091305 ], [ -51.716606299041416, -28.369692923289733 ], [ -51.722045658680145, -28.436375472150303 ], [ -51.760129383364294, -28.450167210648203 ], [ -51.782349752439075, -28.4724597314314 ], [ -51.88439740331745, -28.458130572467891 ], [ -51.905988564420674, -28.467362438825432 ], [ -51.907332386280586, -28.411619157897746 ], [ -51.833443468241398, -28.356880632834869 ] ] } }
]
}
