{
"type": "FeatureCollection",
"features": [
{ "type": "Feature", "properties": { "Name": "DERRUBADAS", "Description": "DERRUBADAS \/ RS" }, "geometry": { "type": "LineString", "coordinates": [ [ -53.819654856286547, -27.175653586343909 ], [ -53.784762878603935, -27.213221173018667 ], [ -53.770130874740062, -27.262109640547408 ], [ -53.783045089858945, -27.297926260688314 ], [ -53.823728084583422, -27.31911085178433 ], [ -53.906264651392519, -27.333471025667279 ], [ -53.918295019999107, -27.323398152902371 ], [ -53.998057085665941, -27.262672903032012 ], [ -54.054668760954542, -27.264179282747648 ], [ -54.025858736391513, -27.254388609146929 ], [ -54.007630258229767, -27.198516228740914 ], [ -53.960063118717926, -27.194381032658498 ], [ -53.942596594756992, -27.151926127988361 ], [ -53.89838293812204, -27.170981239592493 ], [ -53.876604618208546, -27.126217121422997 ], [ -53.819654856286547, -27.175653586343909 ] ] } }
]
}
