{
"type": "FeatureCollection",
"features": [
{ "type": "Feature", "properties": { "Name": "DOIS IRMÃOS", "Description": "DOIS IRMÃOS \/ RS" }, "geometry": { "type": "LineString", "coordinates": [ [ -51.057010586269485, -29.615609418639732 ], [ -51.094825837242574, -29.642238255391131 ], [ -51.129879156897509, -29.638570647417396 ], [ -51.11764647410547, -29.550950107861123 ], [ -51.048858974761856, -29.561713052915024 ], [ -51.057010586269485, -29.615609418639732 ] ] } }
]
}
