{
"type": "FeatureCollection",
"features": [
{ "type": "Feature", "properties": { "Name": "DOM PEDRITO", "Description": "DOM PEDRITO \/ RS" }, "geometry": { "type": "LineString", "coordinates": [ [ -54.689684380729545, -30.628650107016767 ], [ -54.67929470738477, -30.693748182632479 ], [ -54.723021743558604, -30.71324448904187 ], [ -54.685736862366234, -30.751869643369272 ], [ -54.611636448962884, -30.779535491969341 ], [ -54.503097507743746, -30.878387762585135 ], [ -54.43771176688449, -30.889708724378067 ], [ -54.347346268915146, -30.890399530513886 ], [ -54.279288379654929, -30.933547591248271 ], [ -54.191264629958653, -30.947966945917756 ], [ -54.135776483997518, -30.980304017116683 ], [ -54.088562186295803, -30.959947083790837 ], [ -54.034500234698037, -30.962640838403896 ], [ -53.988452195812158, -30.988862320039971 ], [ -53.941765986311168, -30.98117400687488 ], [ -53.95981744012272, -31.03532731610272 ], [ -54.097119217577806, -31.107286182910968 ], [ -54.093617971592096, -31.12641539415506 ], [ -54.146164944156794, -31.161478993061049 ], [ -54.169408035752213, -31.142991457090034 ], [ -54.265825715684173, -31.161485987088607 ], [ -54.36542397483651, -31.199621550494101 ], [ -54.405408430154864, -31.232305518085127 ], [ -54.425461470870118, -31.302464484448365 ], [ -54.504273021482732, -31.308219271402205 ], [ -54.556305728426594, -31.343842132608302 ], [ -54.563310036129224, -31.368560361471452 ], [ -54.630820694219608, -31.357443385703618 ], [ -54.65181521000391, -31.393251360661736 ], [ -54.701401562232263, -31.43590707764946 ], [ -54.768359172337902, -31.42652878457568 ], [ -54.836207079792871, -31.442499784537404 ], [ -54.897648761081427, -31.382190257074683 ], [ -54.932117319058989, -31.385897210387892 ], [ -54.957377821129505, -31.32535194003998 ], [ -55.001967553559723, -31.269776693839333 ], [ -55.035407423813524, -31.284476100991238 ], [ -55.080048884348507, -31.210552701146185 ], [ -55.067722179235147, -31.159329739276018 ], [ -55.094876214665533, -31.119339459048774 ], [ -55.117615463782606, -31.008388197956943 ], [ -55.145485211173536, -30.985097459380196 ], [ -55.107051164579559, -30.912482400442396 ], [ -55.048320313331764, -30.885310290437531 ], [ -55.029409597774702, -30.853183631819093 ], [ -55.039924137488924, -30.793516462214939 ], [ -55.011342291613403, -30.724236464441219 ], [ -54.925805037872173, -30.719332201419885 ], [ -54.847826917777979, -30.735629132778229 ], [ -54.778615164158445, -30.6948062188319 ], [ -54.772988899318193, -30.663589410622762 ], [ -54.72431842025884, -30.59962554018648 ], [ -54.689684380729545, -30.628650107016767 ] ] } }
]
}
