{
"type": "FeatureCollection",
"features": [
{ "type": "Feature", "properties": { "Name": "ELDORADO DO SUL", "Description": "ELDORADO DO SUL \/ RS" }, "geometry": { "type": "LineString", "coordinates": [ [ -51.271899644752743, -30.038972080596974 ], [ -51.302558368773646, -30.054058196228706 ], [ -51.331876673069985, -30.057458967257503 ], [ -51.372221653106749, -30.097413486842921 ], [ -51.440006264477461, -30.095478767231267 ], [ -51.542488443486832, -30.162549065087262 ], [ -51.582358271217174, -30.212728931195162 ], [ -51.632543462210947, -30.173735566543144 ], [ -51.681360676453998, -30.184208324654435 ], [ -51.696182560476757, -30.132885911255755 ], [ -51.688401766428342, -30.080342312048 ], [ -51.620303534480513, -30.06130560327091 ], [ -51.602109780941589, -30.030056083121679 ], [ -51.535805508517342, -30.048018430306282 ], [ -51.446936908711336, -30.010295588270761 ], [ -51.43406241664718, -29.983905822795464 ], [ -51.40430927215516, -29.987293917879978 ], [ -51.305833467640355, -29.950306382233688 ], [ -51.261811425057196, -30.009642552761537 ], [ -51.271899644752743, -30.038972080596974 ] ] } }
]
}
