{
"type": "FeatureCollection",
"features": [
{ "type": "Feature", "properties": { "Name": "EREBANGO", "Description": "EREBANGO \/ RS" }, "geometry": { "type": "LineString", "coordinates": [ [ -52.236853854022108, -27.784464610153577 ], [ -52.260314474533345, -27.813090490433751 ], [ -52.278243688895088, -27.875821977602129 ], [ -52.350407138878325, -27.898078068647919 ], [ -52.408736973432546, -27.858046150709242 ], [ -52.324050558386546, -27.767721283210619 ], [ -52.327898837461362, -27.749601552869308 ], [ -52.236853854022108, -27.784464610153577 ] ] } }
]
}
