{
"type": "FeatureCollection",
"features": [
{ "type": "Feature", "properties": { "Name": "ERVAL SECO", "Description": "ERVAL SECO \/ RS" }, "geometry": { "type": "LineString", "coordinates": [ [ -53.550364670493082, -27.394603031704488 ], [ -53.545236814427426, -27.429358785479508 ], [ -53.492504914270341, -27.450223945478683 ], [ -53.411000940041333, -27.545147709399203 ], [ -53.381008941009782, -27.610515793868725 ], [ -53.40051896747633, -27.620794836212667 ], [ -53.421468265348146, -27.633981964995655 ], [ -53.481830309621039, -27.627080841007967 ], [ -53.496309307328602, -27.60528529547997 ], [ -53.570570223636878, -27.61740243247624 ], [ -53.580992764504458, -27.600166765383843 ], [ -53.55935185110701, -27.452739044371356 ], [ -53.608095168057503, -27.477450524721917 ], [ -53.647818927901142, -27.419248838163298 ], [ -53.665287916004495, -27.371237936281716 ], [ -53.641453579519066, -27.342203150454964 ], [ -53.550364670493082, -27.394603031704488 ] ] } }
]
}
