{
"type": "FeatureCollection",
"features": [
{ "type": "Feature", "properties": { "Name": "ESPUMOSO", "Description": "ESPUMOSO \/ RS" }, "geometry": { "type": "LineString", "coordinates": [ [ -52.728407361910172, -28.685251218368986 ], [ -52.72458394998926, -28.734819228924209 ], [ -52.709441409993012, -28.789872313456442 ], [ -52.718197569162442, -29.009943093798711 ], [ -52.80465965511894, -29.043447275471348 ], [ -52.855239495606213, -29.042570747641832 ], [ -52.952895345943425, -28.95553551834945 ], [ -53.016438143005871, -28.947323419340307 ], [ -52.976028745430192, -28.914350079592452 ], [ -52.964170683330337, -28.870086434141566 ], [ -52.926887843599047, -28.813857526503625 ], [ -52.933689027726409, -28.74663854013647 ], [ -52.952407615718869, -28.742146732285846 ], [ -52.925248125000905, -28.730069847145668 ], [ -52.832457989144814, -28.724876418811618 ], [ -52.782571416237829, -28.681084910240369 ], [ -52.769248610335069, -28.647598716807295 ], [ -52.728407361910172, -28.685251218368986 ] ] } }
]
}
