{
"type": "FeatureCollection",
"features": [
{ "type": "Feature", "properties": { "Name": "ESTRELA", "Description": "ESTRELA \/ RS" }, "geometry": { "type": "LineString", "coordinates": [ [ -51.842250429213884, -29.424428160231344 ], [ -51.872490695988802, -29.543922044566671 ], [ -51.882695635095445, -29.560181043420357 ], [ -51.951860878476737, -29.609418843604718 ], [ -51.996487807766073, -29.591356285863867 ], [ -51.970206859359052, -29.498417363470477 ], [ -51.924609926706694, -29.438107986194552 ], [ -51.956529432787079, -29.42152791857853 ], [ -51.951519422982919, -29.417882278344447 ], [ -51.842250429213884, -29.424428160231344 ] ] } }
]
}
