{
"type": "FeatureCollection",
"features": [
{ "type": "Feature", "properties": { "Name": "FAGUNDES VARELA", "Description": "FAGUNDES VARELA \/ RS" }, "geometry": { "type": "LineString", "coordinates": [ [ -51.620777876497748, -28.886390998046064 ], [ -51.69370051706516, -28.931781317753575 ], [ -51.78091318169794, -28.937494233172284 ], [ -51.781304134078475, -28.936285839319964 ], [ -51.791067691320848, -28.883939324740027 ], [ -51.754675596801292, -28.835984939853059 ], [ -51.71211550112946, -28.835462371691051 ], [ -51.667182177315567, -28.834838514685654 ], [ -51.620777876497748, -28.886390998046064 ] ] } }
]
}
