{
"type": "FeatureCollection",
"features": [
{ "type": "Feature", "properties": { "Name": "FONTOURA XAVIER", "Description": "FONTOURA XAVIER \/ RS" }, "geometry": { "type": "LineString", "coordinates": [ [ -52.299422980286295, -28.875593308584254 ], [ -52.228057749665368, -28.970834509804718 ], [ -52.225818033975024, -29.038107114651549 ], [ -52.306931243781833, -29.013485787738883 ], [ -52.336568502534305, -29.059093388149275 ], [ -52.290455421080765, -29.129658493744444 ], [ -52.292362558485252, -29.163912920444886 ], [ -52.342463635888066, -29.140628737026528 ], [ -52.427312404643715, -29.156969359248478 ], [ -52.478266922480429, -29.105334442230681 ], [ -52.494869165579473, -29.034000074543769 ], [ -52.503822668381417, -28.949849247144982 ], [ -52.487292362952132, -28.908627241953578 ], [ -52.356680900303274, -28.875681802772931 ], [ -52.299422980286295, -28.875593308584254 ] ] } }
]
}
