{
"type": "FeatureCollection",
"features": [
{ "type": "Feature", "properties": { "Name": "GARIBALDI", "Description": "GARIBALDI \/ RS" }, "geometry": { "type": "LineString", "coordinates": [ [ -51.492144386354312, -29.198364632321901 ], [ -51.490194861203861, -29.26040718574296 ], [ -51.545857701371801, -29.292928723182001 ], [ -51.632459204728491, -29.294144480683197 ], [ -51.649940545020115, -29.294380855791818 ], [ -51.646750722567731, -29.253815039132686 ], [ -51.683329167407123, -29.213065611488734 ], [ -51.654036544151147, -29.199255672511242 ], [ -51.492144386354312, -29.198364632321901 ] ] } }
]
}
