{
"type": "FeatureCollection",
"features": [
{ "type": "Feature", "properties": { "Name": "GENERAL CÃMARA", "Description": "GENERAL CÃMARA \/ RS" }, "geometry": { "type": "LineString", "coordinates": [ [ -51.942979115493756, -29.758646778925648 ], [ -51.910276830511293, -29.766577371248616 ], [ -51.886448523980164, -29.804024701478738 ], [ -51.840775162443776, -29.823773857677335 ], [ -51.815543755240064, -29.861822336131866 ], [ -51.748004746022161, -29.851999564828017 ], [ -51.716416807389692, -29.860737295989395 ], [ -51.750282620846235, -29.888401118416819 ], [ -51.726640374153931, -29.9466685535109 ], [ -51.782155043820183, -29.959387452069219 ], [ -51.868133733385037, -29.960041302364171 ], [ -51.966103644067857, -29.937810264631931 ], [ -52.006933195010902, -29.949631730619846 ], [ -52.017899089171578, -29.937862178896413 ], [ -52.042149829750826, -29.892730926890689 ], [ -52.058664826920165, -29.814255438537597 ], [ -52.014398598616367, -29.736114307329387 ], [ -52.037417080034174, -29.703771138727006 ], [ -51.962199244599383, -29.734698075655615 ], [ -51.942979115493756, -29.758646778925648 ] ] } }
]
}
