{
"type": "FeatureCollection",
"features": [
{ "type": "Feature", "properties": { "Name": "GIRUÃ", "Description": "GIRUÃ \/ RS" }, "geometry": { "type": "LineString", "coordinates": [ [ -54.332782563164699, -27.821712298084037 ], [ -54.339894740949489, -27.857910200195533 ], [ -54.304595104180692, -27.892865924522766 ], [ -54.238030302656284, -27.91333740449755 ], [ -54.140288563466406, -28.019169029327202 ], [ -54.075300411984358, -28.053861714546429 ], [ -54.069052944038106, -28.107831374118572 ], [ -54.180187385339529, -28.138205449222085 ], [ -54.267008285503941, -28.164206488138859 ], [ -54.390196003842448, -28.161169676339455 ], [ -54.403049900532437, -28.139802140656229 ], [ -54.426877027153012, -28.093893894187829 ], [ -54.464863123234522, -28.07786941064472 ], [ -54.51617677633709, -28.092838061327427 ], [ -54.47856544124209, -28.029643493452397 ], [ -54.474219960282873, -27.98434705846995 ], [ -54.424676255704583, -27.923352371714543 ], [ -54.380036044327937, -27.916739368027379 ], [ -54.369373849423589, -27.835147746771042 ], [ -54.332782563164699, -27.821712298084037 ] ] } }
]
}
