{
"type": "FeatureCollection",
"features": [
{ "type": "Feature", "properties": { "Name": "GRAMADO XAVIER", "Description": "GRAMADO XAVIER \/ RS" }, "geometry": { "type": "LineString", "coordinates": [ [ -52.501006679714465, -29.247284205601542 ], [ -52.525492792658213, -29.263129278893075 ], [ -52.535123745764224, -29.328983980226436 ], [ -52.542844067599617, -29.376374786067458 ], [ -52.621570552239177, -29.359929280411901 ], [ -52.625593197268188, -29.338776158392928 ], [ -52.709986255261413, -29.306964346127643 ], [ -52.674643799072044, -29.233896908415542 ], [ -52.535605656475809, -29.22454620564281 ], [ -52.501006679714465, -29.247284205601542 ] ] } }
]
}
