{
"type": "FeatureCollection",
"features": [
{ "type": "Feature", "properties": { "Name": "IBIRAPUITÃ", "Description": "IBIRAPUITÃ \/ RS" }, "geometry": { "type": "LineString", "coordinates": [ [ -52.390642659730929, -28.569968970691377 ], [ -52.347876328829443, -28.589555524068146 ], [ -52.314038271149229, -28.648418161968547 ], [ -52.346824836996575, -28.704240153360328 ], [ -52.412657551704626, -28.690438811901629 ], [ -52.437376447864722, -28.69986730063539 ], [ -52.56463002815326, -28.654148748166165 ], [ -52.543828636382436, -28.627803953289739 ], [ -52.579950432466433, -28.582300846007172 ], [ -52.545906713324143, -28.546534252453736 ], [ -52.457036227639776, -28.565589701303622 ], [ -52.433280285057094, -28.549488303242583 ], [ -52.390642659730929, -28.569968970691377 ] ] } }
]
}
