{
"type": "FeatureCollection",
"features": [
{ "type": "Feature", "properties": { "Name": "IBIRUBÃ", "Description": "IBIRUBÃ \/ RS" }, "geometry": { "type": "LineString", "coordinates": [ [ -53.137867564436526, -28.479428363028489 ], [ -53.079045523731907, -28.492469001243364 ], [ -53.01743504419187, -28.589439130211641 ], [ -53.030262697765231, -28.690561251000872 ], [ -53.190998930855926, -28.706727855306212 ], [ -53.240658533764304, -28.682098679110709 ], [ -53.338684359795309, -28.604077530953244 ], [ -53.420517770078959, -28.589819876186311 ], [ -53.331057030557474, -28.558688139346089 ], [ -53.262638456499531, -28.567542158243953 ], [ -53.245305897349226, -28.482645663366611 ], [ -53.193433162710271, -28.4639310368878 ], [ -53.137867564436526, -28.479428363028489 ] ] } }
]
}
