{
"type": "FeatureCollection",
"features": [
{ "type": "Feature", "properties": { "Name": "IMIGRANTE", "Description": "IMIGRANTE \/ RS" }, "geometry": { "type": "LineString", "coordinates": [ [ -51.700925965360966, -29.304325450159354 ], [ -51.727892067664754, -29.362164024649985 ], [ -51.781056783643628, -29.387943706237028 ], [ -51.81608791162779, -29.387669649534644 ], [ -51.839456493722139, -29.344226603974558 ], [ -51.775907274601025, -29.342594155495814 ], [ -51.780025476194737, -29.29892359494789 ], [ -51.700925965360966, -29.304325450159354 ] ] } }
]
}
