{
"type": "FeatureCollection",
"features": [
{ "type": "Feature", "properties": { "Name": "IPÃ", "Description": "IPÃ \/ RS" }, "geometry": { "type": "LineString", "coordinates": [ [ -51.255812990177326, -28.588829815243741 ], [ -51.216302747373838, -28.620638374661208 ], [ -51.167075087045589, -28.62957484430359 ], [ -51.142406696811577, -28.669964437908444 ], [ -51.158135423011345, -28.701594135660798 ], [ -51.207239375296865, -28.715854390367785 ], [ -51.174600273983401, -28.817920147296888 ], [ -51.174269006009752, -28.85591665842702 ], [ -51.233886027618041, -28.818294306636911 ], [ -51.303571938893811, -28.836430443310292 ], [ -51.364404093873816, -28.835441413890067 ], [ -51.411003521495267, -28.800630582035691 ], [ -51.439240856880012, -28.806564066078749 ], [ -51.424196101069185, -28.744478636579739 ], [ -51.444681608669271, -28.675410502892362 ], [ -51.402000627926611, -28.64080200950508 ], [ -51.368608569230041, -28.633032369748033 ], [ -51.335373134662397, -28.585162071472382 ], [ -51.255812990177326, -28.588829815243741 ] ] } }
]
}
