{
"type": "FeatureCollection",
"features": [
{ "type": "Feature", "properties": { "Name": "IPIRANGA DO SUL", "Description": "IPIRANGA DO SUL \/ RS" }, "geometry": { "type": "LineString", "coordinates": [ [ -52.408736973432546, -27.858046150709242 ], [ -52.350407138878325, -27.898078068647919 ], [ -52.371777199857824, -27.927996472559126 ], [ -52.334800462371383, -27.976532743990898 ], [ -52.404424960743313, -27.991398154301347 ], [ -52.450135790734123, -27.98444165365936 ], [ -52.523249894267167, -27.942319901941858 ], [ -52.408736973432546, -27.858046150709242 ] ] } }
]
}
