{
"type": "FeatureCollection",
"features": [
{ "type": "Feature", "properties": { "Name": "IRAÃ", "Description": "IRAÃ \/ RS" }, "geometry": { "type": "LineString", "coordinates": [ [ -53.187688472445018, -27.192263129239961 ], [ -53.15843311619534, -27.282217768335272 ], [ -53.202476630092349, -27.311092048559146 ], [ -53.257624601194316, -27.339676447609914 ], [ -53.27998303418962, -27.326320427945348 ], [ -53.303435098550892, -27.233943627696192 ], [ -53.326870213389611, -27.220540670615435 ], [ -53.322460902148862, -27.209894371228188 ], [ -53.232085703192581, -27.171111661074235 ], [ -53.187688472445018, -27.192263129239961 ] ] } }
]
}
