{
"type": "FeatureCollection",
"features": [
{ "type": "Feature", "properties": { "Name": "ITATIBA DO SUL", "Description": "ITATIBA DO SUL \/ RS" }, "geometry": { "type": "LineString", "coordinates": [ [ -52.419197328094185, -27.282383375792108 ], [ -52.436275247804417, -27.326547010336242 ], [ -52.453423930669828, -27.437448446288727 ], [ -52.43705756625365, -27.494665752922117 ], [ -52.511978454541975, -27.486693369103648 ], [ -52.521677099618387, -27.475484120195972 ], [ -52.496847613826276, -27.393236101764614 ], [ -52.538840863215228, -27.309411680604512 ], [ -52.536260530199286, -27.260091137396042 ], [ -52.479303082671095, -27.265937754124025 ], [ -52.44207484347919, -27.250512918736149 ], [ -52.419197328094185, -27.282383375792108 ] ] } }
]
}
