{
"type": "FeatureCollection",
"features": [
{ "type": "Feature", "properties": { "Name": "IVORÃ", "Description": "IVORÃ \/ RS" }, "geometry": { "type": "LineString", "coordinates": [ [ -53.518403680485449, -29.471020765595824 ], [ -53.50720238338323, -29.517142837571843 ], [ -53.568069284569788, -29.538996184326379 ], [ -53.549726977418004, -29.574350836222095 ], [ -53.582850847488601, -29.577038243420137 ], [ -53.629855213747071, -29.568374414947243 ], [ -53.654658580529031, -29.508068172707965 ], [ -53.554978144026101, -29.450537363308626 ], [ -53.518403680485449, -29.471020765595824 ] ] } }
]
}
