{
"type": "FeatureCollection",
"features": [
{ "type": "Feature", "properties": { "Name": "JACUIZINHO", "Description": "JACUIZINHO \/ RS" }, "geometry": { "type": "LineString", "coordinates": [ [ -52.855239495606213, -29.042570747641832 ], [ -52.889172744726352, -29.045049655117449 ], [ -52.974203983227198, -29.096156997447448 ], [ -52.999113460118046, -29.139444277731169 ], [ -53.01706275724041, -29.155481922852406 ], [ -53.075974342541826, -29.124712701829708 ], [ -53.078218928960382, -29.075949428023645 ], [ -53.151547931791583, -29.024731003233171 ], [ -53.129043167408213, -28.987228692949774 ], [ -53.016438143005871, -28.947323419340307 ], [ -52.952895345943425, -28.95553551834945 ], [ -52.855239495606213, -29.042570747641832 ] ] } }
]
}
