{
"type": "FeatureCollection",
"features": [
{ "type": "Feature", "properties": { "Name": "LAGOA BONITA DO SUL", "Description": "LAGOA BONITA DO SUL \/ RS" }, "geometry": { "type": "LineString", "coordinates": [ [ -53.014061021698751, -29.46470325035466 ], [ -52.963056944922009, -29.515844140994261 ], [ -52.979734607865794, -29.557405174409212 ], [ -53.029189692350371, -29.553200325834322 ], [ -53.136956170790597, -29.494827750100566 ], [ -53.094830540297153, -29.466868727909404 ], [ -53.04744422926774, -29.4540479451565 ], [ -53.014061021698751, -29.46470325035466 ] ] } }
]
}
