{
"type": "FeatureCollection",
"features": [
{ "type": "Feature", "properties": { "Name": "LAVRAS DO SUL", "Description": "LAVRAS DO SUL \/ RS" }, "geometry": { "type": "LineString", "coordinates": [ [ -53.745186462785, -30.51371313964961 ], [ -53.740738772975931, -30.562804056262166 ], [ -53.798408747065984, -30.630859354575534 ], [ -53.797257461962261, -30.705693255039648 ], [ -53.818173121592224, -30.739398490947565 ], [ -53.80518842480592, -30.787906779074547 ], [ -53.747263472231396, -30.772640793637663 ], [ -53.667201533923617, -30.84273515900037 ], [ -53.729984438930671, -30.876184000890873 ], [ -53.813405697614826, -30.903421018565094 ], [ -53.887206438026681, -30.916991799931562 ], [ -53.923435887456208, -30.939812915233802 ], [ -53.941765986311168, -30.98117400687488 ], [ -53.988452195812158, -30.988862320039971 ], [ -54.034500234698037, -30.962640838403896 ], [ -54.088562186295803, -30.959947083790837 ], [ -54.135776483997518, -30.980304017116683 ], [ -54.191264629958653, -30.947966945917756 ], [ -54.279288379654929, -30.933547591248271 ], [ -54.347346268915146, -30.890399530513886 ], [ -54.43771176688449, -30.889708724378067 ], [ -54.503097507743746, -30.878387762585135 ], [ -54.611636448962884, -30.779535491969341 ], [ -54.685736862366234, -30.751869643369272 ], [ -54.723021743558604, -30.71324448904187 ], [ -54.67929470738477, -30.693748182632479 ], [ -54.689684380729545, -30.628650107016767 ], [ -54.675787626597639, -30.605088380224512 ], [ -54.608130053459149, -30.623175165701294 ], [ -54.52661780636663, -30.614084143968 ], [ -54.504015675083281, -30.631349495882485 ], [ -54.439022984722953, -30.622846575009362 ], [ -54.373946891236017, -30.676972435129755 ], [ -54.346296992112457, -30.737084870770101 ], [ -54.278871395498463, -30.730151291149127 ], [ -54.160382657333741, -30.777364582509453 ], [ -54.13660094377849, -30.710647771277593 ], [ -54.058499297304706, -30.686922443415991 ], [ -54.018161297805584, -30.693464854819126 ], [ -53.986597501473454, -30.616261588801251 ], [ -53.93444109817807, -30.574404802539561 ], [ -53.882098924625602, -30.516324531651779 ], [ -53.887276083324529, -30.497188065576719 ], [ -53.845325499572077, -30.483538821959026 ], [ -53.818899360117314, -30.519003213627339 ], [ -53.745186462785, -30.51371313964961 ] ] } }
]
}
