{
"type": "FeatureCollection",
"features": [
{ "type": "Feature", "properties": { "Name": "MARAU", "Description": "MARAU \/ RS" }, "geometry": { "type": "LineString", "coordinates": [ [ -52.083007836142656, -28.344805707317501 ], [ -52.110732277372676, -28.398947233627894 ], [ -52.08437438836728, -28.476332739164548 ], [ -52.062452086094879, -28.474087463865317 ], [ -52.088560470789048, -28.495623763625758 ], [ -52.164877633895628, -28.477632797315717 ], [ -52.211740697774928, -28.482764500681128 ], [ -52.243094500610653, -28.514068071883969 ], [ -52.235413875749714, -28.548401251316648 ], [ -52.252102373725506, -28.587018795580885 ], [ -52.305778230181147, -28.601533764371709 ], [ -52.288270691739001, -28.642283137156994 ], [ -52.314038271149229, -28.648418161968547 ], [ -52.347876328829443, -28.589555524068146 ], [ -52.390642659730929, -28.569968970691377 ], [ -52.349052054808446, -28.530091473542594 ], [ -52.391642708544111, -28.467629813564997 ], [ -52.511663021830941, -28.476011584067294 ], [ -52.44366996649569, -28.404159473980485 ], [ -52.372847834659808, -28.376853241783635 ], [ -52.341725059563828, -28.393963843756353 ], [ -52.282020335170273, -28.334938118299476 ], [ -52.250957416251708, -28.36866419959307 ], [ -52.21346942407461, -28.357378582055901 ], [ -52.092715697471419, -28.317619614653438 ], [ -52.083007836142656, -28.344805707317501 ] ] } }
]
}
