{
"type": "FeatureCollection",
"features": [
{ "type": "Feature", "properties": { "Name": "MATO LEITÃO", "Description": "MATO LEITÃO \/ RS" }, "geometry": { "type": "LineString", "coordinates": [ [ -52.142135276721604, -29.484517696434523 ], [ -52.106424067017024, -29.497081336934116 ], [ -52.101052855304999, -29.550248919951628 ], [ -52.147291025260586, -29.564754923400923 ], [ -52.166958754143138, -29.544425623543646 ], [ -52.156014346584811, -29.476979387488711 ], [ -52.142135276721604, -29.484517696434523 ] ] } }
]
}
