{
"type": "FeatureCollection",
"features": [
{ "type": "Feature", "properties": { "Name": "MIRAGUAÃ", "Description": "MIRAGUAÃ \/ RS" }, "geometry": { "type": "LineString", "coordinates": [ [ -53.701190415105543, -27.447875940622112 ], [ -53.67425887644594, -27.523398020302352 ], [ -53.68078748145706, -27.548914098007174 ], [ -53.762261606288064, -27.53031865058523 ], [ -53.810982346657902, -27.498488943609797 ], [ -53.828266821756358, -27.489109810569232 ], [ -53.826375363132456, -27.438854422093868 ], [ -53.701190415105543, -27.447875940622112 ] ] } }
]
}
