{
"type": "FeatureCollection",
"features": [
{ "type": "Feature", "properties": { "Name": "MORRINHOS DO SUL", "Description": "MORRINHOS DO SUL \/ RS" }, "geometry": { "type": "LineString", "coordinates": [ [ -49.888620910526583, -29.312404893770804 ], [ -49.890694457583095, -29.372251991636059 ], [ -49.961003780699855, -29.405592426549216 ], [ -50.032268262969922, -29.422424409558797 ], [ -50.009717691618107, -29.401115349593681 ], [ -50.03039175827297, -29.342350467999662 ], [ -50.020903767694676, -29.31092702706059 ], [ -49.955710475458034, -29.28573334102083 ], [ -49.93006217403007, -29.253774662270811 ], [ -49.88617135332526, -29.258985413346124 ], [ -49.888620910526583, -29.312404893770804 ] ] } }
]
}
