{
"type": "FeatureCollection",
"features": [
{ "type": "Feature", "properties": { "Name": "NOVA PÃDUA", "Description": "NOVA PÃDUA \/ RS" }, "geometry": { "type": "LineString", "coordinates": [ [ -51.26333666535475, -28.963795237360269 ], [ -51.274805379464624, -29.029077679391321 ], [ -51.35758263363158, -29.059251560011433 ], [ -51.356757996684166, -29.020424456623346 ], [ -51.384417704713258, -29.005298657507016 ], [ -51.340210717450582, -28.963840900437166 ], [ -51.283310894881879, -28.926843246518558 ], [ -51.26333666535475, -28.963795237360269 ] ] } }
]
}
