{
"type": "FeatureCollection",
"features": [
{ "type": "Feature", "properties": { "Name": "NOVA RAMADA", "Description": "NOVA RAMADA \/ RS" }, "geometry": { "type": "LineString", "coordinates": [ [ -53.585779871943487, -28.039886664537903 ], [ -53.622086037140832, -28.092490877152215 ], [ -53.619930582530337, -28.145691485973259 ], [ -53.638898667639353, -28.132597493679327 ], [ -53.718489524871643, -28.149428679889638 ], [ -53.787065282436799, -28.12985959944092 ], [ -53.801798504996945, -28.103042197339501 ], [ -53.813872506910627, -28.05648766477384 ], [ -53.779418470286139, -28.043485100257101 ], [ -53.749105495122478, -27.992768215680542 ], [ -53.694860211329626, -27.988479716665548 ], [ -53.675463013807018, -28.025262398440873 ], [ -53.585779871943487, -28.039886664537903 ] ] } }
]
}
