{
"type": "FeatureCollection",
"features": [
{ "type": "Feature", "properties": { "Name": "NOVA CANDELÃRIA", "Description": "NOVA CANDELÃRIA \/ RS" }, "geometry": { "type": "LineString", "coordinates": [ [ -54.071816133507696, -27.576335758188634 ], [ -54.045675114215101, -27.652862877919461 ], [ -54.083152141857795, -27.629502706284821 ], [ -54.142364436169771, -27.625826865917077 ], [ -54.198993998074506, -27.591672932160062 ], [ -54.198478190116354, -27.559450937310885 ], [ -54.112850967298243, -27.560885158123483 ], [ -54.071816133507696, -27.576335758188634 ] ] } }
]
}
