{
"type": "FeatureCollection",
"features": [
{ "type": "Feature", "properties": { "Name": "NOVO TIRADENTES", "Description": "NOVO TIRADENTES \/ RS" }, "geometry": { "type": "LineString", "coordinates": [ [ -53.144203001367373, -27.522492362532432 ], [ -53.101282959241132, -27.568712338303726 ], [ -53.118700832577304, -27.588501722976105 ], [ -53.14795539652431, -27.605241771890231 ], [ -53.206289218672453, -27.60007951315896 ], [ -53.230946639875469, -27.578599193497951 ], [ -53.195014800392698, -27.520142727205041 ], [ -53.144203001367373, -27.522492362532432 ] ] } }
]
}
