{
"type": "FeatureCollection",
"features": [
{ "type": "Feature", "properties": { "Name": "NOVO MACHADO", "Description": "NOVO MACHADO \/ RS" }, "geometry": { "type": "LineString", "coordinates": [ [ -54.474548121998168, -27.481386918471458 ], [ -54.466834362515783, -27.522315003634443 ], [ -54.423710636536605, -27.54749146495908 ], [ -54.443233624931793, -27.579429129250855 ], [ -54.566194232977409, -27.631202976236295 ], [ -54.593230346603143, -27.59884937100162 ], [ -54.636784817265436, -27.576421531028814 ], [ -54.63205949235163, -27.545851957701643 ], [ -54.567378997142953, -27.45804158205334 ], [ -54.519846574160056, -27.502191813101661 ], [ -54.474548121998168, -27.481386918471458 ] ] } }
]
}
