{
"type": "FeatureCollection",
"features": [
{ "type": "Feature", "properties": { "Name": "PEDRO OSÃRIO", "Description": "PEDRO OSÃRIO \/ RS" }, "geometry": { "type": "LineString", "coordinates": [ [ -52.665312997396882, -31.899999474795887 ], [ -52.661716771311887, -31.901140218046574 ], [ -52.781640441652996, -32.064447868274442 ], [ -52.806369601775657, -32.073940239450451 ], [ -52.859814577081011, -32.043687751788298 ], [ -53.008757409326961, -32.030396986931351 ], [ -53.046230246128914, -32.002688226280554 ], [ -53.124087960490947, -32.002633674304604 ], [ -53.085279696101054, -31.947473469724795 ], [ -53.029876572945454, -31.910720033003084 ], [ -52.917752495181446, -31.888173267582204 ], [ -52.825579913881882, -31.858151965940412 ], [ -52.773605940761513, -31.873341062939684 ], [ -52.707620663262958, -31.869856163031439 ], [ -52.665312997396882, -31.899999474795887 ] ] } }
]
}
