{
"type": "FeatureCollection",
"features": [
{ "type": "Feature", "properties": { "Name": "PELOTAS", "Description": "PELOTAS \/ RS" }, "geometry": { "type": "LineString", "coordinates": [ [ -52.422664184904185, -31.336329514595374 ], [ -52.293027528897305, -31.368049703930637 ], [ -52.27736513129571, -31.390496998937291 ], [ -52.308704811178075, -31.440401456661846 ], [ -52.289499609919005, -31.474653271731086 ], [ -52.238020616458243, -31.444669964647119 ], [ -52.213478562085925, -31.480364587255849 ], [ -52.120233861203694, -31.564990173957316 ], [ -52.088338436269794, -31.549854644176431 ], [ -52.039867350397856, -31.559980434849138 ], [ -52.013451625991706, -31.597199780645326 ], [ -52.030653011826985, -31.692345284107546 ], [ -52.104144163322417, -31.684662935246195 ], [ -52.152364323054996, -31.699336818739138 ], [ -52.225767496572644, -31.751898076135259 ], [ -52.223192183572387, -31.789047457374238 ], [ -52.303336124762325, -31.774316786190695 ], [ -52.372227277266973, -31.800659415499581 ], [ -52.427284182119251, -31.732666096662964 ], [ -52.579250523392886, -31.681922321457936 ], [ -52.589178646677169, -31.608430161822469 ], [ -52.548415796651618, -31.55933600495263 ], [ -52.612157376261848, -31.50404589690055 ], [ -52.501009482001962, -31.328176523527702 ], [ -52.422664184904185, -31.336329514595374 ] ] } },
{ "type": "Feature", "properties": { "Name": "PELOTAS", "Description": "PELOTAS \/ RS" }, "geometry": { "type": "LineString", "coordinates": [ [ -52.348296053220224, -31.372622552388865 ], [ -52.379470069887752, -31.391549954866488 ], [ -52.435846694769111, -31.396226603075206 ], [ -52.446075450621493, -31.450034759696333 ], [ -52.433025140198026, -31.479121074877639 ], [ -52.350439623289958, -31.506654921887108 ], [ -52.348296053220224, -31.372622552388865 ] ] } }
]
}
