{
"type": "FeatureCollection",
"features": [
{ "type": "Feature", "properties": { "Name": "PICADA CAFÃ", "Description": "PICADA CAFÃ \/ RS" }, "geometry": { "type": "LineString", "coordinates": [ [ -51.014651337089497, -29.445789356593483 ], [ -51.063132510656772, -29.468280381134662 ], [ -51.106126301687425, -29.47694956147302 ], [ -51.112468988952628, -29.510743128792338 ], [ -51.178001739288788, -29.494056532882666 ], [ -51.168998862807257, -29.4394357821356 ], [ -51.087501341213908, -29.450301758019688 ], [ -51.014651337089497, -29.445789356593483 ] ] } }
]
}
