{
"type": "FeatureCollection",
"features": [
{ "type": "Feature", "properties": { "Name": "PIRATINI", "Description": "PIRATINI \/ RS" }, "geometry": { "type": "LineString", "coordinates": [ [ -52.866032531076428, -30.922448726027827 ], [ -52.873739028533294, -30.960944527268055 ], [ -52.930700911517818, -31.069310833727965 ], [ -52.921017102557187, -31.24622908010792 ], [ -52.907533621979042, -31.316779301023868 ], [ -52.959220985659897, -31.446022730264762 ], [ -52.991173230660017, -31.559481840814271 ], [ -52.928914970349581, -31.610849196932861 ], [ -52.940167270702943, -31.644521659746776 ], [ -52.903358241489627, -31.672068993888896 ], [ -52.90075762786222, -31.722701833222974 ], [ -52.867595877447734, -31.771774847930825 ], [ -52.866563766004958, -31.807567754748046 ], [ -52.825579913881882, -31.858151965940412 ], [ -52.917752495181446, -31.888173267582204 ], [ -52.9350795729639, -31.864749181129753 ], [ -53.018056207727739, -31.871258607198911 ], [ -53.047144523001286, -31.884736974231938 ], [ -53.220205149947667, -31.884663627324471 ], [ -53.267212573901134, -31.864732016669162 ], [ -53.303176340215877, -31.814919627938419 ], [ -53.330022864163823, -31.745877701394765 ], [ -53.331937438062255, -31.70806587324142 ], [ -53.307542402160095, -31.636714118961375 ], [ -53.269165268262498, -31.621246517212967 ], [ -53.198450487599864, -31.52191206608893 ], [ -53.286758113695953, -31.490054545780591 ], [ -53.277815544851478, -31.429190643833124 ], [ -53.355871184707382, -31.398588739878392 ], [ -53.383823605874674, -31.358055677427501 ], [ -53.386565650484329, -31.314824111043833 ], [ -53.346616277719022, -31.255707252787431 ], [ -53.341210496067504, -31.20454640169504 ], [ -53.282444891418542, -31.152028165167621 ], [ -53.235710128419662, -31.152128185067621 ], [ -53.201853500638492, -31.066326683529553 ], [ -53.166082751317902, -31.024033538117234 ], [ -53.086631668516645, -30.969085617607107 ], [ -53.022335848420653, -30.985915472820746 ], [ -53.020238580845785, -30.92153696186125 ], [ -52.922335386368957, -30.935464617597969 ], [ -52.866032531076428, -30.922448726027827 ] ] } }
]
}
