{
"type": "FeatureCollection",
"features": [
{ "type": "Feature", "properties": { "Name": "PORTO LUCENA", "Description": "PORTO LUCENA \/ RS" }, "geometry": { "type": "LineString", "coordinates": [ [ -54.998600294867686, -27.791235613932372 ], [ -54.941252948964404, -27.806837779439945 ], [ -54.852478873301322, -27.783327120650029 ], [ -54.862403827374692, -27.834419832808976 ], [ -54.83107725780917, -27.840860651397918 ], [ -54.827216290199601, -27.867989054351312 ], [ -54.939788965088603, -27.930466930004794 ], [ -54.975384505790259, -27.909506155884344 ], [ -55.048581151798658, -27.922799007168404 ], [ -55.051851812511067, -27.85284155998994 ], [ -55.024873237509837, -27.834193572375398 ], [ -55.080857593403145, -27.798452358589429 ], [ -55.049836519939383, -27.769784224562272 ], [ -54.998600294867686, -27.791235613932372 ] ] } }
]
}
