{
"type": "FeatureCollection",
"features": [
{ "type": "Feature", "properties": { "Name": "QUARAÃ", "Description": "QUARAÃ \/ RS" }, "geometry": { "type": "LineString", "coordinates": [ [ -55.675708713586232, -30.226308909928203 ], [ -55.673241186131804, -30.279569019694463 ], [ -55.692494675588762, -30.392531961680618 ], [ -55.74526832677185, -30.396742883377328 ], [ -55.810968708039411, -30.425685590317698 ], [ -55.86273826076205, -30.433925901958787 ], [ -55.942582604503571, -30.423878987225464 ], [ -56.024500214713093, -30.442531405799684 ], [ -56.064505777119905, -30.437405204486538 ], [ -56.129518857808989, -30.456706917390303 ], [ -56.289729431767796, -30.532310365930584 ], [ -56.381713819137417, -30.500142242270609 ], [ -56.398124556103369, -30.448171731540128 ], [ -56.438260087632898, -30.432627093865218 ], [ -56.461913039854885, -30.385276767408865 ], [ -56.492042045204187, -30.397427844819166 ], [ -56.556529043180767, -30.319833337738316 ], [ -56.651925408930424, -30.221044115893161 ], [ -56.658723107285532, -30.201754972813717 ], [ -56.600191921719777, -30.148072959599343 ], [ -56.546767180261099, -30.134304072874617 ], [ -56.512761537514905, -30.159012095331889 ], [ -56.405999664752699, -30.116278342371569 ], [ -56.32050717116897, -30.120110643191595 ], [ -56.230988455952456, -30.091759271073439 ], [ -56.181817133653738, -30.085944834786233 ], [ -56.150267888352346, -30.055011696132848 ], [ -56.121156153833397, -30.080175014765071 ], [ -56.082551338573353, -30.079277977896307 ], [ -56.044373579876776, -30.050114885793274 ], [ -56.020261044411654, -30.081464481600506 ], [ -55.968636815836362, -30.090520844361436 ], [ -55.877617319183912, -30.087821133538451 ], [ -55.865608879646061, -30.13443439902824 ], [ -55.813359328170399, -30.169491600157187 ], [ -55.768099276160619, -30.168560623773715 ], [ -55.745114709975837, -30.230974185310341 ], [ -55.675708713586232, -30.226308909928203 ] ] } }
]
}
