{
"type": "FeatureCollection",
"features": [
{ "type": "Feature", "properties": { "Name": "RELVADO", "Description": "RELVADO \/ RS" }, "geometry": { "type": "LineString", "coordinates": [ [ -51.992674238025643, -29.143925693915609 ], [ -52.001747678012855, -29.166142146442837 ], [ -52.01692250726785, -29.16740569661556 ], [ -52.123062413399623, -29.147760156705829 ], [ -52.151328738430493, -29.088199893110524 ], [ -52.095325629873855, -29.083597067550556 ], [ -52.046254934517542, -29.058066653753031 ], [ -51.992674238025643, -29.143925693915609 ] ] } }
]
}
