{
"type": "FeatureCollection",
"features": [
{ "type": "Feature", "properties": { "Name": "RESTINGA SECA", "Description": "RESTINGA SECA \/ RS" }, "geometry": { "type": "LineString", "coordinates": [ [ -53.383804068103245, -29.632258832978721 ], [ -53.362115096734264, -29.63820953634098 ], [ -53.354638452502506, -29.670399702384319 ], [ -53.282434780340786, -29.690988931493958 ], [ -53.253620524467578, -29.73122847321542 ], [ -53.289489459970582, -29.786217413602685 ], [ -53.197640895410927, -29.833999305823284 ], [ -53.174889983885635, -29.770276139831935 ], [ -53.158275317551841, -29.816528348204653 ], [ -53.109549850345267, -29.852269134812673 ], [ -53.124347976078184, -29.969472389239339 ], [ -53.25149633298934, -29.9611425797662 ], [ -53.310284608647741, -29.931925017525483 ], [ -53.421471703456284, -29.924248115857836 ], [ -53.469680900453163, -29.880251859535633 ], [ -53.549011898580204, -29.867915554159477 ], [ -53.557289841452985, -29.791261599443203 ], [ -53.534613350625591, -29.753727894726524 ], [ -53.544362386514877, -29.70395028367858 ], [ -53.529765494881637, -29.695761344910064 ], [ -53.383804068103245, -29.632258832978721 ] ] } }
]
}
