{
"type": "FeatureCollection",
"features": [
{ "type": "Feature", "properties": { "Name": "RIO GRANDE", "Description": "RIO GRANDE \/ RS" }, "geometry": { "type": "LineString", "coordinates": [ [ -52.223192183572387, -31.789047457374238 ], [ -52.223011479196366, -31.843373952645774 ], [ -52.185814973482188, -31.904042242155693 ], [ -52.137620159342816, -31.919294085753389 ], [ -52.187531844019361, -31.963707667974461 ], [ -52.12294870401945, -31.980696223851623 ], [ -52.113254346910537, -32.010722004117156 ], [ -52.203356818362401, -32.038787699392742 ], [ -52.104807751476528, -32.105960450714171 ], [ -52.098876087661267, -32.160107398137882 ], [ -52.169604341067441, -32.200784415967973 ], [ -52.231870631424442, -32.257071089758931 ], [ -52.286038908968408, -32.32763214660622 ], [ -52.371059136170167, -32.489609739098114 ], [ -52.425746674169659, -32.642157437215921 ], [ -52.585447724632729, -32.64414639673879 ], [ -52.62074910878431, -32.638157475786841 ], [ -52.586409109792555, -32.530696548306992 ], [ -52.61497296742845, -32.443474302297147 ], [ -52.694904763044349, -32.317936062798985 ], [ -52.6820872592196, -32.265014341838366 ], [ -52.622417138040419, -32.143978684068998 ], [ -52.616536699608957, -32.129619243133504 ], [ -52.530067463142871, -32.093403087482443 ], [ -52.493821244954454, -32.060668702998214 ], [ -52.442975361623603, -32.065507693225413 ], [ -52.419258927157728, -32.016723666663836 ], [ -52.418773447036926, -31.97192993561799 ], [ -52.391685596313152, -31.948638650253486 ], [ -52.381386202311319, -31.901230536959645 ], [ -52.407585535444071, -31.869083790184728 ], [ -52.372227277266973, -31.800659415499581 ], [ -52.303336124762325, -31.774316786190695 ], [ -52.223192183572387, -31.789047457374238 ] ] } }
]
}
