{
"type": "FeatureCollection",
"features": [
{ "type": "Feature", "properties": { "Name": "SALTO DO JACUÃ", "Description": "SALTO DO JACUÃ \/ RS" }, "geometry": { "type": "LineString", "coordinates": [ [ -53.151547931791583, -29.024731003233171 ], [ -53.078218928960382, -29.075949428023645 ], [ -53.075974342541826, -29.124712701829708 ], [ -53.01706275724041, -29.155481922852406 ], [ -53.064265835899562, -29.182721955054149 ], [ -53.094265577194562, -29.139856685237817 ], [ -53.190783911048641, -29.130529535709456 ], [ -53.261436750005942, -29.144295022996857 ], [ -53.29020731591487, -29.127813377185589 ], [ -53.38577976352525, -29.123743674231147 ], [ -53.44584283987512, -29.08648563600326 ], [ -53.449406873828138, -29.047289614524058 ], [ -53.415974271895095, -29.03875066770911 ], [ -53.406563864031057, -29.001736990569611 ], [ -53.371291307647709, -28.975470371960053 ], [ -53.330544426883762, -29.009421244195039 ], [ -53.235131590050798, -28.956158137887709 ], [ -53.151547931791583, -29.024731003233171 ] ] } }
]
}
