{
"type": "FeatureCollection",
"features": [
{ "type": "Feature", "properties": { "Name": "SANANDUVA", "Description": "SANANDUVA \/ RS" }, "geometry": { "type": "LineString", "coordinates": [ [ -51.764320957945813, -27.845400965981753 ], [ -51.732038305623291, -27.89033631596817 ], [ -51.733422332574548, -27.933179689091329 ], [ -51.67654372861017, -27.983117030526497 ], [ -51.674665516100674, -28.022143333747806 ], [ -51.633498294011019, -28.047796327838224 ], [ -51.681930069616946, -28.08335844883328 ], [ -51.703596048918484, -28.138393190793064 ], [ -51.769588770105599, -28.055274330945565 ], [ -51.775831157781674, -28.027644128773485 ], [ -51.926344895200714, -28.00087837203921 ], [ -51.928943867565401, -27.990988808086968 ], [ -51.909696925172909, -27.95242357109089 ], [ -51.937182338294228, -27.88450425836481 ], [ -51.949204144455678, -27.8274451586671 ], [ -51.939741459900404, -27.790777154841805 ], [ -51.854938154572146, -27.843985450168361 ], [ -51.7999131225925, -27.867160007128575 ], [ -51.764320957945813, -27.845400965981753 ] ] } }
]
}
