{
"type": "FeatureCollection",
"features": [
{ "type": "Feature", "properties": { "Name": "SANTO CRISTO", "Description": "SANTO CRISTO \/ RS" }, "geometry": { "type": "LineString", "coordinates": [ [ -54.593759903396801, -27.793097104447778 ], [ -54.559812249835431, -27.84084321624141 ], [ -54.685423569142351, -27.889285897925788 ], [ -54.714209170816559, -27.866139922319519 ], [ -54.80826318869515, -27.856370150761791 ], [ -54.83107725780917, -27.840860651397918 ], [ -54.862403827374692, -27.834419832808976 ], [ -54.852478873301322, -27.783327120650029 ], [ -54.822361292939263, -27.739651043660672 ], [ -54.783079534592787, -27.762064188711292 ], [ -54.757343280368048, -27.722530894485146 ], [ -54.692485530582701, -27.710188693153611 ], [ -54.669063240975731, -27.686480321109912 ], [ -54.632329178348868, -27.7636613594841 ], [ -54.593759903396801, -27.793097104447778 ] ] } }
]
}
