{
"type": "FeatureCollection",
"features": [
{ "type": "Feature", "properties": { "Name": "SANTO ÃNGELO", "Description": "SANTO ÃNGELO \/ RS" }, "geometry": { "type": "LineString", "coordinates": [ [ -54.403049900532437, -28.139802140656229 ], [ -54.390196003842448, -28.161169676339455 ], [ -54.267008285503941, -28.164206488138859 ], [ -54.180187385339529, -28.138205449222085 ], [ -54.130774363945704, -28.183102673349651 ], [ -54.107011674649016, -28.24156241497343 ], [ -54.143551377593951, -28.337061161343453 ], [ -54.237529722019019, -28.338693045047933 ], [ -54.282051198603881, -28.357759928777625 ], [ -54.343503298538337, -28.322394433756074 ], [ -54.368641517991648, -28.349680680319125 ], [ -54.462509362716901, -28.336708250285483 ], [ -54.46404009787215, -28.292770466084107 ], [ -54.504556309725899, -28.303140505429951 ], [ -54.532838003271195, -28.277739563430085 ], [ -54.487685578526559, -28.246842381470685 ], [ -54.410625507061468, -28.193103946589815 ], [ -54.403049900532437, -28.139802140656229 ] ] } }
]
}
