{
"type": "FeatureCollection",
"features": [
{ "type": "Feature", "properties": { "Name": "SANTIAGO", "Description": "SANTIAGO \/ RS" }, "geometry": { "type": "LineString", "coordinates": [ [ -54.81578707431396, -28.868919684295975 ], [ -54.776728719254947, -28.921103822683218 ], [ -54.710642070175361, -28.954971302583488 ], [ -54.684666589991075, -29.028689558975941 ], [ -54.645437462668717, -29.048605825398454 ], [ -54.634877958650804, -29.133995551653356 ], [ -54.598317470574784, -29.122878203566188 ], [ -54.526187686712319, -29.178453639523809 ], [ -54.454522209332474, -29.127739965526931 ], [ -54.432328891864813, -29.089852109587127 ], [ -54.389293530571926, -29.175050209199753 ], [ -54.366735530820051, -29.187471327839486 ], [ -54.43219556647216, -29.254305285660333 ], [ -54.425001449657138, -29.292461918382799 ], [ -54.501892147304709, -29.327608268406834 ], [ -54.549337644516633, -29.310008666366798 ], [ -54.617072466720906, -29.348727825029069 ], [ -54.644526591528916, -29.311782662739628 ], [ -54.686621214297588, -29.324730843453608 ], [ -54.68628685265611, -29.394050384417653 ], [ -54.750877944461529, -29.391459497857511 ], [ -54.779911681678698, -29.345419802881569 ], [ -54.834980756156938, -29.351369095207531 ], [ -54.833719162009686, -29.318709590974773 ], [ -54.927725144399858, -29.32695657918276 ], [ -54.975258151042787, -29.278728461349374 ], [ -55.042850025108521, -29.244549144227562 ], [ -55.049901097557552, -29.224285500275581 ], [ -55.132353666788269, -29.198417070891079 ], [ -55.04136264986635, -29.100477423294425 ], [ -55.028771684365722, -29.066246981512961 ], [ -54.98771817165624, -29.055243165639521 ], [ -55.072924625970643, -28.932686169730914 ], [ -55.095581413551372, -28.904479092935727 ], [ -55.046584812439107, -28.887546081886114 ], [ -55.051712293487526, -28.848083086764973 ], [ -54.960580510182353, -28.808439453817698 ], [ -54.859334650773462, -28.832227319635024 ], [ -54.81578707431396, -28.868919684295975 ] ] } }
]
}
