{
"type": "FeatureCollection",
"features": [
{ "type": "Feature", "properties": { "Name": "SÃO LEOPOLDO", "Description": "SÃO LEOPOLDO \/ RS" }, "geometry": { "type": "LineString", "coordinates": [ [ -51.068120005933508, -29.811283359039745 ], [ -51.164217776329274, -29.794225791886731 ], [ -51.189658347854447, -29.778517935354383 ], [ -51.21011955127625, -29.737622147544016 ], [ -51.193927177796979, -29.680700218740071 ], [ -51.177273629274509, -29.672412851871567 ], [ -51.178685617047563, -29.693105345635161 ], [ -51.129002872784319, -29.743139196916385 ], [ -51.092204647126721, -29.735621611947806 ], [ -51.068120005933508, -29.811283359039745 ] ] } }
]
}
