{
"type": "FeatureCollection",
"features": [
{ "type": "Feature", "properties": { "Name": "SÃO JORGE", "Description": "SÃO JORGE \/ RS" }, "geometry": { "type": "LineString", "coordinates": [ [ -51.61944079056002, -28.479872548978904 ], [ -51.624248749680021, -28.516019037748322 ], [ -51.725889400675271, -28.525694972245105 ], [ -51.740549408528352, -28.549169143740922 ], [ -51.797487660027457, -28.532255031044826 ], [ -51.782349752439075, -28.4724597314314 ], [ -51.760129383364294, -28.450167210648203 ], [ -51.701819068595114, -28.479318268023633 ], [ -51.676668582389141, -28.463855586466082 ], [ -51.61944079056002, -28.479872548978904 ] ] } }
]
}
