{
"type": "FeatureCollection",
"features": [
{ "type": "Feature", "properties": { "Name": "SOBRADINHO", "Description": "SOBRADINHO \/ RS" }, "geometry": { "type": "LineString", "coordinates": [ [ -52.93844594762237, -29.395312524453399 ], [ -53.014061021698751, -29.46470325035466 ], [ -53.04744422926774, -29.4540479451565 ], [ -53.094830540297153, -29.466868727909404 ], [ -53.083095136731117, -29.372218905577995 ], [ -53.02460916368193, -29.337615515843307 ], [ -52.974294562943669, -29.358495737688092 ], [ -52.93844594762237, -29.395312524453399 ] ] } }
]
}
