{
"type": "FeatureCollection",
"features": [
{ "type": "Feature", "properties": { "Name": "SOLEDADE", "Description": "SOLEDADE \/ RS" }, "geometry": { "type": "LineString", "coordinates": [ [ -52.56463002815326, -28.654148748166165 ], [ -52.437376447864722, -28.69986730063539 ], [ -52.412657551704626, -28.690438811901629 ], [ -52.346824836996575, -28.704240153360328 ], [ -52.314038271149229, -28.648418161968547 ], [ -52.288270691739001, -28.642283137156994 ], [ -52.249400758138442, -28.662426528261619 ], [ -52.256962607738103, -28.680522682875445 ], [ -52.277752447717255, -28.73517708715281 ], [ -52.327316063285643, -28.813626864787921 ], [ -52.299422980286295, -28.875593308584254 ], [ -52.356680900303274, -28.875681802772931 ], [ -52.487292362952132, -28.908627241953578 ], [ -52.503822668381417, -28.949849247144982 ], [ -52.494869165579473, -29.034000074543769 ], [ -52.559443714355893, -28.974706822361895 ], [ -52.635369138175115, -28.96151040448154 ], [ -52.674488454678396, -28.977846219827146 ], [ -52.691627701856923, -29.052224105557968 ], [ -52.721076058013637, -29.07352235297418 ], [ -52.750557489436574, -29.144157105665837 ], [ -52.79076065448055, -29.117733144369087 ], [ -52.816866189223219, -29.083708000723618 ], [ -52.80465965511894, -29.043447275471348 ], [ -52.718197569162442, -29.009943093798711 ], [ -52.709441409993012, -28.789872313456442 ], [ -52.72458394998926, -28.734819228924209 ], [ -52.623983707581999, -28.759335352244644 ], [ -52.595872779105434, -28.687892014604756 ], [ -52.614509919996749, -28.637264844596871 ], [ -52.56463002815326, -28.654148748166165 ] ] } }
]
}
