{
"type": "FeatureCollection",
"features": [
{ "type": "Feature", "properties": { "Name": "TAQUARI", "Description": "TAQUARI \/ RS" }, "geometry": { "type": "LineString", "coordinates": [ [ -51.760577357259194, -29.649240339969651 ], [ -51.798069617618687, -29.713467482438318 ], [ -51.756077639871137, -29.733247807340376 ], [ -51.72422569715814, -29.715742830167414 ], [ -51.718743817573056, -29.742839633642117 ], [ -51.757695602070328, -29.792065797498534 ], [ -51.758339835914626, -29.818788174534571 ], [ -51.716416807389692, -29.860737295989395 ], [ -51.748004746022161, -29.851999564828017 ], [ -51.815543755240064, -29.861822336131866 ], [ -51.840775162443776, -29.823773857677335 ], [ -51.886448523980164, -29.804024701478738 ], [ -51.910276830511293, -29.766577371248616 ], [ -51.942979115493756, -29.758646778925648 ], [ -51.954192058816432, -29.712796907451263 ], [ -51.873540313634514, -29.642576985039796 ], [ -51.826763029789959, -29.648765675095774 ], [ -51.798686606501633, -29.614199108102298 ], [ -51.760577357259194, -29.649240339969651 ] ] } }
]
}
