{
"type": "FeatureCollection",
"features": [
{ "type": "Feature", "properties": { "Name": "TRAMANDAÃ", "Description": "TRAMANDAÃ \/ RS" }, "geometry": { "type": "LineString", "coordinates": [ [ -50.15505329727182, -29.986649719109206 ], [ -50.11889461729271, -29.976115980667942 ], [ -50.168611346036755, -30.097644006465654 ], [ -50.256975750830179, -30.065297038227694 ], [ -50.348693506300208, -30.053243318724128 ], [ -50.306858556477152, -30.021359880853765 ], [ -50.220835333383882, -29.977460570548825 ], [ -50.15505329727182, -29.986649719109206 ] ] } }
]
}
