{
"type": "FeatureCollection",
"features": [
{ "type": "Feature", "properties": { "Name": "VALE VERDE", "Description": "VALE VERDE \/ RS" }, "geometry": { "type": "LineString", "coordinates": [ [ -52.037417080034174, -29.703771138727006 ], [ -52.014398598616367, -29.736114307329387 ], [ -52.058664826920165, -29.814255438537597 ], [ -52.042149829750826, -29.892730926890689 ], [ -52.017899089171578, -29.937862178896413 ], [ -52.104570389811613, -29.945614543576252 ], [ -52.19541482893117, -29.913712653416155 ], [ -52.178022170786498, -29.826689640514473 ], [ -52.232612154827052, -29.775400820391493 ], [ -52.136261129947172, -29.748905047330027 ], [ -52.120371512335396, -29.723781068641362 ], [ -52.058030183446192, -29.726276274530395 ], [ -52.037417080034174, -29.703771138727006 ] ] } }
]
}
