{
"type": "FeatureCollection",
"features": [
{ "type": "Feature", "properties": { "Name": "VIADUTOS", "Description": "VIADUTOS \/ RS" }, "geometry": { "type": "LineString", "coordinates": [ [ -51.891665104460969, -27.578965766157125 ], [ -51.896401656511216, -27.652158391296663 ], [ -51.97347921439416, -27.673016622918794 ], [ -51.982150104343816, -27.720391061997873 ], [ -52.00092914296556, -27.694515188924807 ], [ -51.987157511509906, -27.639665217176002 ], [ -52.041899040308408, -27.645874831758022 ], [ -52.041232670551267, -27.595185496113686 ], [ -52.06921595465252, -27.58532105562216 ], [ -52.054217903333544, -27.542528754997988 ], [ -52.088796297311205, -27.507683163447211 ], [ -52.067068348425494, -27.480270255467872 ], [ -52.029751215745989, -27.43593810146217 ], [ -51.997863426056199, -27.453427952937659 ], [ -51.998053217182189, -27.487148272274908 ], [ -51.956369027008968, -27.512366355123159 ], [ -51.975037834828179, -27.577199145124382 ], [ -51.891665104460969, -27.578965766157125 ] ] } }
]
}
