{
"type": "FeatureCollection",
"features": [
{ "type": "Feature", "properties": { "Name": "VISTA ALEGRE", "Description": "VISTA ALEGRE \/ RS" }, "geometry": { "type": "LineString", "coordinates": [ [ -53.487194508419805, -27.290259725505901 ], [ -53.460941113441606, -27.351351420331753 ], [ -53.480652845252557, -27.387622532653722 ], [ -53.532489512580916, -27.388474533273037 ], [ -53.536265468176794, -27.338785578291773 ], [ -53.561323421338784, -27.245181879739903 ], [ -53.553177170689814, -27.237823708597205 ], [ -53.487194508419805, -27.290259725505901 ] ] } }
]
}
