{
"type": "FeatureCollection",
"features": [
{ "type": "Feature", "properties": { "Name": "ÃGUIA BRANCA", "Description": "ÃGUIA BRANCA \/ ES" }, "geometry": { "type": "LineString", "coordinates": [ [ -40.762703524048334, -18.84864830547485 ], [ -40.721857593752929, -18.849171880877577 ], [ -40.714497271431867, -18.874835741476261 ], [ -40.739949835416546, -18.902242658172096 ], [ -40.740983476606118, -18.93388063238524 ], [ -40.673929788329019, -18.936101485694962 ], [ -40.656229222100876, -18.946383807866368 ], [ -40.634054988247037, -18.987270458564751 ], [ -40.644500252284786, -19.009407314795681 ], [ -40.615435439893588, -19.041424618551272 ], [ -40.57210900942323, -19.052615589637696 ], [ -40.556101708327162, -19.045978287168165 ], [ -40.579772417662923, -19.068280174390509 ], [ -40.654696976983871, -19.089801514828025 ], [ -40.683709799567566, -19.104033207066834 ], [ -40.691251216570315, -19.149935048563574 ], [ -40.68611886839102, -19.111186571103303 ], [ -40.713125588574997, -19.108229816053097 ], [ -40.714714741891783, -19.077577364803517 ], [ -40.729720227906171, -19.034417897068234 ], [ -40.768465320318228, -18.994922058705981 ], [ -40.783069423614961, -19.020966393684091 ], [ -40.81685381155409, -19.016298051613774 ], [ -40.858750984570236, -19.021667959308843 ], [ -40.857849132731246, -18.940367666234749 ], [ -40.905998497832343, -18.940462375638106 ], [ -40.897940102853397, -18.901302247900389 ], [ -40.860704198739711, -18.895660267407379 ], [ -40.86274844948133, -18.86397166945693 ], [ -40.802795174957339, -18.843798032353277 ], [ -40.792545643866333, -18.857871551830613 ], [ -40.762703524048334, -18.84864830547485 ] ] } }
]
}
