{
"type": "FeatureCollection",
"features": [
{ "type": "Feature", "properties": { "Name": "ALFREDO CHAVES", "Description": "ALFREDO CHAVES \/ ES" }, "geometry": { "type": "LineString", "coordinates": [ [ -40.912449598370245, -20.44867606794611 ], [ -40.869610300075237, -20.464936471540909 ], [ -40.855235614731782, -20.49179332330317 ], [ -40.816373712976429, -20.483481187306893 ], [ -40.808913833006947, -20.521326443260705 ], [ -40.778443348781479, -20.497163560150113 ], [ -40.753788056273713, -20.498475310387221 ], [ -40.704714667447888, -20.434884001195655 ], [ -40.68838241791422, -20.434427436976591 ], [ -40.656139274607767, -20.460202655228329 ], [ -40.677057805773075, -20.468728144588166 ], [ -40.693473942268554, -20.526188471420763 ], [ -40.680485515094396, -20.557154631381081 ], [ -40.672067651201075, -20.594824807318957 ], [ -40.711241511586422, -20.614255364293566 ], [ -40.759189051733294, -20.658038343694557 ], [ -40.770786678262539, -20.705462476611956 ], [ -40.838597340294996, -20.687557611394592 ], [ -40.882091311764604, -20.670416442364854 ], [ -40.909915592130801, -20.685891362796099 ], [ -40.929718774202001, -20.678245557886157 ], [ -40.910243115327489, -20.618453413094471 ], [ -40.944968409964126, -20.606317864277969 ], [ -40.968298981312898, -20.576446360910779 ], [ -40.956570611344596, -20.561669043691381 ], [ -40.958464820095344, -20.508858581458295 ], [ -40.968943028098231, -20.462569624088815 ], [ -40.98811386536255, -20.436837445591607 ], [ -40.92997885274184, -20.436850241145692 ], [ -40.912449598370245, -20.44867606794611 ] ] } }
]
}
