{
"type": "FeatureCollection",
"features": [
{ "type": "Feature", "properties": { "Name": "ATILIO VIVACQUA", "Description": "ATILIO VIVACQUA \/ ES" }, "geometry": { "type": "LineString", "coordinates": [ [ -41.118169723254084, -20.963867535458348 ], [ -41.107010200560239, -20.969914913242633 ], [ -41.117416395350347, -21.011957466164063 ], [ -41.117833516203746, -21.011937877131288 ], [ -41.124495726296686, -21.012777721614498 ], [ -41.126388640922983, -21.014216176435355 ], [ -41.128215452680934, -21.01973804617387 ], [ -41.130870628176922, -21.027820513305983 ], [ -41.140263664736317, -21.032780371516878 ], [ -41.146202664321436, -21.038487892801982 ], [ -41.150347490344359, -21.038464401610781 ], [ -41.153098712535495, -21.040470747726772 ], [ -41.153810090663114, -21.044410316083201 ], [ -41.151167375274092, -21.047328822966733 ], [ -41.15504532028524, -21.051960979915236 ], [ -41.155765853511298, -21.055300754426238 ], [ -41.159078171720182, -21.059610750835414 ], [ -41.160846416928564, -21.061579891998349 ], [ -41.168194011144635, -21.062603578592245 ], [ -41.180927432854666, -21.066212067832623 ], [ -41.182055471382853, -21.066836063333596 ], [ -41.185409352659462, -21.068968812760431 ], [ -41.194306349258568, -21.061337443767968 ], [ -41.194300521651712, -21.06132715732241 ], [ -41.207488168444172, -21.039465695985029 ], [ -41.212718897059403, -21.033489721673277 ], [ -41.222109000929606, -21.018525644942539 ], [ -41.228714014140394, -21.006274137541368 ], [ -41.225168420785963, -20.971175778039708 ], [ -41.250014475687465, -20.943915642392934 ], [ -41.280798952809384, -20.956129327006806 ], [ -41.261986033128892, -20.895351936242832 ], [ -41.244816467106205, -20.868566738863873 ], [ -41.232500277765553, -20.884421894454817 ], [ -41.200878780031644, -20.880406871180128 ], [ -41.156126410605339, -20.890879650875149 ], [ -41.121376522208664, -20.931725172878373 ], [ -41.118169723254084, -20.963867535458348 ] ] } }
]
}
