{
"type": "FeatureCollection",
"features": [
{ "type": "Feature", "properties": { "Name": "ECOPORANGA", "Description": "ECOPORANGA \/ ES" }, "geometry": { "type": "LineString", "coordinates": [ [ -40.66177477368683, -18.012911306611443 ], [ -40.640520591252255, -18.033844781811183 ], [ -40.609117362576171, -18.105902895102474 ], [ -40.578898351277864, -18.096062640078742 ], [ -40.558659601459389, -18.114137944810238 ], [ -40.560779979812196, -18.140706317442547 ], [ -40.545846970161499, -18.203287054853657 ], [ -40.558807451802409, -18.230988806188407 ], [ -40.618843518813321, -18.287496513553208 ], [ -40.604875226310575, -18.340597989205776 ], [ -40.580590001227506, -18.340276888967196 ], [ -40.583068465337362, -18.368581794014517 ], [ -40.605412472307705, -18.408357197426653 ], [ -40.595519549387632, -18.43329361530806 ], [ -40.536245025587391, -18.465907740649641 ], [ -40.551068853944393, -18.493813918677347 ], [ -40.58842960194454, -18.489725029586396 ], [ -40.643937786599508, -18.517389369124032 ], [ -40.652063591161777, -18.513169348986196 ], [ -40.703151890347442, -18.49939095462878 ], [ -40.723758774947441, -18.468454685435344 ], [ -40.751236902660878, -18.468509210431648 ], [ -40.763550589188299, -18.48501093001039 ], [ -40.829375959133188, -18.501310310222607 ], [ -40.846254072867112, -18.487133417273355 ], [ -40.853746030754678, -18.442741161575327 ], [ -40.866700685688045, -18.432587716749708 ], [ -40.910671179131555, -18.428756362915749 ], [ -40.925960050515869, -18.438870342792029 ], [ -40.931535919147336, -18.400501528522682 ], [ -40.957763490992249, -18.382884251207201 ], [ -40.986260504718473, -18.410303674774752 ], [ -41.040468037669761, -18.382946183919216 ], [ -41.057736530916145, -18.35107398577577 ], [ -41.099812028702104, -18.402099010460915 ], [ -41.144254677011702, -18.405241290253286 ], [ -41.147497811274945, -18.353381221665984 ], [ -41.15892065456449, -18.308243452273473 ], [ -41.096473534825748, -18.255577663078668 ], [ -41.103864568095275, -18.212498224213618 ], [ -41.092734478413433, -18.195401326110243 ], [ -41.056454286536052, -18.178840766588053 ], [ -41.051931169687691, -18.165112452777404 ], [ -41.01458947382514, -18.157579418355454 ], [ -40.951613755970016, -18.134092054704524 ], [ -40.932209592298818, -18.136483475232126 ], [ -40.909283307578562, -18.114830156586436 ], [ -40.878496449051852, -18.119969788374988 ], [ -40.845075826987795, -18.149813019755015 ], [ -40.771496050901987, -18.155940010922734 ], [ -40.773303345572913, -18.107562652394449 ], [ -40.886989419825795, -18.000641012372796 ], [ -40.862782867435328, -17.988145146581189 ], [ -40.830552882109771, -17.954180003004691 ], [ -40.808161608571311, -17.952047170840217 ], [ -40.752769788994492, -18.009623583961172 ], [ -40.725768952175365, -18.001217222396861 ], [ -40.703683428347517, -18.023727033775515 ], [ -40.66177477368683, -18.012911306611443 ] ] } }
]
}
