{
"type": "FeatureCollection",
"features": [
{ "type": "Feature", "properties": { "Name": "JOÃO NEIVA", "Description": "JOÃO NEIVA \/ ES" }, "geometry": { "type": "LineString", "coordinates": [ [ -40.349484692264696, -19.668215277213221 ], [ -40.346124302594433, -19.77988574862837 ], [ -40.43752732232803, -19.787100611004348 ], [ -40.465862027310664, -19.763332189428979 ], [ -40.505489210758405, -19.805276995037218 ], [ -40.514238953265021, -19.831277746170997 ], [ -40.530311438122339, -19.806363153936328 ], [ -40.517968555104687, -19.745902831750239 ], [ -40.527341642003137, -19.715600335487068 ], [ -40.508210390197291, -19.665463196169526 ], [ -40.463238322690408, -19.630654778994824 ], [ -40.418745494009272, -19.641315121295747 ], [ -40.3764938271284, -19.622540733967639 ], [ -40.370348669655357, -19.653321677653253 ], [ -40.349484692264696, -19.668215277213221 ] ] } }
]
}
