{
"type": "FeatureCollection",
"features": [
{ "type": "Feature", "properties": { "Name": "MARILÃNDIA", "Description": "MARILÃNDIA \/ ES" }, "geometry": { "type": "LineString", "coordinates": [ [ -40.508987484484805, -19.312995123526093 ], [ -40.525094397188639, -19.331641885364661 ], [ -40.494717651098654, -19.369316601979563 ], [ -40.455443125999402, -19.401793968316952 ], [ -40.44144587083025, -19.425882693331573 ], [ -40.444220686735257, -19.457773100947804 ], [ -40.41657880236977, -19.50879542317017 ], [ -40.393085000472354, -19.509826470714984 ], [ -40.373596607197612, -19.536188001974665 ], [ -40.390826933216367, -19.542636971119293 ], [ -40.485043424414471, -19.532385680954349 ], [ -40.552852760846179, -19.482468956477135 ], [ -40.56814093435662, -19.438874692612956 ], [ -40.596710385775623, -19.430698818295809 ], [ -40.624808486322536, -19.447849719788678 ], [ -40.641476213556359, -19.384402891180454 ], [ -40.627152737408835, -19.348048551999057 ], [ -40.562574343131359, -19.364227230602182 ], [ -40.531132093771078, -19.324466338650552 ], [ -40.508987484484805, -19.312995123526093 ] ] } }
]
}
