{
"type": "FeatureCollection",
"features": [
{ "type": "Feature", "properties": { "Name": "MUNIZ FREIRE", "Description": "MUNIZ FREIRE \/ ES" }, "geometry": { "type": "LineString", "coordinates": [ [ -41.310468959474861, -20.269379346779374 ], [ -41.315011185118067, -20.297503394565979 ], [ -41.35532671595513, -20.306923908111798 ], [ -41.361280067820815, -20.32545121570098 ], [ -41.345998167081689, -20.374329340126906 ], [ -41.323244303082099, -20.395415852959214 ], [ -41.315057172850231, -20.422956953000948 ], [ -41.327667843396227, -20.497546769367887 ], [ -41.376231923664307, -20.512882814690101 ], [ -41.390046006717796, -20.553494472491877 ], [ -41.414714954531462, -20.572905493493693 ], [ -41.43823136538515, -20.561166599658804 ], [ -41.469018450541, -20.581739430530263 ], [ -41.501157899317548, -20.579924254200932 ], [ -41.501483250651461, -20.547073054078112 ], [ -41.565432227415329, -20.576046016010764 ], [ -41.601322086544997, -20.545756277530131 ], [ -41.596939004931073, -20.504054118003125 ], [ -41.576279147564549, -20.498924950725836 ], [ -41.577389292281964, -20.427961565074099 ], [ -41.52280656127374, -20.439683361897607 ], [ -41.474508112859098, -20.40687271670248 ], [ -41.462678759816868, -20.34835388242567 ], [ -41.475968926624603, -20.32770871368615 ], [ -41.443314604285483, -20.296789316673596 ], [ -41.443208299023752, -20.270544430181246 ], [ -41.410200704998488, -20.230269499237977 ], [ -41.376838152158939, -20.218845209838491 ], [ -41.310468959474861, -20.269379346779374 ] ] } }
]
}
