{
"type": "FeatureCollection",
"features": [
{ "type": "Feature", "properties": { "Name": "NOVA VENÃCIA", "Description": "NOVA VENÃCIA \/ ES" }, "geometry": { "type": "LineString", "coordinates": [ [ -40.451688708267227, -18.413642608419593 ], [ -40.464413797758539, -18.436328872179672 ], [ -40.448954626254931, -18.495650584306986 ], [ -40.4329581565936, -18.500132195644255 ], [ -40.420455972165307, -18.542505512019716 ], [ -40.348447058984561, -18.547714108319383 ], [ -40.33084102319463, -18.580834527691248 ], [ -40.284270843324691, -18.576798322684397 ], [ -40.336414927706699, -18.725832780558335 ], [ -40.348173730733038, -18.745433303104392 ], [ -40.394515807458504, -18.781765364280091 ], [ -40.401691532238374, -18.850920663857494 ], [ -40.47397537086664, -18.853122867925947 ], [ -40.573016033263286, -18.893878455925972 ], [ -40.592937602987938, -18.934176502143824 ], [ -40.617319744410622, -18.952437347805301 ], [ -40.656229222100876, -18.946383807866368 ], [ -40.673929788329019, -18.936101485694962 ], [ -40.740983476606118, -18.93388063238524 ], [ -40.739949835416546, -18.902242658172096 ], [ -40.714497271431867, -18.874835741476261 ], [ -40.721857593752929, -18.849171880877577 ], [ -40.762703524048334, -18.84864830547485 ], [ -40.773372953998603, -18.794595214897186 ], [ -40.719112566092008, -18.757170268792834 ], [ -40.712823608822418, -18.703230560242105 ], [ -40.682896275542646, -18.689406915596635 ], [ -40.640582106678828, -18.725457749775273 ], [ -40.601023369732673, -18.721838031599813 ], [ -40.496610929051087, -18.650968497398196 ], [ -40.534201774891983, -18.593096202827439 ], [ -40.564488949405472, -18.567024957435819 ], [ -40.563251256540234, -18.505943031945318 ], [ -40.551068853944393, -18.493813918677347 ], [ -40.536245025587391, -18.465907740649641 ], [ -40.595519549387632, -18.43329361530806 ], [ -40.605412472307705, -18.408357197426653 ], [ -40.583068465337362, -18.368581794014517 ], [ -40.570627729785883, -18.359879303686853 ], [ -40.529540120180336, -18.365233048766129 ], [ -40.491810240050484, -18.409780732494767 ], [ -40.451688708267227, -18.413642608419593 ] ] } }
]
}
