{
"type": "FeatureCollection",
"features": [
{ "type": "Feature", "properties": { "Name": "PINHEIROS", "Description": "PINHEIROS \/ ES" }, "geometry": { "type": "LineString", "coordinates": [ [ -40.425889778490443, -18.257178706332184 ], [ -40.390636349787648, -18.273256598812964 ], [ -40.346255565841659, -18.279042772106205 ], [ -40.340259931450646, -18.295727987556518 ], [ -40.250358855077081, -18.320297351641443 ], [ -40.196451906130498, -18.297314477980706 ], [ -40.147974082537814, -18.286367447099963 ], [ -40.12991455641162, -18.27418176917325 ], [ -40.067549731834617, -18.278403870342288 ], [ -40.035209964468265, -18.294460360757 ], [ -39.989259868048407, -18.287717674830784 ], [ -39.955255408810046, -18.311513262227209 ], [ -39.95909611649256, -18.345085398472293 ], [ -39.936831760677194, -18.411919064912862 ], [ -39.974210137188038, -18.437614817269946 ], [ -40.001838738566903, -18.43245498940621 ], [ -40.029863005673121, -18.444101915870704 ], [ -40.090438138009631, -18.487750008655947 ], [ -40.12458366670279, -18.488544666702978 ], [ -40.176649919258352, -18.471414847117444 ], [ -40.199763350198396, -18.486743012579893 ], [ -40.272117836868631, -18.494360780225804 ], [ -40.318891190675856, -18.440038632277037 ], [ -40.329905614952111, -18.40184999088433 ], [ -40.354762307934095, -18.377936416032753 ], [ -40.402849537975726, -18.385326109312473 ], [ -40.423834680126326, -18.365393128989638 ], [ -40.457921947140107, -18.375203672211679 ], [ -40.486289024119117, -18.366392855845561 ], [ -40.479987990753095, -18.255876280266079 ], [ -40.425889778490443, -18.257178706332184 ] ] } }
]
}
