{
"type": "FeatureCollection",
"features": [
{ "type": "Feature", "properties": { "Name": "PIÃMA", "Description": "PIÃMA \/ ES" }, "geometry": { "type": "LineString", "coordinates": [ [ -40.701125280707117, -20.834879030742627 ], [ -40.759512973145149, -20.865880069109835 ], [ -40.828043463335121, -20.890831246664675 ], [ -40.828044987685985, -20.855963679280308 ], [ -40.770786630598479, -20.787258963430361 ], [ -40.727313339039313, -20.808052943888182 ], [ -40.701125280707117, -20.834879030742627 ] ] } }
]
}
