{
"type": "FeatureCollection",
"features": [
{ "type": "Feature", "properties": { "Name": "PRESIDENTE KENNEDY", "Description": "PRESIDENTE KENNEDY \/ ES" }, "geometry": { "type": "LineString", "coordinates": [ [ -41.091358200920176, -21.014594046378079 ], [ -41.076564110445304, -21.026611061850986 ], [ -41.070587161268463, -21.030516871456424 ], [ -41.064179250671828, -21.02929967054331 ], [ -41.063351229575517, -21.028547262645983 ], [ -41.063343080818463, -21.028359357398358 ], [ -41.058299950782043, -21.030519877890015 ], [ -41.057759557157794, -21.030458530636619 ], [ -41.055347336210552, -21.029309733057687 ], [ -41.055499872920734, -21.02874437155543 ], [ -41.046685319871585, -21.021725242126195 ], [ -41.042173320442316, -21.02440496731532 ], [ -41.040178326468549, -21.028750690192169 ], [ -41.038952698008586, -21.032089994357705 ], [ -41.039105377710996, -21.034150520130368 ], [ -41.037465518818578, -21.034547754275422 ], [ -41.037296206154963, -21.036185779450136 ], [ -41.038347423694631, -21.037221457604119 ], [ -41.042761533717737, -21.043760429100473 ], [ -41.0402165872257, -21.04495597703669 ], [ -41.038821636209491, -21.047290071179813 ], [ -41.036967480564726, -21.048750259017197 ], [ -41.027168245418125, -21.050904768440258 ], [ -41.024001269343039, -21.050212125888834 ], [ -41.023150176139666, -21.050025259358165 ], [ -41.013273725202225, -21.061945863011147 ], [ -41.002444196142676, -21.063868378822576 ], [ -40.985632534214062, -21.065575006081644 ], [ -40.984370075818269, -21.066352331494841 ], [ -40.975670108988311, -21.072979080420168 ], [ -40.973960160532954, -21.074560511258539 ], [ -40.971396322881958, -21.07718301258592 ], [ -40.969442625776537, -21.077483873581855 ], [ -40.966458096963549, -21.077093907757614 ], [ -40.966348824838342, -21.077087853521562 ], [ -40.965944277406436, -21.077165744703336 ], [ -40.9655148915989, -21.077134117345622 ], [ -40.9642897110013, -21.075896522506469 ], [ -40.964117765122694, -21.075869231679633 ], [ -40.960276168910013, -21.077326485928552 ], [ -40.959703866440229, -21.078292067324981 ], [ -40.959697603561494, -21.078409265175424 ], [ -40.95917652467682, -21.07911803976566 ], [ -40.956492641921834, -21.08501263892208 ], [ -40.956363163828883, -21.085167775572359 ], [ -40.956041326146249, -21.086155334600956 ], [ -40.955254018258294, -21.088159177903719 ], [ -40.955146976451772, -21.088380524441618 ], [ -40.949596972322354, -21.128844800447151 ], [ -40.949175257731895, -21.164435410165993 ], [ -40.936823930979585, -21.185684970984596 ], [ -40.93096587937179, -21.186057800227275 ], [ -40.930480293130984, -21.186325450159359 ], [ -40.929894181571171, -21.186623370372217 ], [ -40.928265447292517, -21.189728947932565 ], [ -40.926077999300162, -21.190212531383168 ], [ -40.953808358069239, -21.237987430475414 ], [ -40.961299361999863, -21.28942266599989 ], [ -40.995015957999954, -21.286383397999941 ], [ -41.004909529999956, -21.252833344999885 ], [ -41.039921774999925, -21.255115175999887 ], [ -41.089547216999904, -21.219569339999907 ], [ -41.137480008999887, -21.227981102999816 ], [ -41.183862819999888, -21.228398842999923 ], [ -41.190425297989009, -21.178866180829459 ], [ -41.220065248412425, -21.095585028426168 ], [ -41.233671743655918, -21.078439123566625 ], [ -41.194306349258568, -21.061337443767968 ], [ -41.185409352659462, -21.068968812760431 ], [ -41.182055471382853, -21.066836063333596 ], [ -41.180927432854666, -21.066212067832623 ], [ -41.168194011144635, -21.062603578592245 ], [ -41.160846416928564, -21.061579891998349 ], [ -41.159078171720182, -21.059610750835414 ], [ -41.155765853511298, -21.055300754426238 ], [ -41.15504532028524, -21.051960979915236 ], [ -41.151167375274092, -21.047328822966733 ], [ -41.153810090663114, -21.044410316083201 ], [ -41.153098712535495, -21.040470747726772 ], [ -41.150347490344359, -21.038464401610781 ], [ -41.146202664321436, -21.038487892801982 ], [ -41.140263664736317, -21.032780371516878 ], [ -41.130870628176922, -21.027820513305983 ], [ -41.128215452680934, -21.01973804617387 ], [ -41.126388640922983, -21.014216176435355 ], [ -41.124495726296686, -21.012777721614498 ], [ -41.117833516203746, -21.011937877131288 ], [ -41.114292859228044, -21.013654075874854 ], [ -41.109654380944903, -21.015165608705843 ], [ -41.107522201688198, -21.014818367873318 ], [ -41.106486072074517, -21.015232056014554 ], [ -41.105377386956768, -21.015116696378414 ], [ -41.102762209708146, -21.013864960599392 ], [ -41.09864701724598, -21.01119501643683 ], [ -41.091358200920176, -21.014594046378079 ] ] } }
]
}
