{
"type": "FeatureCollection",
"features": [
{ "type": "Feature", "properties": { "Name": "SANTA MARIA DE JETIBÃ", "Description": "SANTA MARIA DE JETIBÃ \/ ES" }, "geometry": { "type": "LineString", "coordinates": [ [ -40.598199334831406, -19.95980940428052 ], [ -40.601389462153918, -20.012568524217954 ], [ -40.622387362986387, -20.046081850197197 ], [ -40.602679860686976, -20.082222154328917 ], [ -40.624534010536138, -20.10696623960024 ], [ -40.643775739558691, -20.091948943688749 ], [ -40.675052876089296, -20.093594024944252 ], [ -40.6836107365462, -20.138822419918711 ], [ -40.714545159431509, -20.149678528441314 ], [ -40.752062680847985, -20.176184856845623 ], [ -40.785205855765582, -20.160155462104854 ], [ -40.921707549563735, -20.204090645466863 ], [ -40.957501640788053, -20.18930168382559 ], [ -40.982269195666788, -20.227277718292044 ], [ -41.002659307680858, -20.214437643282565 ], [ -41.017663847608446, -20.149736104837302 ], [ -41.036339922849095, -20.132387482895979 ], [ -40.97275319120677, -20.110731552619029 ], [ -40.947609118066275, -20.07416231953539 ], [ -40.911338328600948, -20.056258281694284 ], [ -40.887887698658346, -20.029957000515139 ], [ -40.867073808109694, -20.023514423751635 ], [ -40.853441392606157, -19.986429049960634 ], [ -40.826022515826416, -19.987411302989187 ], [ -40.785061290646013, -19.961212933030367 ], [ -40.779218138106557, -19.992494150684479 ], [ -40.696732336228308, -19.980745759109421 ], [ -40.682550163359281, -19.967137093801796 ], [ -40.598199334831406, -19.95980940428052 ] ] } }
]
}
