{
"type": "FeatureCollection",
"features": [
{ "type": "Feature", "properties": { "Name": "CANTÃ", "Description": "CANTÃ \/ RR" }, "geometry": { "type": "LineString", "coordinates": [ [ -60.156639007783951, 1.99964161177104 ], [ -60.166113505833607, 1.958559755128647 ], [ -60.230037463458125, 1.883664796093512 ], [ -60.302117935694127, 1.827491316371208 ], [ -60.390030982443811, 1.737973763978061 ], [ -60.52775267314729, 1.723001072641409 ], [ -60.575148524185011, 1.790476555548651 ], [ -60.589812279513062, 1.851211018973401 ], [ -60.654833858795477, 1.897765818637651 ], [ -60.73961807781199, 1.897307591572144 ], [ -60.760368973549241, 1.935622441122803 ], [ -60.742400073004944, 1.999479022439004 ], [ -60.830842980519094, 1.98331434628011 ], [ -60.929260097975089, 1.983539596775017 ], [ -60.9781255851276, 1.945793788752383 ], [ -61.022117919506343, 1.999631246185118 ], [ -61.052992300953861, 2.062935783159901 ], [ -61.015923317307227, 2.145001259000935 ], [ -60.938266228203815, 2.215277091364726 ], [ -60.890784432555449, 2.283794464043353 ], [ -60.84578428012037, 2.313515945204756 ], [ -60.836616959904745, 2.437681946964346 ], [ -60.824396144566371, 2.546852236541554 ], [ -60.77523266345662, 2.64351602674327 ], [ -60.694671747103428, 2.728233785860596 ], [ -60.649396408417488, 2.834903081512039 ], [ -60.568285946938879, 2.884907820839317 ], [ -60.55695045030302, 2.859553968241073 ], [ -60.357170334942957, 2.792705974700993 ], [ -60.330527825798463, 2.74855861428864 ], [ -60.376978840101337, 2.643123830600359 ], [ -60.312445969505859, 2.646730605732898 ], [ -60.221752736099852, 2.5936175638995 ], [ -60.1951515481054, 2.540283035233927 ], [ -60.201505361783006, 2.435424189974412 ], [ -60.176872673734856, 2.34343463330174 ], [ -60.205615787838326, 2.296330508845926 ], [ -60.203642638397007, 2.242823761807188 ], [ -60.165387287992928, 2.238804434377187 ], [ -60.15761024231881, 2.159140318371044 ], [ -60.218175438945302, 2.150665767511213 ], [ -60.270310082244457, 2.071763344902479 ], [ -60.165480473944683, 2.036774102842628 ], [ -60.156639007783951, 1.99964161177104 ] ] } }
]
}
