{
"type": "FeatureCollection",
"features": [
{ "type": "Feature", "properties": { "Name": "IRACEMA", "Description": "IRACEMA \/ RR" }, "geometry": { "type": "LineString", "coordinates": [ [ -62.917988153330555, 2.763859344133493 ], [ -62.937661190911165, 2.715495216431123 ], [ -63.026707646041011, 2.683535477380417 ], [ -63.096442749333384, 2.575812218559065 ], [ -63.074041145282592, 2.553460504398799 ], [ -63.056572434170448, 2.394108302756024 ], [ -62.981244867956271, 2.391698925465107 ], [ -62.915955507440678, 2.353800404465119 ], [ -62.839234551433378, 2.286010819843511 ], [ -62.755590935373341, 2.263659152447985 ], [ -62.623568956242309, 2.258317076072274 ], [ -62.594259598401713, 2.172695177240712 ], [ -62.559680636951782, 2.142224393540971 ], [ -62.440847937782053, 2.126382752961717 ], [ -62.341830220688102, 2.196564665526921 ], [ -62.156833961518089, 2.245880371282169 ], [ -62.110493727503467, 2.180911433815652 ], [ -62.027415195954461, 2.251619759144603 ], [ -61.833478329361355, 2.31752015772912 ], [ -61.734689168670172, 2.325188404321466 ], [ -61.672770816120241, 2.385994531122776 ], [ -61.62876871150678, 2.405801328468556 ], [ -61.623617222157009, 2.4530036112277 ], [ -61.507891944157841, 2.45016555589575 ], [ -61.411549166960469, 2.409086389125605 ], [ -61.338712777672519, 2.263672222295269 ], [ -61.227009884798292, 2.279459805525676 ], [ -61.194321848674349, 2.255193438326557 ], [ -61.051060245134174, 2.298049642077387 ], [ -60.938266228203815, 2.215277091364726 ], [ -61.015923317307227, 2.145001259000935 ], [ -61.052992300953861, 2.062935783159901 ], [ -61.022117919506343, 1.999631246185118 ], [ -61.200346756897261, 1.971770993836344 ], [ -61.366063728658105, 1.996944329117526 ], [ -61.414808401786281, 2.02563467549993 ], [ -61.534179317321609, 1.989512975643379 ], [ -61.616545608293166, 1.93874436566 ], [ -61.781576371252463, 1.946874493263294 ], [ -61.954486045194805, 1.915439638128817 ], [ -62.080456575310677, 1.863496813027552 ], [ -62.286127762686078, 1.759378947080791 ], [ -62.46615839539362, 1.648215618655911 ], [ -62.589043183396143, 1.601553295148506 ], [ -62.662573180208078, 1.538646357443497 ], [ -62.736349324161949, 1.529629589134288 ], [ -62.805282332913293, 1.591345663471657 ], [ -62.792992810269936, 1.635312190904926 ], [ -62.728606811555089, 1.700000035373364 ], [ -62.731073293097943, 1.81823234354789 ], [ -62.70417908439719, 1.873946796707344 ], [ -62.703310618090534, 1.933820606236054 ], [ -62.828875745519206, 2.013313570464959 ], [ -62.964272632975565, 2.024306260825313 ], [ -63.023776150249091, 2.014679362762422 ], [ -63.077267295848962, 2.046066205790794 ], [ -63.119832302718578, 2.096452487892066 ], [ -63.146339436915468, 2.173258554838469 ], [ -63.194133568009704, 2.181212932430924 ], [ -63.276351427676218, 2.15438969103144 ], [ -63.359791171924996, 2.197101554493202 ], [ -63.402548919696869, 2.24917650439221 ], [ -63.424877507790711, 2.35741095764962 ], [ -63.406845857949918, 2.435939441252287 ], [ -63.499979747966961, 2.435986293232872 ], [ -63.688721258978887, 2.388007187781511 ], [ -63.780851759201312, 2.391275226070888 ], [ -63.978051599102002, 2.467536102409269 ], [ -63.95783938647844, 2.470437097693946 ], [ -63.652359197319065, 2.605498213371902 ], [ -63.545263777701166, 2.58971981761556 ], [ -63.506027990899042, 2.628577122935951 ], [ -63.492489086901799, 2.758707290908774 ], [ -63.474855587615252, 2.787906852319452 ], [ -63.388660753191182, 2.769338389055463 ], [ -63.286540014410086, 2.820302661838411 ], [ -63.21261682770438, 2.829900975849398 ], [ -63.136509581651801, 2.801887455641633 ], [ -63.067937785600293, 2.811644287753722 ], [ -62.975798761603521, 2.80184883875296 ], [ -62.917988153330555, 2.763859344133493 ] ] } }
]
}
