{
"type": "FeatureCollection",
"features": [
{ "type": "Feature", "properties": { "Name": "NORMANDIA", "Description": "NORMANDIA \/ RR" }, "geometry": { "type": "LineString", "coordinates": [ [ -59.700239307997606, 4.160528845130159 ], [ -59.616618247833848, 4.132395443494943 ], [ -59.648275006186559, 4.069899798137214 ], [ -59.593830773471382, 3.999620106782572 ], [ -59.5163341477027, 3.944069784393094 ], [ -59.59466597205693, 3.883790469654513 ], [ -59.59605441198147, 3.795732205776744 ], [ -59.66661010707076, 3.780729333192198 ], [ -59.668557315567618, 3.702958414199486 ], [ -59.753002426320897, 3.651843186613803 ], [ -59.766889128730263, 3.624903821154475 ], [ -59.850506302923513, 3.604618913632009 ], [ -59.871897875686379, 3.563215006167638 ], [ -59.905500488156967, 3.586289284223142 ], [ -60.052447551213504, 3.52712378703319 ], [ -60.083281202365576, 3.493514110387935 ], [ -60.177454181665091, 3.443508569764731 ], [ -60.197169400147679, 3.40685013742393 ], [ -60.3213438825141, 3.369070654287327 ], [ -60.285783758913276, 3.449624506465852 ], [ -60.323846045558525, 3.531569751942527 ], [ -60.410234700970641, 3.58017237805285 ], [ -60.432462548807564, 3.648784958359215 ], [ -60.486898678631057, 3.742957636385881 ], [ -60.481895472198225, 3.853782268436987 ], [ -60.493287121603316, 3.938235487477811 ], [ -60.46105943404558, 3.952118377661065 ], [ -60.439395274072574, 4.036010770480743 ], [ -60.471344093555047, 4.126567467015036 ], [ -60.534398766489858, 4.166839472463721 ], [ -60.53971125966688, 4.210480366176 ], [ -60.383867917670223, 4.194980883461028 ], [ -60.330149070922857, 4.160485390788209 ], [ -60.201503592816493, 4.181338012439369 ], [ -60.080036629187028, 4.260186049446645 ], [ -60.045091287532834, 4.303541344557459 ], [ -59.982530515970495, 4.280718945023352 ], [ -59.890364376514704, 4.225022958542752 ], [ -59.766177087802312, 4.21172530397962 ], [ -59.795393533984338, 4.179622248967689 ], [ -59.700239307997606, 4.160528845130159 ] ] } }
]
}
