{
"type": "FeatureCollection",
"features": [
{ "type": "Feature", "properties": { "Name": "RORAINÃPOLIS", "Description": "RORAINÃPOLIS \/ RR" }, "geometry": { "type": "LineString", "coordinates": [ [ -60.267091087583594, 1.128139630939245 ], [ -60.306522707157171, 1.041021934714536 ], [ -60.402672774029263, 1.002510080575803 ], [ -60.277837843941313, 0.975897936140882 ], [ -60.201643841190283, 0.879707581439789 ], [ -60.295946803102424, 0.775864849583172 ], [ -60.263978199434284, 0.742343230056065 ], [ -60.256062579924098, 0.673001919203273 ], [ -60.223416054707116, 0.628977608529851 ], [ -60.223876864625531, 0.566149964948977 ], [ -60.153006851085252, 0.563521061347956 ], [ -60.119004623064875, 0.457363836072204 ], [ -60.082503795114, 0.400566388727896 ], [ -60.104868428035502, 0.357842429384675 ], [ -60.036695166548668, 0.314959105678213 ], [ -60.037968645236731, 0.263545516312547 ], [ -60.059082919241291, 0.162996894091464 ], [ -60.137945012652146, 0.102692950519327 ], [ -60.14322483975451, 0.037414056313708 ], [ -60.203277956112736, -0.033591364549807 ], [ -60.230506482388201, -0.110358852379079 ], [ -60.220505896230058, -0.135357795625737 ], [ -60.294114631385071, -0.218958319770593 ], [ -60.295501850030298, -0.299244737854337 ], [ -60.344696270516408, -0.44061047159596 ], [ -60.399953792533438, -0.510083429706469 ], [ -60.388009402711702, -0.581468539841183 ], [ -60.315503636583507, -0.650354442103776 ], [ -60.309671781327602, -0.724801177232507 ], [ -60.427171731090482, -0.778408534126527 ], [ -60.498007148610952, -0.789522972906809 ], [ -60.531065909564063, -0.875076320915412 ], [ -60.591339512708309, -0.853407844196624 ], [ -60.668010479000372, -0.894517994409853 ], [ -60.752724236134547, -0.861184050803274 ], [ -60.761066946382421, -0.761469136091705 ], [ -60.797728897770355, -0.7009090116415 ], [ -60.843289090419141, -0.690633326466809 ], [ -60.916341832309683, -0.610359773184939 ], [ -60.920786021058014, -0.55536240075412 ], [ -61.000510821517139, -0.55980167650614 ], [ -61.055230235087258, -0.538688403446997 ], [ -61.087456930692781, -0.500085413810723 ], [ -61.223014428972697, -0.505635142747565 ], [ -61.224118645359169, -0.559522030517257 ], [ -61.34716387960929, -0.595186485367947 ], [ -61.456899711452479, -0.657024098583236 ], [ -61.479682415810828, -0.714523874177416 ], [ -61.542176779634637, -0.763691157620769 ], [ -61.558837995776855, -0.893141329308833 ], [ -61.578564948613455, -0.910075177627277 ], [ -61.546602820064038, -1.071209720452202 ], [ -61.62690314076729, -1.293970042983062 ], [ -61.58217522480674, -1.353407255040736 ], [ -61.619121538228342, -1.394797678070347 ], [ -61.548014031722126, -1.429518038126901 ], [ -61.523568849622677, -1.490632823046326 ], [ -61.473290960109686, -1.527849742471574 ], [ -61.482736452325355, -1.580633106332755 ], [ -61.544681889757385, -1.525626707406559 ], [ -61.604954678115853, -1.448131456701333 ], [ -61.798009428492264, -1.380629962702585 ], [ -61.839937640709536, -1.401059577437479 ], [ -61.872454363178292, -1.330358682307292 ], [ -61.839958681248099, -1.2653579843834 ], [ -61.880788103588088, -1.117573556274579 ], [ -61.8588429153682, -1.057301079081469 ], [ -61.889681474120721, -1.000344546163831 ], [ -61.869685715723165, -0.931745694008498 ], [ -61.883850660279727, -0.893684977579596 ], [ -61.848017711148429, -0.821740814686791 ], [ -61.867736543106957, -0.723967172946629 ], [ -61.8102363232477, -0.608414208648753 ], [ -61.824956966091065, -0.525913457340152 ], [ -61.801631050532535, -0.449780766768924 ], [ -61.844678807181133, -0.38869136251634 ], [ -61.838010907077653, -0.271744252095516 ], [ -61.7907935957478, -0.106471802631518 ], [ -61.8160686884192, -0.038414916115414 ], [ -61.780234041367862, 0.039087061518728 ], [ -61.777733276769247, 0.167697102739169 ], [ -61.75885075495836, 0.309635311620355 ], [ -61.683847770258346, 0.489634431184072 ], [ -61.650234810188294, 0.51547005869628 ], [ -61.617179159990208, 0.601578174193435 ], [ -61.559403048811582, 0.679354203134039 ], [ -61.500514867467132, 0.723527281458928 ], [ -61.453839998417152, 0.785476046382484 ], [ -61.424396490505607, 0.869909513613209 ], [ -61.345786859276075, 0.979632179381611 ], [ -61.317458802981321, 0.9951863246892 ], [ -61.128012361980886, 0.943802043329697 ], [ -61.106340751124712, 0.99047025469855 ], [ -61.012728769816817, 1.09796565948767 ], [ -60.924397770340761, 1.073526642240779 ], [ -60.885229179982616, 1.130190204814141 ], [ -60.820504893186239, 1.064079060899985 ], [ -60.823282838731984, 1.006303353517012 ], [ -60.775226736024997, 0.940743296166261 ], [ -60.734396265075532, 0.933251113448193 ], [ -60.713844283187079, 0.867136926228227 ], [ -60.619672973928573, 0.897138375335828 ], [ -60.5613438723218, 0.939075837979601 ], [ -60.464391156026984, 1.082693518191377 ], [ -60.399948842664912, 1.131579143862439 ], [ -60.317725294786506, 1.142412018399966 ], [ -60.267091087583594, 1.128139630939245 ] ] } }
]
}
