{
"type": "FeatureCollection",
"features": [
{ "type": "Feature", "properties": { "Name": "UIRAMUTÃ", "Description": "UIRAMUTÃ \/ RR" }, "geometry": { "type": "LineString", "coordinates": [ [ -59.700239307997606, 4.160528845130159 ], [ -59.795393533984338, 4.179622248967689 ], [ -59.766177087802312, 4.21172530397962 ], [ -59.890364376514704, 4.225022958542752 ], [ -59.982530515970495, 4.280718945023352 ], [ -60.045091287532834, 4.303541344557459 ], [ -60.080036629187028, 4.260186049446645 ], [ -60.201503592816493, 4.181338012439369 ], [ -60.330149070922857, 4.160485390788209 ], [ -60.383867917670223, 4.194980883461028 ], [ -60.53971125966688, 4.210480366176 ], [ -60.50995157710355, 4.239064311069171 ], [ -60.567727692778753, 4.279341531686384 ], [ -60.555484102109574, 4.308325346637503 ], [ -60.59873116291277, 4.389389869846639 ], [ -60.656430392848335, 4.41872167296691 ], [ -60.611561576505494, 4.54578909179321 ], [ -60.640229277059461, 4.616840194619328 ], [ -60.638123671869948, 4.806477971781021 ], [ -60.613921048617442, 4.842938396789634 ], [ -60.652448981735063, 4.884623333400157 ], [ -60.584124199771971, 4.955732021615574 ], [ -60.644959633680109, 5.058512740470633 ], [ -60.642649309517992, 5.117198312652078 ], [ -60.694674999051927, 5.197092979757258 ], [ -60.697177187277305, 5.228783737879269 ], [ -60.449675508917544, 5.20017746551764 ], [ -60.381067035815022, 5.220725302430822 ], [ -60.328286137894906, 5.205453996604717 ], [ -60.212453524010876, 5.271841076804321 ], [ -60.171057965852413, 5.226562148024755 ], [ -60.132730070736152, 5.224893784220797 ], [ -60.095782606182297, 5.140726822085242 ], [ -60.067447455135898, 5.133505230981655 ], [ -60.008225057840086, 5.058902735972538 ], [ -59.990229675858807, 4.986560876683143 ], [ -60.027725576673959, 4.775450082355462 ], [ -60.030228343163458, 4.700453574572862 ], [ -60.078826786526918, 4.648527135119252 ], [ -60.075225991885986, 4.608503617747829 ], [ -60.157453136153265, 4.565455147936802 ], [ -60.155787395671716, 4.50294738961037 ], [ -59.97244793502415, 4.482952254443035 ], [ -59.957165536060579, 4.497675901921411 ], [ -59.858833897366424, 4.44823120190847 ], [ -59.781060757947557, 4.439619630341724 ], [ -59.693838321281476, 4.37767640883925 ], [ -59.676058517586455, 4.346286518008469 ], [ -59.719113912177242, 4.300731866982119 ], [ -59.736618390226511, 4.232955892700318 ], [ -59.700239307997606, 4.160528845130159 ] ] } }
]
}
