{
"type": "FeatureCollection",
"features": [
{ "type": "Feature", "properties": { "Name": "ACARAPE", "Description": "ACARAPE \/ CE" }, "geometry": { "type": "LineString", "coordinates": [ [ -38.619774152954733, -4.164376188710094 ], [ -38.617146152273051, -4.184046445586944 ], [ -38.570816855813177, -4.235034288701399 ], [ -38.684130151185514, -4.278244853217359 ], [ -38.709745486165218, -4.291205375327763 ], [ -38.729633843926706, -4.282181400750972 ], [ -38.724328380750137, -4.246101136258403 ], [ -38.711668534375292, -4.235445723141538 ], [ -38.729941061330862, -4.169851200172729 ], [ -38.715104343890289, -4.191046780984094 ], [ -38.697693187590517, -4.172255869512695 ], [ -38.656163158303059, -4.158422698348829 ], [ -38.619774152954733, -4.164376188710094 ] ] } }
]
}
