{
"type": "FeatureCollection",
"features": [
{ "type": "Feature", "properties": { "Name": "BARBALHA", "Description": "BARBALHA \/ CE" }, "geometry": { "type": "LineString", "coordinates": [ [ -39.254096665228865, -7.487741434019938 ], [ -39.368915798025625, -7.459520996896458 ], [ -39.369589052992353, -7.619281656223394 ], [ -39.383974147988511, -7.608573719101798 ], [ -39.42065978931776, -7.603022163641867 ], [ -39.440924804735914, -7.573024804650969 ], [ -39.439821171110111, -7.3496329970651 ], [ -39.347298400101067, -7.277583163831877 ], [ -39.23493414579417, -7.226997903130667 ], [ -39.234082009377175, -7.280070139125598 ], [ -39.227382544868526, -7.285167301329863 ], [ -39.254053853902178, -7.397954675867538 ], [ -39.254096665228865, -7.487741434019938 ] ] } }
]
}
