{
"type": "FeatureCollection",
"features": [
{ "type": "Feature", "properties": { "Name": "BELA CRUZ", "Description": "BELA CRUZ \/ CE" }, "geometry": { "type": "LineString", "coordinates": [ [ -40.170712875698598, -2.943040808886167 ], [ -40.150344054234665, -3.040634054717827 ], [ -40.122045384187061, -3.034984379625371 ], [ -40.082809940026664, -3.084849803175814 ], [ -40.08378738527955, -3.116216414156156 ], [ -40.140204665812632, -3.072980670421543 ], [ -40.1480650786404, -3.107227010418171 ], [ -40.23593534823766, -3.168089875447322 ], [ -40.256681623258253, -3.162230064765652 ], [ -40.26279248958167, -3.139359439086775 ], [ -40.297902299251689, -3.203932065112667 ], [ -40.322116796253113, -3.193532268998979 ], [ -40.357958405855697, -3.199986248266668 ], [ -40.366066729395975, -3.154059365147532 ], [ -40.381460745017307, -3.134571608592807 ], [ -40.417014642611605, -3.12578684468707 ], [ -40.494346009860408, -3.063675020086066 ], [ -40.511855584367709, -2.954020719880248 ], [ -40.408612010535819, -2.966445098562417 ], [ -40.341208268346861, -2.945380795387337 ], [ -40.265774187328816, -2.939775922720628 ], [ -40.237893434034724, -2.951875368253582 ], [ -40.170712875698598, -2.943040808886167 ] ] } }
]
}
