{
"type": "FeatureCollection",
"features": [
{ "type": "Feature", "properties": { "Name": "BREJO SANTO", "Description": "BREJO SANTO \/ CE" }, "geometry": { "type": "LineString", "coordinates": [ [ -38.71777785026751, -7.626871195948866 ], [ -38.742802040181971, -7.660321999260817 ], [ -38.760612443309583, -7.656000817983339 ], [ -38.824241257827737, -7.678344279964506 ], [ -38.815023920917156, -7.697390788653933 ], [ -38.828109321987597, -7.719614470831118 ], [ -38.869744562961159, -7.711541746054706 ], [ -38.881397546359608, -7.747432296763065 ], [ -38.894810597431103, -7.750453543096511 ], [ -38.892043229711248, -7.611584997349723 ], [ -38.948527703990287, -7.614894965630127 ], [ -38.964386116026382, -7.607053330646635 ], [ -39.02782117160973, -7.633807114706542 ], [ -39.03202289863782, -7.623417340637729 ], [ -39.036697800363129, -7.531974131101208 ], [ -39.086591985131975, -7.487386457219201 ], [ -39.146046187181746, -7.45526735740259 ], [ -39.098407047047537, -7.465386985021269 ], [ -39.080715544186944, -7.457381727384757 ], [ -39.078391183406325, -7.42077313816975 ], [ -38.970299850957304, -7.426376258057815 ], [ -38.944077569823946, -7.427117186109228 ], [ -38.882477480151522, -7.45781240641736 ], [ -38.775060879356033, -7.603128709921974 ], [ -38.71777785026751, -7.626871195948866 ] ] } }
]
}
