{
"type": "FeatureCollection",
"features": [
{ "type": "Feature", "properties": { "Name": "CAMPOS SALES", "Description": "CAMPOS SALES \/ CE" }, "geometry": { "type": "LineString", "coordinates": [ [ -40.145322238130746, -6.818846011833955 ], [ -40.147325034622611, -6.830860448950489 ], [ -40.087512565152736, -6.847357542416603 ], [ -40.076818652958423, -6.85659416708711 ], [ -40.125225873475244, -6.887580590571758 ], [ -40.06019805559572, -6.930890924976154 ], [ -40.075169922254076, -6.981630772841868 ], [ -40.083314782551156, -6.983311024783915 ], [ -40.122376370672946, -7.022884834367574 ], [ -40.134788505984716, -7.001739712717494 ], [ -40.157706836201498, -7.015841984419978 ], [ -40.211958124767591, -7.029209375112544 ], [ -40.24002687773816, -7.047541303188552 ], [ -40.257993284462479, -7.070986690982977 ], [ -40.318660831132433, -7.079150911885051 ], [ -40.335291729329803, -7.127766349737215 ], [ -40.447570884388767, -7.088911839509763 ], [ -40.459349416742157, -7.078475938313829 ], [ -40.427717671233495, -7.033881107626995 ], [ -40.432705755566133, -6.908539378989076 ], [ -40.428519555333196, -6.864254470867081 ], [ -40.387112298793511, -6.830075841726682 ], [ -40.370510961311766, -6.803157766817435 ], [ -40.318420014272192, -6.800631592773755 ], [ -40.300510498660515, -6.806693187940198 ], [ -40.266182099124535, -6.796914202828134 ], [ -40.242409407568061, -6.777059975237648 ], [ -40.203452734356176, -6.7745568247376 ], [ -40.184586033418668, -6.759976745930032 ], [ -40.169521809983507, -6.788982841584811 ], [ -40.150243227642818, -6.784745131782358 ], [ -40.145322238130746, -6.818846011833955 ] ] } }
]
}
