{
"type": "FeatureCollection",
"features": [
{ "type": "Feature", "properties": { "Name": "CAPISTRANO", "Description": "CAPISTRANO \/ CE" }, "geometry": { "type": "LineString", "coordinates": [ [ -38.833179787816896, -4.503842000807651 ], [ -38.828445709801599, -4.515760829198882 ], [ -38.802227952258136, -4.5824384003119 ], [ -38.84005678479275, -4.584215129724384 ], [ -38.838307768888399, -4.550130192854055 ], [ -38.869232599604743, -4.547263048051207 ], [ -38.928976142335046, -4.515374963383806 ], [ -38.938184847552634, -4.496486503349388 ], [ -38.99018432724489, -4.493762632239622 ], [ -38.998180304777179, -4.484533015985846 ], [ -38.993079049758308, -4.449907003805151 ], [ -38.974856558383408, -4.439169871991965 ], [ -38.983032714188369, -4.380831618884031 ], [ -38.960250481974128, -4.358937806234735 ], [ -38.921232894982097, -4.357224002385749 ], [ -38.944694237648889, -4.388080506210372 ], [ -38.923763692440382, -4.411909463850634 ], [ -38.857320845280753, -4.44274725278342 ], [ -38.833179787816896, -4.503842000807651 ] ] } }
]
}
