{
"type": "FeatureCollection",
"features": [
{ "type": "Feature", "properties": { "Name": "CASCAVEL", "Description": "CASCAVEL \/ CE" }, "geometry": { "type": "LineString", "coordinates": [ [ -38.222854079052468, -4.006671590021824 ], [ -38.192213657134516, -4.040598067246947 ], [ -38.147545932798494, -4.101631315133034 ], [ -38.162105643760412, -4.12062075734201 ], [ -38.162792238371082, -4.148845984254706 ], [ -38.182268838835796, -4.194024179971905 ], [ -38.228524636402824, -4.206534815329405 ], [ -38.250413691638528, -4.362201862326059 ], [ -38.2624100910528, -4.391959639225945 ], [ -38.295659110779297, -4.440191024296269 ], [ -38.326858046761402, -4.436480262354166 ], [ -38.336824014416663, -4.489969749604199 ], [ -38.360632613204466, -4.500874289316926 ], [ -38.366520374815416, -4.466881247871243 ], [ -38.436202517032484, -4.385810956410467 ], [ -38.451945156643603, -4.368172426316391 ], [ -38.385682975189127, -4.333715883281343 ], [ -38.393623278391544, -4.225062756041325 ], [ -38.381001254804005, -4.145120387096141 ], [ -38.372584685035122, -4.078982689799261 ], [ -38.346611427075629, -4.088823931379295 ], [ -38.285416453206722, -4.094840082903431 ], [ -38.293432160965438, -4.066586217979534 ], [ -38.264497957114997, -4.073494240666605 ], [ -38.253263859939125, -4.028686446921938 ], [ -38.222854079052468, -4.006671590021824 ] ] } }
]
}
