{
"type": "FeatureCollection",
"features": [
{ "type": "Feature", "properties": { "Name": "CEDRO", "Description": "CEDRO \/ CE" }, "geometry": { "type": "LineString", "coordinates": [ [ -39.145819028325434, -6.442271885139348 ], [ -39.122101690940269, -6.466768531842206 ], [ -39.061873040408443, -6.445729949277676 ], [ -38.957460224709564, -6.52717492168523 ], [ -38.919706221165143, -6.565458144777494 ], [ -38.92505489137011, -6.611454174070842 ], [ -38.950272708019043, -6.642520415984335 ], [ -38.980997719269283, -6.663368048196844 ], [ -39.007683727721826, -6.658832948781536 ], [ -39.045225163910118, -6.673905516126638 ], [ -39.047273888778875, -6.689424576183171 ], [ -39.072141061560671, -6.705987918207825 ], [ -39.109388420339258, -6.714535380703182 ], [ -39.150472142175602, -6.671287781206104 ], [ -39.171836505949955, -6.665283012401062 ], [ -39.183865485104029, -6.641371285656247 ], [ -39.17435398804605, -6.620577673920479 ], [ -39.209873745576829, -6.607813220203923 ], [ -39.230578970143313, -6.583623272895693 ], [ -39.294628368804126, -6.56272454749984 ], [ -39.281675990954163, -6.526040762371224 ], [ -39.235889062130468, -6.523737047326847 ], [ -39.230156458753527, -6.491590528979657 ], [ -39.209548050701926, -6.484773084210417 ], [ -39.20549672179623, -6.463477387271553 ], [ -39.145819028325434, -6.442271885139348 ] ] } }
]
}
