{
"type": "FeatureCollection",
"features": [
{ "type": "Feature", "properties": { "Name": "FARIAS BRITO", "Description": "FARIAS BRITO \/ CE" }, "geometry": { "type": "LineString", "coordinates": [ [ -39.512355597732608, -6.778028986648393 ], [ -39.514013693976771, -6.809769861290022 ], [ -39.493913261687624, -6.846865219354356 ], [ -39.483251222365993, -6.897848880621324 ], [ -39.418561651199184, -6.895383525029615 ], [ -39.395174585338793, -6.923452208752394 ], [ -39.42277734110138, -6.963493619035262 ], [ -39.436071404671559, -6.963999245768547 ], [ -39.453821689919039, -7.008181616788136 ], [ -39.502987474192537, -7.011547834065254 ], [ -39.516973266602918, -7.003338450109311 ], [ -39.578006633199493, -7.019360179028979 ], [ -39.580398205712584, -7.043967892004559 ], [ -39.64422659328261, -7.015159428664674 ], [ -39.680867978074673, -7.017783111701192 ], [ -39.659886255146489, -7.007111966743821 ], [ -39.621146203434478, -6.959871399845156 ], [ -39.640162869920459, -6.94636462322876 ], [ -39.599476048580755, -6.911424941008192 ], [ -39.612175994826259, -6.892753787757044 ], [ -39.655268365042957, -6.895052322706476 ], [ -39.668410213860227, -6.863355335879987 ], [ -39.64197080760664, -6.853332867417862 ], [ -39.654733569698465, -6.820744202782691 ], [ -39.651692701057243, -6.802480801247953 ], [ -39.616845941287124, -6.790367728288003 ], [ -39.600429304768568, -6.822980156608878 ], [ -39.578932755042558, -6.832388647118306 ], [ -39.567563007726562, -6.788907966729255 ], [ -39.544613387397874, -6.769250675378316 ], [ -39.512355597732608, -6.778028986648393 ] ] } }
]
}
