{
"type": "FeatureCollection",
"features": [
{ "type": "Feature", "properties": { "Name": "GUAIÃBA", "Description": "GUAIÃBA \/ CE" }, "geometry": { "type": "LineString", "coordinates": [ [ -38.574688614387981, -4.052555916322433 ], [ -38.605158001440543, -4.059159605731168 ], [ -38.613301025322016, -4.103910059601503 ], [ -38.578672165887724, -4.105340023023587 ], [ -38.566910127999961, -4.123187783089691 ], [ -38.570917831692555, -4.128701388957893 ], [ -38.613289315249631, -4.151792015788828 ], [ -38.619774152954733, -4.164376188710094 ], [ -38.656163158303059, -4.158422698348829 ], [ -38.697693187590517, -4.172255869512695 ], [ -38.715104343890289, -4.191046780984094 ], [ -38.729941061330862, -4.169851200172729 ], [ -38.762178613552123, -4.178138424948315 ], [ -38.791142809792802, -4.143228034546098 ], [ -38.755294552401608, -4.128297733653426 ], [ -38.748471090268538, -4.092800420502954 ], [ -38.672609914016277, -4.039651023575857 ], [ -38.667714177467246, -4.018432639554646 ], [ -38.649944181778551, -4.005931526218887 ], [ -38.635771108250026, -4.023586423974223 ], [ -38.611165971832065, -4.014214997224315 ], [ -38.574688614387981, -4.052555916322433 ] ] } }
]
}
