{
"type": "FeatureCollection",
"features": [
{ "type": "Feature", "properties": { "Name": "GUARACIABA DO NORTE", "Description": "GUARACIABA DO NORTE \/ CE" }, "geometry": { "type": "LineString", "coordinates": [ [ -40.717872706759977, -4.140004367007862 ], [ -40.712479372624898, -4.169864484957941 ], [ -40.729123221959064, -4.201698492491403 ], [ -40.737867340105595, -4.220903675763964 ], [ -40.777771611870321, -4.234070137226979 ], [ -40.803009022048684, -4.266719265081974 ], [ -40.788271714767802, -4.31948409031844 ], [ -40.80312168461802, -4.345149496851775 ], [ -40.846654465431186, -4.321272569373548 ], [ -40.856497806028869, -4.297308258369355 ], [ -40.884694952510017, -4.318223613129192 ], [ -40.927148512693684, -4.290323451565996 ], [ -41.007295519672425, -4.272582379872857 ], [ -41.140528405361579, -4.370285415839248 ], [ -41.149059286157069, -4.367175282313383 ], [ -41.120171336238108, -4.330566697594975 ], [ -41.119124021756129, -4.306525934324384 ], [ -41.135904848629821, -4.233511296708912 ], [ -41.099087049227876, -4.181839386078764 ], [ -41.073505782365942, -4.200288423871598 ], [ -41.018844230276954, -4.201579541862316 ], [ -41.006592496246633, -4.190275942380765 ], [ -40.9759579963644, -4.230767527199589 ], [ -40.90088757060488, -4.158943242136843 ], [ -40.851075772728677, -4.154371054680382 ], [ -40.849775062569051, -4.140769625317887 ], [ -40.815415929601443, -4.123760383235037 ], [ -40.773748766292499, -4.128139042882481 ], [ -40.747239302851483, -4.145513165100454 ], [ -40.717872706759977, -4.140004367007862 ] ] } }
]
}
