{
"type": "FeatureCollection",
"features": [
{ "type": "Feature", "properties": { "Name": "GUARAMIRANGA", "Description": "GUARAMIRANGA \/ CE" }, "geometry": { "type": "LineString", "coordinates": [ [ -38.892229455025301, -4.27838026143985 ], [ -38.916656760401111, -4.292588905853279 ], [ -38.933700447417664, -4.324122279919209 ], [ -38.974921180068343, -4.208618558899332 ], [ -38.99863608298881, -4.227599271389238 ], [ -39.026849465830139, -4.227985610247686 ], [ -38.952037053766958, -4.182682590429181 ], [ -38.935001894122081, -4.21499526392023 ], [ -38.939311513715325, -4.236599200792455 ], [ -38.905013860201443, -4.250160201132302 ], [ -38.892229455025301, -4.27838026143985 ] ] } }
]
}
