{
"type": "FeatureCollection",
"features": [
{ "type": "Feature", "properties": { "Name": "HIDROLÃNDIA", "Description": "HIDROLÃNDIA \/ CE" }, "geometry": { "type": "LineString", "coordinates": [ [ -40.337531859607566, -4.658689505516236 ], [ -40.374757017722175, -4.553913116397154 ], [ -40.458124639940138, -4.529648530755026 ], [ -40.509486404973579, -4.507717121048245 ], [ -40.588217622745042, -4.557907850966501 ], [ -40.588670293798998, -4.558183591199736 ], [ -40.598125709134138, -4.528278308397148 ], [ -40.580033747159689, -4.487456664293575 ], [ -40.583790701879366, -4.471975720203261 ], [ -40.55473645832086, -4.44034759806317 ], [ -40.565346148106187, -4.419533067197221 ], [ -40.550315198687429, -4.379145768662227 ], [ -40.522831246065095, -4.354663714358878 ], [ -40.512302256044222, -4.326519776266593 ], [ -40.494134083720944, -4.319735615406272 ], [ -40.47858045462425, -4.293806022230115 ], [ -40.448432834207892, -4.258685418896903 ], [ -40.301899211079672, -4.267317520187362 ], [ -40.316535079330379, -4.282470476131493 ], [ -40.326399151999219, -4.342347877552469 ], [ -40.302794921448424, -4.393569274602271 ], [ -40.262894319816951, -4.441950572161147 ], [ -40.254476552151118, -4.472982604763331 ], [ -40.268339162622226, -4.50914246015634 ], [ -40.242336159586046, -4.527820113707207 ], [ -40.239470530140807, -4.596132402288503 ], [ -40.272525030106003, -4.611470634761929 ], [ -40.294608176126353, -4.601022209607265 ], [ -40.319270788216272, -4.62246170004738 ], [ -40.337531859607566, -4.658689505516236 ] ] } }
]
}
