{
"type": "FeatureCollection",
"features": [
{ "type": "Feature", "properties": { "Name": "IBARETAMA", "Description": "IBARETAMA \/ CE" }, "geometry": { "type": "LineString", "coordinates": [ [ -38.573326556974962, -4.671034671912537 ], [ -38.528881599206386, -4.680284012097444 ], [ -38.532606551551055, -4.709383439394173 ], [ -38.519907892235381, -4.734994648284327 ], [ -38.539769684023668, -4.75720218673149 ], [ -38.577018517690419, -4.770088554343261 ], [ -38.578490862563228, -4.797120845850316 ], [ -38.61521398673608, -4.83831215538163 ], [ -38.649633295140404, -4.850880832983989 ], [ -38.666158871934329, -4.872972985714682 ], [ -38.638668961303487, -4.916094181001596 ], [ -38.647480841567521, -4.93754835287416 ], [ -38.648711613250327, -4.937990005434358 ], [ -38.702579902140712, -4.902700144296148 ], [ -38.877272191558347, -4.933985514120138 ], [ -38.891021053079101, -4.893683215008309 ], [ -38.918866212105968, -4.850900410325607 ], [ -38.921981976287157, -4.826317670623951 ], [ -38.876956117630698, -4.848062212001423 ], [ -38.859966877369459, -4.829080460794557 ], [ -38.801689572215935, -4.741093219976051 ], [ -38.87428959808642, -4.679658419400482 ], [ -38.860034500991389, -4.664812540566231 ], [ -38.814038831426899, -4.671761905987125 ], [ -38.782738405153225, -4.631811613215348 ], [ -38.767980802871705, -4.623817535950479 ], [ -38.763826250680893, -4.62244700242718 ], [ -38.723553531170467, -4.620929126677822 ], [ -38.707736148904125, -4.611504112025102 ], [ -38.687363335349623, -4.653727427778506 ], [ -38.667697899738236, -4.660254691001114 ], [ -38.635977222970439, -4.701661390860465 ], [ -38.573326556974962, -4.671034671912537 ] ] } }
]
}
