{
"type": "FeatureCollection",
"features": [
{ "type": "Feature", "properties": { "Name": "ICAPUÃ", "Description": "ICAPUÃ \/ CE" }, "geometry": { "type": "LineString", "coordinates": [ [ -37.356898056300217, -4.858056502005923 ], [ -37.357015039212627, -4.793861572353649 ], [ -37.400516190869489, -4.775270858063607 ], [ -37.417468577812592, -4.782799374291642 ], [ -37.463010882945866, -4.78180442013786 ], [ -37.504973594955402, -4.791860336185493 ], [ -37.529566682256529, -4.753518066305673 ], [ -37.55748473493253, -4.722316298358407 ], [ -37.540457804084326, -4.64425712236823 ], [ -37.499067312706245, -4.625905617849924 ], [ -37.47703725456563, -4.646922658953485 ], [ -37.414848156617097, -4.671334359293212 ], [ -37.325151174187283, -4.701746175345647 ], [ -37.298419561113803, -4.726474922679472 ], [ -37.280612418927944, -4.754558654758057 ], [ -37.253291189636627, -4.831555524567761 ], [ -37.356898056300217, -4.858056502005923 ] ] } }
]
}
