{
"type": "FeatureCollection",
"features": [
{ "type": "Feature", "properties": { "Name": "INDEPENDÃNCIA", "Description": "INDEPENDÃNCIA \/ CE" }, "geometry": { "type": "LineString", "coordinates": [ [ -40.165614760212975, -5.165403397748547 ], [ -40.138917380732494, -5.163463843381635 ], [ -40.091691059095062, -5.17281477188419 ], [ -40.07511902782084, -5.165433373950975 ], [ -40.060534816628426, -5.185585642263504 ], [ -40.036341739679472, -5.182545089284417 ], [ -40.0274303233507, -5.210588664834972 ], [ -40.04216948143636, -5.237095084070802 ], [ -40.054614466284534, -5.292188969944959 ], [ -40.029534324149715, -5.296672108331109 ], [ -40.02089762912226, -5.327966507348378 ], [ -40.026341882871577, -5.345211949172096 ], [ -40.055370724179511, -5.358233147641612 ], [ -40.058671986123215, -5.396855291938152 ], [ -40.101156399348326, -5.451759903796471 ], [ -40.111873566212068, -5.514288020975357 ], [ -40.124192026340893, -5.554701533848685 ], [ -40.142730000788845, -5.54212554655669 ], [ -40.167176761198505, -5.545201145216652 ], [ -40.186272615688608, -5.570859096370157 ], [ -40.227043349171197, -5.593389940193561 ], [ -40.234184836760789, -5.630025947039769 ], [ -40.211227750260434, -5.690701833123057 ], [ -40.227331033300516, -5.71046697117373 ], [ -40.287965996633368, -5.757630870867956 ], [ -40.318044097656923, -5.743040838363925 ], [ -40.368484992888057, -5.745782379353273 ], [ -40.41139598693519, -5.809732767153434 ], [ -40.453362422138014, -5.828589929881332 ], [ -40.485777217244731, -5.835103661904441 ], [ -40.52125884442011, -5.813629492706866 ], [ -40.565407477373128, -5.842022997163554 ], [ -40.564345227849969, -5.786839538813638 ], [ -40.570942898995547, -5.754492290886446 ], [ -40.613336216293305, -5.727406354819379 ], [ -40.653489148805136, -5.670633785420819 ], [ -40.628592159900222, -5.631592433843707 ], [ -40.63876671721016, -5.615732917440141 ], [ -40.620401937799159, -5.59882533112409 ], [ -40.627413482346299, -5.579042598736919 ], [ -40.609398870161669, -5.556564137724705 ], [ -40.621478041378452, -5.534508993894917 ], [ -40.566456851302576, -5.436383524779785 ], [ -40.554707534325189, -5.426692431310584 ], [ -40.550739258709768, -5.401655094207172 ], [ -40.523847274032448, -5.389714825079068 ], [ -40.479460853135834, -5.274282145104848 ], [ -40.414564438797754, -5.229334066114234 ], [ -40.314669576040046, -5.157292669421111 ], [ -40.298393945124417, -5.170399543603992 ], [ -40.268260356829956, -5.162753528252664 ], [ -40.243916094851841, -5.168307889597372 ], [ -40.219122688960908, -5.15234671113177 ], [ -40.171420257239049, -5.174704298764311 ], [ -40.165614760212975, -5.165403397748547 ] ] } }
]
}
