{
"type": "FeatureCollection",
"features": [
{ "type": "Feature", "properties": { "Name": "IRAUÃUBA", "Description": "IRAUÃUBA \/ CE" }, "geometry": { "type": "LineString", "coordinates": [ [ -39.713086011410269, -3.655116842768052 ], [ -39.702618129423115, -3.618471357966769 ], [ -39.697611896771548, -3.64342111459274 ], [ -39.708949871939005, -3.680496476231326 ], [ -39.689475830944779, -3.710881380970932 ], [ -39.686698243329197, -3.744437949951362 ], [ -39.653726425234311, -3.773643829998718 ], [ -39.64186994414257, -3.821059021856342 ], [ -39.679093809931317, -3.832266622306747 ], [ -39.707944535112176, -3.853438007757802 ], [ -39.716532493179955, -3.918095697958051 ], [ -39.705502150004179, -3.945473134877204 ], [ -39.706896378864762, -4.019213066729605 ], [ -39.692490450174091, -4.022598721054067 ], [ -39.664948325804573, -4.081673983867233 ], [ -39.683341842152231, -4.081042917896297 ], [ -39.708520775713168, -4.101013289331775 ], [ -39.740146715198705, -4.110185545026809 ], [ -39.755224806179797, -4.133530357140216 ], [ -39.757475657275734, -4.157853962590252 ], [ -39.773912417024398, -4.173702785155342 ], [ -39.794481399696792, -4.161251002331824 ], [ -39.818539447037828, -4.117858113760917 ], [ -39.840626038360938, -4.113527441038514 ], [ -39.857860014727862, -4.101464471108385 ], [ -39.853583196107593, -4.078261651154207 ], [ -39.877063658361124, -4.060653358965282 ], [ -39.872220300126685, -4.046174363056366 ], [ -39.917367599634986, -4.034116194606668 ], [ -39.922306301294725, -3.99186910167765 ], [ -39.941448261328162, -3.985885930091569 ], [ -39.954345467569226, -3.962691254397839 ], [ -39.999234504268934, -3.930516353446933 ], [ -40.007301572309643, -3.899033354006008 ], [ -39.924136755306961, -3.947484152971242 ], [ -39.97608674440766, -3.77783116607543 ], [ -40.012028906308956, -3.76181424133415 ], [ -40.015735139265246, -3.71234558877785 ], [ -39.913920804001854, -3.721537888562636 ], [ -39.90052708385781, -3.661817159834015 ], [ -39.830838061827023, -3.603562907002526 ], [ -39.809485863181976, -3.610019292856009 ], [ -39.78083657804558, -3.641829745346399 ], [ -39.713086011410269, -3.655116842768052 ] ] } }
]
}
