{
"type": "FeatureCollection",
"features": [
{ "type": "Feature", "properties": { "Name": "ITAPIÃNA", "Description": "ITAPIÃNA \/ CE" }, "geometry": { "type": "LineString", "coordinates": [ [ -38.998180304777179, -4.484533015985846 ], [ -38.99018432724489, -4.493762632239622 ], [ -38.938184847552634, -4.496486503349388 ], [ -38.928976142335046, -4.515374963383806 ], [ -38.869232599604743, -4.547263048051207 ], [ -38.838307768888399, -4.550130192854055 ], [ -38.84005678479275, -4.584215129724384 ], [ -38.802227952258136, -4.5824384003119 ], [ -38.767980802871705, -4.623817535950479 ], [ -38.782738405153225, -4.631811613215348 ], [ -38.814038831426899, -4.671761905987125 ], [ -38.860034500991389, -4.664812540566231 ], [ -38.87428959808642, -4.679658419400482 ], [ -38.88376106272284, -4.709286140842664 ], [ -38.924485747319352, -4.739768241610988 ], [ -38.943906121270459, -4.740212382595359 ], [ -38.965515223848456, -4.704371950205314 ], [ -38.949573184754627, -4.682862201129637 ], [ -38.978679061989055, -4.668771775297159 ], [ -38.978635071651183, -4.65803140232731 ], [ -39.015944519623815, -4.642688370172095 ], [ -39.112972337403392, -4.64157817779062 ], [ -39.129778537749296, -4.628357979137377 ], [ -39.066310136203754, -4.561647833680524 ], [ -39.085843220388256, -4.520147347122304 ], [ -39.08503407965901, -4.471852048133485 ], [ -39.031096365804615, -4.463840045581605 ], [ -39.034741050958701, -4.47725556169479 ], [ -39.015479679843281, -4.50489477777171 ], [ -38.998180304777179, -4.484533015985846 ] ] } }
]
}
