{
"type": "FeatureCollection",
"features": [
{ "type": "Feature", "properties": { "Name": "JATI", "Description": "JATI \/ CE" }, "geometry": { "type": "LineString", "coordinates": [ [ -38.894810597431103, -7.750453543096511 ], [ -38.939578060179315, -7.758772627254871 ], [ -38.939798251088348, -7.791555719021175 ], [ -38.966018745268855, -7.845625060348198 ], [ -38.957789640979115, -7.816741613334727 ], [ -38.970848584894213, -7.774682943662867 ], [ -39.008038941044269, -7.77819535922839 ], [ -39.059351308116334, -7.750610982011153 ], [ -39.069360581725448, -7.732300981205299 ], [ -39.117464412352717, -7.684368484917569 ], [ -39.073422464175337, -7.626575277626898 ], [ -39.047356737023733, -7.641295582325199 ], [ -39.02782117160973, -7.633807114706542 ], [ -38.964386116026382, -7.607053330646635 ], [ -38.948527703990287, -7.614894965630127 ], [ -38.892043229711248, -7.611584997349723 ], [ -38.894810597431103, -7.750453543096511 ] ] } }
]
}
