{
"type": "FeatureCollection",
"features": [
{ "type": "Feature", "properties": { "Name": "MARTINÃPOLE", "Description": "MARTINÃPOLE \/ CE" }, "geometry": { "type": "LineString", "coordinates": [ [ -40.529085597422352, -3.239232828731986 ], [ -40.539427175024059, -3.243587862289985 ], [ -40.669541542807906, -3.247643212963851 ], [ -40.692450828542853, -3.242475284007128 ], [ -40.709116034977001, -3.213467050663837 ], [ -40.727583275947381, -3.130090679840976 ], [ -40.75104151685246, -3.050780580159596 ], [ -40.686310819688515, -3.080353366514601 ], [ -40.57354624206539, -3.136436705389599 ], [ -40.575120595239241, -3.166443811232853 ], [ -40.557646722018539, -3.174698797111773 ], [ -40.529085597422352, -3.239232828731986 ] ] } }
]
}
