{
"type": "FeatureCollection",
"features": [
{ "type": "Feature", "properties": { "Name": "MORAÃJO", "Description": "MORAÃJO \/ CE" }, "geometry": { "type": "LineString", "coordinates": [ [ -40.561734078664749, -3.406917453277799 ], [ -40.570121209126455, -3.439081465237393 ], [ -40.536961548736429, -3.448162202323715 ], [ -40.556909095378387, -3.483646358392662 ], [ -40.534360163490703, -3.502849679169287 ], [ -40.541584817685127, -3.523102268654724 ], [ -40.557305143317649, -3.539077501725273 ], [ -40.55935802665158, -3.531491581771036 ], [ -40.647923751879603, -3.531224829362316 ], [ -40.671327939033119, -3.512668340571395 ], [ -40.707090625931578, -3.522259165028402 ], [ -40.762085652031146, -3.505198936781483 ], [ -40.857198831161099, -3.536253590930414 ], [ -40.831857900921364, -3.500087816199709 ], [ -40.821698526865468, -3.471377502169958 ], [ -40.849414767177734, -3.419751650318346 ], [ -40.813828216998559, -3.426594472157091 ], [ -40.771877058579321, -3.422422502796223 ], [ -40.737174655286083, -3.43809280813656 ], [ -40.723274894720589, -3.405065009042858 ], [ -40.682014572114781, -3.390469772162191 ], [ -40.663092149183285, -3.361476680704186 ], [ -40.635802811650422, -3.356502192322296 ], [ -40.601757954865661, -3.368824104049111 ], [ -40.630132069039689, -3.39209143597094 ], [ -40.599569613846541, -3.412656057830759 ], [ -40.561734078664749, -3.406917453277799 ] ] } }
]
}
