{
"type": "FeatureCollection",
"features": [
{ "type": "Feature", "properties": { "Name": "PACOTI", "Description": "PACOTI \/ CE" }, "geometry": { "type": "LineString", "coordinates": [ [ -38.855970344155992, -4.177355621764491 ], [ -38.84970233569419, -4.23014961381358 ], [ -38.873517620941413, -4.244366159670506 ], [ -38.892229455025301, -4.27838026143985 ], [ -38.905013860201443, -4.250160201132302 ], [ -38.939311513715325, -4.236599200792455 ], [ -38.935001894122081, -4.21499526392023 ], [ -38.952037053766958, -4.182682590429181 ], [ -38.961926007079512, -4.167909083637255 ], [ -38.947978776699131, -4.131459707699321 ], [ -38.944241204168172, -4.148808570658957 ], [ -38.897567443982325, -4.146366157671991 ], [ -38.881131213035019, -4.173051936797378 ], [ -38.855970344155992, -4.177355621764491 ] ] } }
]
}
