{
"type": "FeatureCollection",
"features": [
{ "type": "Feature", "properties": { "Name": "PACUJÃ", "Description": "PACUJÃ \/ CE" }, "geometry": { "type": "LineString", "coordinates": [ [ -40.655120821168907, -4.008891347057954 ], [ -40.682550023065062, -4.057564712941087 ], [ -40.712248501367185, -4.061877388430673 ], [ -40.731284889985659, -3.967098029550356 ], [ -40.677337089335133, -3.954423624950266 ], [ -40.665689214085944, -3.939155616938137 ], [ -40.647223275333829, -3.977274463745459 ], [ -40.655120821168907, -4.008891347057954 ] ] } }
]
}
