{
"type": "FeatureCollection",
"features": [
{ "type": "Feature", "properties": { "Name": "PIRES FERREIRA", "Description": "PIRES FERREIRA \/ CE" }, "geometry": { "type": "LineString", "coordinates": [ [ -40.450084411266516, -4.207964735584027 ], [ -40.439904572238163, -4.253177645132155 ], [ -40.448432834207892, -4.258685418896903 ], [ -40.47858045462425, -4.293806022230115 ], [ -40.568748236641738, -4.314072365047537 ], [ -40.647469697668384, -4.295996347153675 ], [ -40.664108196935672, -4.308815772829632 ], [ -40.693593937010519, -4.268428656856997 ], [ -40.695377612786551, -4.227995813955602 ], [ -40.682300891073218, -4.212100748250862 ], [ -40.609271559434887, -4.207699008402471 ], [ -40.58935765732997, -4.200997866658156 ], [ -40.557550924435589, -4.209096323736333 ], [ -40.527271843820465, -4.254113780026898 ], [ -40.491418176107913, -4.24586311808838 ], [ -40.450084411266516, -4.207964735584027 ] ] } }
]
}
