{
"type": "FeatureCollection",
"features": [
{ "type": "Feature", "properties": { "Name": "POTIRETAMA", "Description": "POTIRETAMA \/ CE" }, "geometry": { "type": "LineString", "coordinates": [ [ -38.082840425645088, -5.672440691584598 ], [ -38.089693908946685, -5.714846439311657 ], [ -38.0468841839579, -5.732942048936366 ], [ -38.061509222572511, -5.762053266345106 ], [ -38.100493403347855, -5.804529784421959 ], [ -38.118864317034536, -5.832834774904882 ], [ -38.122515430542649, -5.881740146990126 ], [ -38.15929806735187, -5.924575875875917 ], [ -38.146334353547559, -5.890233564727168 ], [ -38.150295582075387, -5.860832993148051 ], [ -38.185501605714471, -5.843347876603161 ], [ -38.227277601380138, -5.833767897070743 ], [ -38.245265419163722, -5.798082855839084 ], [ -38.266660688140178, -5.697526438294459 ], [ -38.267220162680303, -5.677867193616066 ], [ -38.248768621174861, -5.647123927027565 ], [ -38.195881110424864, -5.634988415982548 ], [ -38.148539991227551, -5.659174581641594 ], [ -38.139336179221232, -5.67511987718052 ], [ -38.082840425645088, -5.672440691584598 ] ] } }
]
}
