{
"type": "FeatureCollection",
"features": [
{ "type": "Feature", "properties": { "Name": "QUIXADÃ", "Description": "QUIXADÃ \/ CE" }, "geometry": { "type": "LineString", "coordinates": [ [ -38.978679061989055, -4.668771775297159 ], [ -38.949573184754627, -4.682862201129637 ], [ -38.965515223848456, -4.704371950205314 ], [ -38.943906121270459, -4.740212382595359 ], [ -38.924485747319352, -4.739768241610988 ], [ -38.88376106272284, -4.709286140842664 ], [ -38.87428959808642, -4.679658419400482 ], [ -38.801689572215935, -4.741093219976051 ], [ -38.859966877369459, -4.829080460794557 ], [ -38.876956117630698, -4.848062212001423 ], [ -38.921981976287157, -4.826317670623951 ], [ -38.918866212105968, -4.850900410325607 ], [ -38.891021053079101, -4.893683215008309 ], [ -38.877272191558347, -4.933985514120138 ], [ -38.702579902140712, -4.902700144296148 ], [ -38.648711613250327, -4.937990005434358 ], [ -38.647350394005457, -4.979837505296587 ], [ -38.673387931008158, -5.000443629070162 ], [ -38.676718903854294, -5.028221294876801 ], [ -38.667259153786858, -5.04695648975013 ], [ -38.635657999616967, -5.053014082034224 ], [ -38.626544663005745, -5.066288082628886 ], [ -38.618411975032586, -5.118914379894647 ], [ -38.650920094586638, -5.121721301596722 ], [ -38.697295474106795, -5.094928250438385 ], [ -38.745278007773777, -5.094923645909489 ], [ -38.76237554079853, -5.079605192225813 ], [ -38.793385413206238, -5.078450631791156 ], [ -38.812106432066116, -5.065550705100918 ], [ -38.901654711595597, -5.164865906236514 ], [ -38.954691129392074, -5.154082469230502 ], [ -38.972387109077772, -5.143398138413318 ], [ -39.000358398920923, -5.164257227089308 ], [ -39.034026866946306, -5.162830060558804 ], [ -39.059226431854313, -5.150182506117743 ], [ -39.085432440654586, -5.158037220841038 ], [ -39.147801223147894, -5.145031732628297 ], [ -39.169222133594531, -5.131877145813576 ], [ -39.152698650422337, -5.071858118257524 ], [ -39.191446313996153, -5.028204488346432 ], [ -39.197699723763208, -5.009223482677555 ], [ -39.230056566557266, -5.004285341295429 ], [ -39.225334671657713, -4.961545380314988 ], [ -39.185143758977233, -4.957566938763193 ], [ -39.139869359183535, -4.879842438277876 ], [ -39.122641956860775, -4.863663145437783 ], [ -39.122171014280866, -4.841524290913242 ], [ -39.078215723876497, -4.82767956615902 ], [ -39.055749600663489, -4.78835526898041 ], [ -39.072517012350204, -4.771236198991346 ], [ -39.103357910239311, -4.761631450331095 ], [ -39.072997006606499, -4.726648135702874 ], [ -39.042834932286269, -4.715739585013807 ], [ -39.03410943190471, -4.668068125043874 ], [ -38.978679061989055, -4.668771775297159 ] ] } }
]
}
