{
"type": "FeatureCollection",
"features": [
{ "type": "Feature", "properties": { "Name": "QUIXELÃ", "Description": "QUIXELÃ \/ CE" }, "geometry": { "type": "LineString", "coordinates": [ [ -38.977941465925873, -6.10598215565193 ], [ -38.969195396250477, -6.122703929442764 ], [ -38.986552705642794, -6.156907866404879 ], [ -39.003637978210058, -6.220322644074713 ], [ -39.05670464470353, -6.259098370993001 ], [ -39.064941863576109, -6.238659873654171 ], [ -39.090327137587281, -6.23887422166797 ], [ -39.122698785020873, -6.266824009620279 ], [ -39.146556788964574, -6.257367094215965 ], [ -39.182444825168488, -6.260537767404003 ], [ -39.244302195589796, -6.275055148176477 ], [ -39.286640445600028, -6.279287623025311 ], [ -39.303066254304156, -6.259034913030746 ], [ -39.281055377803398, -6.209882007048918 ], [ -39.277497801882021, -6.171991081722979 ], [ -39.308077470998455, -6.174844805942996 ], [ -39.260056806076705, -6.127837133776665 ], [ -39.142495688924839, -6.153882329405917 ], [ -39.078188236098185, -6.113195104270573 ], [ -39.091722216307176, -6.084267186681245 ], [ -39.052293834292982, -6.025870976764111 ], [ -39.034026241917502, -6.007558551386012 ], [ -39.01114909075789, -6.007371521178698 ], [ -38.986878876259084, -6.028806223628293 ], [ -38.990025524058638, -6.07665730698909 ], [ -38.977941465925873, -6.10598215565193 ] ] } }
]
}
