{
"type": "FeatureCollection",
"features": [
{ "type": "Feature", "properties": { "Name": "SOLONÃPOLE", "Description": "SOLONÃPOLE \/ CE" }, "geometry": { "type": "LineString", "coordinates": [ [ -38.911416073592868, -5.455792572669054 ], [ -38.90194867389215, -5.469828653369632 ], [ -38.909803248321225, -5.595604303995401 ], [ -38.885480559280325, -5.650520125003709 ], [ -38.80439362316713, -5.787660745746791 ], [ -38.837047642434698, -5.813465034583658 ], [ -38.870102530007728, -5.859739941844794 ], [ -38.920161356361461, -5.949936964419351 ], [ -38.947943971137306, -5.971670755301091 ], [ -38.96221901519533, -6.019077151789077 ], [ -38.972223555672485, -6.103027069743405 ], [ -38.977941465925873, -6.10598215565193 ], [ -38.990025524058638, -6.07665730698909 ], [ -38.986878876259084, -6.028806223628293 ], [ -39.01114909075789, -6.007371521178698 ], [ -39.034026241917502, -6.007558551386012 ], [ -39.052293834292982, -6.025870976764111 ], [ -39.060725879595623, -5.997937357722832 ], [ -39.113000575216347, -5.977380822566886 ], [ -39.130985388364934, -5.983855363034535 ], [ -39.161389141995237, -5.955748801665834 ], [ -39.17147300807283, -5.961740804594399 ], [ -39.179985100232159, -5.918298706020437 ], [ -39.173357085960731, -5.863416881184093 ], [ -39.182699507776022, -5.8594558972718 ], [ -39.163134910447695, -5.797703475934611 ], [ -39.032404852401953, -5.501084030803327 ], [ -39.031048201713077, -5.486191943903066 ], [ -39.009645930615136, -5.511481755778334 ], [ -38.97850585166367, -5.521751371428593 ], [ -38.953099050580704, -5.507256033938745 ], [ -38.911416073592868, -5.455792572669054 ] ] } }
]
}
