{
"type": "FeatureCollection",
"features": [
{ "type": "Feature", "properties": { "Name": "AMARANTE", "Description": "AMARANTE \/ PI" }, "geometry": { "type": "LineString", "coordinates": [ [ -42.71962064847412, -6.215032511641027 ], [ -42.714559054456743, -6.263017207278266 ], [ -42.669692035858702, -6.290269155497072 ], [ -42.593289699759794, -6.490556588315826 ], [ -42.653136201374537, -6.504869277095395 ], [ -42.791117642365236, -6.521794642109001 ], [ -42.841451347401744, -6.705632525020973 ], [ -42.856937652350723, -6.662281908183445 ], [ -42.915393695062953, -6.646069652492429 ], [ -42.883916130225195, -6.568880948297077 ], [ -42.886945074755374, -6.506957054124712 ], [ -42.867608611148455, -6.485960645267539 ], [ -42.877753651809542, -6.417867613199746 ], [ -42.849282935159295, -6.35488923425072 ], [ -42.847002471187068, -6.282493587409078 ], [ -42.877193622387722, -6.225793254255223 ], [ -42.96858599504759, -6.178251737327741 ], [ -42.979383874266318, -6.138148655136263 ], [ -42.793380083024374, -6.100121371903754 ], [ -42.801120507405471, -6.146927538375166 ], [ -42.788425709778664, -6.202508869388737 ], [ -42.726318819757694, -6.175119107260969 ], [ -42.71962064847412, -6.215032511641027 ] ] } }
]
}
