{
"type": "FeatureCollection",
"features": [
{ "type": "Feature", "properties": { "Name": "BARREIRAS DO PIAUÃ", "Description": "BARREIRAS DO PIAUÃ \/ PI" }, "geometry": { "type": "LineString", "coordinates": [ [ -45.37906771010671, -9.980748806212375 ], [ -45.549892973182125, -9.974242398268018 ], [ -45.557628260635681, -10.012855419841685 ], [ -45.529139767985832, -10.05287361142797 ], [ -45.502448913086823, -10.149485454989701 ], [ -45.544695732621896, -10.174592320479178 ], [ -45.556570394408141, -10.216901311046627 ], [ -45.567456406288102, -10.139522509056519 ], [ -45.603176093901595, -10.107982176036558 ], [ -45.690175947461967, -10.155400439078958 ], [ -45.726639163966183, -10.156854762437263 ], [ -45.744025150939933, -10.239955931720827 ], [ -45.793743308706667, -10.26767280065917 ], [ -45.877859458247372, -10.239336113570744 ], [ -45.945203534915152, -10.259001346834623 ], [ -45.945619010908558, -10.196442471043156 ], [ -45.90002134710744, -10.152768622573831 ], [ -45.878543917867489, -10.110299337744209 ], [ -45.880107114951329, -10.061006338071991 ], [ -45.842515234890129, -9.939469706661612 ], [ -45.864430463095339, -9.8614677104664 ], [ -45.821420602978378, -9.773127065761457 ], [ -45.829165947550393, -9.680132337737176 ], [ -45.806203881503905, -9.688210782201793 ], [ -45.665256607706219, -9.802754404092411 ], [ -45.557201656431232, -9.739358790975357 ], [ -45.548787950103758, -9.767855874848692 ], [ -45.492988316757362, -9.838875489712052 ], [ -45.446349123812979, -9.864854250623125 ], [ -45.388714654957312, -9.929242767439746 ], [ -45.37906771010671, -9.980748806212375 ] ] } }
]
}
