{
"type": "FeatureCollection",
"features": [
{ "type": "Feature", "properties": { "Name": "BELA VISTA DO PIAUÃ", "Description": "BELA VISTA DO PIAUÃ \/ PI" }, "geometry": { "type": "LineString", "coordinates": [ [ -41.73552554216996, -7.998721403370042 ], [ -41.715226061133762, -8.055752251764943 ], [ -41.693223876580589, -8.06895356285662 ], [ -41.739951346077696, -8.088438633136377 ], [ -41.7772872098368, -8.116906817295728 ], [ -41.839958908276969, -8.118765251015475 ], [ -41.85654737016494, -8.065504877747856 ], [ -41.902485700754426, -8.013590830052692 ], [ -41.948209960321378, -8.013073823298271 ], [ -42.031865829644289, -7.975397887202689 ], [ -42.021779076742966, -7.936540683505712 ], [ -42.024027176812695, -7.908819366520504 ], [ -41.938339479083652, -7.904476975631894 ], [ -41.913567558895693, -7.875578110641243 ], [ -41.880322488092304, -7.895631878008714 ], [ -41.856074660417214, -7.939388777969668 ], [ -41.775038512617243, -7.933594331812913 ], [ -41.730412495240444, -7.960619598715481 ], [ -41.73552554216996, -7.998721403370042 ] ] } }
]
}
