{
"type": "FeatureCollection",
"features": [
{ "type": "Feature", "properties": { "Name": "BOA HORA", "Description": "BOA HORA \/ PI" }, "geometry": { "type": "LineString", "coordinates": [ [ -42.000522541681903, -4.272416486431666 ], [ -42.000484144227812, -4.344123263377867 ], [ -42.027149284811628, -4.354307960543906 ], [ -42.079281410009003, -4.374223505710177 ], [ -42.060988516107102, -4.434006048440324 ], [ -42.150806036469362, -4.482381587640134 ], [ -42.176718200784308, -4.400866454623156 ], [ -42.195854483397625, -4.380948865297853 ], [ -42.175217692742308, -4.373938146328328 ], [ -42.19356278419508, -4.301267914882317 ], [ -42.178554180231174, -4.269611307615719 ], [ -42.122503158493934, -4.265627140080426 ], [ -42.000522541681903, -4.272416486431666 ] ] } }
]
}
