{
"type": "FeatureCollection",
"features": [
{ "type": "Feature", "properties": { "Name": "CABECEIRAS DO PIAUÃ", "Description": "CABECEIRAS DO PIAUÃ \/ PI" }, "geometry": { "type": "LineString", "coordinates": [ [ -42.195854483397625, -4.380948865297853 ], [ -42.176718200784308, -4.400866454623156 ], [ -42.150806036469362, -4.482381587640134 ], [ -42.250853825343711, -4.535194520310824 ], [ -42.277581458017835, -4.548984477251793 ], [ -42.29575004942518, -4.551067203688433 ], [ -42.43539115058109, -4.477591456680329 ], [ -42.546231095388691, -4.362433650892228 ], [ -42.557158625370221, -4.366895933100806 ], [ -42.548015620124715, -4.345047433692059 ], [ -42.447861522391293, -4.334427023088608 ], [ -42.195854483397625, -4.380948865297853 ] ] } }
]
}
