{
"type": "FeatureCollection",
"features": [
{ "type": "Feature", "properties": { "Name": "CANAVIEIRA", "Description": "CANAVIEIRA \/ PI" }, "geometry": { "type": "LineString", "coordinates": [ [ -43.324943689499598, -7.404010885893626 ], [ -43.473470959417227, -7.554093556672227 ], [ -43.507286186907947, -7.679548569310953 ], [ -43.303865834440671, -7.711516736807936 ], [ -43.537500804118793, -7.92270076742642 ], [ -43.549950514004991, -7.883049467758667 ], [ -43.76474472638796, -7.723697427993841 ], [ -43.701776918969585, -7.644403064649679 ], [ -43.753716507410843, -7.574189700094563 ], [ -43.740546176165083, -7.516490357743749 ], [ -43.663076442823524, -7.435217955344341 ], [ -43.692400381372458, -7.327330685362768 ], [ -43.784328916346396, -7.36586386242726 ], [ -43.732539220608487, -7.300575135034421 ], [ -43.717889297752833, -7.263542492092312 ], [ -43.66923848866525, -7.245505220589393 ], [ -43.583792016987957, -7.261216838985888 ], [ -43.518440517815577, -7.284196305115359 ], [ -43.393017616369832, -7.283227556306655 ], [ -43.403794531492395, -7.353138905136291 ], [ -43.324943689499598, -7.404010885893626 ] ] } }
]
}
