{
"type": "FeatureCollection",
"features": [
{ "type": "Feature", "properties": { "Name": "CASTELO DO PIAUÃ", "Description": "CASTELO DO PIAUÃ \/ PI" }, "geometry": { "type": "LineString", "coordinates": [ [ -41.225190221251694, -5.426148703899514 ], [ -41.277569578173427, -5.428953463631387 ], [ -41.737382795979215, -5.568415665350642 ], [ -41.760095647296225, -5.558875296457699 ], [ -41.698561167663733, -5.482236600538613 ], [ -41.724602640099704, -5.42156620301779 ], [ -41.791597300475019, -5.398803052618746 ], [ -41.844215234045748, -5.352176875562293 ], [ -41.861773577888243, -5.360723365890578 ], [ -41.849876457332584, -5.338080598740589 ], [ -41.798977028367119, -5.321713590409842 ], [ -41.800807560620399, -5.194145334639416 ], [ -41.733932793363685, -5.038191788819972 ], [ -41.722353157771977, -5.17529275845402 ], [ -41.694075230587366, -5.176091450859701 ], [ -41.619407248745517, -5.119469759821527 ], [ -41.598965544424289, -5.080688724205231 ], [ -41.510772269824372, -5.05964295605753 ], [ -41.497942116135732, -5.013981835193476 ], [ -41.475791585713068, -5.035212365458278 ], [ -41.482002730041927, -5.178388795106741 ], [ -41.431529711926601, -5.20938001827318 ], [ -41.437002994892282, -5.284998302929296 ], [ -41.401104487881753, -5.259623460154501 ], [ -41.350403989852225, -5.27862114554938 ], [ -41.301915781787841, -5.324688147539915 ], [ -41.288541983425766, -5.361885918600194 ], [ -41.225190221251694, -5.426148703899514 ] ] } }
]
}
