{
"type": "FeatureCollection",
"features": [
{ "type": "Feature", "properties": { "Name": "CAXINGÃ", "Description": "CAXINGÃ \/ PI" }, "geometry": { "type": "LineString", "coordinates": [ [ -41.746567296843239, -3.46335584809384 ], [ -41.82101322078347, -3.455696596520681 ], [ -41.885926929983775, -3.476200811817989 ], [ -41.913254035445327, -3.528332436093024 ], [ -41.974768640060631, -3.507028363767915 ], [ -41.976446619415924, -3.450307317428724 ], [ -41.925542540056142, -3.467715871090547 ], [ -41.915882131455135, -3.412324771870658 ], [ -41.952351492127605, -3.393282282251505 ], [ -42.004341071183433, -3.338090042921124 ], [ -41.927456363920037, -3.326422728825833 ], [ -41.882774762145509, -3.333832582207833 ], [ -41.841194404997736, -3.265812008517344 ], [ -41.797306238192277, -3.253561440008411 ], [ -41.731189377287876, -3.334175166350803 ], [ -41.746567296843239, -3.46335584809384 ] ] } }
]
}
