{
"type": "FeatureCollection",
"features": [
{ "type": "Feature", "properties": { "Name": "CORONEL JOSÃ DIAS", "Description": "CORONEL JOSÃ DIAS \/ PI" }, "geometry": { "type": "LineString", "coordinates": [ [ -42.210062347199539, -8.649191070311588 ], [ -42.129454472745692, -8.728416154381987 ], [ -42.202182233823009, -8.832020955302822 ], [ -42.235528563792116, -8.863139495491282 ], [ -42.236876908342595, -8.927250160466485 ], [ -42.224913806327038, -9.012581425392398 ], [ -42.179630183086431, -9.133736020301058 ], [ -42.142474075817915, -9.152960417589156 ], [ -42.069218726562951, -9.257541353450675 ], [ -42.134526094203864, -9.287212565207653 ], [ -42.226053963219783, -9.283298870346528 ], [ -42.208206681593026, -9.19429797936823 ], [ -42.262022284600732, -9.182473737173211 ], [ -42.3291851829498, -9.185050731905733 ], [ -42.369086879955489, -9.145772368499932 ], [ -42.368350793853999, -9.088118766567788 ], [ -42.337340002339204, -9.034313838512787 ], [ -42.322346021351727, -8.995957270311749 ], [ -42.367151091049948, -8.908881013947564 ], [ -42.403514492699621, -8.953311140996332 ], [ -42.490220858805564, -8.930028612330545 ], [ -42.522376759779604, -8.907309105131048 ], [ -42.573967626204933, -8.907417058850115 ], [ -42.603906482498132, -8.728818752983045 ], [ -42.475154350193066, -8.657313815380235 ], [ -42.310745109599104, -8.662576978045079 ], [ -42.29144080664787, -8.630105106565395 ], [ -42.210062347199539, -8.649191070311588 ] ] } }
]
}
