{
"type": "FeatureCollection",
"features": [
{ "type": "Feature", "properties": { "Name": "CORRENTE", "Description": "CORRENTE \/ PI" }, "geometry": { "type": "LineString", "coordinates": [ [ -44.806316100907274, -10.428653285120959 ], [ -44.89078831992498, -10.508974632872935 ], [ -44.965118500218573, -10.615943878507153 ], [ -45.028881418942255, -10.615255138114094 ], [ -45.023918641532013, -10.655042707554855 ], [ -45.191131781206707, -10.589802137058937 ], [ -45.304402351587214, -10.607183201143755 ], [ -45.414451201461759, -10.645116311868264 ], [ -45.437328173656226, -10.615566336816924 ], [ -45.44741116199549, -10.509355227761489 ], [ -45.400268857721585, -10.463074349001943 ], [ -45.428806003694092, -10.41385743557214 ], [ -45.430322518769174, -10.359463019902421 ], [ -45.490690990496766, -10.301020695448699 ], [ -45.38845774472906, -10.244654200530874 ], [ -45.285726528156715, -10.20161639398134 ], [ -45.192218510276007, -10.144634900380311 ], [ -45.106151011759714, -10.138418646103617 ], [ -45.000751015646806, -10.13078000519306 ], [ -44.794368093112951, -10.328169758527508 ], [ -44.831413177276254, -10.340550299756501 ], [ -44.799565696999252, -10.406140294638817 ], [ -44.806316100907274, -10.428653285120959 ] ] } }
]
}
