{
"type": "FeatureCollection",
"features": [
{ "type": "Feature", "properties": { "Name": "CURRAL NOVO DO PIAUÃ", "Description": "CURRAL NOVO DO PIAUÃ \/ PI" }, "geometry": { "type": "LineString", "coordinates": [ [ -40.543645575482856, -7.95843253113634 ], [ -40.575749144007773, -8.030384979483188 ], [ -40.624262551075844, -8.035706390337621 ], [ -40.705657927671155, -8.025455975213049 ], [ -40.793047144510069, -7.97873334406853 ], [ -40.828039964073014, -7.934018453888483 ], [ -40.908029153522591, -7.902961785258127 ], [ -40.952004827061103, -7.826359001066975 ], [ -40.951479451215675, -7.824962900717253 ], [ -40.9012879092096, -7.733719118542466 ], [ -40.853121073878413, -7.730589950865522 ], [ -40.807269847125724, -7.766689149684453 ], [ -40.671901078771725, -7.792396636395607 ], [ -40.70295759092005, -7.895625580955765 ], [ -40.650368769303213, -7.939629308845496 ], [ -40.543645575482856, -7.95843253113634 ] ] } }
]
}
