{
"type": "FeatureCollection",
"features": [
{ "type": "Feature", "properties": { "Name": "DOM INOCÃNCIO", "Description": "DOM INOCÃNCIO \/ PI" }, "geometry": { "type": "LineString", "coordinates": [ [ -41.737431996089697, -8.732908448765841 ], [ -41.659078012440261, -8.751455750082755 ], [ -41.601394171703646, -8.795340133440334 ], [ -41.547345203618192, -8.779951608180111 ], [ -41.514263986593676, -8.790946348994737 ], [ -41.455136856280831, -8.756458287420001 ], [ -41.411391213133925, -8.774368228410992 ], [ -41.472184052452008, -8.843114457865909 ], [ -41.48784338156679, -8.843903399822011 ], [ -41.541410138567016, -8.933556715669852 ], [ -41.545795871382325, -8.961675944888894 ], [ -41.605794728943522, -8.95740387738698 ], [ -41.633405214379081, -8.986007330373921 ], [ -41.669403857302143, -8.990079081983993 ], [ -41.730821757817807, -9.02795720366197 ], [ -41.732659031389119, -9.087725361736034 ], [ -41.800070338675141, -9.148026601046752 ], [ -41.837965768705203, -9.242272044119488 ], [ -41.870520574764669, -9.237431429716649 ], [ -41.921629357808563, -9.278760170045757 ], [ -41.972266227004752, -9.24863813624097 ], [ -42.069218726562951, -9.257541353450675 ], [ -42.142474075817915, -9.152960417589156 ], [ -42.179630183086431, -9.133736020301058 ], [ -42.224913806327038, -9.012581425392398 ], [ -42.236876908342595, -8.927250160466485 ], [ -42.235528563792116, -8.863139495491282 ], [ -42.202182233823009, -8.832020955302822 ], [ -42.129454472745692, -8.728416154381987 ], [ -42.210062347199539, -8.649191070311588 ], [ -42.189407669028633, -8.583977196190631 ], [ -42.15878683434488, -8.590263877276072 ], [ -42.125706640748831, -8.566573474586164 ], [ -42.024036427239309, -8.586515274560213 ], [ -41.968875584140839, -8.635770294963095 ], [ -41.911460685662064, -8.652926265934354 ], [ -41.841194891530961, -8.702239285414635 ], [ -41.795370264925737, -8.694440978868045 ], [ -41.737431996089697, -8.732908448765841 ] ] } }
]
}
