{
"type": "FeatureCollection",
"features": [
{ "type": "Feature", "properties": { "Name": "DOM EXPEDITO LOPES", "Description": "DOM EXPEDITO LOPES \/ PI" }, "geometry": { "type": "LineString", "coordinates": [ [ -41.613881823087638, -6.907188010018614 ], [ -41.629611489078911, -6.988597229878224 ], [ -41.615389144393475, -7.033566213609845 ], [ -41.661595739152006, -7.031094626615698 ], [ -41.714942283659411, -7.000314582252145 ], [ -41.731577959055528, -7.01691095997279 ], [ -41.80838643708438, -6.928969702389792 ], [ -41.70305006980481, -6.901046341015785 ], [ -41.613881823087638, -6.907188010018614 ] ] } }
]
}
