{
"type": "FeatureCollection",
"features": [
{ "type": "Feature", "properties": { "Name": "ELISEU MARTINS", "Description": "ELISEU MARTINS \/ PI" }, "geometry": { "type": "LineString", "coordinates": [ [ -43.76474472638796, -7.723697427993841 ], [ -43.549950514004991, -7.883049467758667 ], [ -43.537500804118793, -7.92270076742642 ], [ -43.493039842914357, -8.064131186704856 ], [ -43.492269255221913, -8.120573873985052 ], [ -43.518745190138361, -8.14779103912508 ], [ -43.723851552906808, -8.157236778654351 ], [ -43.733547296770261, -8.043917623299649 ], [ -43.795953408323101, -8.068322152445319 ], [ -43.791089416943009, -7.982212397484091 ], [ -43.794994873114888, -7.915704991592065 ], [ -43.781066979057812, -7.823682048487683 ], [ -43.796715923700901, -7.763787547357367 ], [ -43.76474472638796, -7.723697427993841 ] ] } }
]
}
