{
"type": "FeatureCollection",
"features": [
{ "type": "Feature", "properties": { "Name": "ESPERANTINA", "Description": "ESPERANTINA \/ PI" }, "geometry": { "type": "LineString", "coordinates": [ [ -42.050329907699052, -3.680265004226498 ], [ -42.050344645788755, -3.792149545764858 ], [ -41.994800486453236, -3.800813285204924 ], [ -41.977413191865246, -3.856238328436064 ], [ -42.041886860989791, -3.875753674392513 ], [ -42.07482636914159, -3.919048545853685 ], [ -42.144665675080773, -3.905402349139081 ], [ -42.244994122580636, -3.928436405915363 ], [ -42.277526370945225, -3.97923950130189 ], [ -42.308721205119468, -3.998147363310124 ], [ -42.362888711045109, -3.975155302175381 ], [ -42.388623490381747, -3.986670307988277 ], [ -42.399105980956222, -3.898429811786343 ], [ -42.376273480236875, -3.876315815422515 ], [ -42.393016487920534, -3.832677853500115 ], [ -42.346721340517426, -3.837405279230211 ], [ -42.293084987681993, -3.785717087273724 ], [ -42.258251087317774, -3.784805899572575 ], [ -42.1906613932087, -3.726763328264951 ], [ -42.158300276836258, -3.606069731233049 ], [ -42.116239380443005, -3.591051704172742 ], [ -42.116477115326575, -3.67302208120401 ], [ -42.050329907699052, -3.680265004226498 ] ] } }
]
}
