{
"type": "FeatureCollection",
"features": [
{ "type": "Feature", "properties": { "Name": "FRANCISCO AYRES", "Description": "FRANCISCO AYRES \/ PI" }, "geometry": { "type": "LineString", "coordinates": [ [ -42.623385625346316, -6.797932488993125 ], [ -42.665873026119243, -6.852190910082413 ], [ -42.79327519869144, -6.774568481750009 ], [ -42.841451347401744, -6.705632525020973 ], [ -42.791117642365236, -6.521794642109001 ], [ -42.653136201374537, -6.504869277095395 ], [ -42.64480112996813, -6.609127238531187 ], [ -42.612360954194628, -6.664210476432287 ], [ -42.647732776846105, -6.761391906511221 ], [ -42.623385625346316, -6.797932488993125 ] ] } }
]
}
