{
"type": "FeatureCollection",
"features": [
{ "type": "Feature", "properties": { "Name": "FRANCISCO SANTOS", "Description": "FRANCISCO SANTOS \/ PI" }, "geometry": { "type": "LineString", "coordinates": [ [ -41.105075936005619, -7.124062286845003 ], [ -41.131379821621408, -7.12111118403385 ], [ -41.14324065093524, -7.206496845353057 ], [ -41.196377487031384, -7.218120554919608 ], [ -41.205033761199104, -7.257842387516121 ], [ -41.264045389782893, -7.225681380191474 ], [ -41.192332388628813, -7.114689369918437 ], [ -41.187357403821061, -6.992696201268643 ], [ -41.158397320180136, -6.864502879804035 ], [ -41.143120056345481, -6.750466461158226 ], [ -41.095359148006253, -6.75669311069845 ], [ -41.080856787710559, -6.997473586137062 ], [ -41.105075936005619, -7.124062286845003 ] ] } }
]
}
