{
"type": "FeatureCollection",
"features": [
{ "type": "Feature", "properties": { "Name": "FRONTEIRAS", "Description": "FRONTEIRAS \/ PI" }, "geometry": { "type": "LineString", "coordinates": [ [ -40.506116505872001, -7.210859654449449 ], [ -40.671242600565506, -7.209706624660952 ], [ -40.710320439436714, -7.135111219007513 ], [ -40.748686504478542, -7.094916193727329 ], [ -40.753726126259664, -7.039109449441469 ], [ -40.791340080180532, -7.001750535159033 ], [ -40.694860749024315, -7.029564791681764 ], [ -40.624431113704873, -6.992699931656489 ], [ -40.58681795028815, -6.950414314469014 ], [ -40.425019973093242, -6.935269772581875 ], [ -40.427717671233495, -7.033881107626995 ], [ -40.489739310021086, -7.118690143435344 ], [ -40.506116505872001, -7.210859654449449 ] ] } }
]
}
