{
"type": "FeatureCollection",
"features": [
{ "type": "Feature", "properties": { "Name": "HUGO NAPOLEÃO", "Description": "HUGO NAPOLEÃO \/ PI" }, "geometry": { "type": "LineString", "coordinates": [ [ -42.393833769312941, -6.137417467641967 ], [ -42.435932707028769, -6.15030730393886 ], [ -42.500401803100715, -6.090684661567821 ], [ -42.501754301619656, -6.059689904065748 ], [ -42.576141720164223, -6.042670963693979 ], [ -42.590488401518485, -6.015564920584552 ], [ -42.579896851058777, -5.947723422597846 ], [ -42.547824667973998, -5.943798009570457 ], [ -42.489772325532329, -5.936688302223331 ], [ -42.500418641107331, -5.977148384690167 ], [ -42.444731241353679, -6.021952656689734 ], [ -42.418051228681236, -6.108950673834499 ], [ -42.393833769312941, -6.137417467641967 ] ] } }
]
}
