{
"type": "FeatureCollection",
"features": [
{ "type": "Feature", "properties": { "Name": "LAGOA DE SÃO FRANCISCO", "Description": "LAGOA DE SÃO FRANCISCO \/ PI" }, "geometry": { "type": "LineString", "coordinates": [ [ -41.561081243504532, -4.31072149380185 ], [ -41.513871973013124, -4.331609010047714 ], [ -41.501895039424483, -4.380293623751697 ], [ -41.521800933965892, -4.407364843312848 ], [ -41.605114140904845, -4.409123713988151 ], [ -41.658889293306174, -4.395128916666124 ], [ -41.668581599960817, -4.347872528894071 ], [ -41.619152630889175, -4.339286620381188 ], [ -41.6077594337508, -4.300585668493738 ], [ -41.561081243504532, -4.31072149380185 ] ] } }
]
}
