{
"type": "FeatureCollection",
"features": [
{ "type": "Feature", "properties": { "Name": "LAGOA ALEGRE", "Description": "LAGOA ALEGRE \/ PI" }, "geometry": { "type": "LineString", "coordinates": [ [ -42.43539115058109, -4.477591456680329 ], [ -42.482069223016197, -4.521353427918314 ], [ -42.541429266047764, -4.547516128966151 ], [ -42.553223243357934, -4.588954957105557 ], [ -42.614285070799326, -4.606306503642201 ], [ -42.68066284751233, -4.542062869405868 ], [ -42.672074593567572, -4.476665557869126 ], [ -42.581603599726293, -4.427052073993991 ], [ -42.586734072819176, -4.396609962479715 ], [ -42.557158625370221, -4.366895933100806 ], [ -42.546231095388691, -4.362433650892228 ], [ -42.43539115058109, -4.477591456680329 ] ] } }
]
}
