{
"type": "FeatureCollection",
"features": [
{ "type": "Feature", "properties": { "Name": "LAGOA DO SÃTIO", "Description": "LAGOA DO SÃTIO \/ PI" }, "geometry": { "type": "LineString", "coordinates": [ [ -41.574706375398875, -6.338960650813362 ], [ -41.562485660784603, -6.38148990513497 ], [ -41.446608130260984, -6.348509250301618 ], [ -41.388785442294306, -6.365700645568267 ], [ -41.406032697151197, -6.435766220934283 ], [ -41.374230276506012, -6.503191416450647 ], [ -41.314724334660298, -6.500296605803669 ], [ -41.293941267475475, -6.557453984313895 ], [ -41.267926181148312, -6.582942652481392 ], [ -41.281908502175611, -6.651130729399597 ], [ -41.426451484048698, -6.565867889391541 ], [ -41.508459469828608, -6.556884575862455 ], [ -41.511097327079938, -6.608252373548169 ], [ -41.689473325033873, -6.531585500970039 ], [ -41.665266750160356, -6.460408984087279 ], [ -41.574706375398875, -6.338960650813362 ] ] } }
]
}
