{
"type": "FeatureCollection",
"features": [
{ "type": "Feature", "properties": { "Name": "MARCOS PARENTE", "Description": "MARCOS PARENTE \/ PI" }, "geometry": { "type": "LineString", "coordinates": [ [ -43.724297893632865, -6.954418187049668 ], [ -43.797096298255497, -7.066366623620752 ], [ -43.760118125451065, -7.093680540524474 ], [ -43.773936614283286, -7.139176741913047 ], [ -43.841494411238045, -7.13514207204895 ], [ -43.880829332107965, -7.198196068693562 ], [ -44.037927290412085, -7.23104144120947 ], [ -44.048306459675359, -7.220426980520699 ], [ -43.981341953568233, -6.990331752308464 ], [ -43.935200958057749, -6.990451713775542 ], [ -43.914633449374151, -6.965598445411899 ], [ -43.818638003840753, -6.933560107412973 ], [ -43.724297893632865, -6.954418187049668 ] ] } }
]
}
