{
"type": "FeatureCollection",
"features": [
{ "type": "Feature", "properties": { "Name": "NAZÃRIA", "Description": "NAZÃRIA \/ PI" }, "geometry": { "type": "LineString", "coordinates": [ [ -42.970666565809324, -5.561703067142787 ], [ -43.005278089012556, -5.541904109187215 ], [ -42.970194897476517, -5.455514516681546 ], [ -42.92303005709141, -5.428055250449403 ], [ -42.912333186127569, -5.39607841978318 ], [ -42.824623083088795, -5.345643723578917 ], [ -42.815037931555253, -5.31418484935125 ], [ -42.75274961140542, -5.354911482778675 ], [ -42.768971240730139, -5.431519176368852 ], [ -42.816197172961097, -5.498297733253764 ], [ -42.848949536691748, -5.525213601226653 ], [ -42.943353574307991, -5.535518866002803 ], [ -42.970666565809324, -5.561703067142787 ] ] } }
]
}
