{
"type": "FeatureCollection",
"features": [
{ "type": "Feature", "properties": { "Name": "PADRE MARCOS", "Description": "PADRE MARCOS \/ PI" }, "geometry": { "type": "LineString", "coordinates": [ [ -40.794286032574291, -7.418873321246735 ], [ -40.804366331041308, -7.484237739180287 ], [ -40.870230144305651, -7.44836909775563 ], [ -40.936315383248314, -7.49736988790994 ], [ -40.931020800969115, -7.440624590452444 ], [ -40.936540058177115, -7.343297464806085 ], [ -40.972234529699733, -7.305295547851188 ], [ -40.872707074172069, -7.261703124899269 ], [ -40.848267507439459, -7.285346673809897 ], [ -40.837234721704988, -7.35970733212764 ], [ -40.796617433247889, -7.391244395212595 ], [ -40.794286032574291, -7.418873321246735 ] ] } }
]
}
