{
"type": "FeatureCollection",
"features": [
{ "type": "Feature", "properties": { "Name": "PAES LANDIM", "Description": "PAES LANDIM \/ PI" }, "geometry": { "type": "LineString", "coordinates": [ [ -42.189218341952881, -7.722415403947708 ], [ -42.160947037375813, -7.7469105712658 ], [ -42.198610894677017, -7.796389189209663 ], [ -42.225442561824707, -7.906016102361206 ], [ -42.338211908552694, -7.948948887880817 ], [ -42.357618576835819, -7.811039225379886 ], [ -42.415812606566476, -7.757152951847218 ], [ -42.355375945543415, -7.72397169513755 ], [ -42.189218341952881, -7.722415403947708 ] ] } }
]
}
