{
"type": "FeatureCollection",
"features": [
{ "type": "Feature", "properties": { "Name": "PEDRO LAURENTINO", "Description": "PEDRO LAURENTINO \/ PI" }, "geometry": { "type": "LineString", "coordinates": [ [ -42.225442561824707, -7.906016102361206 ], [ -42.171886447401562, -7.918520702368482 ], [ -42.128313698018701, -7.958527245036294 ], [ -42.163898927093783, -8.00689493135593 ], [ -42.145106265541699, -8.04908379318249 ], [ -42.165032822906426, -8.095798411367525 ], [ -42.159255220152261, -8.135440975920233 ], [ -42.178610463402087, -8.198146691216778 ], [ -42.137402002000726, -8.20579251591181 ], [ -42.166534874185054, -8.27317880046121 ], [ -42.262981284758439, -8.257530950293074 ], [ -42.246878612358046, -8.219582321766666 ], [ -42.346039572568202, -8.165234402845385 ], [ -42.420370157556704, -8.108216842832974 ], [ -42.44193723931209, -8.065940085766272 ], [ -42.42267856076694, -8.001304794080909 ], [ -42.379280579335216, -7.993126451124795 ], [ -42.338211908552694, -7.948948887880817 ], [ -42.225442561824707, -7.906016102361206 ] ] } }
]
}
