{
"type": "FeatureCollection",
"features": [
{ "type": "Feature", "properties": { "Name": "PORTO ALEGRE DO PIAUÃ", "Description": "PORTO ALEGRE DO PIAUÃ \/ PI" }, "geometry": { "type": "LineString", "coordinates": [ [ -43.930472264283537, -6.771053743235598 ], [ -43.89997779423976, -6.777885885625095 ], [ -43.832525846590499, -6.842679448098011 ], [ -43.899380388993734, -6.900362605349926 ], [ -43.914633449374151, -6.965598445411899 ], [ -43.935200958057749, -6.990451713775542 ], [ -43.981341953568233, -6.990331752308464 ], [ -44.048306459675359, -7.220426980520699 ], [ -44.068991013324535, -7.199266965198262 ], [ -44.150929288156078, -7.116963056599729 ], [ -44.223311285986988, -7.086890003470842 ], [ -44.278997786418643, -7.046000157481217 ], [ -44.259817986510825, -6.997420710497352 ], [ -44.207873896063404, -6.966570886836904 ], [ -44.201426275002575, -6.932515848827336 ], [ -44.140625638562312, -6.865216070964834 ], [ -44.116275572359712, -6.805785861028596 ], [ -44.059062567183666, -6.808437467115368 ], [ -44.053370720182549, -6.768308814500131 ], [ -43.956760394676451, -6.743154355089359 ], [ -43.930472264283537, -6.771053743235598 ] ] } }
]
}
