{
"type": "FeatureCollection",
"features": [
{ "type": "Feature", "properties": { "Name": "SANTANA DO PIAUÃ", "Description": "SANTANA DO PIAUÃ \/ PI" }, "geometry": { "type": "LineString", "coordinates": [ [ -41.60792825448533, -6.839202485606165 ], [ -41.582435097801458, -6.870624613535028 ], [ -41.50958867567681, -6.91165346143805 ], [ -41.442000507717239, -6.912158599839472 ], [ -41.439027825673577, -6.999468590902723 ], [ -41.515306890800332, -6.978660775274534 ], [ -41.547571355233799, -6.936588639154308 ], [ -41.540949191052277, -6.899614728237054 ], [ -41.612627603381156, -6.879295105984283 ], [ -41.60792825448533, -6.839202485606165 ] ] } }
]
}
