{
"type": "FeatureCollection",
"features": [
{ "type": "Feature", "properties": { "Name": "TERESINA", "Description": "TERESINA \/ PI" }, "geometry": { "type": "LineString", "coordinates": [ [ -42.601795348276653, -4.904277731432102 ], [ -42.598972653365195, -5.194312430474213 ], [ -42.601525777392681, -5.251879830589644 ], [ -42.633724319721523, -5.24682645727512 ], [ -42.67909791113965, -5.272705271131315 ], [ -42.748859572311346, -5.339094131988531 ], [ -42.748423808511916, -5.424225101707009 ], [ -42.747823697205831, -5.530497066086695 ], [ -42.748536095164631, -5.540527111337098 ], [ -42.790111138218435, -5.519927821511715 ], [ -42.846683766742387, -5.536075112876119 ], [ -42.861823633054193, -5.561235494322545 ], [ -42.914647624688087, -5.55604486737667 ], [ -42.941792433074284, -5.586602523787406 ], [ -42.970666565809324, -5.561703067142787 ], [ -42.943353574307991, -5.535518866002803 ], [ -42.848949536691748, -5.525213601226653 ], [ -42.816197172961097, -5.498297733253764 ], [ -42.768971240730139, -5.431519176368852 ], [ -42.75274961140542, -5.354911482778675 ], [ -42.815037931555253, -5.31418484935125 ], [ -42.828667376598105, -5.239930071815309 ], [ -42.800118346084787, -5.199481613085936 ], [ -42.802971524416243, -5.150252050691562 ], [ -42.862032010468852, -4.970069520691766 ], [ -42.854111938415201, -4.937496395442224 ], [ -42.89481665086771, -4.886052547487054 ], [ -42.815861832857252, -4.786277830557366 ], [ -42.788612374861145, -4.817611840214227 ], [ -42.731389340445666, -4.823823060985432 ], [ -42.712864891801239, -4.905642015566514 ], [ -42.634099566341881, -4.913228770990941 ], [ -42.601795348276653, -4.904277731432102 ] ] } }
]
}
