{
"type": "FeatureCollection",
"features": [
{ "type": "Feature", "properties": { "Name": "VERA MENDES", "Description": "VERA MENDES \/ PI" }, "geometry": { "type": "LineString", "coordinates": [ [ -41.39897576741771, -7.550563289564137 ], [ -41.397307752550716, -7.57989097738664 ], [ -41.430878499343237, -7.621443353927589 ], [ -41.46953973626978, -7.697814080655234 ], [ -41.512340818773737, -7.673098158553103 ], [ -41.646547858197039, -7.622401081544638 ], [ -41.627945943750262, -7.54719084717982 ], [ -41.546863599575431, -7.519318369447149 ], [ -41.39897576741771, -7.550563289564137 ] ] } }
]
}
