{
"type": "FeatureCollection",
"features": [
{ "type": "Feature", "properties": { "Name": "VILA NOVA DO PIAUÃ", "Description": "VILA NOVA DO PIAUÃ \/ PI" }, "geometry": { "type": "LineString", "coordinates": [ [ -40.972234529699733, -7.305295547851188 ], [ -40.991518046620513, -7.253355132033675 ], [ -40.99758659174779, -7.137316035606488 ], [ -40.959907716667772, -7.107643755454887 ], [ -40.911524848892611, -7.125389496428056 ], [ -40.881593572984968, -7.157318211566178 ], [ -40.863682289306155, -7.175418147829191 ], [ -40.883103508619961, -7.241135798778032 ], [ -40.872707074172069, -7.261703124899269 ], [ -40.972234529699733, -7.305295547851188 ] ] } }
]
}
