{
"type": "FeatureCollection",
"features": [
{ "type": "Feature", "properties": { "Name": "ALTO BELA VISTA", "Description": "ALTO BELA VISTA \/ SC" }, "geometry": { "type": "LineString", "coordinates": [ [ -51.93947857187856, -27.335470729390575 ], [ -51.913824000377247, -27.389679998932763 ], [ -51.882142191408946, -27.425725201556759 ], [ -51.870168443219029, -27.449529308230922 ], [ -51.858181981313351, -27.475094232612719 ], [ -51.902545838219794, -27.491377842313511 ], [ -51.935776898485017, -27.428749090997712 ], [ -51.968778736849174, -27.410651506461818 ], [ -51.983412338808364, -27.375081780799519 ], [ -51.93947857187856, -27.335470729390575 ] ] } }
]
}
