{
"type": "FeatureCollection",
"features": [
{ "type": "Feature", "properties": { "Name": "ASCURRA", "Description": "ASCURRA \/ SC" }, "geometry": { "type": "LineString", "coordinates": [ [ -49.315384871614469, -26.959492319015279 ], [ -49.300137000322252, -26.99684299910507 ], [ -49.31731534103011, -27.020829667255267 ], [ -49.375462999917481, -26.981862998978158 ], [ -49.378087000414716, -27.015099999265484 ], [ -49.445870865348127, -27.01361582830776 ], [ -49.467927324886091, -27.004528982126772 ], [ -49.464619999713193, -26.940009998862308 ], [ -49.434091656704538, -26.915237568758755 ], [ -49.390258016694077, -26.930004472728172 ], [ -49.338241958899232, -26.966209160224537 ], [ -49.315384871614469, -26.959492319015279 ] ] } }
]
}
