{
"type": "FeatureCollection",
"features": [
{ "type": "Feature", "properties": { "Name": "BELA VISTA DO TOLDO", "Description": "BELA VISTA DO TOLDO \/ SC" }, "geometry": { "type": "LineString", "coordinates": [ [ -50.40112399957286, -26.344278999076494 ], [ -50.424641000381826, -26.37601799953103 ], [ -50.419211572855772, -26.412676734043998 ], [ -50.448221999645511, -26.458702999443801 ], [ -50.454439000359514, -26.502388999552636 ], [ -50.40105657829838, -26.561411162794855 ], [ -50.439410999817767, -26.616628999528643 ], [ -50.491812999869971, -26.642510999682827 ], [ -50.515351999894847, -26.637942999469825 ], [ -50.527840404910705, -26.606866854221888 ], [ -50.517049999957464, -26.572300999491461 ], [ -50.539963999938607, -26.521456999341009 ], [ -50.563048999711498, -26.409920999054805 ], [ -50.584142000253053, -26.367014998942974 ], [ -50.554194999699462, -26.315332998818803 ], [ -50.558581912425268, -26.287338162925831 ], [ -50.537411500040662, -26.253733321935215 ], [ -50.462817889434007, -26.228724600359953 ], [ -50.435858999693039, -26.236383999422003 ], [ -50.427632999863015, -26.265643998871383 ], [ -50.402642000328001, -26.284971998958554 ], [ -50.40112399957286, -26.344278999076494 ] ] } }
]
}
