{
"type": "FeatureCollection",
"features": [
{ "type": "Feature", "properties": { "Name": "BOM RETIRO", "Description": "BOM RETIRO \/ SC" }, "geometry": { "type": "LineString", "coordinates": [ [ -49.281862223262976, -27.873560644907794 ], [ -49.300056882419142, -27.901196858148463 ], [ -49.330061870358968, -27.923661784363787 ], [ -49.360780717655928, -27.923778109871819 ], [ -49.412362286889959, -27.952381277773725 ], [ -49.467340164716795, -27.927861259489475 ], [ -49.579176153656533, -27.898524631506518 ], [ -49.607232701927614, -27.90111373111375 ], [ -49.645587975104938, -27.879859335539834 ], [ -49.690974954730336, -27.833663735892628 ], [ -49.754349298880982, -27.851687796354668 ], [ -49.778550779095148, -27.803457244955833 ], [ -49.773842692386324, -27.733754838315065 ], [ -49.805818196552472, -27.705181723058047 ], [ -49.841095822414218, -27.701045977489798 ], [ -49.839307463868295, -27.677802181725269 ], [ -49.81344625693918, -27.686785277618412 ], [ -49.764921182066864, -27.657209744733905 ], [ -49.730107737681919, -27.654854316873184 ], [ -49.651751467056499, -27.642338171369488 ], [ -49.623947388161412, -27.617659004559354 ], [ -49.632945311177139, -27.662270942150197 ], [ -49.580733404423029, -27.629717390644995 ], [ -49.507889885309908, -27.600432097763075 ], [ -49.50425334351695, -27.653159360116319 ], [ -49.468908714565487, -27.686389645165946 ], [ -49.472424562843287, -27.726204126818971 ], [ -49.458831204896171, -27.760455913109862 ], [ -49.430440715866325, -27.7722150866569 ], [ -49.341795236960593, -27.834230519223013 ], [ -49.318926177900721, -27.829635998902173 ], [ -49.281862223262976, -27.873560644907794 ] ] } }
]
}
