{
"type": "FeatureCollection",
"features": [
{ "type": "Feature", "properties": { "Name": "BOM JARDIM DA SERRA", "Description": "BOM JARDIM DA SERRA \/ SC" }, "geometry": { "type": "LineString", "coordinates": [ [ -49.474517494786539, -28.125574559218478 ], [ -49.51001040035964, -28.15695395855829 ], [ -49.535592568342331, -28.21869333882648 ], [ -49.524030009077592, -28.308044322387502 ], [ -49.552022762140723, -28.352618135018872 ], [ -49.550204233138793, -28.402996432939005 ], [ -49.5348022971882, -28.435586725347033 ], [ -49.560481850057272, -28.462586816628232 ], [ -49.568888428358264, -28.504132375408744 ], [ -49.590933997106212, -28.501160059389175 ], [ -49.614652137586063, -28.529295613102022 ], [ -49.649709845932591, -28.546394307151502 ], [ -49.645956629694638, -28.589014910109995 ], [ -49.685061941055721, -28.621082667630954 ], [ -49.703127685993877, -28.628915525231264 ], [ -49.707968335470241, -28.582227199625493 ], [ -49.746720108046532, -28.535391134293377 ], [ -49.72686786166247, -28.518930325773852 ], [ -49.748261537939584, -28.493972536403362 ], [ -49.790926258040315, -28.496420220316846 ], [ -49.816275160770033, -28.469036743550816 ], [ -49.806113644529027, -28.426028714453533 ], [ -49.766201430851311, -28.405712707475399 ], [ -49.809668578242224, -28.370736269962833 ], [ -49.764461285859625, -28.348888447743605 ], [ -49.773147754765027, -28.276417319003997 ], [ -49.726525894454419, -28.227336820138078 ], [ -49.672231180324673, -28.230448754106646 ], [ -49.644452704228847, -28.164449713383533 ], [ -49.577589683017436, -28.149080393145596 ], [ -49.563928864225659, -28.115422210666452 ], [ -49.540533247611222, -28.125752049417486 ], [ -49.474517494786539, -28.125574559218478 ] ] } }
]
}
