{
"type": "FeatureCollection",
"features": [
{ "type": "Feature", "properties": { "Name": "CAMPO ERÃ", "Description": "CAMPO ERÃ \/ SC" }, "geometry": { "type": "LineString", "coordinates": [ [ -52.937659386171674, -26.362207588409433 ], [ -52.963591239344161, -26.407977525442391 ], [ -52.966770374253315, -26.439092006990506 ], [ -53.018513946461432, -26.408128902027158 ], [ -53.043836306600205, -26.444980760553616 ], [ -53.061342735278963, -26.492798089660081 ], [ -53.017599084130381, -26.530990545077543 ], [ -53.123507409439355, -26.573031645593915 ], [ -53.164148246644231, -26.535333382029929 ], [ -53.193029992140396, -26.533329415520086 ], [ -53.222782088922202, -26.57885873624161 ], [ -53.23908207078091, -26.542645919773349 ], [ -53.242892361593192, -26.500270601506994 ], [ -53.230105000345475, -26.470331998822644 ], [ -53.241200000279775, -26.448836999527884 ], [ -53.283308473507191, -26.451859893419282 ], [ -53.264756283475663, -26.392786687355681 ], [ -53.16015424592166, -26.350611669692739 ], [ -53.093227957404274, -26.392022133214823 ], [ -53.046073679556628, -26.381198304058444 ], [ -52.993490687345286, -26.347684105736846 ], [ -52.937659386171674, -26.362207588409433 ] ] } }
]
}
