{
"type": "FeatureCollection",
"features": [
{ "type": "Feature", "properties": { "Name": "CORUPÃ", "Description": "CORUPÃ \/ SC" }, "geometry": { "type": "LineString", "coordinates": [ [ -49.290473986385337, -26.548734917282559 ], [ -49.334911280131443, -26.536254465870854 ], [ -49.37658779279235, -26.488417487477022 ], [ -49.416895355636086, -26.509969871612213 ], [ -49.439942000223084, -26.488557999352167 ], [ -49.456805406444289, -26.481632098142768 ], [ -49.49539104725897, -26.42737221205789 ], [ -49.48434016986289, -26.418844579613619 ], [ -49.447486780690326, -26.404118400543723 ], [ -49.424441941942007, -26.370048974280678 ], [ -49.386086855823692, -26.352277559461754 ], [ -49.330650838165582, -26.381872657097404 ], [ -49.301040256902297, -26.367911845155504 ], [ -49.230467266051448, -26.396647421141548 ], [ -49.20293033166945, -26.383784426010376 ], [ -49.168827009958477, -26.308339156526813 ], [ -49.160721276465715, -26.367515374534889 ], [ -49.18798153352094, -26.39015665600482 ], [ -49.18547766536193, -26.43193464366885 ], [ -49.209733964650695, -26.454207183314793 ], [ -49.211037491486991, -26.487917230595656 ], [ -49.246505162982821, -26.50060524373697 ], [ -49.290473986385337, -26.548734917282559 ] ] } }
]
}
