{
"type": "FeatureCollection",
"features": [
{ "type": "Feature", "properties": { "Name": "ENTRE RIOS", "Description": "ENTRE RIOS \/ SC" }, "geometry": { "type": "LineString", "coordinates": [ [ -52.563531982914633, -26.671455650957455 ], [ -52.534808419173146, -26.71179234104363 ], [ -52.534671930864867, -26.80866136732817 ], [ -52.550425661814813, -26.801349995106136 ], [ -52.583947815539204, -26.801614367908712 ], [ -52.622828852169732, -26.771530235132218 ], [ -52.639452893036548, -26.754224663737201 ], [ -52.615728728897693, -26.723494429224502 ], [ -52.607532008295493, -26.675464977926367 ], [ -52.563531982914633, -26.671455650957455 ] ] } }
]
}
