{
"type": "FeatureCollection",
"features": [
{ "type": "Feature", "properties": { "Name": "ERMO", "Description": "ERMO \/ SC" }, "geometry": { "type": "LineString", "coordinates": [ [ -49.605390747385059, -28.952201158656518 ], [ -49.58172350673442, -28.982769465738212 ], [ -49.623181000302907, -29.016867999458551 ], [ -49.69883082238448, -29.019952737928463 ], [ -49.725470456396401, -29.003128521464074 ], [ -49.706399532912087, -28.966846769262933 ], [ -49.653527800767336, -28.983955632846115 ], [ -49.636237897361013, -28.950912881624166 ], [ -49.605390747385059, -28.952201158656518 ] ] } }
]
}
