{
"type": "FeatureCollection",
"features": [
{ "type": "Feature", "properties": { "Name": "ERVAL VELHO", "Description": "ERVAL VELHO \/ SC" }, "geometry": { "type": "LineString", "coordinates": [ [ -51.327361624039668, -27.260859363468793 ], [ -51.300462686703611, -27.292385347805517 ], [ -51.326705993087046, -27.345467432276109 ], [ -51.355841592015793, -27.324434507346609 ], [ -51.398768191998442, -27.329817417439813 ], [ -51.425207457058434, -27.312290968053674 ], [ -51.459085456328687, -27.343567212456829 ], [ -51.487624318207679, -27.309912964511682 ], [ -51.530633404008363, -27.31565173274123 ], [ -51.537854673154584, -27.28215508648799 ], [ -51.530832667693403, -27.244010745699313 ], [ -51.496548580452611, -27.233548470085793 ], [ -51.434298109170356, -27.242218540753015 ], [ -51.415437254725468, -27.232304292209278 ], [ -51.327361624039668, -27.260859363468793 ] ] } }
]
}
