{
"type": "FeatureCollection",
"features": [
{ "type": "Feature", "properties": { "Name": "FLORIANÃPOLIS", "Description": "FLORIANÃPOLIS \/ SC" }, "geometry": { "type": "LineString", "coordinates": [ [ -48.575453726808007, -27.84351974524003 ], [ -48.601806751380423, -27.777961253608904 ], [ -48.602672097039601, -27.662604492603176 ], [ -48.612987557429783, -27.623018615017028 ], [ -48.597108417819186, -27.570317465378707 ], [ -48.56965437305081, -27.548663078338333 ], [ -48.576181384463268, -27.517165920870525 ], [ -48.590784465230854, -27.483525071924475 ], [ -48.584940306350006, -27.454820233866652 ], [ -48.532758173450922, -27.427639741280984 ], [ -48.526270411150506, -27.408262039261672 ], [ -48.483472299107291, -27.378282945501493 ], [ -48.416744592588827, -27.380419523342312 ], [ -48.398887146824336, -27.426326068293346 ], [ -48.370439878197772, -27.44371523077325 ], [ -48.377657167844006, -27.481874922989274 ], [ -48.403645044283337, -27.504005754661819 ], [ -48.427845401244213, -27.5493098680559 ], [ -48.419562896110733, -27.583874229012395 ], [ -48.456092526648717, -27.636340666388605 ], [ -48.50760510888864, -27.74181024844415 ], [ -48.477575313150112, -27.762806235519292 ], [ -48.494182838866891, -27.794323176273508 ], [ -48.520760023056589, -27.782256784422998 ], [ -48.544764129061264, -27.830333287351266 ], [ -48.575453726808007, -27.84351974524003 ] ] } }
]
}
