{
"type": "FeatureCollection",
"features": [
{ "type": "Feature", "properties": { "Name": "FLOR DO SERTÃO", "Description": "FLOR DO SERTÃO \/ SC" }, "geometry": { "type": "LineString", "coordinates": [ [ -53.304903793075539, -26.720268881203879 ], [ -53.286553999967111, -26.733849999377924 ], [ -53.304162999922482, -26.76386699956231 ], [ -53.295338000348409, -26.782148999076981 ], [ -53.39545974227326, -26.806632945553929 ], [ -53.389524453290846, -26.770424792070457 ], [ -53.364271656611599, -26.765347351099305 ], [ -53.338937097169264, -26.7235914444895 ], [ -53.304903793075539, -26.720268881203879 ] ] } }
]
}
