{
"type": "FeatureCollection",
"features": [
{ "type": "Feature", "properties": { "Name": "GALVÃO", "Description": "GALVÃO \/ SC" }, "geometry": { "type": "LineString", "coordinates": [ [ -52.556963650352145, -26.407756267937373 ], [ -52.610102006302498, -26.491287607237211 ], [ -52.632402649762405, -26.500122846492104 ], [ -52.661916402819713, -26.483977947324377 ], [ -52.689788274409295, -26.499641897155811 ], [ -52.745473963652444, -26.504252326483652 ], [ -52.74057004057488, -26.462251209825411 ], [ -52.72775533274239, -26.438037372926374 ], [ -52.644954108944944, -26.380873418573344 ], [ -52.595832175614355, -26.416062446824412 ], [ -52.556963650352145, -26.407756267937373 ] ] } }
]
}
