{
"type": "FeatureCollection",
"features": [
{ "type": "Feature", "properties": { "Name": "GUARACIABA", "Description": "GUARACIABA \/ SC" }, "geometry": { "type": "LineString", "coordinates": [ [ -53.458297697480702, -26.548291300603012 ], [ -53.432294780779443, -26.574390422280146 ], [ -53.426856013793952, -26.604533135096062 ], [ -53.42867430987144, -26.626286949383143 ], [ -53.494195237720021, -26.659730393542759 ], [ -53.536020304893093, -26.646759222560036 ], [ -53.597738399107811, -26.658377881533966 ], [ -53.631058000326391, -26.628674999251754 ], [ -53.632222000045196, -26.591647999555505 ], [ -53.684041000191939, -26.578485999629152 ], [ -53.730568711376861, -26.600759645441258 ], [ -53.720619380280141, -26.537107021371867 ], [ -53.682238681469919, -26.50093022005359 ], [ -53.619383677814426, -26.524959204004006 ], [ -53.581597037872939, -26.515615050094421 ], [ -53.567547390899335, -26.529454612740153 ], [ -53.493717831712502, -26.521234198599355 ], [ -53.458297697480702, -26.548291300603012 ] ] } }
]
}
