{
"type": "FeatureCollection",
"features": [
{ "type": "Feature", "properties": { "Name": "IÃARA", "Description": "IÃARA \/ SC" }, "geometry": { "type": "LineString", "coordinates": [ [ -49.175237757916136, -28.687912691817246 ], [ -49.174032416362877, -28.698562857389902 ], [ -49.198788722521499, -28.736897062149634 ], [ -49.204737318772167, -28.776506648562926 ], [ -49.245921015542365, -28.793037035830476 ], [ -49.33011626855091, -28.86437802342698 ], [ -49.351177821599151, -28.854899449649849 ], [ -49.357088280299877, -28.755330896004015 ], [ -49.335465299383998, -28.754353843754814 ], [ -49.332563876021993, -28.679194940893748 ], [ -49.243566348508125, -28.674621428735914 ], [ -49.212953235403461, -28.670664302915217 ], [ -49.175237757916136, -28.687912691817246 ] ] } }
]
}
