{
"type": "FeatureCollection",
"features": [
{ "type": "Feature", "properties": { "Name": "IMARUÃ", "Description": "IMARUÃ \/ SC" }, "geometry": { "type": "LineString", "coordinates": [ [ -48.761657000270304, -28.089962998893213 ], [ -48.731429744886782, -28.155755040862402 ], [ -48.740076927807934, -28.225850124783392 ], [ -48.723917719527094, -28.249362134354953 ], [ -48.756007975387718, -28.325473326632672 ], [ -48.765873598487751, -28.357487344265508 ], [ -48.814313057901245, -28.356567562642851 ], [ -48.948681000427769, -28.360340999237678 ], [ -48.954377328750695, -28.31725203835083 ], [ -48.956389995302004, -28.268878204265661 ], [ -48.921759902897179, -28.235565585383426 ], [ -48.912050903026739, -28.215568140757057 ], [ -48.9390749315628, -28.174987988005171 ], [ -48.926523565010484, -28.141208634470843 ], [ -48.884153516771335, -28.151049791514595 ], [ -48.869539643239875, -28.079998298382744 ], [ -48.837688000001151, -28.071974999446638 ], [ -48.80737273516354, -28.093430010386612 ], [ -48.761657000270304, -28.089962998893213 ] ] } }
]
}
