{
"type": "FeatureCollection",
"features": [
{ "type": "Feature", "properties": { "Name": "IMBITUBA", "Description": "IMBITUBA \/ SC" }, "geometry": { "type": "LineString", "coordinates": [ [ -48.634250737581453, -28.11294833759564 ], [ -48.653638000293427, -28.155894999654492 ], [ -48.666583000105334, -28.217696998817416 ], [ -48.645331149612844, -28.234263469583425 ], [ -48.677622439923589, -28.258417239863661 ], [ -48.700782564563667, -28.297258549842184 ], [ -48.706131095373735, -28.341127669006653 ], [ -48.756007975387718, -28.325473326632672 ], [ -48.723917719527094, -28.249362134354953 ], [ -48.740076927807934, -28.225850124783392 ], [ -48.731429744886782, -28.155755040862402 ], [ -48.761657000270304, -28.089962998893213 ], [ -48.706746547315277, -28.082615278772039 ], [ -48.666870541242417, -28.117726093884073 ], [ -48.634250737581453, -28.11294833759564 ] ] } }
]
}
