{
"type": "FeatureCollection",
"features": [
{ "type": "Feature", "properties": { "Name": "IOMERÃ", "Description": "IOMERÃ \/ SC" }, "geometry": { "type": "LineString", "coordinates": [ [ -51.196285861203471, -27.028910031772512 ], [ -51.250716692221545, -27.033925647050921 ], [ -51.316884947582196, -27.018648854461048 ], [ -51.334235021029372, -27.020347361741297 ], [ -51.353109350016439, -26.981670150157242 ], [ -51.283232701527936, -26.921121787940137 ], [ -51.259788497241281, -26.939322393413704 ], [ -51.255247845411702, -26.971700663454783 ], [ -51.220736988721001, -26.957665488371561 ], [ -51.196285861203471, -27.028910031772512 ] ] } }
]
}
