{
"type": "FeatureCollection",
"features": [
{ "type": "Feature", "properties": { "Name": "IPIRA", "Description": "IPIRA \/ SC" }, "geometry": { "type": "LineString", "coordinates": [ [ -51.756940810070262, -27.28089983346052 ], [ -51.757558477941359, -27.310795297464949 ], [ -51.730641397682284, -27.335860018924677 ], [ -51.730409144166629, -27.357337697276876 ], [ -51.733489697191715, -27.392953159760452 ], [ -51.758639145580048, -27.413693693509114 ], [ -51.808025367176917, -27.422336390611914 ], [ -51.870168443219029, -27.449529308230922 ], [ -51.882142191408946, -27.425725201556759 ], [ -51.838584000251387, -27.370868999304832 ], [ -51.818807000142897, -27.370801998913066 ], [ -51.821197999787834, -27.295962999292954 ], [ -51.796046000022841, -27.293201999672476 ], [ -51.756940810070262, -27.28089983346052 ] ] } }
]
}
