{
"type": "FeatureCollection",
"features": [
{ "type": "Feature", "properties": { "Name": "IRACEMINHA", "Description": "IRACEMINHA \/ SC" }, "geometry": { "type": "LineString", "coordinates": [ [ -53.241320483353604, -26.813342563408526 ], [ -53.244173010575928, -26.845927441897857 ], [ -53.285976244907715, -26.870017720041687 ], [ -53.295904775584859, -26.897213328432315 ], [ -53.284917000019504, -26.921799999070625 ], [ -53.291806000246652, -26.926229999215025 ], [ -53.375069999880566, -26.874839999066637 ], [ -53.407801000215954, -26.887595999156019 ], [ -53.416237829911893, -26.864540711184816 ], [ -53.380032000276564, -26.825878999416261 ], [ -53.39545974227326, -26.806632945553929 ], [ -53.295338000348409, -26.782148999076981 ], [ -53.277187174148708, -26.781809659688008 ], [ -53.241320483353604, -26.813342563408526 ] ] } }
]
}
