{
"type": "FeatureCollection",
"features": [
{ "type": "Feature", "properties": { "Name": "ITAJAÃ", "Description": "ITAJAÃ \/ SC" }, "geometry": { "type": "LineString", "coordinates": [ [ -48.635853968885492, -26.913705266984437 ], [ -48.627276591341563, -26.959740225231144 ], [ -48.682913600282397, -26.971997715821882 ], [ -48.721263381299991, -27.014520124504088 ], [ -48.746421231154841, -27.022677859495559 ], [ -48.789366000140774, -27.096725998905697 ], [ -48.843536999932553, -27.067905999062585 ], [ -48.866125000168601, -27.003132999588217 ], [ -48.843502716876856, -26.964959621489299 ], [ -48.80076195100321, -26.967002177008794 ], [ -48.760308655719825, -26.94189913453738 ], [ -48.782667716441892, -26.916348620892109 ], [ -48.760229259073014, -26.855291082317535 ], [ -48.718157306414525, -26.845975724699883 ], [ -48.668491986515903, -26.89802129734494 ], [ -48.635853968885492, -26.913705266984437 ] ] } }
]
}
