{
"type": "FeatureCollection",
"features": [
{ "type": "Feature", "properties": { "Name": "ITAPOÃ", "Description": "ITAPOÃ \/ SC" }, "geometry": { "type": "LineString", "coordinates": [ [ -48.565940155014118, -26.166147213822796 ], [ -48.612189533220317, -26.203484170258204 ], [ -48.627326795095485, -26.182741778510206 ], [ -48.741410684455502, -26.127172264588296 ], [ -48.692626019375268, -26.082504994409931 ], [ -48.71716349260106, -26.043402881038105 ], [ -48.702957587522576, -26.004551882663236 ], [ -48.682091306968175, -25.98367071023506 ], [ -48.644369622360159, -25.955841821742634 ], [ -48.634062072406657, -25.977747482060579 ], [ -48.598747040143735, -25.990397969190894 ], [ -48.608871846058832, -26.055276020272061 ], [ -48.597775092446511, -26.123835123292281 ], [ -48.565940155014118, -26.166147213822796 ] ] } }
]
}
