{
"type": "FeatureCollection",
"features": [
{ "type": "Feature", "properties": { "Name": "ITAPIRANGA", "Description": "ITAPIRANGA \/ SC" }, "geometry": { "type": "LineString", "coordinates": [ [ -53.643900999931127, -27.042187999276674 ], [ -53.662231999906851, -27.107801998863124 ], [ -53.637582999955441, -27.127449999317946 ], [ -53.641651999640032, -27.155959999254492 ], [ -53.614466999652279, -27.165652999286461 ], [ -53.589947000253801, -27.141282999610723 ], [ -53.547332000071719, -27.155446998979755 ], [ -53.547508546881879, -27.176577049790978 ], [ -53.618231940351734, -27.187336443422055 ], [ -53.686219065557395, -27.163601465834915 ], [ -53.730889478866288, -27.189342381245865 ], [ -53.751589504451999, -27.18805260864093 ], [ -53.776011677396973, -27.147487368447226 ], [ -53.809003363314503, -27.172759755058621 ], [ -53.835125254926538, -27.169835311750205 ], [ -53.824629638746785, -27.132886339932607 ], [ -53.77662169743337, -27.101315451546782 ], [ -53.802683003517757, -27.085134530034509 ], [ -53.802363469898182, -27.041155095531167 ], [ -53.776628670776518, -27.049215353006105 ], [ -53.73191597404292, -27.004039792302535 ], [ -53.683171000541222, -27.031047186078752 ], [ -53.643900999931127, -27.042187999276674 ] ] } }
]
}
