{
"type": "FeatureCollection",
"features": [
{ "type": "Feature", "properties": { "Name": "JACINTO MACHADO", "Description": "JACINTO MACHADO \/ SC" }, "geometry": { "type": "LineString", "coordinates": [ [ -49.706399532912087, -28.966846769262933 ], [ -49.725470456396401, -29.003128521464074 ], [ -49.69883082238448, -29.019952737928463 ], [ -49.741517529110638, -29.039236108259725 ], [ -49.823381000132997, -29.085968998870158 ], [ -49.833132271736929, -29.098986011894905 ], [ -49.831820124898798, -29.121572700919383 ], [ -49.875184996890027, -29.094580886998301 ], [ -49.916128598056332, -29.103176396673344 ], [ -49.956782233513245, -29.067997836530878 ], [ -49.965991121293143, -29.021746294555783 ], [ -49.933656698597702, -28.965821641955188 ], [ -49.955720618911414, -28.948877400171853 ], [ -49.893096514392596, -28.887750763087183 ], [ -49.868230999960645, -28.878280999068803 ], [ -49.83962994636488, -28.881736454273888 ], [ -49.764902771145955, -28.91428076164777 ], [ -49.768676366920765, -28.944924354575274 ], [ -49.706399532912087, -28.966846769262933 ] ] } }
]
}
