{
"type": "FeatureCollection",
"features": [
{ "type": "Feature", "properties": { "Name": "JUPIÃ", "Description": "JUPIÃ \/ SC" }, "geometry": { "type": "LineString", "coordinates": [ [ -52.644954108944944, -26.380873418573344 ], [ -52.72775533274239, -26.438037372926374 ], [ -52.74057004057488, -26.462251209825411 ], [ -52.755616987134204, -26.45491188757353 ], [ -52.749443448856027, -26.441143462200955 ], [ -52.777096339124682, -26.382480170723284 ], [ -52.76277657268065, -26.353563062984904 ], [ -52.680186521390794, -26.35273107318045 ], [ -52.644954108944944, -26.380873418573344 ] ] } }
]
}
