{
"type": "FeatureCollection",
"features": [
{ "type": "Feature", "properties": { "Name": "LONTRAS", "Description": "LONTRAS \/ SC" }, "geometry": { "type": "LineString", "coordinates": [ [ -49.447460727330679, -27.255448663425057 ], [ -49.489104000149439, -27.298202999169007 ], [ -49.52685299986603, -27.272023998808436 ], [ -49.551010999657876, -27.234959999204531 ], [ -49.543364000448207, -27.217442998995182 ], [ -49.576165999561169, -27.170136999223075 ], [ -49.59184200030802, -27.127857999247226 ], [ -49.502607103934679, -27.102172892165182 ], [ -49.495709802065676, -27.079130195601973 ], [ -49.469766241518812, -27.101850323333736 ], [ -49.455871468593386, -27.15677542174825 ], [ -49.462297630930891, -27.228400509675737 ], [ -49.447460727330679, -27.255448663425057 ] ] } }
]
}
