{
"type": "FeatureCollection",
"features": [
{ "type": "Feature", "properties": { "Name": "MAJOR GERCINO", "Description": "MAJOR GERCINO \/ SC" }, "geometry": { "type": "LineString", "coordinates": [ [ -48.943943192923996, -27.337856895179524 ], [ -48.901039438419332, -27.380771088115182 ], [ -48.910817666302194, -27.421440872698099 ], [ -48.884752863653716, -27.4325187414467 ], [ -48.920096360358677, -27.461496072285851 ], [ -48.985208838616984, -27.449049493839023 ], [ -49.033385316479155, -27.483171109559006 ], [ -49.069693269528727, -27.447829911521183 ], [ -49.122903772690904, -27.501050121965534 ], [ -49.150524257688289, -27.490852617554197 ], [ -49.180976068390805, -27.502180069754388 ], [ -49.225293642587474, -27.492257669755588 ], [ -49.221880613799271, -27.422522854246267 ], [ -49.189317386488142, -27.407095007928206 ], [ -49.132774404115416, -27.422070743469988 ], [ -49.122248763169857, -27.400505774222037 ], [ -49.086237485671397, -27.402537978544842 ], [ -48.943943192923996, -27.337856895179524 ] ] } }
]
}
