{
"type": "FeatureCollection",
"features": [
{ "type": "Feature", "properties": { "Name": "NOVA ERECHIM", "Description": "NOVA ERECHIM \/ SC" }, "geometry": { "type": "LineString", "coordinates": [ [ -52.84541523502503, -26.893046054431807 ], [ -52.856603580091132, -26.916832497521682 ], [ -52.890916339517389, -26.911050269554263 ], [ -52.907975225076534, -26.93496994990323 ], [ -52.894081757966717, -26.975375589212035 ], [ -52.905235716555012, -26.97355465092636 ], [ -52.933986087288069, -26.948046996271838 ], [ -52.947538887609539, -26.881670628796428 ], [ -52.90593059392171, -26.861721299698161 ], [ -52.84541523502503, -26.893046054431807 ] ] } }
]
}
