{
"type": "FeatureCollection",
"features": [
{ "type": "Feature", "properties": { "Name": "PALHOÃA", "Description": "PALHOÃA \/ SC" }, "geometry": { "type": "LineString", "coordinates": [ [ -48.602672097039601, -27.662604492603176 ], [ -48.601806751380423, -27.777961253608904 ], [ -48.575453726808007, -27.84351974524003 ], [ -48.60052732277768, -27.875733471722299 ], [ -48.583610719858761, -27.905734927125135 ], [ -48.625015108460445, -27.910685973778641 ], [ -48.722963421924362, -27.89518699918062 ], [ -48.737406972853471, -27.862374483395623 ], [ -48.73886499242542, -27.798032228604427 ], [ -48.681890076465834, -27.760197727642947 ], [ -48.706721088407448, -27.695361414097931 ], [ -48.730859393046501, -27.678972994707919 ], [ -48.73963513495346, -27.614798203574193 ], [ -48.654944152250778, -27.62125952041049 ], [ -48.637192590865304, -27.651381325787494 ], [ -48.602672097039601, -27.662604492603176 ] ] } }
]
}
