{
"type": "FeatureCollection",
"features": [
{ "type": "Feature", "properties": { "Name": "PASSO DE TORRES", "Description": "PASSO DE TORRES \/ SC" }, "geometry": { "type": "LineString", "coordinates": [ [ -49.645977179203442, -29.238847973954762 ], [ -49.708636344691513, -29.317873301511611 ], [ -49.791797380045011, -29.285641081370784 ], [ -49.778239905047535, -29.237446569403634 ], [ -49.74147199733477, -29.252073031645065 ], [ -49.711886788644335, -29.205953455287666 ], [ -49.660930960495364, -29.240632007660963 ], [ -49.645977179203442, -29.238847973954762 ] ] } }
]
}
