{
"type": "FeatureCollection",
"features": [
{ "type": "Feature", "properties": { "Name": "PAULO LOPES", "Description": "PAULO LOPES \/ SC" }, "geometry": { "type": "LineString", "coordinates": [ [ -48.583610719858761, -27.905734927125135 ], [ -48.620786190430294, -27.944931655471464 ], [ -48.657231044577024, -27.988821999535617 ], [ -48.719925681125233, -28.046898629068437 ], [ -48.706746547315277, -28.082615278772039 ], [ -48.761657000270304, -28.089962998893213 ], [ -48.80737273516354, -28.093430010386612 ], [ -48.837688000001151, -28.071974999446638 ], [ -48.869539643239875, -28.079998298382744 ], [ -48.894138579731646, -28.078895805097261 ], [ -48.862243035187873, -28.045382671573009 ], [ -48.844834393392489, -28.008864569444256 ], [ -48.838511374300424, -27.964465217195993 ], [ -48.849808656044608, -27.950485094111738 ], [ -48.838025104574847, -27.889446092363244 ], [ -48.843601178251731, -27.861343244295256 ], [ -48.821165738108277, -27.830006240795342 ], [ -48.772169321357062, -27.833483926342069 ], [ -48.73886499242542, -27.798032228604427 ], [ -48.737406972853471, -27.862374483395623 ], [ -48.722963421924362, -27.89518699918062 ], [ -48.625015108460445, -27.910685973778641 ], [ -48.583610719858761, -27.905734927125135 ] ] } }
]
}
