{
"type": "FeatureCollection",
"features": [
{ "type": "Feature", "properties": { "Name": "PEDRAS GRANDES", "Description": "PEDRAS GRANDES \/ SC" }, "geometry": { "type": "LineString", "coordinates": [ [ -49.137878759097418, -28.413631572638902 ], [ -49.112029317099257, -28.443932652469869 ], [ -49.13824425976474, -28.472304416715417 ], [ -49.184244999706948, -28.498917999166277 ], [ -49.242888724634895, -28.589525498402963 ], [ -49.245063340200943, -28.590467648862841 ], [ -49.252748441887036, -28.587898645506016 ], [ -49.257764424988181, -28.553068092418471 ], [ -49.290222217581231, -28.503004375551427 ], [ -49.221718849145532, -28.432689098023388 ], [ -49.211814903235158, -28.400112236090763 ], [ -49.191085109190389, -28.38932469907553 ], [ -49.137878759097418, -28.413631572638902 ] ] } }
]
}
