{
"type": "FeatureCollection",
"features": [
{ "type": "Feature", "properties": { "Name": "PONTE ALTA", "Description": "PONTE ALTA \/ SC" }, "geometry": { "type": "LineString", "coordinates": [ [ -50.129940535827011, -27.27469180528254 ], [ -50.075242288700622, -27.303599286677695 ], [ -50.14617264944814, -27.378433746520159 ], [ -50.167441183263975, -27.443133667085018 ], [ -50.181560713855845, -27.445351841314391 ], [ -50.210866205510904, -27.454508919151237 ], [ -50.231150462823564, -27.48431945387966 ], [ -50.268254348259518, -27.461703765316486 ], [ -50.299437840184112, -27.496495473087574 ], [ -50.26999630628444, -27.525059786679776 ], [ -50.324903100797421, -27.525931278305791 ], [ -50.401216818601256, -27.554653788041829 ], [ -50.376361893686408, -27.502029031314692 ], [ -50.401908256960439, -27.475281590173207 ], [ -50.44790875588432, -27.477796574851993 ], [ -50.486462867367379, -27.458632746903675 ], [ -50.479114053670564, -27.387088029588824 ], [ -50.463098306141887, -27.368326617679202 ], [ -50.399999250764779, -27.361180078597727 ], [ -50.359528077858442, -27.346375951688799 ], [ -50.234982625148007, -27.353317634201403 ], [ -50.206173509799612, -27.344737396813343 ], [ -50.184904930118364, -27.314553472564679 ], [ -50.175616898401074, -27.270563477322582 ], [ -50.129940535827011, -27.27469180528254 ] ] } }
]
}
