{
"type": "FeatureCollection",
"features": [
{ "type": "Feature", "properties": { "Name": "PONTE ALTA DO NORTE", "Description": "PONTE ALTA DO NORTE \/ SC" }, "geometry": { "type": "LineString", "coordinates": [ [ -50.244679746772874, -27.235798788783029 ], [ -50.268514000520668, -27.269159925190365 ], [ -50.297418594192713, -27.249976028870606 ], [ -50.318703126947696, -27.268809463885589 ], [ -50.356780027576178, -27.265155055261573 ], [ -50.352398560245319, -27.238677202990459 ], [ -50.402903230000049, -27.254051250964437 ], [ -50.470011705875493, -27.214889191482939 ], [ -50.500394197734011, -27.218124273216571 ], [ -50.54911920718564, -27.210954865274743 ], [ -50.569892269412662, -27.194332355953403 ], [ -50.604959515069538, -27.198297434478942 ], [ -50.620533848358377, -27.157577319337744 ], [ -50.576002252601825, -27.146374812647419 ], [ -50.526182383310299, -27.118910197247772 ], [ -50.404598979059585, -27.109869172424339 ], [ -50.346946113672175, -27.092406414824154 ], [ -50.320456165519602, -27.113331543415939 ], [ -50.318843428381456, -27.145016156470376 ], [ -50.283588866532909, -27.166026596550125 ], [ -50.291176432246516, -27.196927455837393 ], [ -50.244679746772874, -27.235798788783029 ] ] } }
]
}
