{
"type": "FeatureCollection",
"features": [
{ "type": "Feature", "properties": { "Name": "PORTO UNIÃO", "Description": "PORTO UNIÃO \/ SC" }, "geometry": { "type": "LineString", "coordinates": [ [ -50.899744275777657, -26.28927468927543 ], [ -50.884422538669178, -26.37918884359021 ], [ -50.854728357327815, -26.375545691780186 ], [ -50.848767247010812, -26.428233963126843 ], [ -50.815099349155616, -26.440686618292773 ], [ -50.797991343525666, -26.507914508847474 ], [ -50.825794999739401, -26.547752998801798 ], [ -50.858592999567236, -26.55876399935903 ], [ -50.940098999968818, -26.550232998953675 ], [ -51.011276823566504, -26.49446738426235 ], [ -50.996856251214979, -26.44812804417387 ], [ -50.964259999899006, -26.428033998869921 ], [ -50.985899999585286, -26.40290799940459 ], [ -51.033078999795976, -26.403622999102083 ], [ -51.118347000113936, -26.390838999520156 ], [ -51.190560000043945, -26.451036999357996 ], [ -51.230001000445775, -26.408195999545683 ], [ -51.270362554088528, -26.386900702805118 ], [ -51.247951213977267, -26.329866407308828 ], [ -51.148403000298174, -26.278774583680047 ], [ -51.101808150225907, -26.272673612597085 ], [ -51.077374050472024, -26.23123731514994 ], [ -51.056845680283857, -26.243901682416663 ], [ -51.001074853121906, -26.230344360303945 ], [ -50.9713074273958, -26.261335565483929 ], [ -50.943564260482219, -26.243838537418526 ], [ -50.909498911745345, -26.249437536612959 ], [ -50.899744275777657, -26.28927468927543 ] ] } }
]
}
