{
"type": "FeatureCollection",
"features": [
{ "type": "Feature", "properties": { "Name": "PORTO BELO", "Description": "PORTO BELO \/ SC" }, "geometry": { "type": "LineString", "coordinates": [ [ -48.578391616779641, -27.211585705515855 ], [ -48.602587793691669, -27.218058298951288 ], [ -48.659454096729121, -27.21534219978264 ], [ -48.68328799974136, -27.195103999449998 ], [ -48.688822231560721, -27.141331727577096 ], [ -48.636691788994824, -27.15142534860092 ], [ -48.584817761130751, -27.144538563403955 ], [ -48.549018615716477, -27.15656927375295 ], [ -48.507987914310775, -27.110309511974375 ], [ -48.527706589787272, -27.159883172070689 ], [ -48.58466718134531, -27.193405178306307 ], [ -48.578391616779641, -27.211585705515855 ] ] } }
]
}
