{
"type": "FeatureCollection",
"features": [
{ "type": "Feature", "properties": { "Name": "PRESIDENTE GETÃLIO", "Description": "PRESIDENTE GETÃLIO \/ SC" }, "geometry": { "type": "LineString", "coordinates": [ [ -49.601043069382108, -27.012909266049746 ], [ -49.579397327524589, -27.073694673370426 ], [ -49.585083999826672, -27.086382999475802 ], [ -49.614252999576252, -27.079970999661839 ], [ -49.717333000217764, -27.143137998819554 ], [ -49.742215000122144, -27.14498299936588 ], [ -49.831134999780375, -27.114165999161514 ], [ -49.845074999611484, -27.060521999390687 ], [ -49.844603000328163, -27.023684999463114 ], [ -49.819413999756243, -27.013346999364497 ], [ -49.779191000164467, -27.022278999376283 ], [ -49.746245999852988, -27.051980999423563 ], [ -49.696027999792307, -27.042551998975512 ], [ -49.701157999841769, -27.011383999671807 ], [ -49.683358963245489, -26.983674826232171 ], [ -49.690191000414302, -26.924715999543707 ], [ -49.601043069382108, -27.012909266049746 ] ] } }
]
}
