{
"type": "FeatureCollection",
"features": [
{ "type": "Feature", "properties": { "Name": "RIO DAS ANTAS", "Description": "RIO DAS ANTAS \/ SC" }, "geometry": { "type": "LineString", "coordinates": [ [ -50.846104000099501, -26.871426999056723 ], [ -50.99040000025974, -26.960937998989436 ], [ -50.98606600004581, -26.978999999150574 ], [ -51.045121452592916, -26.986471975001621 ], [ -51.116854999658464, -26.983191999111394 ], [ -51.179738000108557, -26.916381999229827 ], [ -51.178867999558463, -26.869188999272865 ], [ -51.189677999839773, -26.852186999430444 ], [ -51.171768384403379, -26.831901100855074 ], [ -51.104390000398155, -26.831674999601489 ], [ -51.059936999992487, -26.838940999227702 ], [ -51.05062627748066, -26.858483826667225 ], [ -50.985664254901387, -26.8689227864574 ], [ -50.973023000211235, -26.892218999207387 ], [ -50.846104000099501, -26.871426999056723 ] ] } }
]
}
