{
"type": "FeatureCollection",
"features": [
{ "type": "Feature", "properties": { "Name": "SALETE", "Description": "SALETE \/ SC" }, "geometry": { "type": "LineString", "coordinates": [ [ -49.968834758717094, -26.868217878052576 ], [ -49.949001059950881, -26.928136188734069 ], [ -49.959453265855473, -26.956559904116261 ], [ -49.946304780940864, -26.994709791023979 ], [ -49.975681392782008, -27.010347141607269 ], [ -49.976496318849968, -27.046625098669324 ], [ -50.048200063282245, -27.047296679098395 ], [ -50.07025035526965, -27.031994764846502 ], [ -50.092396246089834, -26.987890278713337 ], [ -50.050582454616517, -26.933123259530756 ], [ -50.016083189287713, -26.910604495401117 ], [ -50.008652474332166, -26.882381944870815 ], [ -49.968834758717094, -26.868217878052576 ] ] } }
]
}
