{
"type": "FeatureCollection",
"features": [
{ "type": "Feature", "properties": { "Name": "SANTO AMARO DA IMPERATRIZ", "Description": "SANTO AMARO DA IMPERATRIZ \/ SC" }, "geometry": { "type": "LineString", "coordinates": [ [ -48.73886499242542, -27.798032228604427 ], [ -48.772169321357062, -27.833483926342069 ], [ -48.821165738108277, -27.830006240795342 ], [ -48.843601178251731, -27.861343244295256 ], [ -48.877677316155193, -27.861276035260801 ], [ -48.913922545988662, -27.838809030712124 ], [ -48.885054261544887, -27.815074118775499 ], [ -48.88279178671155, -27.782746438297465 ], [ -48.859451884896544, -27.755419308554224 ], [ -48.865367571356273, -27.716535940880927 ], [ -48.834831312515, -27.691860029616635 ], [ -48.860979872622977, -27.656255895892855 ], [ -48.846094086372943, -27.624722513732987 ], [ -48.746072282509772, -27.615460351913669 ], [ -48.73963513495346, -27.614798203574193 ], [ -48.730859393046501, -27.678972994707919 ], [ -48.706721088407448, -27.695361414097931 ], [ -48.681890076465834, -27.760197727642947 ], [ -48.73886499242542, -27.798032228604427 ] ] } }
]
}
