{
"type": "FeatureCollection",
"features": [
{ "type": "Feature", "properties": { "Name": "SANTA CECÃLIA", "Description": "SANTA CECÃLIA \/ SC" }, "geometry": { "type": "LineString", "coordinates": [ [ -50.40915690416773, -26.725654799529309 ], [ -50.355991690863789, -26.737706209573844 ], [ -50.340730414277175, -26.761307868962945 ], [ -50.346284596656737, -26.829311843866435 ], [ -50.289992500853202, -26.831204918572098 ], [ -50.255760653431366, -26.863187982439396 ], [ -50.290989638560909, -26.968683570190592 ], [ -50.319195910462838, -27.019772574444683 ], [ -50.315545895027007, -27.075700132754889 ], [ -50.346946113672175, -27.092406414824154 ], [ -50.404598979059585, -27.109869172424339 ], [ -50.526182383310299, -27.118910197247772 ], [ -50.530319996770402, -27.08808805561921 ], [ -50.564091176366674, -27.057064781514384 ], [ -50.636940720937496, -27.056734555855027 ], [ -50.657470595691393, -27.086919222943717 ], [ -50.663431782450743, -27.058976160121631 ], [ -50.636672525116921, -27.028983939856914 ], [ -50.618960252413672, -26.953634764732552 ], [ -50.591704872381911, -26.92899554041179 ], [ -50.587459784541402, -26.861866146305545 ], [ -50.552871390102553, -26.828671786473706 ], [ -50.500406566110087, -26.82262460564101 ], [ -50.527346595269137, -26.780185981397892 ], [ -50.496014484081115, -26.762413251770113 ], [ -50.516109016817609, -26.715699572477263 ], [ -50.514928483062981, -26.686504364684652 ], [ -50.492942173342556, -26.648472322239854 ], [ -50.469074227393662, -26.662179770879675 ], [ -50.473351009141709, -26.69622337850609 ], [ -50.40915690416773, -26.725654799529309 ] ] } }
]
}
