{
"type": "FeatureCollection",
"features": [
{ "type": "Feature", "properties": { "Name": "SÃO JOAQUIM", "Description": "SÃO JOAQUIM \/ SC" }, "geometry": { "type": "LineString", "coordinates": [ [ -49.848999001602579, -28.102709162198039 ], [ -49.794819246910663, -28.119838631047912 ], [ -49.776370265775078, -28.14466848016616 ], [ -49.684988715556756, -28.212586101267505 ], [ -49.672231180324673, -28.230448754106646 ], [ -49.726525894454419, -28.227336820138078 ], [ -49.773147754765027, -28.276417319003997 ], [ -49.764461285859625, -28.348888447743605 ], [ -49.809668578242224, -28.370736269962833 ], [ -49.766201430851311, -28.405712707475399 ], [ -49.806113644529027, -28.426028714453533 ], [ -49.816275160770033, -28.469036743550816 ], [ -49.839343347717261, -28.496487081313713 ], [ -49.900418898813086, -28.464710947851927 ], [ -49.970772883161999, -28.440210697565586 ], [ -50.0271769571508, -28.474274126249895 ], [ -50.097177084354932, -28.484380353070776 ], [ -50.147278066429578, -28.449526528226666 ], [ -50.159151659821191, -28.464702900718233 ], [ -50.199086348456142, -28.444833796542412 ], [ -50.222648680492163, -28.463272127007027 ], [ -50.242410764445196, -28.432025673545979 ], [ -50.272913344575159, -28.457071905843748 ], [ -50.301331547113193, -28.439270633532885 ], [ -50.340446941672951, -28.440965774650749 ], [ -50.368398622698237, -28.421228396872948 ], [ -50.424755404937969, -28.433301065092049 ], [ -50.406760136271203, -28.395124275864589 ], [ -50.377735310436208, -28.372322230686336 ], [ -50.335287058950541, -28.366232796106601 ], [ -50.265280780383648, -28.329651736938047 ], [ -50.244828676302348, -28.289863164753225 ], [ -50.245658562592553, -28.257222754026827 ], [ -50.171017706102191, -28.196420105803213 ], [ -50.172887557614672, -28.161808806531155 ], [ -50.111642550862989, -28.150077311418727 ], [ -50.114626176756587, -28.135838894049698 ], [ -50.055233043170347, -28.094039026779623 ], [ -50.012862246695306, -28.087883045066405 ], [ -49.991203536613902, -28.103872166367353 ], [ -49.947296707077328, -28.107965188742412 ], [ -49.898270087494495, -28.092074875055403 ], [ -49.848999001602579, -28.102709162198039 ] ] } }
]
}
