{
"type": "FeatureCollection",
"features": [
{ "type": "Feature", "properties": { "Name": "SCHROEDER", "Description": "SCHROEDER \/ SC" }, "geometry": { "type": "LineString", "coordinates": [ [ -49.003678126444349, -26.387381376948948 ], [ -49.01978939186688, -26.416674247518468 ], [ -49.00161449890993, -26.452065286883453 ], [ -49.028108449944966, -26.45694561534782 ], [ -49.111194506121535, -26.396655820809428 ], [ -49.113935207144038, -26.368298936746498 ], [ -49.144682187932567, -26.316048403211198 ], [ -49.081542275455597, -26.294758185841545 ], [ -48.997392387848379, -26.310931040435147 ], [ -49.020901177847065, -26.35061892722166 ], [ -49.003678126444349, -26.387381376948948 ] ] } }
]
}
