{
"type": "FeatureCollection",
"features": [
{ "type": "Feature", "properties": { "Name": "SERRA ALTA", "Description": "SERRA ALTA \/ SC" }, "geometry": { "type": "LineString", "coordinates": [ [ -52.973338791352091, -26.744810870825006 ], [ -53.017540312535345, -26.754167501029311 ], [ -53.069521485628002, -26.736969925621509 ], [ -53.058014606988479, -26.702381684966724 ], [ -53.076510720693136, -26.669788738659292 ], [ -53.062568244129125, -26.643924144883329 ], [ -52.998038396155039, -26.635200494407229 ], [ -52.981792402397389, -26.692646214451202 ], [ -52.987782871981892, -26.722059627449823 ], [ -52.973338791352091, -26.744810870825006 ] ] } }
]
}
