{
"type": "FeatureCollection",
"features": [
{ "type": "Feature", "properties": { "Name": "TUBARÃO", "Description": "TUBARÃO \/ SC" }, "geometry": { "type": "LineString", "coordinates": [ [ -48.979502999963415, -28.421862998978156 ], [ -48.982074292094858, -28.462388494533339 ], [ -48.92339599992539, -28.512662998998167 ], [ -48.903629297054351, -28.532802938504744 ], [ -48.94515865005161, -28.594256652722319 ], [ -49.018301622721651, -28.533461472468957 ], [ -49.030052886731312, -28.549887635505907 ], [ -49.073980807168482, -28.543935017487001 ], [ -49.143315143778807, -28.498779818333901 ], [ -49.184244999706948, -28.498917999166277 ], [ -49.13824425976474, -28.472304416715417 ], [ -49.112029317099257, -28.443932652469869 ], [ -49.137878759097418, -28.413631572638902 ], [ -49.101572000347517, -28.362409999321983 ], [ -49.05224621409144, -28.403611634869037 ], [ -48.979502999963415, -28.421862998978156 ] ] } }
]
}
