{
"type": "FeatureCollection",
"features": [
{ "type": "Feature", "properties": { "Name": "TUNÃPOLIS", "Description": "TUNÃPOLIS \/ SC" }, "geometry": { "type": "LineString", "coordinates": [ [ -53.671389150588766, -26.941881754239542 ], [ -53.582362000306034, -26.95312099913474 ], [ -53.551071999872867, -26.980136999422939 ], [ -53.586410999967654, -27.009580999263676 ], [ -53.643900999931127, -27.042187999276674 ], [ -53.683171000541222, -27.031047186078752 ], [ -53.73191597404292, -27.004039792302535 ], [ -53.701007573041004, -26.952822177801238 ], [ -53.671389150588766, -26.941881754239542 ] ] } }
]
}
