{
"type": "FeatureCollection",
"features": [
{ "type": "Feature", "properties": { "Name": "TURVO", "Description": "TURVO \/ SC" }, "geometry": { "type": "LineString", "coordinates": [ [ -49.677563055690428, -28.862928039297515 ], [ -49.673987432174215, -28.875120516998209 ], [ -49.60561738463457, -28.90796359714227 ], [ -49.550354145627288, -28.900808688969786 ], [ -49.533502852374681, -28.916931019650804 ], [ -49.605390747385059, -28.952201158656518 ], [ -49.636237897361013, -28.950912881624166 ], [ -49.653527800767336, -28.983955632846115 ], [ -49.706399532912087, -28.966846769262933 ], [ -49.768676366920765, -28.944924354575274 ], [ -49.764902771145955, -28.91428076164777 ], [ -49.83962994636488, -28.881736454273888 ], [ -49.868230999960645, -28.878280999068803 ], [ -49.791866153899825, -28.854627066585802 ], [ -49.748891852976612, -28.831226401177446 ], [ -49.732841000411781, -28.802739999451376 ], [ -49.677563055690428, -28.862928039297515 ] ] } }
]
}
