{
"type": "FeatureCollection",
"features": [
{ "type": "Feature", "properties": { "Name": "ÃGUA COMPRIDA", "Description": "ÃGUA COMPRIDA \/ MG" }, "geometry": { "type": "LineString", "coordinates": [ [ -47.981160100857949, -20.036431255897696 ], [ -48.020163000122288, -20.124028998539416 ], [ -48.105487413113558, -20.146355955263061 ], [ -48.178605977284008, -20.096180217942674 ], [ -48.203409644439482, -20.045465785817328 ], [ -48.137342999879472, -20.010903996921854 ], [ -48.168129999599785, -19.946893996660549 ], [ -48.154520999744307, -19.882808996537904 ], [ -48.106376999998531, -19.844281996916607 ], [ -48.014642000028232, -19.895245997204938 ], [ -48.035066000295615, -19.954054996840568 ], [ -47.981160100857949, -20.036431255897696 ] ] } }
]
}
