{
"type": "FeatureCollection",
"features": [
{ "type": "Feature", "properties": { "Name": "ALMENARA", "Description": "ALMENARA \/ MG" }, "geometry": { "type": "LineString", "coordinates": [ [ -40.727755999739543, -15.895194997451142 ], [ -40.70972199997027, -15.974039997447903 ], [ -40.676030000284243, -16.010571996800138 ], [ -40.64602100046875, -15.923681997226367 ], [ -40.519777000008503, -15.950039996848316 ], [ -40.49778000004693, -15.972795997637148 ], [ -40.490784000281337, -16.014842996806802 ], [ -40.426412000413443, -16.053247997097341 ], [ -40.415802000361964, -16.120675997599164 ], [ -40.468630000274231, -16.195299997197083 ], [ -40.50978399963185, -16.253593997365044 ], [ -40.550002999938442, -16.273690996941923 ], [ -40.61421100033737, -16.378252997577704 ], [ -40.635423000071341, -16.441664997241784 ], [ -40.672432999882972, -16.454293996870433 ], [ -40.644857999896715, -16.371143997097761 ], [ -40.707487000324761, -16.270035996563934 ], [ -40.773349999702702, -16.274767997145318 ], [ -40.865392000340478, -16.236567997315206 ], [ -40.962461999921288, -16.257528997165423 ], [ -40.989177999864751, -16.212637997245736 ], [ -40.96980899968554, -16.085527997319161 ], [ -40.912354000436721, -16.045243997612374 ], [ -40.920798999574117, -15.974798997375785 ], [ -40.981188000126053, -15.935745996880199 ], [ -40.963994999569529, -15.884143996847911 ], [ -41.009608000408832, -15.828306997569825 ], [ -40.963195999595655, -15.806558997399746 ], [ -40.901815000062186, -15.833212997182043 ], [ -40.840930000019455, -15.817020996921427 ], [ -40.727755999739543, -15.895194997451142 ] ] } }
]
}
