{
"type": "FeatureCollection",
"features": [
{ "type": "Feature", "properties": { "Name": "ALTEROSA", "Description": "ALTEROSA \/ MG" }, "geometry": { "type": "LineString", "coordinates": [ [ -46.07010799968441, -21.146965996683377 ], [ -46.043703999739762, -21.192180997155276 ], [ -46.017126999911056, -21.249301997189377 ], [ -46.055503999809673, -21.307883997148679 ], [ -46.117751999754944, -21.321073996567634 ], [ -46.24046700025184, -21.256589996930757 ], [ -46.349269000364018, -21.179358996720282 ], [ -46.292290999729794, -21.153271997004989 ], [ -46.176649999897563, -21.196917997067885 ], [ -46.145531000155472, -21.154459996931276 ], [ -46.07010799968441, -21.146965996683377 ] ] } }
]
}
