{
"type": "FeatureCollection",
"features": [
{ "type": "Feature", "properties": { "Name": "ALVARENGA", "Description": "ALVARENGA \/ MG" }, "geometry": { "type": "LineString", "coordinates": [ [ -41.586004999830834, -19.442883997098761 ], [ -41.637522000439901, -19.417887997333136 ], [ -41.663602999878492, -19.454694996776649 ], [ -41.700065999646142, -19.498859997390923 ], [ -41.758170000045425, -19.507973996802491 ], [ -41.822847999635421, -19.427343997227638 ], [ -41.767703999939613, -19.406454997100411 ], [ -41.745930000369178, -19.357881996456911 ], [ -41.703707000277802, -19.332304996878065 ], [ -41.677759999824104, -19.380105996994132 ], [ -41.569956999915576, -19.344223997039762 ], [ -41.586004999830834, -19.442883997098761 ] ] } }
]
}
