{
"type": "FeatureCollection",
"features": [
{ "type": "Feature", "properties": { "Name": "ARANTINA", "Description": "ARANTINA \/ MG" }, "geometry": { "type": "LineString", "coordinates": [ [ -44.174443000144322, -21.827614996834594 ], [ -44.196789000012302, -21.890933996706565 ], [ -44.256582000059211, -21.975441997050492 ], [ -44.285724000362279, -21.928624996446388 ], [ -44.231580000016947, -21.892923996745026 ], [ -44.228098999569113, -21.844346996816395 ], [ -44.174443000144322, -21.827614996834594 ] ] } }
]
}
