{
"type": "FeatureCollection",
"features": [
{ "type": "Feature", "properties": { "Name": "ARICANDUVA", "Description": "ARICANDUVA \/ MG" }, "geometry": { "type": "LineString", "coordinates": [ [ -42.599791999601052, -17.722057996978947 ], [ -42.616018999677067, -17.768857996799056 ], [ -42.547581284448647, -17.870374299434332 ], [ -42.556826000319631, -17.89843599722343 ], [ -42.486612999989916, -17.926619996515569 ], [ -42.561948000000143, -17.947885996941178 ], [ -42.606835999781531, -17.992085996471531 ], [ -42.683184999787834, -17.882010997009843 ], [ -42.64452700042068, -17.778342997131571 ], [ -42.599791999601052, -17.722057996978947 ] ] } }
]
}
