{
"type": "FeatureCollection",
"features": [
{ "type": "Feature", "properties": { "Name": "ARINOS", "Description": "ARINOS \/ MG" }, "geometry": { "type": "LineString", "coordinates": [ [ -45.818256000214205, -15.405057997328642 ], [ -45.755850000177304, -15.410661997653051 ], [ -45.727447999825294, -15.438139997662688 ], [ -45.659955999969377, -15.416794997191344 ], [ -45.600388999552649, -15.441356997627281 ], [ -45.584301999637539, -15.511974997747927 ], [ -45.586061999861386, -15.718403997946098 ], [ -45.722118999592105, -15.865891997817412 ], [ -45.776734000073979, -15.950986997352004 ], [ -45.805741999593579, -16.06211299761668 ], [ -45.906117999645907, -16.107019997374948 ], [ -45.936389999898552, -16.052846997490914 ], [ -45.987850999723833, -16.01554899788789 ], [ -46.039913000284685, -16.052836997929091 ], [ -46.083405000440393, -16.211212997182031 ], [ -46.13460299982853, -16.245154997605024 ], [ -46.230852000219606, -16.237744996734193 ], [ -46.294225999929893, -16.172447997377105 ], [ -46.234567999813294, -16.130435997123527 ], [ -46.232269999960465, -16.089150997120782 ], [ -46.187973999600324, -16.031194997251248 ], [ -46.247776000062288, -15.982907997206269 ], [ -46.315751999754923, -15.975151997466638 ], [ -46.446995235241843, -15.875165850823292 ], [ -46.45770499978584, -15.851516997711256 ], [ -46.377849999977457, -15.83683299774458 ], [ -46.254816000058327, -15.79552299748832 ], [ -46.26431099995267, -15.680530997907171 ], [ -46.248315999783529, -15.606614997683947 ], [ -46.282837999973651, -15.504495997292393 ], [ -46.287739000254582, -15.412217997462562 ], [ -46.255432999733102, -15.397582997956931 ], [ -46.112377000098434, -15.402611997845383 ], [ -46.062128000406851, -15.421892997563758 ], [ -46.021687999801316, -15.366577997176762 ], [ -45.934404000044537, -15.383336997504387 ], [ -45.900984000311325, -15.422668997376263 ], [ -45.818256000214205, -15.405057997328642 ] ] } }
]
}
