{
"type": "FeatureCollection",
"features": [
{ "type": "Feature", "properties": { "Name": "BANDEIRA", "Description": "BANDEIRA \/ MG" }, "geometry": { "type": "LineString", "coordinates": [ [ -40.519769131839894, -15.797572274540812 ], [ -40.434857999596943, -15.876745997429794 ], [ -40.418963000442091, -15.932508997791954 ], [ -40.49778000004693, -15.972795997637148 ], [ -40.519777000008503, -15.950039996848316 ], [ -40.64602100046875, -15.923681997226367 ], [ -40.676030000284243, -16.010571996800138 ], [ -40.70972199997027, -15.974039997447903 ], [ -40.727755999739543, -15.895194997451142 ], [ -40.723876999823624, -15.805769996987747 ], [ -40.719860999885213, -15.828563997730271 ], [ -40.636493999998038, -15.867163997120713 ], [ -40.644889431202273, -15.728887751168712 ], [ -40.626031215368243, -15.718209658948581 ], [ -40.561103469549437, -15.803614905703283 ], [ -40.519769131839894, -15.797572274540812 ] ] } }
]
}
