{
"type": "FeatureCollection",
"features": [
{ "type": "Feature", "properties": { "Name": "BARÃO DE COCAIS", "Description": "BARÃO DE COCAIS \/ MG" }, "geometry": { "type": "LineString", "coordinates": [ [ -43.390609999951494, -19.77244999657006 ], [ -43.394289999683679, -19.864897997044864 ], [ -43.41941299990998, -19.909424996366454 ], [ -43.507343999825707, -20.00645299670839 ], [ -43.546148999676575, -20.03157099670409 ], [ -43.639164000218386, -19.967533996996337 ], [ -43.578906000311633, -19.922538996777234 ], [ -43.521690000393164, -19.919854997110406 ], [ -43.536939000334542, -19.760760997122247 ], [ -43.434439000359532, -19.787651997041962 ], [ -43.390609999951494, -19.77244999657006 ] ] } }
]
}
