{
"type": "FeatureCollection",
"features": [
{ "type": "Feature", "properties": { "Name": "BARÃO DE MONTE ALTO", "Description": "BARÃO DE MONTE ALTO \/ MG" }, "geometry": { "type": "LineString", "coordinates": [ [ -42.202640469881715, -21.221242840884369 ], [ -42.235557004851842, -21.342928345166968 ], [ -42.254793999843173, -21.350042996986701 ], [ -42.363782000438903, -21.306356996877863 ], [ -42.331373999710252, -21.272102996456052 ], [ -42.327468000347892, -21.210318997223908 ], [ -42.277756000239151, -21.201244996959019 ], [ -42.202640469881715, -21.221242840884369 ] ] } }
]
}
