{
"type": "FeatureCollection",
"features": [
{ "type": "Feature", "properties": { "Name": "BERIZAL", "Description": "BERIZAL \/ MG" }, "geometry": { "type": "LineString", "coordinates": [ [ -41.747945999807989, -15.589180997704828 ], [ -41.712692000035752, -15.61120399796607 ], [ -41.646829999804588, -15.605424997665466 ], [ -41.615700999601415, -15.655229997566266 ], [ -41.672568999659568, -15.66751399747295 ], [ -41.64022800022201, -15.71645099781523 ], [ -41.667006000326637, -15.795026997098203 ], [ -41.696605000120599, -15.800739997053199 ], [ -41.842132000391473, -15.736418996839177 ], [ -41.880471000336343, -15.748362997254446 ], [ -41.916440999852227, -15.662089997355451 ], [ -41.904820999989113, -15.631190997866213 ], [ -41.853250999633872, -15.604606997714711 ], [ -41.804149999822585, -15.612315997984863 ], [ -41.747945999807989, -15.589180997704828 ] ] } }
]
}
