{
"type": "FeatureCollection",
"features": [
{ "type": "Feature", "properties": { "Name": "BOM JESUS DO GALHO", "Description": "BOM JESUS DO GALHO \/ MG" }, "geometry": { "type": "LineString", "coordinates": [ [ -42.398625000143625, -19.604226997377964 ], [ -42.364765999950919, -19.646115997355366 ], [ -42.280854000111951, -19.651180997105314 ], [ -42.240707999574454, -19.727018996929132 ], [ -42.235961000100019, -19.925726997203128 ], [ -42.352870999996583, -19.928807997191253 ], [ -42.370414999652489, -19.859782996787828 ], [ -42.335848000085086, -19.796305996824227 ], [ -42.363402000002282, -19.760208996847666 ], [ -42.364542000412939, -19.724709996569061 ], [ -42.444822000035231, -19.707833997141222 ], [ -42.483745999977884, -19.72669799651527 ], [ -42.495336000256145, -19.574677997191767 ], [ -42.523609000055274, -19.556677997191798 ], [ -42.503787999716394, -19.514923997144706 ], [ -42.489639000139675, -19.543656997472397 ], [ -42.398625000143625, -19.604226997377964 ] ] } }
]
}
