{
"type": "FeatureCollection",
"features": [
{ "type": "Feature", "properties": { "Name": "BOM DESPACHO", "Description": "BOM DESPACHO \/ MG" }, "geometry": { "type": "LineString", "coordinates": [ [ -45.390843000404118, -19.501597996850023 ], [ -45.372177000268323, -19.524494996946487 ], [ -45.282863000427085, -19.527358996820226 ], [ -45.197205000110614, -19.548979997428887 ], [ -45.116048999661587, -19.534386000713308 ], [ -45.101343009472259, -19.575951902158522 ], [ -45.091430000194293, -19.672211996586327 ], [ -45.100188000275978, -19.743545997349827 ], [ -45.128176000422052, -19.780961996998542 ], [ -45.246126999761202, -19.848451996762208 ], [ -45.266484999682973, -19.906444996539335 ], [ -45.289745999478271, -19.913819996695452 ], [ -45.364380000436654, -19.849861997033486 ], [ -45.361967999823264, -19.800621997107438 ], [ -45.403074999711407, -19.765312996597459 ], [ -45.476637999843774, -19.757155997251402 ], [ -45.510004999830812, -19.698387996808549 ], [ -45.488838000373391, -19.653176997420474 ], [ -45.429920000207801, -19.596937996691167 ], [ -45.390843000404118, -19.501597996850023 ] ] } }
]
}
