{
"type": "FeatureCollection",
"features": [
{ "type": "Feature", "properties": { "Name": "BRASÃLIA DE MINAS", "Description": "BRASÃLIA DE MINAS \/ MG" }, "geometry": { "type": "LineString", "coordinates": [ [ -44.226000999946166, -16.081714997748918 ], [ -44.235551999724976, -16.09194999759427 ], [ -44.292947999850298, -16.172371997469668 ], [ -44.252804000304309, -16.224455997246423 ], [ -44.254119999838046, -16.2778159974103 ], [ -44.309335000110138, -16.3613379972507 ], [ -44.326997999857774, -16.349729997041663 ], [ -44.44425200032952, -16.409606997365017 ], [ -44.471949999692697, -16.440786997222119 ], [ -44.586839999966003, -16.49533099712778 ], [ -44.70420400011448, -16.381214997474103 ], [ -44.66657200039748, -16.336427997853775 ], [ -44.513948000200003, -16.26104699752085 ], [ -44.545441000102016, -16.173190997466516 ], [ -44.492780999843205, -16.153221997497155 ], [ -44.497798000077573, -16.058066997194146 ], [ -44.475907999654396, -15.993561997488142 ], [ -44.430178999760983, -15.973178997312855 ], [ -44.371201999572577, -15.995282997712136 ], [ -44.314274000344824, -16.040727997099339 ], [ -44.226000999946166, -16.081714997748918 ] ] } }
]
}
