{
"type": "FeatureCollection",
"features": [
{ "type": "Feature", "properties": { "Name": "CALDAS", "Description": "CALDAS \/ MG" }, "geometry": { "type": "LineString", "coordinates": [ [ -46.130117999845766, -21.874306996170901 ], [ -46.139491000409294, -21.891905996564446 ], [ -46.256874999681422, -21.916752996653425 ], [ -46.341607999609437, -21.948134996832607 ], [ -46.394710999612926, -22.013601996834666 ], [ -46.436286000398574, -22.037352996743376 ], [ -46.50033399971425, -22.008844995999709 ], [ -46.514766999797189, -21.965444996489339 ], [ -46.565312999695152, -21.933344996474375 ], [ -46.465187000379728, -21.806002996640927 ], [ -46.398572507715016, -21.75914423331966 ], [ -46.396565999721076, -21.759747996772603 ], [ -46.344588000335932, -21.80514799678258 ], [ -46.288189000322063, -21.768564995977727 ], [ -46.211998999554169, -21.791656996073471 ], [ -46.130117999845766, -21.874306996170901 ] ] } }
]
}
