{
"type": "FeatureCollection",
"features": [
{ "type": "Feature", "properties": { "Name": "CAMACHO", "Description": "CAMACHO \/ MG" }, "geometry": { "type": "LineString", "coordinates": [ [ -45.046242000068219, -20.632907996906511 ], [ -45.085228000172037, -20.744346997216098 ], [ -45.145449000171197, -20.699560996742548 ], [ -45.14673700021234, -20.668300996793505 ], [ -45.260277000283281, -20.650917996468309 ], [ -45.181680000031918, -20.584706997230114 ], [ -45.124887999881253, -20.559965996633363 ], [ -45.046242000068219, -20.632907996906511 ] ] } }
]
}
