{
"type": "FeatureCollection",
"features": [
{ "type": "Feature", "properties": { "Name": "CAMBUQUIRA", "Description": "CAMBUQUIRA \/ MG" }, "geometry": { "type": "LineString", "coordinates": [ [ -45.141702000047239, -21.867676996196394 ], [ -45.215667999878228, -21.909746996426691 ], [ -45.270421999575603, -21.948676996646043 ], [ -45.271721000123989, -21.908523996685059 ], [ -45.35440499999072, -21.944371996870132 ], [ -45.363655000278015, -21.845238996582395 ], [ -45.328176000022324, -21.796612997092097 ], [ -45.296843000304193, -21.818785997076077 ], [ -45.208472999928972, -21.775371996920054 ], [ -45.141702000047239, -21.867676996196394 ] ] } }
]
}
