{
"type": "FeatureCollection",
"features": [
{ "type": "Feature", "properties": { "Name": "CANAÃ", "Description": "CANAÃ \/ MG" }, "geometry": { "type": "LineString", "coordinates": [ [ -42.557764999555047, -20.598451997061943 ], [ -42.568026999746223, -20.692935996998639 ], [ -42.588658999713005, -20.746437996516306 ], [ -42.650477999659927, -20.758550996631129 ], [ -42.697778400252901, -20.657252997227999 ], [ -42.641155999649641, -20.58348899681971 ], [ -42.557764999555047, -20.598451997061943 ] ] } }
]
}
