{
"type": "FeatureCollection",
"features": [
{ "type": "Feature", "properties": { "Name": "CANTAGALO", "Description": "CANTAGALO \/ MG" }, "geometry": { "type": "LineString", "coordinates": [ [ -42.614910999842721, -18.416507996846519 ], [ -42.595368999779446, -18.565233997151211 ], [ -42.661079000195684, -18.600177997016885 ], [ -42.685545999847982, -18.587142996651949 ], [ -42.704263999683803, -18.508359996816353 ], [ -42.656131999592048, -18.430815997460286 ], [ -42.614910999842721, -18.416507996846519 ] ] } }
]
}
