{
"type": "FeatureCollection",
"features": [
{ "type": "Feature", "properties": { "Name": "CAPELINHA", "Description": "CAPELINHA \/ MG" }, "geometry": { "type": "LineString", "coordinates": [ [ -42.558711000012579, -17.484479997453889 ], [ -42.518043999730764, -17.521145997589656 ], [ -42.370062999607683, -17.609618997318819 ], [ -42.288231000360327, -17.595668997026564 ], [ -42.369043000234228, -17.68015599730137 ], [ -42.299543000409074, -17.729676997595334 ], [ -42.322711000412312, -17.784267996970414 ], [ -42.37318399964181, -17.766665997337839 ], [ -42.46545099986372, -17.835577997026917 ], [ -42.486612999989916, -17.926619996515569 ], [ -42.556826000319631, -17.89843599722343 ], [ -42.547581284448647, -17.870374299434332 ], [ -42.616018999677067, -17.768857996799056 ], [ -42.599791999601052, -17.722057996978947 ], [ -42.613889000377007, -17.671444996689214 ], [ -42.659735000270018, -17.657913996833425 ], [ -42.695602999578739, -17.587932997309906 ], [ -42.684197999737876, -17.549963996441246 ], [ -42.662775000166107, -17.586167996855522 ], [ -42.588843000104298, -17.630791997052995 ], [ -42.580902999973432, -17.5662499974394 ], [ -42.599237000087442, -17.50098099667559 ], [ -42.558711000012579, -17.484479997453889 ] ] } }
]
}
