{
"type": "FeatureCollection",
"features": [
{ "type": "Feature", "properties": { "Name": "CARANDAÃ", "Description": "CARANDAÃ \/ MG" }, "geometry": { "type": "LineString", "coordinates": [ [ -43.797026000049812, -20.883854996910539 ], [ -43.820780000096875, -20.913363996151475 ], [ -43.709520999994133, -20.95094499621456 ], [ -43.675531000055571, -20.929321996412966 ], [ -43.647579000670305, -20.954114996709677 ], [ -43.70858499999769, -21.020027996594706 ], [ -43.771981999869354, -21.06445799593973 ], [ -43.909556000309124, -21.124509996239283 ], [ -43.941226000279642, -21.121636996849873 ], [ -43.929600000139821, -21.062992996729349 ], [ -43.963796999731699, -21.041913996833443 ], [ -43.994929000073228, -20.988766996599566 ], [ -43.922468000397878, -20.92747199653536 ], [ -43.895601999832358, -20.886003996187412 ], [ -43.797026000049812, -20.883854996910539 ] ] } }
]
}
