{
"type": "FeatureCollection",
"features": [
{ "type": "Feature", "properties": { "Name": "CARANGOLA", "Description": "CARANGOLA \/ MG" }, "geometry": { "type": "LineString", "coordinates": [ [ -41.957551999924817, -20.695106997290051 ], [ -41.968151000368316, -20.732636996799894 ], [ -42.020418999637059, -20.774346996616543 ], [ -42.085838000123545, -20.730686996807435 ], [ -42.145945000261513, -20.749545996850202 ], [ -42.172206999953062, -20.785703996941834 ], [ -42.201319999818111, -20.815938997286878 ], [ -42.205856000354117, -20.763282997212514 ], [ -42.247217600112094, -20.737105596745835 ], [ -42.216117999645917, -20.666246996501627 ], [ -42.134261000144988, -20.690415996800766 ], [ -42.095575000385907, -20.65574799707235 ], [ -42.077324999648965, -20.59969199668825 ], [ -41.988358999668037, -20.638777996906978 ], [ -41.957551999924817, -20.695106997290051 ] ] } }
]
}
