{
"type": "FeatureCollection",
"features": [
{ "type": "Feature", "properties": { "Name": "CARMO DE MINAS", "Description": "CARMO DE MINAS \/ MG" }, "geometry": { "type": "LineString", "coordinates": [ [ -45.126549000036277, -21.981988996794712 ], [ -45.074491056317129, -22.096542025593976 ], [ -45.060383560452919, -22.143870769220598 ], [ -45.064932000411432, -22.174984996260548 ], [ -45.137206999603272, -22.176665996438544 ], [ -45.164379999937005, -22.20062199680768 ], [ -45.234469999990438, -22.148697996315434 ], [ -45.250601000135987, -22.113826997118167 ], [ -45.236662000350975, -22.040482996293179 ], [ -45.200449999567809, -21.985427996205033 ], [ -45.126549000036277, -21.981988996794712 ] ] } }
]
}
