{
"type": "FeatureCollection",
"features": [
{ "type": "Feature", "properties": { "Name": "CARMO DA CACHOEIRA", "Description": "CARMO DA CACHOEIRA \/ MG" }, "geometry": { "type": "LineString", "coordinates": [ [ -45.08505500028798, -21.398909996798864 ], [ -45.060936999642763, -21.408679996784372 ], [ -45.042165000014677, -21.45487899676823 ], [ -45.063646999609318, -21.50023399650172 ], [ -45.112437000367208, -21.542440996754578 ], [ -45.179112000318526, -21.537619996565525 ], [ -45.254574999936267, -21.554052996248743 ], [ -45.364764000158452, -21.481176996321267 ], [ -45.334072000322521, -21.420227996924496 ], [ -45.272646999659287, -21.376736996814884 ], [ -45.144822000035219, -21.348498996831211 ], [ -45.08505500028798, -21.398909996798864 ] ] } }
]
}
