{
"type": "FeatureCollection",
"features": [
{ "type": "Feature", "properties": { "Name": "CARVALHOS", "Description": "CARVALHOS \/ MG" }, "geometry": { "type": "LineString", "coordinates": [ [ -44.379316999679752, -21.94080399600756 ], [ -44.436810999827735, -22.067241996420933 ], [ -44.430309000360012, -22.115426996258805 ], [ -44.49062900042798, -22.136616996776922 ], [ -44.540827999612468, -22.128640996784554 ], [ -44.527858000446308, -22.082824996476347 ], [ -44.581834000238871, -22.029483996289343 ], [ -44.55653499999022, -21.969238996082765 ], [ -44.513109000180172, -21.927227996774604 ], [ -44.441252999626215, -21.959533996396772 ], [ -44.379316999679752, -21.94080399600756 ] ] } }
]
}
