{
"type": "FeatureCollection",
"features": [
{ "type": "Feature", "properties": { "Name": "CARVALHÃPOLIS", "Description": "CARVALHÃPOLIS \/ MG" }, "geometry": { "type": "LineString", "coordinates": [ [ -45.787466000355607, -21.822919997060179 ], [ -45.848951000188492, -21.808678996838179 ], [ -45.897243999610851, -21.777457996888984 ], [ -45.8840520000997, -21.748898996491448 ], [ -45.816898999689045, -21.722743996338295 ], [ -45.787466000355607, -21.822919997060179 ] ] } }
]
}
