{
"type": "FeatureCollection",
"features": [
{ "type": "Feature", "properties": { "Name": "CATUTI", "Description": "CATUTI \/ MG" }, "geometry": { "type": "LineString", "coordinates": [ [ -42.962625999889951, -15.327099997766652 ], [ -42.938548000189996, -15.368502997815026 ], [ -43.039629000377992, -15.405691997787414 ], [ -43.108896000250176, -15.410816997606331 ], [ -43.206798999574119, -15.323384997319748 ], [ -43.205855000108102, -15.279511997580585 ], [ -43.246771000181468, -15.256771997529597 ], [ -43.195124999918782, -15.233564997526571 ], [ -43.106210999637881, -15.267995998016827 ], [ -43.021788999662583, -15.331196997843108 ], [ -42.962625999889951, -15.327099997766652 ] ] } }
]
}
