{
"type": "FeatureCollection",
"features": [
{ "type": "Feature", "properties": { "Name": "CRISÃLITA", "Description": "CRISÃLITA \/ MG" }, "geometry": { "type": "LineString", "coordinates": [ [ -40.798698000412344, -17.136539996923261 ], [ -40.759216999964508, -17.159901997778945 ], [ -40.783564000378242, -17.26196599743281 ], [ -40.74764999984756, -17.346644997568546 ], [ -40.815973000253734, -17.376135996878702 ], [ -40.8539220002001, -17.342317997677409 ], [ -40.952151000168499, -17.332634997207322 ], [ -41.071544000355281, -17.347131997543613 ], [ -41.179804999800865, -17.281245997105028 ], [ -41.205315999933418, -17.223842997556233 ], [ -41.126134999730418, -17.124860997037327 ], [ -41.055242000417934, -17.164061997163401 ], [ -41.031797000231336, -17.131532997150032 ], [ -40.97188800023099, -17.174252997677627 ], [ -40.842264000383295, -17.107937997240754 ], [ -40.798698000412344, -17.136539996923261 ] ] } }
]
}
