{
"type": "FeatureCollection",
"features": [
{ "type": "Feature", "properties": { "Name": "DIAMANTINA", "Description": "DIAMANTINA \/ MG" }, "geometry": { "type": "LineString", "coordinates": [ [ -43.217603999624821, -17.414277997631412 ], [ -43.227442000048192, -17.562730997037818 ], [ -43.247925000338455, -17.642461997423194 ], [ -43.301439000409516, -17.660587996938489 ], [ -43.291012999850011, -17.712730997637379 ], [ -43.32660199978244, -17.764953997528892 ], [ -43.381273000148781, -17.797678997587639 ], [ -43.376131000445298, -17.873350996950876 ], [ -43.408176999768671, -17.947143996897918 ], [ -43.452580999713348, -17.933644997618501 ], [ -43.459629000078223, -17.864527997469054 ], [ -43.499551000178485, -17.849106997689773 ], [ -43.524541999713442, -17.970787997268189 ], [ -43.551615999978367, -18.045448996773757 ], [ -43.458741999643507, -18.14676599705308 ], [ -43.458327000290808, -18.189099996867295 ], [ -43.383873999585369, -18.25667099676906 ], [ -43.402204000414251, -18.293462997319409 ], [ -43.455498000232467, -18.326143997147707 ], [ -43.530368000382843, -18.433928997125459 ], [ -43.570393999883144, -18.439343996827972 ], [ -43.628081999984261, -18.394061996863627 ], [ -43.606921999950316, -18.328419996885316 ], [ -43.683667000231821, -18.300015997340381 ], [ -43.682208000398873, -18.37531599753521 ], [ -43.764230000314221, -18.336346997316014 ], [ -43.831234000148925, -18.333174997628021 ], [ -43.858627999882231, -18.368583997353539 ], [ -43.930327000390719, -18.377477997411631 ], [ -43.988381000282914, -18.34544399684296 ], [ -44.000812999820027, -18.288962997544274 ], [ -44.054901000280893, -18.274757997183769 ], [ -44.088353999737251, -18.220437996816031 ], [ -44.014953999927116, -18.212576996730945 ], [ -43.955823999877623, -18.141037997305659 ], [ -43.917729000393024, -18.118894996906533 ], [ -43.936876000227187, -18.059741997595037 ], [ -43.819907000307751, -18.025880997310139 ], [ -43.763652999786075, -17.924565997123011 ], [ -43.750553000020886, -17.890128997255374 ], [ -43.696365000344429, -17.876848997283332 ], [ -43.677090000003432, -17.831094997136347 ], [ -43.607131999741959, -17.74991299728697 ], [ -43.611105000395412, -17.629429997196553 ], [ -43.549349999802587, -17.53984099726415 ], [ -43.503125999565214, -17.56004399723264 ], [ -43.436390000398148, -17.530657997368621 ], [ -43.371002000441933, -17.522466997354002 ], [ -43.318977999834772, -17.473060996967376 ], [ -43.279941000077031, -17.395672997610689 ], [ -43.295411000317358, -17.37968099757995 ], [ -43.217603999624821, -17.414277997631412 ] ] } }
]
}
