{
"type": "FeatureCollection",
"features": [
{ "type": "Feature", "properties": { "Name": "DIONÃSIO", "Description": "DIONÃSIO \/ MG" }, "geometry": { "type": "LineString", "coordinates": [ [ -42.550940999627414, -19.88553899742675 ], [ -42.551502000317043, -19.885917996917954 ], [ -42.618629000427973, -19.897637996895977 ], [ -42.682342999629668, -19.870208997347277 ], [ -42.781858000446334, -19.871990996787019 ], [ -42.82678100004307, -19.91050399666204 ], [ -42.860878999566125, -19.861108996782718 ], [ -42.777376999748697, -19.794839996668486 ], [ -42.721363000402107, -19.758305997223943 ], [ -42.662664999589992, -19.788874996783647 ], [ -42.52979999957028, -19.808786996822391 ], [ -42.478965999880927, -19.751862996879765 ], [ -42.47446400001354, -19.773546996796426 ], [ -42.550940999627414, -19.88553899742675 ] ] } }
]
}
