{
"type": "FeatureCollection",
"features": [
{ "type": "Feature", "properties": { "Name": "DIVISA NOVA", "Description": "DIVISA NOVA \/ MG" }, "geometry": { "type": "LineString", "coordinates": [ [ -46.140611999943815, -21.503910996994875 ], [ -46.180952999581223, -21.51918999652105 ], [ -46.174332000021764, -21.581652996488568 ], [ -46.229897000246297, -21.590776996361225 ], [ -46.295550999878678, -21.571801996364968 ], [ -46.322500999821216, -21.573190996567178 ], [ -46.357325999595162, -21.52763299646557 ], [ -46.299117999795833, -21.470742997191508 ], [ -46.20964900000132, -21.446645996615416 ], [ -46.185074999911251, -21.440889996476127 ], [ -46.140611999943815, -21.503910996994875 ] ] } }
]
}
