{
"type": "FeatureCollection",
"features": [
{ "type": "Feature", "properties": { "Name": "DIVINÃPOLIS", "Description": "DIVINÃPOLIS \/ MG" }, "geometry": { "type": "LineString", "coordinates": [ [ -44.860762000066188, -20.090359996316749 ], [ -44.820881198808252, -20.117051897127279 ], [ -44.757985999953917, -20.253377996497306 ], [ -44.870545999798018, -20.30631099675503 ], [ -44.904380999783257, -20.259088997259369 ], [ -44.941615000032186, -20.209283997358568 ], [ -45.071511999878851, -20.149466997104184 ], [ -45.096841999758453, -20.122855996606916 ], [ -45.047166000410527, -20.011686997057211 ], [ -44.986238000183505, -20.00889199676817 ], [ -44.964836999827639, -19.934795997237416 ], [ -44.887858000446329, -19.918251996932042 ], [ -44.905287000194846, -19.974506996600553 ], [ -44.860762000066188, -20.090359996316749 ] ] } }
]
}
