{
"type": "FeatureCollection",
"features": [
{ "type": "Feature", "properties": { "Name": "DOM VIÃOSO", "Description": "DOM VIÃOSO \/ MG" }, "geometry": { "type": "LineString", "coordinates": [ [ -45.073613999686302, -22.236865996368579 ], [ -45.174080000291724, -22.288238996632344 ], [ -45.24345399970229, -22.28201999672541 ], [ -45.164379999937005, -22.20062199680768 ], [ -45.137206999603272, -22.176665996438544 ], [ -45.064932000411432, -22.174984996260548 ], [ -45.073613999686302, -22.236865996368579 ] ] } }
]
}
