{
"type": "FeatureCollection",
"features": [
{ "type": "Feature", "properties": { "Name": "DORES DO INDAIÃ", "Description": "DORES DO INDAIÃ \/ MG" }, "geometry": { "type": "LineString", "coordinates": [ [ -45.338661999751423, -19.344537997130828 ], [ -45.404904000419265, -19.491608996657817 ], [ -45.390843000404118, -19.501597996850023 ], [ -45.429920000207801, -19.596937996691167 ], [ -45.488838000373391, -19.653176997420474 ], [ -45.510004999830812, -19.698387996808549 ], [ -45.560519000051784, -19.661330996628124 ], [ -45.636209000245117, -19.663014996944526 ], [ -45.684448999921358, -19.542834997337195 ], [ -45.74493499955053, -19.491736997164651 ], [ -45.731652000339523, -19.451811996926097 ], [ -45.67765300038559, -19.39980099691843 ], [ -45.681682000024239, -19.343589997480365 ], [ -45.712964673680688, -19.313959896432035 ], [ -45.661301999987245, -19.309847997287193 ], [ -45.623554000316794, -19.355670997018876 ], [ -45.501792999747124, -19.35616199717839 ], [ -45.466095000184055, -19.322164996917024 ], [ -45.365734999970236, -19.351317996828072 ], [ -45.338661999751423, -19.344537997130828 ] ] } }
]
}
