{
"type": "FeatureCollection",
"features": [
{ "type": "Feature", "properties": { "Name": "ESTRELA DO INDAIÃ", "Description": "ESTRELA DO INDAIÃ \/ MG" }, "geometry": { "type": "LineString", "coordinates": [ [ -45.74493499955053, -19.491736997164651 ], [ -45.684448999921358, -19.542834997337195 ], [ -45.636209000245117, -19.663014996944526 ], [ -45.698993999773222, -19.696420996931408 ], [ -45.813178999910861, -19.705129997451362 ], [ -45.848772000027736, -19.68406599734783 ], [ -45.925477000263299, -19.700819997444853 ], [ -45.948604000174441, -19.608305996624377 ], [ -45.902613999936079, -19.538025996802276 ], [ -45.902189000122235, -19.46522499673614 ], [ -45.900654000381792, -19.437907996956422 ], [ -45.864382000428911, -19.42947399742701 ], [ -45.803620999809247, -19.479081997236335 ], [ -45.74493499955053, -19.491736997164651 ] ] } }
]
}
