{
"type": "FeatureCollection",
"features": [
{ "type": "Feature", "properties": { "Name": "FERROS", "Description": "FERROS \/ MG" }, "geometry": { "type": "LineString", "coordinates": [ [ -42.747368999979301, -19.149990997186702 ], [ -42.748643000274228, -19.152353996439725 ], [ -42.792478000059589, -19.188332997269981 ], [ -42.746159999983938, -19.225274996643748 ], [ -42.727028999988306, -19.320437997315651 ], [ -42.742043999930615, -19.3552849963055 ], [ -42.792144999991706, -19.407905996564466 ], [ -42.876700999851209, -19.432244996609256 ], [ -42.897389999748668, -19.429495996642913 ], [ -42.957819000346547, -19.305575997234428 ], [ -43.044823999827706, -19.312338997047046 ], [ -43.102651000043579, -19.381804997102904 ], [ -43.139776999808646, -19.334461997423205 ], [ -43.125250999933648, -19.237121997082454 ], [ -43.117946000307597, -19.197679996634516 ], [ -43.163518000155534, -19.114599997391906 ], [ -43.094404000144436, -19.106083996778978 ], [ -43.078341000436751, -19.059989997140633 ], [ -43.042678999835914, -19.068133996786457 ], [ -42.94684399965081, -19.151712997456798 ], [ -42.903576999978497, -19.109619997065181 ], [ -42.822956999965527, -19.159196997243555 ], [ -42.747368999979301, -19.149990997186702 ] ] } }
]
}
