{
"type": "FeatureCollection",
"features": [
{ "type": "Feature", "properties": { "Name": "FRONTEIRA", "Description": "FRONTEIRA \/ MG" }, "geometry": { "type": "LineString", "coordinates": [ [ -49.065897133146109, -20.153463188575245 ], [ -49.122411149255072, -20.273545040671024 ], [ -49.183562520393927, -20.314659812500278 ], [ -49.225294014906808, -20.305343066329385 ], [ -49.26524862352511, -20.229698856017365 ], [ -49.169149999672698, -20.216418997238858 ], [ -49.139480000201786, -20.148719996830323 ], [ -49.102451000413275, -20.12374899731833 ], [ -49.065897133146109, -20.153463188575245 ] ] } }
]
}
