{
"type": "FeatureCollection",
"features": [
{ "type": "Feature", "properties": { "Name": "GALILÃIA", "Description": "GALILÃIA \/ MG" }, "geometry": { "type": "LineString", "coordinates": [ [ -41.593209000195145, -18.748150996771017 ], [ -41.570990999934679, -18.805549997034689 ], [ -41.435586999740224, -18.786042996786819 ], [ -41.377827999962165, -18.76090899695259 ], [ -41.36059400021287, -18.825412997511762 ], [ -41.40632300010634, -18.866500997423032 ], [ -41.458471000136512, -18.952360997162259 ], [ -41.402424000167457, -19.023469997442362 ], [ -41.486206000306652, -19.010560997492007 ], [ -41.531882999600725, -19.037588996534907 ], [ -41.537107000387721, -19.013480996350836 ], [ -41.612701999797423, -18.974218997009075 ], [ -41.672838000373361, -18.963252996728386 ], [ -41.713418000240495, -18.910118997094003 ], [ -41.678257000260317, -18.843800997418043 ], [ -41.6899319999618, -18.794793997444966 ], [ -41.646413000359644, -18.75100499708293 ], [ -41.593209000195145, -18.748150996771017 ] ] } }
]
}
