{
"type": "FeatureCollection",
"features": [
{ "type": "Feature", "properties": { "Name": "GONÃALVES", "Description": "GONÃALVES \/ MG" }, "geometry": { "type": "LineString", "coordinates": [ [ -45.730042219272946, -22.618745629407215 ], [ -45.742806738640013, -22.659166862960319 ], [ -45.811641028810413, -22.698707661129617 ], [ -45.805052320308278, -22.737271485290758 ], [ -45.92132400030232, -22.720485996331604 ], [ -45.9491199996882, -22.694348997008547 ], [ -45.885709000070278, -22.676037997055857 ], [ -45.878907000257811, -22.615251997081941 ], [ -45.730042219272946, -22.618745629407215 ] ] } }
]
}
