{
"type": "FeatureCollection",
"features": [
{ "type": "Feature", "properties": { "Name": "GUANHÃES", "Description": "GUANHÃES \/ MG" }, "geometry": { "type": "LineString", "coordinates": [ [ -42.720368000382848, -18.64732399660511 ], [ -42.718043000184252, -18.654919997060176 ], [ -42.720144999991703, -18.687998997255871 ], [ -42.777069999980483, -18.707551996927066 ], [ -42.763170000195316, -18.843618997118995 ], [ -42.700516999559852, -18.888157996993925 ], [ -42.555942000023258, -18.936834997037465 ], [ -42.55597000041513, -18.939566997119186 ], [ -42.61641199981392, -18.990574996738644 ], [ -42.65591300028467, -18.974825997122025 ], [ -42.704288999937376, -18.918112997017147 ], [ -42.793914999777371, -18.904608996607863 ], [ -42.776112999914972, -18.975675996749828 ], [ -42.800384000421218, -19.096108997232363 ], [ -42.864425000313474, -19.067457997088866 ], [ -42.881737000062458, -19.010111997470688 ], [ -42.944368999729534, -18.929031996929098 ], [ -42.984596000405077, -18.930129997201561 ], [ -42.990757000335236, -18.850975997344332 ], [ -43.062563000382113, -18.789749996864828 ], [ -42.979932000261556, -18.736386997461917 ], [ -43.008493999898121, -18.693607996911506 ], [ -42.971643000224219, -18.65421999715511 ], [ -42.851260000248764, -18.674972997305929 ], [ -42.802510999582921, -18.615520996796533 ], [ -42.720368000382848, -18.64732399660511 ] ] } }
]
}
