{
"type": "FeatureCollection",
"features": [
{ "type": "Feature", "properties": { "Name": "GUARACIAMA", "Description": "GUARACIAMA \/ MG" }, "geometry": { "type": "LineString", "coordinates": [ [ -43.620410999667847, -16.989393997534933 ], [ -43.566087000014988, -16.963782997287467 ], [ -43.567508999940344, -17.071130997797241 ], [ -43.488659999759136, -17.177735997318393 ], [ -43.601475999717586, -17.19634399747747 ], [ -43.668192999807047, -17.170539997322976 ], [ -43.684669999720654, -17.105183997043806 ], [ -43.719710000416171, -17.081366997688747 ], [ -43.685880999808262, -16.92730799696642 ], [ -43.620410999667847, -16.989393997534933 ] ] } }
]
}
