{
"type": "FeatureCollection",
"features": [
{ "type": "Feature", "properties": { "Name": "GUARANI", "Description": "GUARANI \/ MG" }, "geometry": { "type": "LineString", "coordinates": [ [ -42.926404999591, -21.302833997191158 ], [ -42.938007000422715, -21.367892996364674 ], [ -43.045872999639187, -21.400474997023423 ], [ -43.06033800029843, -21.430388996055285 ], [ -43.086395000428865, -21.439318995974816 ], [ -43.158591000474246, -21.391195996298165 ], [ -43.183284999802879, -21.3515099971886 ], [ -43.157121000133998, -21.310752996353642 ], [ -43.073039999696164, -21.290708996522937 ], [ -43.04601900007674, -21.315582996957687 ], [ -42.926404999591, -21.302833997191158 ] ] } }
]
}
