{
"type": "FeatureCollection",
"features": [
{ "type": "Feature", "properties": { "Name": "GUAXUPÃ", "Description": "GUAXUPÃ \/ MG" }, "geometry": { "type": "LineString", "coordinates": [ [ -46.617997000161374, -21.193141996505915 ], [ -46.612089000207163, -21.291883996748993 ], [ -46.600619000066786, -21.326371997169872 ], [ -46.647604679312444, -21.379575768906591 ], [ -46.738974841415768, -21.392572330448672 ], [ -46.764705058491586, -21.360063638026414 ], [ -46.757899000038776, -21.296398997215931 ], [ -46.721535000339941, -21.265224996736151 ], [ -46.730336999752694, -21.187337996851056 ], [ -46.617997000161374, -21.193141996505915 ] ] } }
]
}
