{
"type": "FeatureCollection",
"features": [
{ "type": "Feature", "properties": { "Name": "GUIRICEMA", "Description": "GUIRICEMA \/ MG" }, "geometry": { "type": "LineString", "coordinates": [ [ -42.611860000338709, -20.986296996908834 ], [ -42.655344000125467, -21.077681996926572 ], [ -42.706730000089408, -21.141850996426285 ], [ -42.790119000091742, -21.095925996487495 ], [ -42.763664999639957, -21.062911996591311 ], [ -42.758080000191789, -20.966246996801431 ], [ -42.720672000012769, -20.895472996681406 ], [ -42.651123999772715, -20.910816996507151 ], [ -42.611860000338709, -20.986296996908834 ] ] } }
]
}
