{
"type": "FeatureCollection",
"features": [
{ "type": "Feature", "properties": { "Name": "IGARAPÃ", "Description": "IGARAPÃ \/ MG" }, "geometry": { "type": "LineString", "coordinates": [ [ -44.270318000375369, -20.003917996718144 ], [ -44.290534807635197, -20.056071770395818 ], [ -44.276033999569393, -20.111689996096402 ], [ -44.337800999816238, -20.119554996365935 ], [ -44.354438999959825, -20.121303996981851 ], [ -44.37550600020171, -20.072236996040488 ], [ -44.34360200023206, -20.00458399595459 ], [ -44.270318000375369, -20.003917996718144 ] ] } }
]
}
