{
"type": "FeatureCollection",
"features": [
{ "type": "Feature", "properties": { "Name": "ILICÃNEA", "Description": "ILICÃNEA \/ MG" }, "geometry": { "type": "LineString", "coordinates": [ [ -45.691792000400476, -20.897200997228197 ], [ -45.682961999696481, -20.962058997025053 ], [ -45.762951000288403, -21.02850799644682 ], [ -45.908124999569054, -20.97071899708402 ], [ -45.94122799997217, -20.890606997115185 ], [ -45.883865999616148, -20.854214997024428 ], [ -45.839688000201015, -20.865403996796942 ], [ -45.787827999962182, -20.835867997210244 ], [ -45.691792000400476, -20.897200997228197 ] ] } }
]
}
