{
"type": "FeatureCollection",
"features": [
{ "type": "Feature", "properties": { "Name": "IPANEMA", "Description": "IPANEMA \/ MG" }, "geometry": { "type": "LineString", "coordinates": [ [ -41.751471999633054, -19.594599996792393 ], [ -41.694924999988693, -19.644095996832732 ], [ -41.679793000046857, -19.689733997026281 ], [ -41.655004999980747, -19.832076997055708 ], [ -41.714562999982427, -19.873250997335617 ], [ -41.737300999941169, -19.914307996716612 ], [ -41.841419999933009, -19.925345996720353 ], [ -41.843861000085042, -19.925114996859577 ], [ -41.802032000176609, -19.83217999730897 ], [ -41.785641999778413, -19.739457996789099 ], [ -41.818364999744915, -19.708031997278795 ], [ -41.814537000382245, -19.594404996793116 ], [ -41.751471999633054, -19.594599996792393 ] ] } }
]
}
