{
"type": "FeatureCollection",
"features": [
{ "type": "Feature", "properties": { "Name": "IPATINGA", "Description": "IPATINGA \/ MG" }, "geometry": { "type": "LineString", "coordinates": [ [ -42.677608999855401, -19.381712996457566 ], [ -42.593468000247981, -19.379012996952213 ], [ -42.502336964279436, -19.492096812317982 ], [ -42.514315085872447, -19.492309409351719 ], [ -42.57360881019838, -19.515290814419529 ], [ -42.597840344855967, -19.465281130619644 ], [ -42.695036999557828, -19.417716996642014 ], [ -42.685190999664883, -19.368152997063135 ], [ -42.677608999855401, -19.381712996457566 ] ] } }
]
}
