{
"type": "FeatureCollection",
"features": [
{ "type": "Feature", "properties": { "Name": "IRAÃ DE MINAS", "Description": "IRAÃ DE MINAS \/ MG" }, "geometry": { "type": "LineString", "coordinates": [ [ -47.339487999671405, -18.959411996766164 ], [ -47.389526999571331, -19.127621997157405 ], [ -47.440946000157737, -19.138663997345532 ], [ -47.470311999998785, -19.119167996705638 ], [ -47.570314999937239, -19.106015997240434 ], [ -47.59500700007294, -19.045145996990129 ], [ -47.573035000364939, -19.012891997067982 ], [ -47.495735999716544, -18.98846199732327 ], [ -47.493370000325228, -18.963215996820736 ], [ -47.457775226745298, -18.977664559671666 ], [ -47.339487999671405, -18.959411996766164 ] ] } }
]
}
