{
"type": "FeatureCollection",
"features": [
{ "type": "Feature", "properties": { "Name": "ITAGUARA", "Description": "ITAGUARA \/ MG" }, "geometry": { "type": "LineString", "coordinates": [ [ -44.43534799981029, -20.291668996926603 ], [ -44.437498000032626, -20.346143997247623 ], [ -44.406978000034655, -20.426561996938574 ], [ -44.543238000133556, -20.482501996469921 ], [ -44.594427000006014, -20.456643996523155 ], [ -44.628135000429893, -20.405177996467327 ], [ -44.658902000127171, -20.337752997003179 ], [ -44.565678999885904, -20.279120996536733 ], [ -44.43534799981029, -20.291668996926603 ] ] } }
]
}
