{
"type": "FeatureCollection",
"features": [
{ "type": "Feature", "properties": { "Name": "ITURAMA", "Description": "ITURAMA \/ MG" }, "geometry": { "type": "LineString", "coordinates": [ [ -50.214473999575368, -19.559322996858779 ], [ -50.160010999807753, -19.629173996682539 ], [ -50.116153999907112, -19.750791996953069 ], [ -50.09088400009648, -19.769473996927388 ], [ -50.083148000379879, -19.833685996611393 ], [ -50.106220406046873, -19.874342144774118 ], [ -50.245155944990813, -19.87675770490409 ], [ -50.352758941072238, -19.86460243215646 ], [ -50.417132774657773, -19.801136462377769 ], [ -50.469323577920761, -19.779888808121939 ], [ -50.562036141854435, -19.813573155476718 ], [ -50.572616000228209, -19.75979799678009 ], [ -50.616075999807492, -19.688342996731876 ], [ -50.600783999681823, -19.652401996754691 ], [ -50.663205999557192, -19.626218997108989 ], [ -50.692165000414377, -19.574154997355208 ], [ -50.578744999582, -19.609592996619426 ], [ -50.517461000025094, -19.613196997343493 ], [ -50.454844000150445, -19.580940997329094 ], [ -50.363790000108395, -19.580310997054823 ], [ -50.343204999610975, -19.549948997148476 ], [ -50.265974000299821, -19.593027997144304 ], [ -50.214473999575368, -19.559322996858779 ] ] } }
]
}
