{
"type": "FeatureCollection",
"features": [
{ "type": "Feature", "properties": { "Name": "JACUÃ", "Description": "JACUÃ \/ MG" }, "geometry": { "type": "LineString", "coordinates": [ [ -46.613473000178764, -20.970857997198777 ], [ -46.63675399999704, -21.011166997159137 ], [ -46.648787000019979, -21.088634996607766 ], [ -46.678874999881316, -21.110439996708408 ], [ -46.759806999893101, -21.118245996955125 ], [ -46.782098999968809, -21.157658996965097 ], [ -46.7853509997488, -21.151855996457016 ], [ -46.812040000245759, -21.084576996531098 ], [ -46.891887999731352, -21.065384996420391 ], [ -46.86844200039797, -21.010567996515761 ], [ -46.798105999792028, -20.975724996811095 ], [ -46.673239999926011, -20.898046996671493 ], [ -46.613473000178764, -20.970857997198777 ] ] } }
]
}
