{
"type": "FeatureCollection",
"features": [
{ "type": "Feature", "properties": { "Name": "JAÃBA", "Description": "JAÃBA \/ MG" }, "geometry": { "type": "LineString", "coordinates": [ [ -43.525203999664825, -14.977304997127876 ], [ -43.468874000134974, -15.078115997455257 ], [ -43.368929000173175, -15.060508997592136 ], [ -43.311866000115735, -15.083686997157146 ], [ -43.330503999859673, -15.106312997346889 ], [ -43.309361999756447, -15.236553996869418 ], [ -43.311525999725063, -15.327135997628147 ], [ -43.442588000235951, -15.358987996998394 ], [ -43.646338000098581, -15.400823997229622 ], [ -43.660527999767339, -15.377507997595956 ], [ -43.733599999740129, -15.377755997341353 ], [ -43.763093000041863, -15.414281997316266 ], [ -43.863267999818277, -15.444272997201038 ], [ -43.90919199971097, -15.494719997030188 ], [ -43.970813000419582, -15.531585997395837 ], [ -44.001803999654832, -15.505194997151362 ], [ -43.930399000113709, -15.437459997780651 ], [ -43.928701000051085, -15.308081997586099 ], [ -43.99115999983411, -15.255550996980901 ], [ -44.026285999998834, -15.249999997301986 ], [ -44.068873999835205, -15.195590997326633 ], [ -44.01872000002794, -15.070175997324384 ], [ -43.789978999731034, -15.112220997301163 ], [ -43.659785999724079, -15.11328999713561 ], [ -43.613463000317154, -15.094207997600961 ], [ -43.5843860003136, -15.01272599740679 ], [ -43.536791999850891, -15.023118997343829 ], [ -43.525203999664825, -14.977304997127876 ] ] } }
]
}
