{
"type": "FeatureCollection",
"features": [
{ "type": "Feature", "properties": { "Name": "JUIZ DE FORA", "Description": "JUIZ DE FORA \/ MG" }, "geometry": { "type": "LineString", "coordinates": [ [ -43.41915099951899, -21.530886996337756 ], [ -43.357693000031873, -21.587773996372789 ], [ -43.359285999749034, -21.626525996477483 ], [ -43.294856999950525, -21.661367997035367 ], [ -43.261904000169409, -21.684641996530843 ], [ -43.246594000112964, -21.769980996525703 ], [ -43.187587000339761, -21.74286399607649 ], [ -43.17124400031031, -21.759519996150857 ], [ -43.156785999973856, -21.827160996582677 ], [ -43.18878399978172, -21.854569996108406 ], [ -43.236980000126835, -21.86175399644975 ], [ -43.252112000068678, -21.828266996324771 ], [ -43.334832274090161, -21.809519085037721 ], [ -43.382547000443651, -21.832852996468546 ], [ -43.374570000405129, -21.895959996456611 ], [ -43.442078000099571, -21.87629099683198 ], [ -43.495247999595449, -21.891440996704599 ], [ -43.494767999943171, -21.932899996637502 ], [ -43.585127000310763, -21.998924996291521 ], [ -43.59835999991401, -21.923627996234984 ], [ -43.665487000024996, -21.853403996297345 ], [ -43.634007999869254, -21.810822996783827 ], [ -43.667894000407728, -21.750390996946919 ], [ -43.678961999996261, -21.711929996771911 ], [ -43.684209000045257, -21.626726996753458 ], [ -43.665969999815616, -21.605345996420564 ], [ -43.639491000009627, -21.60787799627246 ], [ -43.541733000177771, -21.620636996500139 ], [ -43.472855000257994, -21.53059199622362 ], [ -43.41915099951899, -21.530886996337756 ] ] } }
]
}
