{
"type": "FeatureCollection",
"features": [
{ "type": "Feature", "properties": { "Name": "LAGAMAR", "Description": "LAGAMAR \/ MG" }, "geometry": { "type": "LineString", "coordinates": [ [ -46.574334000213923, -17.747172996836294 ], [ -46.659717000439173, -17.866526997023239 ], [ -46.669811000077573, -17.946701997199337 ], [ -46.61475599998937, -17.951265997227946 ], [ -46.594899999835093, -18.010437997415579 ], [ -46.553419999833068, -18.067092996644416 ], [ -46.545926999631263, -18.176151996917099 ], [ -46.578101000360846, -18.182566996869355 ], [ -46.600482000044224, -18.265733996526649 ], [ -46.639704000239362, -18.298645997115045 ], [ -46.691713000154778, -18.289952997332932 ], [ -46.760819999843072, -18.308766997099212 ], [ -46.816433999629339, -18.31975399744897 ], [ -46.920211000037568, -18.263546997296032 ], [ -46.95059700015139, -18.205137997220731 ], [ -46.924726999651284, -18.067361997358262 ], [ -46.891498999778946, -18.071216997066699 ], [ -46.839741999793425, -18.001701997449175 ], [ -46.774895999650589, -17.952406996785442 ], [ -46.718266999822163, -17.851647997057395 ], [ -46.686911999988752, -17.83569399698035 ], [ -46.671517999655919, -17.770559997046178 ], [ -46.612796999581803, -17.73935899711995 ], [ -46.574334000213923, -17.747172996836294 ] ] } }
]
}
