{
"type": "FeatureCollection",
"features": [
{ "type": "Feature", "properties": { "Name": "LAGOA SANTA", "Description": "LAGOA SANTA \/ MG" }, "geometry": { "type": "LineString", "coordinates": [ [ -43.921897000146366, -19.535690997041854 ], [ -43.887392410831062, -19.580087951697578 ], [ -43.842422231001137, -19.578997103733283 ], [ -43.798373000113827, -19.613043996583144 ], [ -43.815483999586888, -19.716506996001041 ], [ -43.897524000332275, -19.698792996599479 ], [ -43.944881101381668, -19.671626653047554 ], [ -43.971830999700842, -19.59788099611103 ], [ -43.960187999676407, -19.539581996611787 ], [ -43.921897000146366, -19.535690997041854 ] ] } }
]
}
