{
"type": "FeatureCollection",
"features": [
{ "type": "Feature", "properties": { "Name": "LIBERDADE", "Description": "LIBERDADE \/ MG" }, "geometry": { "type": "LineString", "coordinates": [ [ -44.285724000362279, -21.928624996446388 ], [ -44.256582000059211, -21.975441997050492 ], [ -44.228341999983286, -22.075476996665998 ], [ -44.291961000199933, -22.111708996572872 ], [ -44.319374999956267, -22.155500996173998 ], [ -44.348845000096617, -22.106185996386557 ], [ -44.430309000360012, -22.115426996258805 ], [ -44.436810999827735, -22.067241996420933 ], [ -44.379316999679752, -21.94080399600756 ], [ -44.398559999444387, -21.866399996662494 ], [ -44.326606999813123, -21.869920997156271 ], [ -44.285724000362279, -21.928624996446388 ] ] } }
]
}
