{
"type": "FeatureCollection",
"features": [
{ "type": "Feature", "properties": { "Name": "LUISBURGO", "Description": "LUISBURGO \/ MG" }, "geometry": { "type": "LineString", "coordinates": [ [ -42.045688000300913, -20.376840997314105 ], [ -42.012649000151214, -20.410415997000598 ], [ -42.005950999738786, -20.441158996490458 ], [ -42.058500999421533, -20.499408996427974 ], [ -42.068760000373686, -20.509526997173111 ], [ -42.135903000323133, -20.468687997053394 ], [ -42.116423999567871, -20.3886449966692 ], [ -42.088726000204701, -20.360429996846847 ], [ -42.045688000300913, -20.376840997314105 ] ] } }
]
}
