{
"type": "FeatureCollection",
"features": [
{ "type": "Feature", "properties": { "Name": "LUISLÃNDIA", "Description": "LUISLÃNDIA \/ MG" }, "geometry": { "type": "LineString", "coordinates": [ [ -44.66657200039748, -16.336427997853775 ], [ -44.670499999875062, -16.208704997537549 ], [ -44.71973599961666, -16.17893999728301 ], [ -44.65957499968647, -16.133919997709654 ], [ -44.584211000137479, -16.083197997789341 ], [ -44.497798000077573, -16.058066997194146 ], [ -44.492780999843205, -16.153221997497155 ], [ -44.545441000102016, -16.173190997466516 ], [ -44.513948000200003, -16.26104699752085 ], [ -44.66657200039748, -16.336427997853775 ] ] } }
]
}
