{
"type": "FeatureCollection",
"features": [
{ "type": "Feature", "properties": { "Name": "MALACACHETA", "Description": "MALACACHETA \/ MG" }, "geometry": { "type": "LineString", "coordinates": [ [ -42.042664000243349, -17.716219997554784 ], [ -41.990181000053042, -17.756098997470701 ], [ -41.920126999861111, -17.768950997490492 ], [ -41.917599000193661, -17.853023997559376 ], [ -42.020375000305982, -17.856814997014453 ], [ -42.059459999579246, -17.911553996919395 ], [ -42.050988000096083, -17.952268997616102 ], [ -42.148500000274737, -18.015629996726943 ], [ -42.245653000085838, -17.910342996831783 ], [ -42.281625999740072, -17.85030199703948 ], [ -42.266692999981899, -17.788345997070053 ], [ -42.214295000114134, -17.770999997551826 ], [ -42.141868000207978, -17.766119997339953 ], [ -42.144326000244689, -17.701785997425816 ], [ -42.042664000243349, -17.716219997554784 ] ] } }
]
}
