{
"type": "FeatureCollection",
"features": [
{ "type": "Feature", "properties": { "Name": "MANHUMIRIM", "Description": "MANHUMIRIM \/ MG" }, "geometry": { "type": "LineString", "coordinates": [ [ -41.887654999778363, -20.305273996597634 ], [ -41.822111218357968, -20.310924768862947 ], [ -41.859464429140075, -20.372928097453666 ], [ -42.012649000151214, -20.410415997000598 ], [ -42.045688000300913, -20.376840997314105 ], [ -42.000292999622218, -20.309805996949137 ], [ -41.920975000295982, -20.291333996766468 ], [ -41.887654999778363, -20.305273996597634 ] ] } }
]
}
