{
"type": "FeatureCollection",
"features": [
{ "type": "Feature", "properties": { "Name": "MARMELÃPOLIS", "Description": "MARMELÃPOLIS \/ MG" }, "geometry": { "type": "LineString", "coordinates": [ [ -45.169965000284492, -22.400574996938527 ], [ -45.1608499999275, -22.431887996633691 ], [ -45.098185999684119, -22.459397996320433 ], [ -45.102826040089603, -22.489908347492189 ], [ -45.166761243736346, -22.530711738955517 ], [ -45.239824999623977, -22.443630996773035 ], [ -45.169965000284492, -22.400574996938527 ] ] } }
]
}
