{
"type": "FeatureCollection",
"features": [
{ "type": "Feature", "properties": { "Name": "MATIPÃ", "Description": "MATIPÃ \/ MG" }, "geometry": { "type": "LineString", "coordinates": [ [ -42.213017999680915, -20.283258996705282 ], [ -42.196750000412123, -20.293684997264791 ], [ -42.206338000098583, -20.324052996548517 ], [ -42.277019000426492, -20.342603996776973 ], [ -42.345061999611573, -20.394748996668795 ], [ -42.415204000264339, -20.349996996863865 ], [ -42.366538999874876, -20.251453996804454 ], [ -42.314966000280663, -20.201984997109889 ], [ -42.213017999680915, -20.283258996705282 ] ] } }
]
}
