{
"type": "FeatureCollection",
"features": [
{ "type": "Feature", "properties": { "Name": "MENDES PIMENTEL", "Description": "MENDES PIMENTEL \/ MG" }, "geometry": { "type": "LineString", "coordinates": [ [ -41.320565999721055, -18.505120996736537 ], [ -41.294647999705376, -18.515404997042936 ], [ -41.304981999619542, -18.589636997449418 ], [ -41.2646549997284, -18.66062499754554 ], [ -41.247047999865231, -18.70920099742807 ], [ -41.32567799983979, -18.716045997424771 ], [ -41.37782299973162, -18.701226997527836 ], [ -41.442440000105876, -18.698519996800371 ], [ -41.490415000152097, -18.637234997197311 ], [ -41.42660099993617, -18.62110999732846 ], [ -41.383720000077915, -18.587984996810121 ], [ -41.364927000380703, -18.498915997475251 ], [ -41.320565999721055, -18.505120996736537 ] ] } }
]
}
