{
"type": "FeatureCollection",
"features": [
{ "type": "Feature", "properties": { "Name": "MINAS NOVAS", "Description": "MINAS NOVAS \/ MG" }, "geometry": { "type": "LineString", "coordinates": [ [ -42.627647999955173, -17.103899997187057 ], [ -42.559467999848266, -17.170827997114316 ], [ -42.472913000434573, -17.148603997476471 ], [ -42.386852999566258, -17.22360799661169 ], [ -42.323842000407922, -17.234156997447428 ], [ -42.293002000042236, -17.285084996975002 ], [ -42.200178000214521, -17.321167997205237 ], [ -42.175390000148354, -17.366922997398376 ], [ -42.103825999570169, -17.354406996685498 ], [ -42.088266999722237, -17.376551997176875 ], [ -42.177000999796235, -17.416148997578144 ], [ -42.190237000437151, -17.442122997478293 ], [ -42.219638000093596, -17.459062997159549 ], [ -42.288231000360327, -17.595668997026564 ], [ -42.370062999607683, -17.609618997318819 ], [ -42.518043999730764, -17.521145997589656 ], [ -42.558711000012579, -17.484479997453889 ], [ -42.609814999562559, -17.382724996761169 ], [ -42.698575999982374, -17.321987997248243 ], [ -42.690593999713258, -17.201354997435146 ], [ -42.658994000272855, -17.162725996707309 ], [ -42.691899999685177, -17.12621899670927 ], [ -42.627647999955173, -17.103899997187057 ] ] } }
]
}
