{
"type": "FeatureCollection",
"features": [
{ "type": "Feature", "properties": { "Name": "MIRAÃ", "Description": "MIRAÃ \/ MG" }, "geometry": { "type": "LineString", "coordinates": [ [ -42.528801000265901, -21.202678996538395 ], [ -42.612583999551873, -21.232646997161165 ], [ -42.722940000280744, -21.220564996677183 ], [ -42.752885999888917, -21.203270996858972 ], [ -42.706730000089408, -21.141850996426285 ], [ -42.655344000125467, -21.077681996926572 ], [ -42.546598999943853, -21.043981996871594 ], [ -42.505167000356721, -21.088596996654019 ], [ -42.528801000265901, -21.202678996538395 ] ] } }
]
}
