{
"type": "FeatureCollection",
"features": [
{ "type": "Feature", "properties": { "Name": "MONTES CLAROS", "Description": "MONTES CLAROS \/ MG" }, "geometry": { "type": "LineString", "coordinates": [ [ -43.765631000170458, -16.089208997097501 ], [ -43.766344999821854, -16.146120997386046 ], [ -43.796646999659288, -16.234110997324649 ], [ -43.78510599984196, -16.358732997629716 ], [ -43.746774000219887, -16.405207996851516 ], [ -43.736424000467196, -16.483942997171539 ], [ -43.749654999978247, -16.578527997269191 ], [ -43.667818999647061, -16.725145997489733 ], [ -43.697843000154307, -16.775216997066707 ], [ -43.674448999621575, -16.808782997237472 ], [ -43.701428000002181, -16.85099299762868 ], [ -43.720932000111645, -16.903270997358618 ], [ -43.773454000301854, -16.888638997092016 ], [ -43.864196000345089, -16.904163997170713 ], [ -43.890111000222419, -16.969356997127644 ], [ -43.920128000406862, -16.965270996659115 ], [ -43.984543999605876, -17.039671996765207 ], [ -44.01643499987528, -17.051949997294514 ], [ -44.020186000183742, -17.113071996575343 ], [ -44.105659000062758, -17.145791997302808 ], [ -44.126903000373147, -17.109180997005353 ], [ -44.195544000155451, -17.103797996979949 ], [ -44.132409999821611, -16.963968996871643 ], [ -44.130128999853405, -16.821410997719337 ], [ -44.072489000167195, -16.799380997135245 ], [ -44.145989000092236, -16.726157997393614 ], [ -44.106933000357628, -16.643794997041425 ], [ -44.053102000057208, -16.618161997578053 ], [ -43.969511999778945, -16.514957997513534 ], [ -44.018642000028251, -16.446856997452414 ], [ -44.065224999733907, -16.490519997399929 ], [ -44.181971000161468, -16.420825997621645 ], [ -44.210915999473741, -16.39054199771499 ], [ -44.161872999639172, -16.370000997448017 ], [ -44.061297000256332, -16.381819997494858 ], [ -44.045706999878121, -16.296535997338367 ], [ -43.98063500010511, -16.23465499723028 ], [ -43.990113000114832, -16.163149997574294 ], [ -43.969100999711316, -16.086694997176323 ], [ -43.890579000220669, -16.112543997607357 ], [ -43.765631000170458, -16.089208997097501 ] ] } }
]
}
