{
"type": "FeatureCollection",
"features": [
{ "type": "Feature", "properties": { "Name": "MORADA NOVA DE MINAS", "Description": "MORADA NOVA DE MINAS \/ MG" }, "geometry": { "type": "LineString", "coordinates": [ [ -45.26731700027932, -18.22092399764432 ], [ -45.263050999603934, -18.260282996962701 ], [ -45.315911000092512, -18.30882799721428 ], [ -45.283664999639996, -18.353461996973518 ], [ -45.303547000093943, -18.412633997161208 ], [ -45.358245999952885, -18.447042997536244 ], [ -45.220348999906378, -18.541993997424981 ], [ -45.237471999932836, -18.593372997066126 ], [ -45.245718999831922, -18.6359149965798 ], [ -45.189558000001682, -18.7290709964293 ], [ -45.185923999692754, -18.809479996604523 ], [ -45.184325999745056, -18.875475996719839 ], [ -45.261273000348638, -18.878524997030922 ], [ -45.316445000436374, -18.905315996835725 ], [ -45.422241000421764, -18.870376997200594 ], [ -45.461596999601795, -18.873524996681226 ], [ -45.380182999845537, -18.761653997134204 ], [ -45.453130000349176, -18.730964997436615 ], [ -45.468352999990941, -18.702251997131896 ], [ -45.565798999823926, -18.668863997075732 ], [ -45.639074000164953, -18.665022997113567 ], [ -45.615516000163211, -18.572434997377172 ], [ -45.644839999866065, -18.481959997056151 ], [ -45.62827899967607, -18.418359996816378 ], [ -45.573791999700966, -18.357240996774522 ], [ -45.508240000275748, -18.316310996954883 ], [ -45.406982000019241, -18.317422996973676 ], [ -45.31856099999009, -18.220724997460593 ], [ -45.26731700027932, -18.22092399764432 ] ] } }
]
}
