{
"type": "FeatureCollection",
"features": [
{ "type": "Feature", "properties": { "Name": "MORRO DA GARÃA", "Description": "MORRO DA GARÃA \/ MG" }, "geometry": { "type": "LineString", "coordinates": [ [ -44.51674699977417, -18.616886996837366 ], [ -44.631701000300893, -18.735667996680661 ], [ -44.668859999789106, -18.736423996470194 ], [ -44.710696000020334, -18.704360997262143 ], [ -44.755071000426312, -18.724397996770108 ], [ -44.821871999892835, -18.658293997070245 ], [ -44.747708999970307, -18.677669997572309 ], [ -44.706419999783122, -18.626040997194195 ], [ -44.688400999806277, -18.5556779971418 ], [ -44.588128000007138, -18.520063996955855 ], [ -44.51674699977417, -18.616886996837366 ] ] } }
]
}
