{
"type": "FeatureCollection",
"features": [
{ "type": "Feature", "properties": { "Name": "NACIP RAYDAN", "Description": "NACIP RAYDAN \/ MG" }, "geometry": { "type": "LineString", "coordinates": [ [ -42.099999000253604, -18.427831996549344 ], [ -42.139910999892663, -18.467555997411296 ], [ -42.136658000066632, -18.524104997147841 ], [ -42.091146000287665, -18.546644996969007 ], [ -42.163190999664828, -18.565026996598586 ], [ -42.231250999633858, -18.535593997265096 ], [ -42.27659399971327, -18.48756499652734 ], [ -42.268368999929351, -18.429458996935125 ], [ -42.203134000733485, -18.411006996775427 ], [ -42.124025000253539, -18.39389699734852 ], [ -42.099999000253604, -18.427831996549344 ] ] } }
]
}
