{
"type": "FeatureCollection",
"features": [
{ "type": "Feature", "properties": { "Name": "NOVA PONTE", "Description": "NOVA PONTE \/ MG" }, "geometry": { "type": "LineString", "coordinates": [ [ -47.670458000036597, -18.941599997341939 ], [ -47.606063000007396, -19.016160996732594 ], [ -47.573035000364939, -19.012891997067982 ], [ -47.59500700007294, -19.045145996990129 ], [ -47.570314999937239, -19.106015997240434 ], [ -47.639678999785986, -19.196454996800639 ], [ -47.636890999819741, -19.277657996719142 ], [ -47.650478999606094, -19.380136996625026 ], [ -47.619650999793741, -19.427714997249268 ], [ -47.630423000121311, -19.490090996801996 ], [ -47.615000000249779, -19.565333997066261 ], [ -47.685957999861785, -19.567065996898176 ], [ -47.765045668422829, -19.521239358509547 ], [ -47.796176999668774, -19.379963996741026 ], [ -47.787863000277184, -19.254058996625357 ], [ -47.809276000287127, -19.178470996639135 ], [ -47.852637999843751, -19.093893996710563 ], [ -47.800568999859422, -19.038506997499894 ], [ -47.765524999878778, -19.029830996703083 ], [ -47.693829999554787, -19.054243997462493 ], [ -47.666220999799236, -18.999017996683165 ], [ -47.708791999750929, -18.92284299750628 ], [ -47.670458000036597, -18.941599997341939 ] ] } }
]
}
