{
"type": "FeatureCollection",
"features": [
{ "type": "Feature", "properties": { "Name": "NOVORIZONTE", "Description": "NOVORIZONTE \/ MG" }, "geometry": { "type": "LineString", "coordinates": [ [ -42.398139999361433, -15.901939997332988 ], [ -42.378922999896474, -15.972188997524141 ], [ -42.327508000393834, -15.992519997100144 ], [ -42.285502000416948, -16.042632996815314 ], [ -42.298482000044203, -16.102743997137736 ], [ -42.353691000039589, -16.059576997580336 ], [ -42.424430000344216, -16.079765996903177 ], [ -42.481286999895076, -16.061518997203905 ], [ -42.46356400007852, -15.999344997073933 ], [ -42.516396000175234, -15.959770997733301 ], [ -42.471850161855457, -15.961342396634278 ], [ -42.398139999361433, -15.901939997332988 ] ] } }
]
}
