{
"type": "FeatureCollection",
"features": [
{ "type": "Feature", "properties": { "Name": "NOVO CRUZEIRO", "Description": "NOVO CRUZEIRO \/ MG" }, "geometry": { "type": "LineString", "coordinates": [ [ -41.868198000037637, -17.108837997375645 ], [ -41.785721999870361, -17.161403996896865 ], [ -41.82540099955645, -17.228953996729501 ], [ -41.760061000015071, -17.287380996735578 ], [ -41.733086999865122, -17.355985997555706 ], [ -41.764344999721914, -17.404597997299675 ], [ -41.753895999900408, -17.442069997732176 ], [ -41.809024999803853, -17.499370997073811 ], [ -41.908769000388986, -17.530385997415806 ], [ -41.984367999983192, -17.655008996867647 ], [ -42.016539999721147, -17.615516997711211 ], [ -42.122509999636748, -17.585200997228185 ], [ -42.132569000359013, -17.529086996867363 ], [ -42.190237000437151, -17.442122997478293 ], [ -42.177000999796235, -17.416148997578144 ], [ -42.088266999722237, -17.376551997176875 ], [ -42.103825999570169, -17.354406996685498 ], [ -42.114929999919525, -17.316218996509463 ], [ -42.079771000031599, -17.212110997024865 ], [ -42.063457999586944, -17.183362996904748 ], [ -41.951258000156542, -17.192976996890817 ], [ -41.964892000265536, -17.085231996959067 ], [ -41.868198000037637, -17.108837997375645 ] ] } }
]
}
