{
"type": "FeatureCollection",
"features": [
{ "type": "Feature", "properties": { "Name": "OLÃMPIO NORONHA", "Description": "OLÃMPIO NORONHA \/ MG" }, "geometry": { "type": "LineString", "coordinates": [ [ -45.236662000350975, -22.040482996293179 ], [ -45.250601000135987, -22.113826997118167 ], [ -45.333997999607959, -22.119034996267999 ], [ -45.336484000036535, -22.103081997136428 ], [ -45.236662000350975, -22.040482996293179 ] ] } }
]
}
