{
"type": "FeatureCollection",
"features": [
{ "type": "Feature", "properties": { "Name": "PAI PEDRO", "Description": "PAI PEDRO \/ MG" }, "geometry": { "type": "LineString", "coordinates": [ [ -43.269518999702029, -15.15027599763914 ], [ -43.246771000181468, -15.256771997529597 ], [ -43.205855000108102, -15.279511997580585 ], [ -43.206798999574119, -15.323384997319748 ], [ -43.108896000250176, -15.410816997606331 ], [ -43.039629000377992, -15.405691997787414 ], [ -42.95118900037204, -15.433993998024562 ], [ -42.91222100019894, -15.495256997512399 ], [ -42.914775000166053, -15.513433997580876 ], [ -43.021977000238337, -15.540608997107483 ], [ -43.066173999630337, -15.607381997081463 ], [ -43.129219000356557, -15.611350997550462 ], [ -43.234778000204528, -15.503939997732687 ], [ -43.254574000289836, -15.429086997466923 ], [ -43.262161000329854, -15.330474997822821 ], [ -43.311525999725063, -15.327135997628147 ], [ -43.309361999756447, -15.236553996869418 ], [ -43.330503999859673, -15.106312997346889 ], [ -43.311866000115735, -15.083686997157146 ], [ -43.269518999702029, -15.15027599763914 ] ] } }
]
}
