{
"type": "FeatureCollection",
"features": [
{ "type": "Feature", "properties": { "Name": "PASSA TEMPO", "Description": "PASSA TEMPO \/ MG" }, "geometry": { "type": "LineString", "coordinates": [ [ -44.35722699992607, -20.608084997024946 ], [ -44.421316000233162, -20.712515997015601 ], [ -44.447653999832198, -20.786263996686046 ], [ -44.505746999724238, -20.745219997005222 ], [ -44.569965999731032, -20.728049996610025 ], [ -44.589366000440521, -20.645440996604691 ], [ -44.599530999755814, -20.591803997156717 ], [ -44.543958000061593, -20.515597996550241 ], [ -44.468881000257909, -20.587363996551176 ], [ -44.40682200003522, -20.569499996527554 ], [ -44.35722699992607, -20.608084997024946 ] ] } }
]
}
