{
"type": "FeatureCollection",
"features": [
{ "type": "Feature", "properties": { "Name": "PASSABÃM", "Description": "PASSABÃM \/ MG" }, "geometry": { "type": "LineString", "coordinates": [ [ -43.139776999808646, -19.334461997423205 ], [ -43.102651000043579, -19.381804997102904 ], [ -43.14339600032514, -19.401957997463569 ], [ -43.193704000039531, -19.387011997105958 ], [ -43.243694000377786, -19.325223996789987 ], [ -43.139776999808646, -19.334461997423205 ] ] } }
]
}
