{
"type": "FeatureCollection",
"features": [
{ "type": "Feature", "properties": { "Name": "PATOS DE MINAS", "Description": "PATOS DE MINAS \/ MG" }, "geometry": { "type": "LineString", "coordinates": [ [ -46.920211000037568, -18.263546997296032 ], [ -46.816433999629339, -18.31975399744897 ], [ -46.760819999843072, -18.308766997099212 ], [ -46.654063999653829, -18.405261997143384 ], [ -46.614365999990866, -18.405883997048761 ], [ -46.536597000151403, -18.459157996844056 ], [ -46.468191000414322, -18.476895996453038 ], [ -46.4243440000755, -18.514140997209211 ], [ -46.308217000314237, -18.556748997068496 ], [ -46.232471000236444, -18.524974996798619 ], [ -46.18647499972144, -18.534666996784438 ], [ -46.107774000069973, -18.515120996536723 ], [ -46.006888999927355, -18.554913996983316 ], [ -45.966083000430096, -18.531220997051321 ], [ -45.936518999552163, -18.569182997597235 ], [ -45.829078000149536, -18.587221996697735 ], [ -45.862269000114225, -18.639734997372159 ], [ -45.988023999607833, -18.700844996998967 ], [ -46.062524999828838, -18.719217997112821 ], [ -46.096438999859906, -18.705892996864289 ], [ -46.150168999999316, -18.744129997501314 ], [ -46.179036000211227, -18.720684997314716 ], [ -46.279362999802565, -18.718991997482647 ], [ -46.313739999601232, -18.645197997489561 ], [ -46.397999000153675, -18.625090997451537 ], [ -46.434218000360367, -18.679836996779954 ], [ -46.493913000384623, -18.694316997231564 ], [ -46.528492999652144, -18.80880199681468 ], [ -46.502871999842853, -18.854589996730908 ], [ -46.402797000181351, -18.880552997023131 ], [ -46.43858800043585, -18.918670996669107 ], [ -46.507815000261985, -18.917020997021325 ], [ -46.567508000194039, -18.987893997210165 ], [ -46.605887000184843, -18.975533997396042 ], [ -46.644427999552477, -18.873944997163846 ], [ -46.667418000340376, -18.811080996690578 ], [ -46.739638999740009, -18.776295996962631 ], [ -46.810335999906442, -18.650731997283799 ], [ -46.844156000099296, -18.524877996822056 ], [ -46.887663000047382, -18.487268997266369 ], [ -46.931394999579538, -18.398847997237226 ], [ -46.961164000018528, -18.406639996838347 ], [ -46.994290999729799, -18.285046996821393 ], [ -46.920211000037568, -18.263546997296032 ] ] } }
]
}
