{
"type": "FeatureCollection",
"features": [
{ "type": "Feature", "properties": { "Name": "PAULA CÃNDIDO", "Description": "PAULA CÃNDIDO \/ MG" }, "geometry": { "type": "LineString", "coordinates": [ [ -42.886140999907177, -20.824842996906739 ], [ -42.886080999838214, -20.846666996084934 ], [ -42.933144000095467, -20.947367996735636 ], [ -42.942603000128315, -20.984518996754275 ], [ -42.992281999614534, -20.927399996812369 ], [ -43.036884999742881, -20.929424996666224 ], [ -43.042481999744439, -20.881856996503132 ], [ -43.081699999755131, -20.81621499652482 ], [ -43.036069999930533, -20.770725996907174 ], [ -42.996948999896404, -20.756423996570163 ], [ -42.886140999907177, -20.824842996906739 ] ] } }
]
}
