{
"type": "FeatureCollection",
"features": [
{ "type": "Feature", "properties": { "Name": "PAVÃO", "Description": "PAVÃO \/ MG" }, "geometry": { "type": "LineString", "coordinates": [ [ -40.952151000168499, -17.332634997207322 ], [ -40.945530999755817, -17.405457997388623 ], [ -40.974721999620556, -17.434789997460371 ], [ -40.923478999955819, -17.488453997254112 ], [ -40.966309000160209, -17.60066899737626 ], [ -41.047185000287463, -17.604085996671358 ], [ -41.060552999821027, -17.568463997015783 ], [ -41.13106599959616, -17.530708997022543 ], [ -41.163281000417783, -17.53981799710283 ], [ -41.255453999902151, -17.484544996854083 ], [ -41.228629000328056, -17.434794996791595 ], [ -41.191985000307454, -17.447589996880822 ], [ -41.151323000256241, -17.401675997449274 ], [ -41.075632000016753, -17.379000997697858 ], [ -41.071544000355281, -17.347131997543613 ], [ -40.952151000168499, -17.332634997207322 ] ] } }
]
}
