{
"type": "FeatureCollection",
"features": [
{ "type": "Feature", "properties": { "Name": "PEDRA BONITA", "Description": "PEDRA BONITA \/ MG" }, "geometry": { "type": "LineString", "coordinates": [ [ -42.345061999611573, -20.394748996668795 ], [ -42.319392000240555, -20.546972997305939 ], [ -42.358239000229617, -20.578908996952574 ], [ -42.37909799987272, -20.588958997259851 ], [ -42.407435999971369, -20.577395996428038 ], [ -42.385702999593718, -20.504893996660599 ], [ -42.434323999752735, -20.435407996581716 ], [ -42.415204000264339, -20.349996996863865 ], [ -42.345061999611573, -20.394748996668795 ] ] } }
]
}
