{
"type": "FeatureCollection",
"features": [
{ "type": "Feature", "properties": { "Name": "PEDRINÃPOLIS", "Description": "PEDRINÃPOLIS \/ MG" }, "geometry": { "type": "LineString", "coordinates": [ [ -47.440946000157737, -19.138663997345532 ], [ -47.387156999995511, -19.240157996794096 ], [ -47.405231999856881, -19.274426997008277 ], [ -47.532942999619706, -19.268969997167574 ], [ -47.579340999787291, -19.222850997275657 ], [ -47.639678999785986, -19.196454996800639 ], [ -47.570314999937239, -19.106015997240434 ], [ -47.470311999998785, -19.119167996705638 ], [ -47.440946000157737, -19.138663997345532 ] ] } }
]
}
