{
"type": "FeatureCollection",
"features": [
{ "type": "Feature", "properties": { "Name": "PIRANGUINHO", "Description": "PIRANGUINHO \/ MG" }, "geometry": { "type": "LineString", "coordinates": [ [ -45.574660000158815, -22.322229996617011 ], [ -45.511793000446573, -22.372622996653945 ], [ -45.523798000077591, -22.459985996456506 ], [ -45.550586999790141, -22.483764996757145 ], [ -45.570261999691461, -22.393351996597346 ], [ -45.671644000270362, -22.337392997089125 ], [ -45.660117000199357, -22.277702996396101 ], [ -45.574660000158815, -22.322229996617011 ] ] } }
]
}
