{
"type": "FeatureCollection",
"features": [
{ "type": "Feature", "properties": { "Name": "PIRAÃBA", "Description": "PIRAÃBA \/ MG" }, "geometry": { "type": "LineString", "coordinates": [ [ -42.97042599985997, -21.256977996837065 ], [ -42.955168000402857, -21.264640996784522 ], [ -42.926404999591, -21.302833997191158 ], [ -43.04601900007674, -21.315582996957687 ], [ -43.073039999696164, -21.290708996522937 ], [ -43.103309999856549, -21.264641996830619 ], [ -43.103784000131441, -21.201123996774982 ], [ -43.024188999722526, -21.206291996778191 ], [ -42.97042599985997, -21.256977996837065 ] ] } }
]
}
