{
"type": "FeatureCollection",
"features": [
{ "type": "Feature", "properties": { "Name": "PIRAPORA", "Description": "PIRAPORA \/ MG" }, "geometry": { "type": "LineString", "coordinates": [ [ -44.987524000132453, -17.518857997298706 ], [ -44.953520000447611, -17.468200997677855 ], [ -44.937333999564373, -17.391955997071534 ], [ -44.955954000276847, -17.349064997651453 ], [ -44.923500000124875, -17.265699996957267 ], [ -44.895310999702815, -17.269543997057781 ], [ -44.82968400041625, -17.203573997242131 ], [ -44.793861999631531, -17.316893997060276 ], [ -44.77404699956935, -17.463828997510177 ], [ -44.879993000176796, -17.520541997615055 ], [ -44.899746000077812, -17.555030997182712 ], [ -44.956656000274165, -17.548782996837815 ], [ -44.987524000132453, -17.518857997298706 ] ] } }
]
}
