{
"type": "FeatureCollection",
"features": [
{ "type": "Feature", "properties": { "Name": "POÃOS DE CALDAS", "Description": "POÃOS DE CALDAS \/ MG" }, "geometry": { "type": "LineString", "coordinates": [ [ -46.421776310628218, -21.732654215019977 ], [ -46.398572507715016, -21.75914423331966 ], [ -46.465187000379728, -21.806002996640927 ], [ -46.565312999695152, -21.933344996474375 ], [ -46.617908636374409, -21.995027643910586 ], [ -46.673778465403814, -21.911052689729786 ], [ -46.647536461238644, -21.880460833900315 ], [ -46.690970546853237, -21.836963850601194 ], [ -46.626030312149169, -21.766226462780992 ], [ -46.621594723617534, -21.675542993314423 ], [ -46.55472342234804, -21.653433542124219 ], [ -46.526234999845315, -21.686274997193319 ], [ -46.421776310628218, -21.732654215019977 ] ] } }
]
}
