{
"type": "FeatureCollection",
"features": [
{ "type": "Feature", "properties": { "Name": "POÃO FUNDO", "Description": "POÃO FUNDO \/ MG" }, "geometry": { "type": "LineString", "coordinates": [ [ -45.897243999610851, -21.777457996888984 ], [ -45.848951000188492, -21.808678996838179 ], [ -45.875322999556715, -21.847635996503982 ], [ -45.859180999803243, -21.893794996441898 ], [ -45.924818999597107, -21.917691996788161 ], [ -46.032090000153339, -21.886251996632264 ], [ -46.061462000271028, -21.875557996304451 ], [ -46.080522999736615, -21.858240996324867 ], [ -46.124947999750354, -21.821355996881721 ], [ -46.143773000023884, -21.767900996833475 ], [ -46.107775000116135, -21.705087996913505 ], [ -46.05999900025364, -21.722845996545459 ], [ -45.985914000330808, -21.696435996324112 ], [ -45.92827199965302, -21.721098996921114 ], [ -45.897243999610851, -21.777457996888984 ] ] } }
]
}
