{
"type": "FeatureCollection",
"features": [
{ "type": "Feature", "properties": { "Name": "RIO POMBA", "Description": "RIO POMBA \/ MG" }, "geometry": { "type": "LineString", "coordinates": [ [ -43.119803999654835, -21.119143996997821 ], [ -43.103784000131441, -21.201123996774982 ], [ -43.103309999856549, -21.264641996830619 ], [ -43.073039999696164, -21.290708996522937 ], [ -43.157121000133998, -21.310752996353642 ], [ -43.183284999802879, -21.3515099971886 ], [ -43.272009000315052, -21.316737997160772 ], [ -43.268386999660265, -21.278373996962326 ], [ -43.244784000281356, -21.210869996553072 ], [ -43.202934000303856, -21.223172996436574 ], [ -43.131674000254861, -21.120105996394557 ], [ -43.119803999654835, -21.119143996997821 ] ] } }
]
}
