{
"type": "FeatureCollection",
"features": [
{ "type": "Feature", "properties": { "Name": "SANTA ROSA DA SERRA", "Description": "SANTA ROSA DA SERRA \/ MG" }, "geometry": { "type": "LineString", "coordinates": [ [ -45.902189000122235, -19.46522499673614 ], [ -45.902613999936079, -19.538025996802276 ], [ -45.948604000174441, -19.608305996624377 ], [ -46.009750999708842, -19.655725997156988 ], [ -46.069379000240644, -19.649962996694907 ], [ -46.106211999983771, -19.611678996588353 ], [ -46.127647000108936, -19.542638997291874 ], [ -46.042033000022911, -19.554409996923766 ], [ -45.977464000063492, -19.459623997449455 ], [ -45.902189000122235, -19.46522499673614 ] ] } }
]
}
