{
"type": "FeatureCollection",
"features": [
{ "type": "Feature", "properties": { "Name": "SANTO ANTÃNIO DO MONTE", "Description": "SANTO ANTÃNIO DO MONTE \/ MG" }, "geometry": { "type": "LineString", "coordinates": [ [ -45.289745999478271, -19.913819996695452 ], [ -45.266484999682973, -19.906444996539335 ], [ -45.221978000384354, -19.971456996243319 ], [ -45.143422000225087, -19.977949996195321 ], [ -45.107828000062113, -20.010876996576087 ], [ -45.047166000410527, -20.011686997057211 ], [ -45.096841999758453, -20.122855996606916 ], [ -45.15432899958364, -20.180993996775499 ], [ -45.192791999850897, -20.237264996282534 ], [ -45.249022000165155, -20.202805996299613 ], [ -45.307773999870157, -20.226774996368931 ], [ -45.3510000003497, -20.268720996276897 ], [ -45.336857000150417, -20.333614996834569 ], [ -45.385733000377627, -20.318994996222045 ], [ -45.456428000451808, -20.20676499630747 ], [ -45.460003999884627, -20.125579997219063 ], [ -45.406023999907632, -20.151769996288238 ], [ -45.373735000170086, -20.121577997026918 ], [ -45.384541000266893, -20.030556996708015 ], [ -45.437993000176789, -19.940658996915147 ], [ -45.495997999607937, -19.892873996637604 ], [ -45.503139999811083, -19.854044996579262 ], [ -45.383511000432293, -19.884630996922908 ], [ -45.36676899998929, -19.916628996730765 ], [ -45.289745999478271, -19.913819996695452 ] ] } }
]
}
