{
"type": "FeatureCollection",
"features": [
{ "type": "Feature", "properties": { "Name": "SANTANA DE CATAGUASES", "Description": "SANTANA DE CATAGUASES \/ MG" }, "geometry": { "type": "LineString", "coordinates": [ [ -42.528801000265901, -21.202678996538395 ], [ -42.532926999881113, -21.230093997240147 ], [ -42.462926000334619, -21.269471996535341 ], [ -42.502396000275155, -21.311848996533911 ], [ -42.58506200021111, -21.354068996486944 ], [ -42.629104999695926, -21.318497996485291 ], [ -42.590483000190261, -21.255218996659323 ], [ -42.612583999551873, -21.232646997161165 ], [ -42.528801000265901, -21.202678996538395 ] ] } }
]
}
