{
"type": "FeatureCollection",
"features": [
{ "type": "Feature", "properties": { "Name": "SANTANA DO PARAÃSO", "Description": "SANTANA DO PARAÃSO \/ MG" }, "geometry": { "type": "LineString", "coordinates": [ [ -42.419150999718795, -19.336217996563221 ], [ -42.432070000130352, -19.439469997042693 ], [ -42.502336964279436, -19.492096812317982 ], [ -42.593468000247981, -19.379012996952213 ], [ -42.677608999855401, -19.381712996457566 ], [ -42.554998999704019, -19.296391996393481 ], [ -42.452339999591281, -19.359979996979234 ], [ -42.419150999718795, -19.336217996563221 ] ] } }
]
}
