{
"type": "FeatureCollection",
"features": [
{ "type": "Feature", "properties": { "Name": "SANTANA DO RIACHO", "Description": "SANTANA DO RIACHO \/ MG" }, "geometry": { "type": "LineString", "coordinates": [ [ -43.622306999868101, -19.076787996568726 ], [ -43.507458999732989, -19.168284997254773 ], [ -43.501120999734326, -19.224163996671052 ], [ -43.535920000107865, -19.261674997103395 ], [ -43.518102999553712, -19.31609199654838 ], [ -43.518673999805223, -19.330311996701255 ], [ -43.594420999929184, -19.348129996402175 ], [ -43.668565999920929, -19.330862996929739 ], [ -43.679760999970135, -19.282703996492216 ], [ -43.748593999613377, -19.236365997292921 ], [ -43.769247999695381, -19.193513996973309 ], [ -43.745311000202435, -19.124002996640911 ], [ -43.773160000233752, -19.061272996951175 ], [ -43.738392999537268, -19.018258996355538 ], [ -43.659115000257032, -19.0311379967211 ], [ -43.622306999868101, -19.076787996568726 ] ] } }
]
}
