{
"type": "FeatureCollection",
"features": [
{ "type": "Feature", "properties": { "Name": "SANTO ANTÃNIO DO RETIRO", "Description": "SANTO ANTÃNIO DO RETIRO \/ MG" }, "geometry": { "type": "LineString", "coordinates": [ [ -42.516806000196709, -15.42896499723679 ], [ -42.549015999888468, -15.492250997385552 ], [ -42.596435000374925, -15.427944997863337 ], [ -42.647288000041101, -15.407265997527702 ], [ -42.700784000181436, -15.422497997584458 ], [ -42.72641200031353, -15.411368997880912 ], [ -42.734384000121452, -15.393619997764631 ], [ -42.755547000293802, -15.397192997958427 ], [ -42.762840000265783, -15.34665899771454 ], [ -42.810450999713851, -15.24115199756659 ], [ -42.777836000231162, -15.159805997348826 ], [ -42.68255799965192, -15.097440997404076 ], [ -42.656532000051691, -15.036959998005443 ], [ -42.642078999945852, -15.053220997850701 ], [ -42.656112999615175, -15.167910997894181 ], [ -42.616965000134599, -15.192677997891222 ], [ -42.618232000106673, -15.244420997231202 ], [ -42.567155000003197, -15.238877997921238 ], [ -42.520237000137399, -15.321796997833133 ], [ -42.516806000196709, -15.42896499723679 ] ] } }
]
}
