{
"type": "FeatureCollection",
"features": [
{ "type": "Feature", "properties": { "Name": "SÃO DOMINGOS DO PRATA", "Description": "SÃO DOMINGOS DO PRATA \/ MG" }, "geometry": { "type": "LineString", "coordinates": [ [ -42.777376999748697, -19.794839996668486 ], [ -42.860878999566125, -19.861108996782718 ], [ -42.82678100004307, -19.91050399666204 ], [ -42.781858000446334, -19.871990996787019 ], [ -42.7527960002352, -19.904119997240059 ], [ -42.776642000028225, -19.956106997040251 ], [ -42.728780999843245, -20.008073996817473 ], [ -42.755030999880717, -20.020246997001266 ], [ -42.838439999906022, -20.014155996701845 ], [ -42.873742000093159, -20.03659799739961 ], [ -42.927534000393734, -20.034947996852509 ], [ -42.95126500027947, -20.006506997399981 ], [ -43.022499000028802, -20.013742996542021 ], [ -43.060989999788596, -19.979324996651197 ], [ -43.062786999920093, -19.885856996802943 ], [ -43.00916700035674, -19.827653997234165 ], [ -42.92079399984317, -19.810537996631183 ], [ -42.908417000144418, -19.749733996726548 ], [ -42.80008999945386, -19.711534996942529 ], [ -42.797297000156391, -19.712949996545035 ], [ -42.806123999822709, -19.78486999735247 ], [ -42.777376999748697, -19.794839996668486 ] ] } }
]
}
