{
"type": "FeatureCollection",
"features": [
{ "type": "Feature", "properties": { "Name": "SÃO JOAQUIM DE BICAS", "Description": "SÃO JOAQUIM DE BICAS \/ MG" }, "geometry": { "type": "LineString", "coordinates": [ [ -44.196288000290963, -20.051151996767203 ], [ -44.210154000306829, -20.100607995862276 ], [ -44.276033999569393, -20.111689996096402 ], [ -44.290534807635197, -20.056071770395818 ], [ -44.270318000375369, -20.003917996718144 ], [ -44.247655000277973, -20.041528996366026 ], [ -44.196288000290963, -20.051151996767203 ] ] } }
]
}
