{
"type": "FeatureCollection",
"features": [
{ "type": "Feature", "properties": { "Name": "SÃO MIGUEL DO ANTA", "Description": "SÃO MIGUEL DO ANTA \/ MG" }, "geometry": { "type": "LineString", "coordinates": [ [ -42.697778400252901, -20.657252997227999 ], [ -42.650477999659927, -20.758550996631129 ], [ -42.709367000286818, -20.839284996505341 ], [ -42.712639000089723, -20.815604996273521 ], [ -42.753575000186061, -20.745176996820874 ], [ -42.782339000144702, -20.673163997120749 ], [ -42.769100000264757, -20.667666997234107 ], [ -42.697778400252901, -20.657252997227999 ] ] } }
]
}
