{
"type": "FeatureCollection",
"features": [
{ "type": "Feature", "properties": { "Name": "SENADOR MODESTINO GONÃALVES", "Description": "SENADOR MODESTINO GONÃALVES \/ MG" }, "geometry": { "type": "LineString", "coordinates": [ [ -43.227442000048192, -17.562730997037818 ], [ -43.157598999694017, -17.772017996833029 ], [ -43.121951999784926, -17.888981996521863 ], [ -43.126510000436156, -17.95805799657921 ], [ -43.109827000015969, -18.064023997209627 ], [ -43.136921000303857, -18.10812599671732 ], [ -43.137318999771992, -18.108846997590831 ], [ -43.165747000423657, -18.037429997496361 ], [ -43.197581999909346, -18.020140997009378 ], [ -43.280870999796775, -18.022728997645061 ], [ -43.32495400022691, -18.006312996947202 ], [ -43.320530000359213, -17.954401997054447 ], [ -43.408176999768671, -17.947143996897918 ], [ -43.376131000445298, -17.873350996950876 ], [ -43.381273000148781, -17.797678997587639 ], [ -43.32660199978244, -17.764953997528892 ], [ -43.291012999850011, -17.712730997637379 ], [ -43.301439000409516, -17.660587996938489 ], [ -43.247925000338455, -17.642461997423194 ], [ -43.227442000048192, -17.562730997037818 ] ] } }
]
}
