{
"type": "FeatureCollection",
"features": [
{ "type": "Feature", "properties": { "Name": "SERRO", "Description": "SERRO \/ MG" }, "geometry": { "type": "LineString", "coordinates": [ [ -43.26281499991228, -18.303435996773771 ], [ -43.263634999955229, -18.3061419974552 ], [ -43.336405999537185, -18.393999996702462 ], [ -43.381749999662702, -18.446633996661546 ], [ -43.370074999961219, -18.526428997300343 ], [ -43.275580000416653, -18.52148899701956 ], [ -43.198594999859324, -18.568229996816854 ], [ -43.215198000187513, -18.597726997303027 ], [ -43.205037000157404, -18.717209997143584 ], [ -43.229117999995651, -18.742096997278566 ], [ -43.33638899965257, -18.671768997041511 ], [ -43.425622000255089, -18.756910996944896 ], [ -43.493766999647271, -18.746525997376807 ], [ -43.49142799970241, -18.718228997370261 ], [ -43.522525000228541, -18.598675996999589 ], [ -43.598724999658941, -18.533006997574827 ], [ -43.570393999883144, -18.439343996827972 ], [ -43.530368000382843, -18.433928997125459 ], [ -43.455498000232467, -18.326143997147707 ], [ -43.402204000414251, -18.293462997319409 ], [ -43.324354000436756, -18.323104997297719 ], [ -43.26281499991228, -18.303435996773771 ] ] } }
]
}
