{
"type": "FeatureCollection",
"features": [
{ "type": "Feature", "properties": { "Name": "SILVIANÃPOLIS", "Description": "SILVIANÃPOLIS \/ MG" }, "geometry": { "type": "LineString", "coordinates": [ [ -45.730819999743176, -21.954998996806239 ], [ -45.71680500005067, -21.994116996702019 ], [ -45.677640241703727, -22.033164380931396 ], [ -45.742827000365708, -22.103392997089088 ], [ -45.817054999688423, -22.115563996281367 ], [ -45.90361100004759, -22.110473996277847 ], [ -45.928478000159544, -22.087296996758933 ], [ -45.906173000383603, -22.022397996870041 ], [ -45.849006000026861, -21.964700996353823 ], [ -45.730819999743176, -21.954998996806239 ] ] } }
]
}
