{
"type": "FeatureCollection",
"features": [
{ "type": "Feature", "properties": { "Name": "SIMÃO PEREIRA", "Description": "SIMÃO PEREIRA \/ MG" }, "geometry": { "type": "LineString", "coordinates": [ [ -43.254272999899001, -21.930204996463374 ], [ -43.221002999888462, -21.983485996581408 ], [ -43.227691342481421, -22.02875095349367 ], [ -43.3266497582797, -22.007825202570984 ], [ -43.372229000368009, -21.952598996746246 ], [ -43.345774480108105, -21.916088005556958 ], [ -43.268174999776363, -21.901224996436383 ], [ -43.254272999899001, -21.930204996463374 ] ] } }
]
}
