{
"type": "FeatureCollection",
"features": [
{ "type": "Feature", "properties": { "Name": "TAPARUBA", "Description": "TAPARUBA \/ MG" }, "geometry": { "type": "LineString", "coordinates": [ [ -41.495327000040959, -19.696515996815776 ], [ -41.555808000338914, -19.729835997333339 ], [ -41.590902999973423, -19.807334997312235 ], [ -41.655004999980747, -19.832076997055708 ], [ -41.679793000046857, -19.689733997026281 ], [ -41.641404999640997, -19.667200996628651 ], [ -41.495327000040959, -19.696515996815776 ] ] } }
]
}
