{
"type": "FeatureCollection",
"features": [
{ "type": "Feature", "properties": { "Name": "TUPACIGUARA", "Description": "TUPACIGUARA \/ MG" }, "geometry": { "type": "LineString", "coordinates": [ [ -48.653820543783013, -18.342783341777761 ], [ -48.592950000342228, -18.411826996818377 ], [ -48.60424999983757, -18.477739997602782 ], [ -48.56985099992368, -18.500025997401792 ], [ -48.559769999985463, -18.554252997078095 ], [ -48.517440000355691, -18.594689996645968 ], [ -48.498243000014384, -18.757154996505847 ], [ -48.601213000079838, -18.839531996604308 ], [ -48.581096999626759, -18.797579997318962 ], [ -48.666710999712848, -18.762170996694124 ], [ -48.804248000244968, -18.688021997417195 ], [ -48.839546000247651, -18.649099997566793 ], [ -48.829267000171853, -18.605885996741335 ], [ -48.915716000093312, -18.589168997451225 ], [ -48.932016999984512, -18.556298997001079 ], [ -49.004695999820505, -18.537043997582373 ], [ -49.042807000042956, -18.506556997307541 ], [ -49.025955999969369, -18.430814997414132 ], [ -49.053762019601493, -18.402575654742634 ], [ -48.936773759801156, -18.306207588609254 ], [ -48.83208383240293, -18.346135189687232 ], [ -48.653820543783013, -18.342783341777761 ] ] } }
]
}
