{
"type": "FeatureCollection",
"features": [
{ "type": "Feature", "properties": { "Name": "UBÃ", "Description": "UBÃ \/ MG" }, "geometry": { "type": "LineString", "coordinates": [ [ -43.068811999873844, -20.964701996599839 ], [ -43.007525000178589, -21.035942996671906 ], [ -42.966746000127785, -21.045612996542502 ], [ -42.922580000366679, -21.014220996801498 ], [ -42.868699999605269, -21.054681996576846 ], [ -42.845682000224087, -21.107020996421795 ], [ -42.861868000208005, -21.156871996645293 ], [ -42.88358299975561, -21.199809996434169 ], [ -42.861373999910136, -21.241956996618054 ], [ -42.955168000402857, -21.264640996784522 ], [ -42.97042599985997, -21.256977996837065 ], [ -42.922997999857785, -21.212588996684811 ], [ -42.998638000443343, -21.136598997046008 ], [ -43.101953000230701, -21.11067499675363 ], [ -43.083677000093417, -21.029798996626369 ], [ -43.102423000321153, -20.955794996841576 ], [ -43.068811999873844, -20.964701996599839 ] ] } }
]
}
