{
"type": "FeatureCollection",
"features": [
{ "type": "Feature", "properties": { "Name": "URUCUIA", "Description": "URUCUIA \/ MG" }, "geometry": { "type": "LineString", "coordinates": [ [ -45.366002999738612, -15.889370997773256 ], [ -45.415066999642249, -15.926719997929524 ], [ -45.437566000270635, -15.982024997855319 ], [ -45.366780999643368, -16.087549997933991 ], [ -45.361624000147458, -16.223153997458951 ], [ -45.303921000253922, -16.267888997379259 ], [ -45.365893000061874, -16.325037997805282 ], [ -45.423338999794964, -16.279333997266122 ], [ -45.483808999585619, -16.300811997575579 ], [ -45.505339999641251, -16.257896997048704 ], [ -45.614733000027904, -16.177367997634917 ], [ -45.655220000102872, -16.182742997291427 ], [ -45.751629999824608, -16.129344997173856 ], [ -45.799788000215983, -16.17436699773873 ], [ -45.862783000435059, -16.169322997158531 ], [ -45.906117999645907, -16.107019997374948 ], [ -45.805741999593579, -16.06211299761668 ], [ -45.776734000073979, -15.950986997352004 ], [ -45.722118999592105, -15.865891997817412 ], [ -45.586061999861386, -15.718403997946098 ], [ -45.46550900014023, -15.78050999763826 ], [ -45.38666100000512, -15.888635997153472 ], [ -45.366002999738612, -15.889370997773256 ] ] } }
]
}
