{
"type": "FeatureCollection",
"features": [
{ "type": "Feature", "properties": { "Name": "VERDELÃNDIA", "Description": "VERDELÃNDIA \/ MG" }, "geometry": { "type": "LineString", "coordinates": [ [ -43.442588000235951, -15.358987996998394 ], [ -43.401016999634805, -15.389693997479981 ], [ -43.363153000010925, -15.4669639976903 ], [ -43.393121999780419, -15.530601997883876 ], [ -43.508532999798035, -15.66243299788448 ], [ -43.602617000174348, -15.720592997268964 ], [ -43.698100000314696, -15.73005899762461 ], [ -43.761428999748489, -15.77988999782508 ], [ -43.840788000066084, -15.645344997673474 ], [ -43.833574000139947, -15.612175997824009 ], [ -43.773429000048282, -15.557960997801784 ], [ -43.880451999959796, -15.490471997184896 ], [ -43.90919199971097, -15.494719997030188 ], [ -43.863267999818277, -15.444272997201038 ], [ -43.763093000041863, -15.414281997316266 ], [ -43.733599999740129, -15.377755997341353 ], [ -43.660527999767339, -15.377507997595956 ], [ -43.646338000098581, -15.400823997229622 ], [ -43.442588000235951, -15.358987996998394 ] ] } }
]
}
