{
"type": "FeatureCollection",
"features": [
{ "type": "Feature", "properties": { "Name": "VIRGOLÃNDIA", "Description": "VIRGOLÃNDIA \/ MG" }, "geometry": { "type": "LineString", "coordinates": [ [ -42.203134000733485, -18.411006996775427 ], [ -42.268368999929351, -18.429458996935125 ], [ -42.27659399971327, -18.48756499652734 ], [ -42.231250999633858, -18.535593997265096 ], [ -42.370708999720534, -18.5192459970051 ], [ -42.40874800021998, -18.482424996916052 ], [ -42.384530000359177, -18.373178997013042 ], [ -42.339190999564948, -18.356370997123747 ], [ -42.285433999979091, -18.384569997107633 ], [ -42.213203000118313, -18.3831589967902 ], [ -42.203134000733485, -18.411006996775427 ] ] } }
]
}
