{
"type": "FeatureCollection",
"features": [
{ "type": "Feature", "properties": { "Name": "APUÃ", "Description": "APUÃ \/ AM" }, "geometry": { "type": "LineString", "coordinates": [ [ -58.147371705839525, -7.343240959502622 ], [ -58.213059954353355, -7.458534735589524 ], [ -58.202170605988613, -7.620854259316558 ], [ -58.275990302310561, -7.699666266784732 ], [ -58.300418358620334, -7.777473826855555 ], [ -58.378219986762929, -7.827437525621293 ], [ -58.375135513593023, -7.899001267194706 ], [ -58.293064252413274, -8.070946916466994 ], [ -58.322464193567612, -8.170039407692455 ], [ -58.318584991304249, -8.330135506948068 ], [ -58.41705344835794, -8.491955784631728 ], [ -58.389518315317957, -8.594792455707193 ], [ -58.437300573562595, -8.703352483330377 ], [ -58.442867869856286, -8.799399102986172 ], [ -59.481363057559001, -8.803320906134843 ], [ -60.420180817890405, -8.79662258736249 ], [ -60.428619281654505, -8.65270605613955 ], [ -60.52897941676661, -8.494966164456855 ], [ -60.445070933276888, -8.387182982008994 ], [ -60.487131568866737, -8.292531861056489 ], [ -60.440911281030765, -8.101144135393497 ], [ -60.587777540900738, -7.708645798664634 ], [ -60.673922243516699, -7.678095532882479 ], [ -60.675578894550313, -7.531022048528654 ], [ -60.647326786901658, -7.481337729552536 ], [ -60.632727710815168, -7.28932826658621 ], [ -60.69694462349554, -7.146345730770804 ], [ -59.872748585778595, -6.812061200763765 ], [ -59.29424560435114, -6.520616087762221 ], [ -59.079177778631554, -6.38902075150645 ], [ -58.855282196915823, -6.381478196861224 ], [ -58.835941936371221, -6.470871779508968 ], [ -58.874666573703394, -6.589493963575535 ], [ -58.868005834901339, -6.675389544092127 ], [ -58.743963904510558, -6.886897493424556 ], [ -58.675574220274029, -6.928399023196334 ], [ -58.601600620272393, -7.037301608882103 ], [ -58.496668999174908, -7.052066470491184 ], [ -58.563925242655785, -7.198929062925856 ], [ -58.57403750392762, -7.287612748629384 ], [ -58.500344729825365, -7.350125070115837 ], [ -58.147371705839525, -7.343240959502622 ] ] } }
]
}
