{
"type": "FeatureCollection",
"features": [
{ "type": "Feature", "properties": { "Name": "BOCA DO ACRE", "Description": "BOCA DO ACRE \/ AM" }, "geometry": { "type": "LineString", "coordinates": [ [ -67.057753255808052, -8.505171445305905 ], [ -67.142496811978276, -8.732842681344607 ], [ -67.086029691017359, -8.804109395731984 ], [ -67.096527054579838, -8.938098274915433 ], [ -67.198939887765562, -8.98424054116799 ], [ -67.285961714461507, -9.133048919372072 ], [ -67.283614570256191, -9.512532399650468 ], [ -67.326049102583966, -9.592343687011521 ], [ -67.51688199870523, -9.560906660913645 ], [ -68.034206507024635, -9.32677383914131 ], [ -68.647186431708406, -9.049416565522051 ], [ -69.212981988128192, -8.564374483795348 ], [ -69.098982045085265, -8.549308050725926 ], [ -69.024091891127838, -8.575471325541173 ], [ -68.946973690183597, -8.507438621794902 ], [ -68.915067293520721, -8.394937777556322 ], [ -68.854844985907334, -8.349276386895667 ], [ -68.872640693213384, -8.17057541082653 ], [ -68.788834176655882, -8.106394875722913 ], [ -68.647717352773554, -8.066909710514665 ], [ -68.577899347277025, -8.0898201213015 ], [ -68.463309231335913, -8.044971980372566 ], [ -68.368599218279257, -8.083454158682457 ], [ -68.201996168788128, -8.08153863420057 ], [ -67.98044463221396, -8.198189543912292 ], [ -67.905102240675831, -8.349182552532739 ], [ -67.615087788070923, -8.481721596874138 ], [ -67.51974735205863, -8.57004065425275 ], [ -67.413775346654859, -8.507642909092908 ], [ -67.057753255808052, -8.505171445305905 ] ] } }
]
}
