{
"type": "FeatureCollection",
"features": [
{ "type": "Feature", "properties": { "Name": "CANUTAMA", "Description": "CANUTAMA \/ AM" }, "geometry": { "type": "LineString", "coordinates": [ [ -63.165028269938659, -6.84598430822922 ], [ -63.131114335558088, -6.960954035200529 ], [ -63.21864424053922, -7.067062635032528 ], [ -63.297461120534244, -7.095789984020484 ], [ -63.320574080229562, -7.20527294269209 ], [ -63.251451071709546, -7.358855880994042 ], [ -63.336239517539632, -7.402956143011521 ], [ -63.317952970153385, -7.476394874823541 ], [ -63.419257880846487, -7.629433118943211 ], [ -63.409935043567373, -7.738258340449988 ], [ -63.469926262287117, -7.748221790902904 ], [ -63.604208333048064, -7.848570936299609 ], [ -63.620788950149915, -7.969294200167155 ], [ -63.621778956233804, -8.029610778314748 ], [ -63.722761448282199, -8.249498971999913 ], [ -63.791231292689979, -8.333215252381933 ], [ -63.870759371847491, -8.288819632320156 ], [ -63.94412252103745, -8.331187684963652 ], [ -63.924568701184562, -8.575525416164965 ], [ -63.986209735191089, -8.58563390747878 ], [ -64.035482103516244, -8.693557651264541 ], [ -64.143067069089909, -8.743031521687328 ], [ -64.141766938093667, -8.945050738500754 ], [ -64.31131846977155, -8.996470827266819 ], [ -64.323399630288691, -8.928860605232671 ], [ -64.446574044956151, -8.97687051606141 ], [ -64.578853308433395, -8.988415482788241 ], [ -64.531652298214965, -8.925552130726203 ], [ -64.50901400789013, -8.815574831812965 ], [ -64.422542795613481, -8.832843770223747 ], [ -64.332844927351459, -8.757900873726271 ], [ -64.397569379623121, -8.652766183012886 ], [ -64.502924192897126, -8.594569733206583 ], [ -64.535542763587614, -8.493774800166875 ], [ -64.504236585250169, -8.324043772801815 ], [ -64.406948230276555, -8.207213727131773 ], [ -64.399480890430709, -8.042733287211377 ], [ -64.44416713270698, -7.8961766486334 ], [ -64.397396149512645, -7.696475596271682 ], [ -64.406147103406056, -7.627677931891014 ], [ -64.501816791111978, -7.559311782013083 ], [ -64.496418883024987, -7.453130070896009 ], [ -64.581024373475998, -7.170404088377951 ], [ -64.571401431530774, -7.07522839017804 ], [ -65.039175450786374, -7.073236648152714 ], [ -64.984175550361329, -7.033889271672479 ], [ -65.017179342052941, -6.950139963688343 ], [ -64.982261914455762, -6.890297804899717 ], [ -65.006038507271228, -6.797522936834014 ], [ -64.932697936460556, -6.684116650662872 ], [ -64.884921426682467, -6.749135740621909 ], [ -64.767788581977413, -6.725495266493283 ], [ -64.676870469496521, -6.561532977265017 ], [ -64.624483132890248, -6.378513640192295 ], [ -64.539918003113314, -6.304619556447335 ], [ -64.515255495344775, -6.207770288268136 ], [ -64.430475906937488, -6.100185291218167 ], [ -64.387694118488753, -6.096621456015328 ], [ -64.38850161975391, -5.926720018813795 ], [ -64.273476211258128, -5.938743347527406 ], [ -63.62176512196276, -6.476594966084747 ], [ -63.165028269938659, -6.84598430822922 ] ] } }
]
}
