{
"type": "FeatureCollection",
"features": [
{ "type": "Feature", "properties": { "Name": "CAREIRO DA VÃRZEA", "Description": "CAREIRO DA VÃRZEA \/ AM" }, "geometry": { "type": "LineString", "coordinates": [ [ -59.358636824529803, -3.153022656370467 ], [ -59.234159973903616, -3.243351593301327 ], [ -59.233522825817715, -3.350297522212827 ], [ -59.390366476531646, -3.463564880215017 ], [ -59.515200997428053, -3.492662508867624 ], [ -59.544179633183482, -3.539266331475971 ], [ -59.715433344972837, -3.460474154958263 ], [ -59.775008319678186, -3.463600302711768 ], [ -59.697320827194403, -3.441521495020936 ], [ -59.671711002360837, -3.353142259507649 ], [ -59.828086395870457, -3.35267898634612 ], [ -59.936135480867726, -3.298973655509769 ], [ -60.018318675266585, -3.36999207877136 ], [ -60.185512490309115, -3.358277640200868 ], [ -60.183269551448575, -3.353069801130346 ], [ -59.935703534690326, -3.284119846453677 ], [ -59.906998513170834, -3.137799845586357 ], [ -59.769807134691462, -3.064225307152128 ], [ -59.700169722054959, -3.060890443838844 ], [ -59.545555367486202, -3.1214711942402 ], [ -59.358636824529803, -3.153022656370467 ] ] } }
]
}
