{
"type": "FeatureCollection",
"features": [
{ "type": "Feature", "properties": { "Name": "COARI", "Description": "COARI \/ AM" }, "geometry": { "type": "LineString", "coordinates": [ [ -62.355685433336021, -4.089968923926676 ], [ -62.28415311857151, -4.159525570248832 ], [ -62.262901350816655, -4.240808172758932 ], [ -62.43489433770349, -4.229065948734501 ], [ -62.619061501986664, -4.44196998582612 ], [ -62.657965777998243, -4.388962240215164 ], [ -62.751888716091337, -4.4628452838827 ], [ -62.954249918998521, -4.518544326259586 ], [ -63.031147619666847, -4.705168558881837 ], [ -63.221158879878374, -4.816334712976584 ], [ -63.248439027239264, -4.90664207247363 ], [ -63.340911385851705, -5.000637436568411 ], [ -63.372132405585994, -5.12177774214905 ], [ -63.554136837045348, -5.156135321088129 ], [ -63.713218648521774, -5.11112973135198 ], [ -63.825196314857976, -5.152422000574802 ], [ -64.025724824441056, -5.267154175224959 ], [ -64.111226696155086, -5.423345185232051 ], [ -64.298667892709034, -5.480565985731629 ], [ -64.44325594860311, -5.563275146830506 ], [ -64.476666159215824, -5.670341184697861 ], [ -64.60378184105906, -5.698407601229746 ], [ -64.72333826874609, -5.802599986799918 ], [ -64.961379486574003, -5.745361945397406 ], [ -65.069288732389055, -5.752165221347865 ], [ -65.146479120115259, -5.696466820187538 ], [ -65.196816172428385, -5.734626545678509 ], [ -65.356622277196323, -5.645936879483372 ], [ -65.452734114787518, -5.673878242586795 ], [ -65.569264264434196, -5.613434490409361 ], [ -65.626009693192771, -5.522549191491919 ], [ -65.844762352500538, -5.492270648671479 ], [ -65.900591706641933, -5.436975915406151 ], [ -65.85323274849253, -5.323709211211052 ], [ -65.678480162229675, -5.261227326379981 ], [ -65.700285717212012, -5.18927977394236 ], [ -65.686261411335011, -5.044789351147585 ], [ -65.622982710083974, -5.023779516311606 ], [ -65.574702034970869, -4.884443288027285 ], [ -65.463032923330729, -4.762214013166101 ], [ -65.4466440965478, -4.680258829281512 ], [ -65.364002926893534, -4.609960428430952 ], [ -65.257537427510215, -4.620182201946989 ], [ -65.018003728988845, -4.41363632945297 ], [ -65.00333682513434, -4.310434261132173 ], [ -64.863975759373773, -4.289306252681342 ], [ -64.731500426603361, -4.195898388699618 ], [ -64.567143721705349, -4.033245524960989 ], [ -64.525864833495234, -3.959444488672147 ], [ -64.439221339892867, -3.987597363327609 ], [ -64.288499541620524, -3.946448586333133 ], [ -64.166557639723237, -3.865547065244812 ], [ -64.159890190180079, -3.811649272296052 ], [ -64.071599029771377, -3.704310467354162 ], [ -63.98780825224901, -3.706787481756805 ], [ -63.919621760835582, -3.656508711807533 ], [ -64.062598544587104, -3.543609032630683 ], [ -64.15836171861838, -3.511220640719955 ], [ -64.128520390203789, -3.364662881586696 ], [ -64.087440024637374, -3.330316563958206 ], [ -64.321243216101479, -3.096175615012555 ], [ -64.330530469905227, -3.026861376451336 ], [ -64.435922834371297, -2.947867320120678 ], [ -64.502235979506793, -2.738195934794533 ], [ -64.357476794318572, -2.720400335407078 ], [ -64.425369782089717, -2.639196376811299 ], [ -64.461330903498379, -2.470813323476023 ], [ -64.529330094907891, -2.336790719715907 ], [ -64.367216326172468, -2.265118894021668 ], [ -64.365189219207082, -2.368526376491047 ], [ -64.237303042301491, -2.429749159196319 ], [ -64.100940967351733, -2.46559433820812 ], [ -64.015029482324735, -2.666336775821492 ], [ -63.954223682876595, -2.69694387785762 ], [ -63.968831310616451, -2.809607537158058 ], [ -63.876427707872381, -2.973501329522719 ], [ -63.857030701006011, -3.088622780217065 ], [ -63.771519351336956, -3.22519414179618 ], [ -63.652532712514635, -3.338339674036661 ], [ -63.477166625839061, -3.394302804131087 ], [ -63.374524226311962, -3.488555372532346 ], [ -63.276887589090897, -3.517277488365323 ], [ -63.150858031972575, -3.618518079545709 ], [ -63.00324472686259, -3.575885737736542 ], [ -62.58057226669672, -3.857846736237831 ], [ -62.570698859964352, -4.002255738911173 ], [ -62.441825300297346, -4.080909031326712 ], [ -62.355685433336021, -4.089968923926676 ] ] } }
]
}
