{
"type": "FeatureCollection",
"features": [
{ "type": "Feature", "properties": { "Name": "CODAJÃS", "Description": "CODAJÃS \/ AM" }, "geometry": { "type": "LineString", "coordinates": [ [ -63.957494563023602, -2.444758134580184 ], [ -63.964607855068436, -2.57538016965907 ], [ -63.788470556570864, -2.557195599097554 ], [ -63.691555364488458, -2.834600301162936 ], [ -63.463081721843935, -2.703444686622958 ], [ -63.30491005215714, -2.700194436923652 ], [ -63.189016386896689, -2.83712978201379 ], [ -63.049771276123458, -2.814760339517988 ], [ -62.928857355082812, -2.853617518933277 ], [ -62.933461216661783, -3.000941473470164 ], [ -62.779987760027034, -3.020196142837676 ], [ -62.701878567341964, -3.091272779215331 ], [ -62.583089870201327, -3.106760261376905 ], [ -62.528715492326057, -3.156569287542538 ], [ -62.457459675023927, -3.293743070786036 ], [ -62.444820397942969, -3.421135057636775 ], [ -62.272345101045509, -3.443661979516719 ], [ -62.270320780179816, -3.375725966380173 ], [ -62.087992961505904, -3.278102699380042 ], [ -62.087317797278502, -3.391000258854831 ], [ -62.038238068232197, -3.451922233624146 ], [ -62.033241525775736, -3.57203593700882 ], [ -61.896430484079524, -3.660278180593537 ], [ -61.823486547566063, -3.661818948585562 ], [ -61.823404104915475, -3.888608985716075 ], [ -61.878264446746748, -3.94400758977838 ], [ -61.868623401448751, -4.04020824981086 ], [ -62.192183150931612, -4.115295849923484 ], [ -62.259127262213326, -4.065234526152437 ], [ -62.355685433336021, -4.089968923926676 ], [ -62.441825300297346, -4.080909031326712 ], [ -62.570698859964352, -4.002255738911173 ], [ -62.58057226669672, -3.857846736237831 ], [ -63.00324472686259, -3.575885737736542 ], [ -63.150858031972575, -3.618518079545709 ], [ -63.276887589090897, -3.517277488365323 ], [ -63.374524226311962, -3.488555372532346 ], [ -63.477166625839061, -3.394302804131087 ], [ -63.652532712514635, -3.338339674036661 ], [ -63.771519351336956, -3.22519414179618 ], [ -63.857030701006011, -3.088622780217065 ], [ -63.876427707872381, -2.973501329522719 ], [ -63.968831310616451, -2.809607537158058 ], [ -63.954223682876595, -2.69694387785762 ], [ -64.015029482324735, -2.666336775821492 ], [ -64.100940967351733, -2.46559433820812 ], [ -64.237303042301491, -2.429749159196319 ], [ -64.365189219207082, -2.368526376491047 ], [ -64.367216326172468, -2.265118894021668 ], [ -64.260026014588846, -2.205159962762025 ], [ -64.253883302372458, -2.124160044150642 ], [ -63.99294505207245, -2.21591328507003 ], [ -64.006835923738834, -2.328458755467125 ], [ -63.957494563023602, -2.444758134580184 ] ] } }
]
}
