{
"type": "FeatureCollection",
"features": [
{ "type": "Feature", "properties": { "Name": "EIRUNEPÃ", "Description": "EIRUNEPÃ \/ AM" }, "geometry": { "type": "LineString", "coordinates": [ [ -69.33352984012997, -6.36134706441544 ], [ -69.335022004262044, -6.686244766782522 ], [ -69.374836180145564, -6.793421161357458 ], [ -69.36804544524108, -6.893154826933653 ], [ -69.445240379040214, -7.004019405970779 ], [ -69.533048238385447, -7.048118146335355 ], [ -69.521824933973505, -7.178215186881346 ], [ -69.869419338531586, -7.173599328346256 ], [ -69.896845897320233, -7.289761697544236 ], [ -70.05569566482302, -7.261116031279754 ], [ -70.126876611766193, -7.280832605040643 ], [ -70.193703143884932, -7.362395082866726 ], [ -70.355567200565815, -7.485403375665214 ], [ -70.525871608687723, -7.543674416141357 ], [ -70.607758891059916, -7.546419219871041 ], [ -70.665034621250754, -7.609358175239549 ], [ -70.732319489252959, -7.587731203132477 ], [ -70.893185877626138, -7.666102033781783 ], [ -70.938286262201188, -7.655867200310979 ], [ -71.088495383954751, -7.726266092306274 ], [ -71.381679071731753, -7.692311964525516 ], [ -71.191066844059549, -7.545739465503857 ], [ -71.055206035929743, -7.391770370905873 ], [ -70.98928888117689, -7.269783283471725 ], [ -70.90794282160391, -7.24948333748597 ], [ -70.787463892744427, -7.153606382128771 ], [ -70.729490721219747, -7.065019501248912 ], [ -70.702722035393606, -6.902768373661445 ], [ -70.64152674856058, -6.813923030323565 ], [ -70.653596919362315, -6.595099449579891 ], [ -70.571898801288626, -6.534523050098641 ], [ -70.441142786110674, -6.566236853348073 ], [ -70.368063125712638, -6.645090240422234 ], [ -70.014920003954956, -6.58903163470211 ], [ -69.910500350710549, -6.548226449990636 ], [ -69.808833324398336, -6.565145454099365 ], [ -69.796533770716906, -6.47400554991617 ], [ -69.701647169481248, -6.422686313822283 ], [ -69.532662532649738, -6.457382012669711 ], [ -69.41344870439417, -6.357288122748628 ], [ -69.33352984012997, -6.36134706441544 ] ] } }
]
}
