{
"type": "FeatureCollection",
"features": [
{ "type": "Feature", "properties": { "Name": "ITAPIRANGA", "Description": "ITAPIRANGA \/ AM" }, "geometry": { "type": "LineString", "coordinates": [ [ -57.882082978846363, -2.605650285831985 ], [ -57.938490097939614, -2.62068789023391 ], [ -57.917159712350774, -2.758055830811883 ], [ -58.110415181515343, -2.859197818524478 ], [ -58.214940211921203, -2.6481482239613 ], [ -58.304405093720042, -2.611588568657453 ], [ -58.455242340661471, -2.652449852178904 ], [ -58.503302101810498, -2.702716994793434 ], [ -58.684579819003432, -2.663242237439249 ], [ -58.780529556493775, -2.588204539807634 ], [ -58.849829507525726, -2.602439096387116 ], [ -58.959141320715332, -2.558102908022761 ], [ -59.051266453783789, -2.586993501049164 ], [ -59.155888902350902, -2.517456336740509 ], [ -59.276796839302669, -2.480105605389326 ], [ -59.082446102905294, -2.275974617634461 ], [ -58.907463031193906, -2.239055135486069 ], [ -58.784919651920347, -2.263761978032789 ], [ -58.688643266273687, -2.344815480949649 ], [ -58.610399258918619, -2.295016852745505 ], [ -58.459523921191987, -2.302929288655719 ], [ -58.364232763531156, -2.340728919304127 ], [ -58.339115108875156, -2.405084656731503 ], [ -58.1799119024123, -2.57600403925494 ], [ -58.063308458018867, -2.638669828249931 ], [ -57.978592416606709, -2.646442333247023 ], [ -57.924895093333873, -2.584964441655586 ], [ -57.882082978846363, -2.605650285831985 ] ] } }
]
}
