{
"type": "FeatureCollection",
"features": [
{ "type": "Feature", "properties": { "Name": "JURUÃ", "Description": "JURUÃ \/ AM" }, "geometry": { "type": "LineString", "coordinates": [ [ -65.870199279972766, -4.132898818125908 ], [ -65.908873753121156, -4.292671451026592 ], [ -65.950175814162435, -4.29464229190819 ], [ -66.932094437907949, -4.295637794648485 ], [ -66.914787412309181, -4.231302631011545 ], [ -67.059963176059682, -4.127514680458091 ], [ -67.197058737170948, -3.90670688771263 ], [ -67.001362224686886, -3.988094638956397 ], [ -66.971041765365158, -3.86103959839869 ], [ -66.989292439694282, -3.707745108649817 ], [ -66.910984883545481, -3.586573401441285 ], [ -67.028154720963585, -3.529043708100573 ], [ -67.034988903015403, -3.415656974989361 ], [ -66.941710010808322, -3.303744722640772 ], [ -66.906873328841016, -3.16579927251837 ], [ -66.855859649103479, -3.135203085553883 ], [ -66.772400279849023, -3.168207413241475 ], [ -66.597703193447558, -3.140721340017762 ], [ -66.449339231420367, -3.134967806718862 ], [ -66.327396495851573, -3.158389296828545 ], [ -66.209484621518016, -3.068194339097431 ], [ -66.192621044425607, -2.960713913416328 ], [ -66.125278323935447, -2.895858480284573 ], [ -66.053129704672074, -2.724990054247542 ], [ -65.946581020697522, -2.607298116314951 ], [ -65.798652641705985, -2.592004438054346 ], [ -65.663787799467343, -2.662225065534301 ], [ -65.589368062885725, -2.65736779658647 ], [ -65.488418134389349, -2.539262906158172 ], [ -65.399204104086095, -2.470088816145903 ], [ -65.340168404248402, -2.473841806653979 ], [ -65.261866486848874, -2.606725852516036 ], [ -65.386239788635294, -2.687278099404693 ], [ -65.346115849366925, -2.819852967340523 ], [ -65.426727557630613, -2.873405970109388 ], [ -65.497197668737385, -2.85890630328322 ], [ -65.657476354649972, -2.954078792702092 ], [ -65.802338946585053, -3.183766923005066 ], [ -65.870733337873219, -3.340584913362988 ], [ -65.978116263554668, -3.487337882936913 ], [ -65.992260908614014, -3.634455850457072 ], [ -65.980978062787287, -3.902726674496364 ], [ -65.870199279972766, -4.132898818125908 ] ] } }
]
}
