{
"type": "FeatureCollection",
"features": [
{ "type": "Feature", "properties": { "Name": "MANACAPURU", "Description": "MANACAPURU \/ AM" }, "geometry": { "type": "LineString", "coordinates": [ [ -60.984568107931807, -2.886259576318366 ], [ -60.983679228813344, -3.005616585636858 ], [ -60.810308713476331, -3.099301223172858 ], [ -60.683682996672921, -3.14588879952845 ], [ -60.586281091499139, -3.115678990093272 ], [ -60.374661748540802, -3.132195733746073 ], [ -60.311245871000089, -3.269025368925611 ], [ -60.354751646970897, -3.304979322737495 ], [ -60.396006833548476, -3.30598224488466 ], [ -60.639900651293992, -3.44819548982997 ], [ -60.627367749621897, -3.539511926434216 ], [ -60.707892973681737, -3.715502292796543 ], [ -61.015458820168362, -3.782611508814057 ], [ -61.044736338411262, -3.821456899915972 ], [ -61.146873524893238, -3.789224156369698 ], [ -61.150484923440445, -3.700845982955684 ], [ -61.332323442572772, -3.696200659932459 ], [ -61.40726624014485, -3.625659479001684 ], [ -61.290570299579592, -3.606201261578917 ], [ -61.301957500937874, -3.500377551682618 ], [ -61.211483044706711, -3.494883131051608 ], [ -61.152624205542622, -3.409989872834331 ], [ -61.099761247183778, -3.26752525208866 ], [ -61.318956580681622, -3.197518088588879 ], [ -61.414007333371671, -2.869621261412021 ], [ -61.483485113647028, -2.786616075871166 ], [ -61.449121378848531, -2.761061230191558 ], [ -61.250626373108616, -2.741029293866745 ], [ -61.144123744315316, -2.807951158619005 ], [ -61.061342448595092, -2.813764298983187 ], [ -60.984568107931807, -2.886259576318366 ] ] } }
]
}
