{
"type": "FeatureCollection",
"features": [
{ "type": "Feature", "properties": { "Name": "MANICORÃ", "Description": "MANICORÃ \/ AM" }, "geometry": { "type": "LineString", "coordinates": [ [ -61.713274163172059, -8.687852750603895 ], [ -61.774605628047247, -8.748228934917393 ], [ -61.841249934137124, -8.739410640688448 ], [ -61.903000787955932, -8.862892493993343 ], [ -61.984137844186137, -8.773453469501987 ], [ -61.963192693987594, -8.637151379332636 ], [ -61.988498826759376, -8.560304466078207 ], [ -61.971161089312773, -8.450187223661374 ], [ -61.90560654210821, -8.329082845996481 ], [ -61.915881184069349, -8.178454930650503 ], [ -61.976139450175424, -8.051771759758878 ], [ -62.051167454014767, -8.015441881237791 ], [ -62.035797880167991, -7.915633455919192 ], [ -61.926019918684233, -7.837123206071055 ], [ -61.811776830436308, -7.687101874451911 ], [ -61.877046027252334, -7.541444222472819 ], [ -61.822131637065354, -7.440178684098954 ], [ -61.842720301400732, -7.323245670551216 ], [ -61.952050314170599, -7.299468127152296 ], [ -62.009359349854087, -7.236085976886272 ], [ -61.850077720710196, -6.976219001705545 ], [ -61.761355189690214, -6.908276095265535 ], [ -61.730683891348455, -6.809905910729127 ], [ -61.674502168440249, -6.772270316421895 ], [ -61.692614308503494, -6.498799356005406 ], [ -61.783598203694105, -6.427458572555054 ], [ -61.837141242873997, -6.268836753513312 ], [ -61.741361523115749, -6.254220093882168 ], [ -61.773962664944968, -6.176197490621631 ], [ -61.854601297112147, -6.258595792961444 ], [ -61.937906217697723, -6.263714595552074 ], [ -62.123078594701319, -6.191771108050148 ], [ -62.26524842307623, -6.251177091149771 ], [ -62.288493262054374, -6.334771862331536 ], [ -62.383217160643426, -6.325796757814088 ], [ -62.486003965210777, -6.381165767885818 ], [ -62.557729486726366, -6.381658616152151 ], [ -62.635981882058161, -6.456161553512856 ], [ -62.80411743477174, -6.414900881070764 ], [ -62.863566317331625, -6.429944569386294 ], [ -62.741545410891945, -6.275129878241215 ], [ -62.567463771935472, -6.09505038446764 ], [ -62.492629163704919, -5.972635666702615 ], [ -62.332066308213534, -5.817835302657045 ], [ -62.102819696471784, -5.459931491944758 ], [ -62.012876151413202, -5.326590313492147 ], [ -61.956152985371943, -5.304394811571228 ], [ -61.770262112106757, -5.15623987357128 ], [ -61.527209406888574, -4.942400829334758 ], [ -61.443990757367544, -4.891485854688369 ], [ -61.293256282251612, -4.712048417500398 ], [ -60.913604952506489, -5.112930651628233 ], [ -60.725788878054225, -5.113233157484159 ], [ -60.835819927647485, -5.302478614396477 ], [ -60.787255010110584, -5.387031356012244 ], [ -60.707790155091523, -5.303512378793187 ], [ -60.618347125919058, -5.293363218337788 ], [ -60.574882455261047, -5.352730748225383 ], [ -60.64246009485742, -5.537828712624957 ], [ -60.647543835579484, -5.605354789591843 ], [ -60.551912376255125, -5.734871289878072 ], [ -60.542908328856242, -5.924234376315383 ], [ -60.622246524257669, -6.017314673033695 ], [ -60.538125357399274, -6.130617355506502 ], [ -60.547378230121183, -6.319694678766382 ], [ -60.543650796546956, -6.935524364357889 ], [ -61.073942111439237, -6.935180978918993 ], [ -61.243621400806944, -7.144832947882207 ], [ -61.207105062248786, -7.256212180147942 ], [ -61.339046531372276, -7.384374729510114 ], [ -61.301175753558141, -7.488970202912469 ], [ -61.283688032576606, -7.678431790294837 ], [ -61.339747306492932, -7.854215201969964 ], [ -61.317067303812962, -7.939970428892138 ], [ -61.2126332515233, -8.006762624895202 ], [ -61.163322897633577, -7.988552251884869 ], [ -61.083629233502279, -8.189938578902227 ], [ -61.109357475666904, -8.260638384953438 ], [ -61.274545577716189, -8.257800679457716 ], [ -61.288712964831397, -8.16746497153116 ], [ -61.393884778659576, -8.051848521392117 ], [ -61.492128092237635, -8.117756180203514 ], [ -61.449773645437354, -8.204844759078298 ], [ -61.463516905980377, -8.5503457307708 ], [ -61.521491630634216, -8.573877203470088 ], [ -61.496049139056474, -8.670992376896606 ], [ -61.62032591211112, -8.64698307910578 ], [ -61.713274163172059, -8.687852750603895 ] ] } }
]
}
