{
"type": "FeatureCollection",
"features": [
{ "type": "Feature", "properties": { "Name": "NHAMUNDÃ", "Description": "NHAMUNDÃ \/ AM" }, "geometry": { "type": "LineString", "coordinates": [ [ -56.38924932939301, -2.278523395238437 ], [ -56.490331557155571, -2.266680013671646 ], [ -56.642062052121958, -2.355465597059606 ], [ -56.889403048611769, -2.426108166658537 ], [ -56.93816785486257, -2.375262933537499 ], [ -57.036582822039577, -2.376095127488099 ], [ -57.171991586842239, -2.331937944680362 ], [ -57.406154300280718, -2.380724459666055 ], [ -57.508059436493731, -2.348323475448012 ], [ -57.560676522903186, -2.287180882591599 ], [ -57.752883012940629, -2.209781214531404 ], [ -57.83083729920196, -2.086434567101549 ], [ -57.940516878451149, -2.035940860082576 ], [ -57.986958675602359, -1.8952180768527 ], [ -58.019710695791957, -1.693540778683939 ], [ -58.140214025057162, -1.618687487937166 ], [ -58.270033216459751, -1.497094578751785 ], [ -58.321455819730261, -1.348983145455747 ], [ -58.376061882749632, -1.269953885163602 ], [ -58.368900440103168, -1.192756197640335 ], [ -58.502544333054459, -1.166611056754846 ], [ -58.550359793369751, -0.992082046449241 ], [ -58.7335878729819, -0.813542207306966 ], [ -58.752970322522337, -0.664381434255745 ], [ -58.817808830413121, -0.585516141057042 ], [ -58.847841535458429, -0.481756316800556 ], [ -58.933621317469765, -0.431803926110263 ], [ -58.945123684210614, -0.264832386605292 ], [ -58.886064461705537, -0.093345472515523 ], [ -58.901293545260842, -0.00656832256999 ], [ -59.038743230615573, 0.047665963413522 ], [ -59.134300193698948, 0.222968205418397 ], [ -59.19227805249011, 0.263526843688908 ], [ -58.89546481964566, 0.263510275478893 ], [ -58.895500268222747, 0.000920342000256 ], [ -58.863883946087185, -0.078029785146441 ], [ -58.874587077231801, -0.335788702686443 ], [ -58.725220367525878, -0.442221215836412 ], [ -58.727186550818601, -0.607838968093859 ], [ -58.703940840397422, -0.671387524414683 ], [ -58.560645142659148, -0.804614317196922 ], [ -58.459043988089547, -0.863993332326402 ], [ -58.414762261768942, -0.967052740291706 ], [ -58.430082108502454, -1.027116486636487 ], [ -58.323287252204864, -1.143294252227918 ], [ -58.254769307557467, -1.132590773045706 ], [ -58.162644128623583, -1.229656535021036 ], [ -58.081858429422937, -1.126480766474174 ], [ -58.017542886295125, -1.106149681462568 ], [ -57.965488744909635, -1.206084807767638 ], [ -57.996386549199826, -1.344320814453965 ], [ -57.918524937176073, -1.419807488724587 ], [ -57.824038616988553, -1.439757442851658 ], [ -57.773325662449338, -1.508800856874018 ], [ -57.713164498842495, -1.504146992089943 ], [ -57.678677302415508, -1.594338757227831 ], [ -57.590127986217567, -1.580101270657053 ], [ -57.475204745202795, -1.677999875893533 ], [ -57.352069433057856, -1.733167959433729 ], [ -57.274400058316019, -1.709736465265621 ], [ -57.097856189811296, -1.775105401393091 ], [ -57.037209145885349, -1.911553766293252 ], [ -56.859044531779659, -2.015925978501059 ], [ -56.747883574867046, -2.011502269114374 ], [ -56.721382198129902, -2.059174441347352 ], [ -56.760958967382408, -2.174058191332392 ], [ -56.612913188193033, -2.210171270287844 ], [ -56.527065317610266, -2.139195179014279 ], [ -56.413882794455333, -2.175949604090931 ], [ -56.186703421925358, -2.042821330240145 ], [ -56.097558037773176, -2.037133245103121 ], [ -56.203769677428625, -2.183080194595277 ], [ -56.38924932939301, -2.278523395238437 ] ] } }
]
}
