{
"type": "FeatureCollection",
"features": [
{ "type": "Feature", "properties": { "Name": "PARINTINS", "Description": "PARINTINS \/ AM" }, "geometry": { "type": "LineString", "coordinates": [ [ -56.38924932939301, -2.278523395238437 ], [ -56.464486289810395, -2.431594809952458 ], [ -56.402107186697265, -2.45651676313804 ], [ -56.81009741406438, -3.332978085070522 ], [ -56.929876731525894, -3.279608853365858 ], [ -56.942021134167987, -3.232514400219372 ], [ -57.046455493126473, -3.208097292256184 ], [ -56.996227946762303, -3.072254997570042 ], [ -57.016368084119733, -2.932573480881388 ], [ -56.917647597458597, -2.894325551682812 ], [ -56.85477467930798, -2.915535800436771 ], [ -56.811030159414258, -2.783515500340002 ], [ -56.947636683586033, -2.749177944806263 ], [ -56.937523109304038, -2.666179784769212 ], [ -57.095373524968181, -2.72816491827632 ], [ -57.18303280731817, -2.71633245268049 ], [ -57.299586588450261, -2.634492192260836 ], [ -57.429011575523759, -2.589818324655937 ], [ -57.28932930070664, -2.488965409625905 ], [ -57.328986755334427, -2.455390543039073 ], [ -57.406154300280718, -2.380724459666055 ], [ -57.171991586842239, -2.331937944680362 ], [ -57.036582822039577, -2.376095127488099 ], [ -56.93816785486257, -2.375262933537499 ], [ -56.889403048611769, -2.426108166658537 ], [ -56.642062052121958, -2.355465597059606 ], [ -56.490331557155571, -2.266680013671646 ], [ -56.38924932939301, -2.278523395238437 ] ] } }
]
}
