{
"type": "FeatureCollection",
"features": [
{ "type": "Feature", "properties": { "Name": "PAUINI", "Description": "PAUINI \/ AM" }, "geometry": { "type": "LineString", "coordinates": [ [ -67.500555427490951, -7.247186790038256 ], [ -67.442216073612883, -7.287283390815787 ], [ -67.349213338025081, -7.2775279994176 ], [ -67.347742703662789, -7.173420661834029 ], [ -67.263378374512342, -7.075469923797925 ], [ -67.166912092518999, -7.064395655035411 ], [ -67.073633722817988, -7.008283286044786 ], [ -66.96402338417181, -7.134512818211931 ], [ -66.957686430084649, -7.223998004004613 ], [ -66.589017215572028, -7.49948758628301 ], [ -66.488959798555811, -7.51653075529009 ], [ -66.378268754499402, -7.484644019605753 ], [ -66.384131329697084, -7.566084810165818 ], [ -66.547520297523647, -7.600269354147314 ], [ -66.60909932777173, -7.673670227199182 ], [ -66.702230330964937, -7.701548946226865 ], [ -66.831928068025888, -7.826276507155058 ], [ -66.883840443881354, -8.013766973067334 ], [ -66.863016522294629, -8.092925914699151 ], [ -66.936886321646398, -8.319609002653294 ], [ -66.925934931751669, -8.454223119301446 ], [ -67.057753255808052, -8.505171445305905 ], [ -67.413775346654859, -8.507642909092908 ], [ -67.51974735205863, -8.57004065425275 ], [ -67.615087788070923, -8.481721596874138 ], [ -67.905102240675831, -8.349182552532739 ], [ -67.98044463221396, -8.198189543912292 ], [ -68.201996168788128, -8.08153863420057 ], [ -68.368599218279257, -8.083454158682457 ], [ -68.463309231335913, -8.044971980372566 ], [ -68.577899347277025, -8.0898201213015 ], [ -68.647717352773554, -8.066909710514665 ], [ -68.788834176655882, -8.106394875722913 ], [ -68.872640693213384, -8.17057541082653 ], [ -68.854844985907334, -8.349276386895667 ], [ -68.915067293520721, -8.394937777556322 ], [ -68.946973690183597, -8.507438621794902 ], [ -69.024091891127838, -8.575471325541173 ], [ -69.098982045085265, -8.549308050725926 ], [ -69.212981988128192, -8.564374483795348 ], [ -69.801709143362245, -8.061125977082156 ], [ -69.792447476170025, -7.867779762725831 ], [ -69.625224112103069, -7.752392889720056 ], [ -69.565672928063123, -7.5572717284075 ], [ -69.491121073878389, -7.404901446744304 ], [ -69.491037309224396, -7.203152932162027 ], [ -69.36105754926642, -7.012563963655963 ], [ -69.236250397437857, -6.992909402646773 ], [ -69.127004639452537, -7.015910012736867 ], [ -68.903030169206886, -7.105119266740701 ], [ -68.729782867285437, -7.122079560523275 ], [ -68.656530259164072, -7.103926276476443 ], [ -68.598914214719173, -7.178893507729128 ], [ -68.492722667716919, -7.248486892256209 ], [ -68.487609806047658, -7.161556247822546 ], [ -68.387243984522215, -7.179444306509482 ], [ -68.172527340464342, -7.168630874415271 ], [ -68.077223765864062, -7.144068681524402 ], [ -67.914576274675312, -7.154954361554474 ], [ -67.87632786433943, -7.240555244129155 ], [ -67.724661158285812, -7.262865211760071 ], [ -67.598577176895162, -7.401950978854529 ], [ -67.522908523009889, -7.325360769883559 ], [ -67.500555427490951, -7.247186790038256 ] ] } }
]
}
