{
"type": "FeatureCollection",
"features": [
{ "type": "Feature", "properties": { "Name": "RIO PRETO DA EVA", "Description": "RIO PRETO DA EVA \/ AM" }, "geometry": { "type": "LineString", "coordinates": [ [ -59.276796839302669, -2.480105605389326 ], [ -59.155888902350902, -2.517456336740509 ], [ -59.200883312614735, -2.56431033365493 ], [ -59.230440055963754, -2.701188589781566 ], [ -59.306113238834882, -2.761086304189519 ], [ -59.500307749503008, -2.971895816638607 ], [ -59.706151785676347, -2.939600842704692 ], [ -59.759655304148907, -2.822222387752959 ], [ -59.819135783489564, -2.803350275594709 ], [ -59.941192354343627, -2.578277837452163 ], [ -60.033281314880753, -2.549303942922563 ], [ -60.046561294168328, -2.328262265291244 ], [ -60.000488443886518, -2.120190415055561 ], [ -59.869273681834898, -2.132541556547551 ], [ -59.74889172867028, -2.212606979728264 ], [ -59.677072728023916, -2.111902263978266 ], [ -59.571681708044359, -2.182046976986328 ], [ -59.506401216642814, -2.305251142126451 ], [ -59.427845415233662, -2.371096011171915 ], [ -59.347871103268744, -2.370061430190788 ], [ -59.276796839302669, -2.480105605389326 ] ] } }
]
}
