{
"type": "FeatureCollection",
"features": [
{ "type": "Feature", "properties": { "Name": "SÃO GABRIEL DA CACHOEIRA", "Description": "SÃO GABRIEL DA CACHOEIRA \/ AM" }, "geometry": { "type": "LineString", "coordinates": [ [ -66.316479516716299, 0.736142055611424 ], [ -66.138762932263489, 0.629159125893011 ], [ -66.124073985126245, 0.57372295265219 ], [ -66.308745063833612, 0.451084126531271 ], [ -66.290874091366163, 0.344007557602765 ], [ -66.410079453404023, 0.221992748566549 ], [ -66.392145580554086, 0.177036644925295 ], [ -66.246053543436233, 0.105662988556105 ], [ -66.188436758849321, 0.111087984223161 ], [ -66.115056476675022, 0.032032922381518 ], [ -66.0817394133432, -0.16891202726822 ], [ -66.047084202873634, -0.244343055987201 ], [ -65.922789623242465, -0.184769361916494 ], [ -65.890682791977213, -0.310516690193026 ], [ -66.09261927655831, -0.367580692994522 ], [ -66.134773314836593, -0.480053498170378 ], [ -66.253262466689421, -0.481820640809872 ], [ -66.333793319606002, -0.578105817329572 ], [ -66.406842064909313, -0.601720575344245 ], [ -66.459382299753315, -0.555519468248804 ], [ -66.71008779671439, -0.691620248775394 ], [ -66.691174070227135, -0.827701305370908 ], [ -66.76395561346078, -0.989236589696816 ], [ -66.924483572558813, -0.975189329523914 ], [ -66.954421948613955, -1.03532093511302 ], [ -66.911955084759313, -1.115898095021009 ], [ -67.015932705929572, -1.166665848849789 ], [ -67.125598542638613, -1.134954870370905 ], [ -67.26909522626363, -1.236005880866685 ], [ -67.49849305001419, -1.354571033526327 ], [ -67.519327295818016, -1.43267867578021 ], [ -67.649504071155945, -1.512070204576219 ], [ -67.711389286386407, -1.527877658327213 ], [ -67.83172022370934, -1.481923756875858 ], [ -67.904566766343166, -1.51737331062975 ], [ -68.03527569661604, -1.474624772814991 ], [ -68.160695970242784, -1.483431862390489 ], [ -68.16506443157823, -0.671106157123404 ], [ -68.287448602071265, -0.679763508678946 ], [ -68.42583507522852, -0.757125907034947 ], [ -68.595395849239026, -0.724118907461559 ], [ -68.697447462530292, -0.571125067367916 ], [ -68.920063478946361, -0.484566763845009 ], [ -69.063475320529562, -0.499727935096075 ], [ -69.158638856298126, -0.538536141929342 ], [ -69.269857577565105, -0.521402327555336 ], [ -69.408940747417546, -0.406932081350419 ], [ -69.603875972997741, -0.310548495616558 ], [ -69.604182138195085, -0.220874910848408 ], [ -69.734518038676526, -0.16776525226453 ], [ -69.757658753248833, -0.098589413970217 ], [ -69.883496499363901, -0.143353078881432 ], [ -69.941877853380163, -0.085352217230991 ], [ -69.998300126049912, 0.059357548412152 ], [ -70.046353929190445, 0.068309570030692 ], [ -70.043565538019152, 0.558828136309501 ], [ -69.942385846229783, 0.554295509130498 ], [ -69.725227835096447, 0.616860012879329 ], [ -69.679800145859986, 0.670573192099198 ], [ -69.606794139937563, 0.6292069554367 ], [ -69.481474673117646, 0.735607384373338 ], [ -69.368851198224206, 0.627513481661879 ], [ -69.238951600236135, 0.602390207142378 ], [ -69.193221441116577, 0.651525282265993 ], [ -69.14502139022494, 0.78302991469883 ], [ -69.213044972147713, 1.020180790211327 ], [ -69.32157831958375, 1.09569488391179 ], [ -69.684760978935969, 1.076476936561448 ], [ -69.710585298372791, 1.126509165465677 ], [ -69.844376639670145, 1.085379326394843 ], [ -69.84254544101924, 1.720774850379087 ], [ -69.657581166237776, 1.73673070305955 ], [ -69.552344865623013, 1.791746628504143 ], [ -69.384886481725673, 1.72973701814891 ], [ -68.697275096668363, 1.731986692032251 ], [ -68.156812667070881, 1.731635295432568 ], [ -68.266902611466321, 1.827336293035558 ], [ -68.243255893344781, 1.926746368150418 ], [ -68.140694740369952, 1.984782391494207 ], [ -68.087526472968307, 1.901313261897542 ], [ -67.941294834988582, 1.830730920795417 ], [ -67.779422183486929, 2.031063955537149 ], [ -67.619831544590056, 2.023673186668304 ], [ -67.550912621919906, 2.141718125591069 ], [ -67.389260807040557, 2.244011145697868 ], [ -67.343486935473663, 2.205479869800172 ], [ -67.336873045954292, 2.098090253162695 ], [ -67.27808698352743, 1.875747133323614 ], [ -67.157050065807823, 1.848844118461329 ], [ -67.097381572401616, 1.73260091010394 ], [ -67.072331046740359, 1.442604125579976 ], [ -67.088160238903868, 1.166896707716944 ], [ -66.856933123065119, 1.230206253016206 ], [ -66.318520129700175, 0.75504215916834 ], [ -66.316479516716299, 0.736142055611424 ] ] } }
]
}
