{
"type": "FeatureCollection",
"features": [
{ "type": "Feature", "properties": { "Name": "SILVES", "Description": "SILVES \/ AM" }, "geometry": { "type": "LineString", "coordinates": [ [ -58.110415181515343, -2.859197818524478 ], [ -58.177135217716057, -3.035246655208937 ], [ -58.375896678189115, -3.14460273842559 ], [ -58.410174845192898, -2.999027533593733 ], [ -58.472460180492874, -2.977217201412657 ], [ -58.626994586231149, -3.040545842916288 ], [ -58.870696595671298, -2.908476300440839 ], [ -58.864699339802655, -2.872970190122146 ], [ -59.051266453783789, -2.586993501049164 ], [ -58.959141320715332, -2.558102908022761 ], [ -58.849829507525726, -2.602439096387116 ], [ -58.780529556493775, -2.588204539807634 ], [ -58.684579819003432, -2.663242237439249 ], [ -58.503302101810498, -2.702716994793434 ], [ -58.455242340661471, -2.652449852178904 ], [ -58.304405093720042, -2.611588568657453 ], [ -58.214940211921203, -2.6481482239613 ], [ -58.110415181515343, -2.859197818524478 ] ] } }
]
}
