{
"type": "FeatureCollection",
"features": [
{ "type": "Feature", "properties": { "Name": "TABATINGA", "Description": "TABATINGA \/ AM" }, "geometry": { "type": "LineString", "coordinates": [ [ -69.638214355907735, -3.689481902267914 ], [ -69.618444401088198, -3.769929708189409 ], [ -69.439994627250201, -3.716946234381168 ], [ -69.39282346732908, -3.835526717783751 ], [ -69.423188210167723, -3.996491237480597 ], [ -69.520658051028192, -4.046853151551659 ], [ -69.516983656770321, -4.130058674568147 ], [ -69.425990085773776, -4.131764555389849 ], [ -69.534352235567155, -4.277403550033739 ], [ -69.789119275034466, -4.371904910483181 ], [ -69.954859704711566, -4.266331373094317 ], [ -69.935166628437116, -4.216471202483945 ], [ -69.837664585552147, -3.686589731131164 ], [ -69.693792049163676, -3.725753618934334 ], [ -69.638214355907735, -3.689481902267914 ] ] } }
]
}
