{
"type": "FeatureCollection",
"features": [
{ "type": "Feature", "properties": { "Name": "URUCARÃ", "Description": "URUCARÃ \/ AM" }, "geometry": { "type": "LineString", "coordinates": [ [ -57.406154300280718, -2.380724459666055 ], [ -57.328986755334427, -2.455390543039073 ], [ -57.592537802377649, -2.457226035952772 ], [ -57.714004501606439, -2.660944606308476 ], [ -57.803609688436325, -2.740493477791745 ], [ -57.917159712350774, -2.758055830811883 ], [ -57.938490097939614, -2.62068789023391 ], [ -57.882082978846363, -2.605650285831985 ], [ -57.792688155134208, -2.559632633239403 ], [ -57.892444715651045, -2.406109942319915 ], [ -57.982484984594343, -2.405784365256181 ], [ -57.985961015388504, -2.290164271064214 ], [ -58.034321237335178, -2.225154875796818 ], [ -58.114715414884465, -2.219907915318004 ], [ -58.188718683520385, -2.112119813578488 ], [ -58.184330046794166, -2.019136613963497 ], [ -58.308090005549268, -1.912810254089891 ], [ -58.378261433818068, -1.919105597445309 ], [ -58.556796314997882, -1.726907411747618 ], [ -58.603278587936416, -1.598846465092265 ], [ -58.744888238501346, -1.49861424145405 ], [ -58.826724030189773, -1.508744180699352 ], [ -58.917981944311229, -1.446942310139434 ], [ -58.985488587828009, -1.349146559466078 ], [ -59.205445983445316, -1.248366648701847 ], [ -59.282751624687705, -1.156812314436706 ], [ -59.379721432597989, -1.14774401767221 ], [ -59.38061802700031, -1.106673531158492 ], [ -59.700294526371231, -1.104761910633613 ], [ -59.802215844985199, -1.02718426044521 ], [ -59.900528081705538, -0.871766221333985 ], [ -60.01586624203339, -0.796059852580072 ], [ -60.054270511175105, -0.675992341073652 ], [ -60.000945008105582, -0.569551807769642 ], [ -59.831314697615134, -0.411340770260267 ], [ -59.838743780301172, -0.26757176022852 ], [ -59.810477625242186, -0.230011301580248 ], [ -59.913406465136234, -0.150050398507062 ], [ -59.864535063142618, -0.046640506753931 ], [ -60.082502062120454, -0.048069951267166 ], [ -60.225203896142823, -0.119529167337134 ], [ -60.137945012652146, 0.102692950519327 ], [ -60.059082919241291, 0.162996894091464 ], [ -60.037968645236731, 0.263545516312547 ], [ -59.19227805249011, 0.263526843688908 ], [ -59.134300193698948, 0.222968205418397 ], [ -59.038743230615573, 0.047665963413522 ], [ -58.901293545260842, -0.00656832256999 ], [ -58.886064461705537, -0.093345472515523 ], [ -58.945123684210614, -0.264832386605292 ], [ -58.933621317469765, -0.431803926110263 ], [ -58.847841535458429, -0.481756316800556 ], [ -58.817808830413121, -0.585516141057042 ], [ -58.752970322522337, -0.664381434255745 ], [ -58.7335878729819, -0.813542207306966 ], [ -58.550359793369751, -0.992082046449241 ], [ -58.502544333054459, -1.166611056754846 ], [ -58.368900440103168, -1.192756197640335 ], [ -58.376061882749632, -1.269953885163602 ], [ -58.321455819730261, -1.348983145455747 ], [ -58.270033216459751, -1.497094578751785 ], [ -58.140214025057162, -1.618687487937166 ], [ -58.019710695791957, -1.693540778683939 ], [ -57.986958675602359, -1.8952180768527 ], [ -57.940516878451149, -2.035940860082576 ], [ -57.83083729920196, -2.086434567101549 ], [ -57.752883012940629, -2.209781214531404 ], [ -57.560676522903186, -2.287180882591599 ], [ -57.508059436493731, -2.348323475448012 ], [ -57.406154300280718, -2.380724459666055 ] ] } }
]
}
