{
"type": "FeatureCollection",
"features": [
{ "type": "Feature", "properties": { "Name": "ALDEIAS ALTAS", "Description": "ALDEIAS ALTAS \/ MA" }, "geometry": { "type": "LineString", "coordinates": [ [ -43.210345161300097, -4.365335809000328 ], [ -43.082672376429002, -4.446155624882124 ], [ -43.121975258051691, -4.509697250127942 ], [ -43.134144240963899, -4.562536339580332 ], [ -43.20409015073983, -4.629419630611437 ], [ -43.211924223324218, -4.676613979551462 ], [ -43.262478923263643, -4.712614279025728 ], [ -43.402954168100337, -4.630373208756509 ], [ -43.48075847892062, -4.650744564509978 ], [ -43.507649262103712, -4.683676859199636 ], [ -43.584262102513996, -4.658699401656008 ], [ -43.679062469557266, -4.550034459122969 ], [ -43.696008194322644, -4.492481680185335 ], [ -43.368171479630064, -4.3017735506088 ], [ -43.42924347210851, -4.223322443775714 ], [ -43.210345161300097, -4.365335809000328 ] ] } }
]
}
