{
"type": "FeatureCollection",
"features": [
{ "type": "Feature", "properties": { "Name": "ALTO ALEGRE DO MARANHÃO", "Description": "ALTO ALEGRE DO MARANHÃO \/ MA" }, "geometry": { "type": "LineString", "coordinates": [ [ -44.267766665099487, -4.277755113008027 ], [ -44.356500041943313, -4.268397313685056 ], [ -44.406705606178718, -4.321276063239679 ], [ -44.473099963692334, -4.304861943923527 ], [ -44.476936483232066, -4.278890755304076 ], [ -44.486787980680731, -4.129702900068764 ], [ -44.470982937112808, -4.129657423151514 ], [ -44.446521446707379, -4.12914394173947 ], [ -44.342758220315538, -4.099957026595461 ], [ -44.267766665099487, -4.277755113008027 ] ] } }
]
}
