{
"type": "FeatureCollection",
"features": [
{ "type": "Feature", "properties": { "Name": "ARAME", "Description": "ARAME \/ MA" }, "geometry": { "type": "LineString", "coordinates": [ [ -45.571444877978706, -4.944028173261529 ], [ -45.683939504304647, -5.038962033870746 ], [ -45.724689052457791, -5.047505811843678 ], [ -45.793405729290953, -5.147243516275182 ], [ -45.866618822100918, -5.234534272638541 ], [ -45.905574386448727, -5.254798222360023 ], [ -45.932461258480252, -5.312698484047758 ], [ -45.985815603707124, -5.28940783630253 ], [ -46.010625822423719, -5.304786304444349 ], [ -46.187153889840083, -5.270756924092723 ], [ -46.205304260982814, -5.325765906771153 ], [ -46.307866914026818, -5.36150676082832 ], [ -46.329968713785092, -5.334049467708724 ], [ -46.34797744890011, -5.296293042290017 ], [ -46.313219797555575, -5.220976878580018 ], [ -46.220085022605637, -5.135286604293299 ], [ -46.190777672051865, -5.071767460300009 ], [ -46.113996909329842, -5.046071690855797 ], [ -46.026008815054752, -4.933700709619983 ], [ -46.017372375434711, -4.853705841851081 ], [ -46.039533279537181, -4.789938724192723 ], [ -45.92213111935564, -4.615674147843606 ], [ -45.86749740038465, -4.627522245455224 ], [ -45.849038552786965, -4.743947231979121 ], [ -45.712248971612723, -4.775165560042524 ], [ -45.707021486852113, -4.833576654638875 ], [ -45.598092822625631, -4.894033729373064 ], [ -45.571444877978706, -4.944028173261529 ] ] } }
]
}
