{
"type": "FeatureCollection",
"features": [
{ "type": "Feature", "properties": { "Name": "BENEDITO LEITE", "Description": "BENEDITO LEITE \/ MA" }, "geometry": { "type": "LineString", "coordinates": [ [ -44.327598927748284, -6.935027464645714 ], [ -44.27480273775609, -6.958151255775761 ], [ -44.248874822714868, -6.998721120283449 ], [ -44.276533912010393, -7.075099288901014 ], [ -44.333048514477298, -7.108728184957727 ], [ -44.403489300490776, -7.129472757561643 ], [ -44.563592382082732, -7.226950981002915 ], [ -44.619949918853649, -7.310073948054196 ], [ -44.663352242212163, -7.331806145337282 ], [ -44.687978013574416, -7.394532644865649 ], [ -44.816732839349015, -7.3612050001106 ], [ -44.868943552702774, -7.42228633834378 ], [ -44.90139666252594, -7.426034596619274 ], [ -44.926920808948125, -7.471620354295851 ], [ -44.98879868211344, -7.482335271955208 ], [ -44.787493184362916, -7.248704671183589 ], [ -44.697653534383043, -7.255050940448483 ], [ -44.685799995873083, -7.188789428988912 ], [ -44.783087143057173, -7.099350739045348 ], [ -44.710680550566899, -7.04426321317669 ], [ -44.697337661903532, -6.974438769433618 ], [ -44.616071005272659, -6.962065512713195 ], [ -44.535740881036816, -7.016072431197699 ], [ -44.494034519877175, -6.883952592338232 ], [ -44.460906158592309, -6.896104353233284 ], [ -44.407657338915044, -6.836351167971997 ], [ -44.327598927748284, -6.935027464645714 ] ] } }
]
}
