{
"type": "FeatureCollection",
"features": [
{ "type": "Feature", "properties": { "Name": "BOM JESUS DAS SELVAS", "Description": "BOM JESUS DAS SELVAS \/ MA" }, "geometry": { "type": "LineString", "coordinates": [ [ -46.464982397419647, -4.850966932278027 ], [ -46.919066518305158, -4.850582089891475 ], [ -46.937473242096416, -4.750864559052104 ], [ -46.939002876481538, -4.585069252743779 ], [ -46.906901719938389, -4.503457348178017 ], [ -46.843527997219269, -4.430423708787088 ], [ -46.843731851943346, -4.396702163673865 ], [ -46.83755921388655, -4.379857581162412 ], [ -46.738313750679026, -4.381490547650628 ], [ -46.679099137914818, -4.342123428353489 ], [ -46.632553100345262, -4.334398653075311 ], [ -46.560131869590066, -4.278112190625052 ], [ -46.480940424660844, -4.195005834051926 ], [ -46.505499658782185, -4.37866870889377 ], [ -46.491595859361375, -4.528539775490174 ], [ -46.492158817875122, -4.66716793065541 ], [ -46.460436730970343, -4.759182508266122 ], [ -46.484352261847391, -4.808765668800504 ], [ -46.464982397419647, -4.850966932278027 ] ] } }
]
}
