{
"type": "FeatureCollection",
"features": [
{ "type": "Feature", "properties": { "Name": "BOM LUGAR", "Description": "BOM LUGAR \/ MA" }, "geometry": { "type": "LineString", "coordinates": [ [ -44.873285714264284, -4.38427910339783 ], [ -44.988685184073915, -4.458789495238989 ], [ -45.046045655582475, -4.480481735643536 ], [ -45.093612632317104, -4.423306628797832 ], [ -45.127478381921719, -4.413283198960414 ], [ -45.106724316973605, -4.328836510796293 ], [ -45.109595790213511, -4.287021076261624 ], [ -45.08703717262739, -4.202916061227199 ], [ -45.034658714128284, -4.182343176396444 ], [ -45.01166822590784, -4.113918242332943 ], [ -44.961679725638753, -4.171750705930265 ], [ -45.077191736609336, -4.250040401543231 ], [ -45.077644778183924, -4.300138707235476 ], [ -44.880872680130039, -4.35272311767767 ], [ -44.873285714264284, -4.38427910339783 ] ] } }
]
}
