{
"type": "FeatureCollection",
"features": [
{ "type": "Feature", "properties": { "Name": "CAJARI", "Description": "CAJARI \/ MA" }, "geometry": { "type": "LineString", "coordinates": [ [ -44.872714069198878, -3.283696324225957 ], [ -44.863711973328861, -3.346360634735447 ], [ -44.894338906315454, -3.371749788421937 ], [ -44.900216452527218, -3.424786290754639 ], [ -44.930764684042913, -3.462787847980735 ], [ -44.97359862507642, -3.428426722115489 ], [ -45.049467647014239, -3.511935921905206 ], [ -45.03135787216803, -3.571045477666587 ], [ -45.122665234612839, -3.567260923652668 ], [ -45.128432028415318, -3.507823225061713 ], [ -45.086382603774091, -3.45691449980427 ], [ -45.083522971008279, -3.4203337455059 ], [ -45.271705338430593, -3.392451795214129 ], [ -45.260338423079695, -3.371348301382966 ], [ -45.215171878079673, -3.332200562705737 ], [ -45.129958069109534, -3.326522459144144 ], [ -45.072792150637206, -3.264264146672986 ], [ -45.033127337756412, -3.239363387810045 ], [ -45.019828085997347, -3.314810272476052 ], [ -44.95338015856742, -3.340473363255057 ], [ -44.943247990802085, -3.305576113746611 ], [ -44.872714069198878, -3.283696324225957 ] ] } }
]
}
