{
"type": "FeatureCollection",
"features": [
{ "type": "Feature", "properties": { "Name": "CAJAPIÃ", "Description": "CAJAPIÃ \/ MA" }, "geometry": { "type": "LineString", "coordinates": [ [ -44.434129170224992, -2.800787062073198 ], [ -44.447570362881891, -2.94206009639629 ], [ -44.500813139115053, -3.000605880656792 ], [ -44.555766409692012, -3.050382043796219 ], [ -44.580221947484858, -3.051374355741871 ], [ -44.667832861597219, -2.955826778882681 ], [ -44.670241289204114, -2.88729850012561 ], [ -44.791690999340119, -2.888107517647768 ], [ -44.786535758918092, -2.820053591699832 ], [ -44.819242973984046, -2.799224941477803 ], [ -44.818844966422034, -2.79802362529 ], [ -44.60607403438911, -2.789349503176993 ], [ -44.498113279903912, -2.683807300866192 ], [ -44.438928530027624, -2.695950090124541 ], [ -44.43176653160009, -2.734987553033079 ], [ -44.434129170224992, -2.800787062073198 ] ] } }
]
}
