{
"type": "FeatureCollection",
"features": [
{ "type": "Feature", "properties": { "Name": "CÃNDIDO MENDES", "Description": "CÃNDIDO MENDES \/ MA" }, "geometry": { "type": "LineString", "coordinates": [ [ -45.474391964617439, -1.47693617346556 ], [ -45.603254298946695, -1.561551005174692 ], [ -45.712010048724721, -1.77019353730185 ], [ -45.622280246436162, -1.95068462829289 ], [ -45.6514191126019, -2.000915440994731 ], [ -45.631748250481337, -2.105920747144694 ], [ -45.638918366189607, -2.197512652386933 ], [ -45.694295103236357, -1.972565346813269 ], [ -45.787896874541104, -1.909465695185645 ], [ -45.815299801844333, -1.844468251908268 ], [ -45.87223400909221, -1.805620810352081 ], [ -45.871995295746274, -1.784511881018432 ], [ -45.849315084423552, -1.715643373442902 ], [ -45.860113148902656, -1.681108784542744 ], [ -45.823269005660052, -1.647654868677193 ], [ -45.828196592598601, -1.60840020690398 ], [ -45.775639161817814, -1.524387572928106 ], [ -45.765513881960032, -1.444596633627668 ], [ -45.725718426364267, -1.417359464867388 ], [ -45.695399218898785, -1.389161859731985 ], [ -45.693568495089949, -1.370205732008855 ], [ -45.638042826715029, -1.372188684959781 ], [ -45.619484557266446, -1.295660279198501 ], [ -45.590923478535665, -1.2662797436152 ], [ -45.536733334875464, -1.3028891548106 ], [ -45.493013811638036, -1.390481309065137 ], [ -45.474391964617439, -1.47693617346556 ] ] } }
]
}
