{
"type": "FeatureCollection",
"features": [
{ "type": "Feature", "properties": { "Name": "CODÃ", "Description": "CODÃ \/ MA" }, "geometry": { "type": "LineString", "coordinates": [ [ -43.584262102513996, -4.658699401656008 ], [ -43.632261410335786, -4.739794669088666 ], [ -43.700471970305159, -4.731594478002705 ], [ -43.835363319161786, -4.756409191530906 ], [ -43.827091531249152, -4.790427784514577 ], [ -43.843035985921972, -4.861622429931174 ], [ -43.831016730237877, -4.931713012745319 ], [ -43.870903546161685, -5.000657333169329 ], [ -43.959902299451528, -5.050499995778125 ], [ -44.020819396298066, -4.980062893387753 ], [ -44.066356804622778, -4.993907413995884 ], [ -44.108491429236039, -4.988081729887881 ], [ -44.135442906764695, -4.948928360555328 ], [ -44.122375743046064, -4.904335672053548 ], [ -44.306612648854639, -4.911877527026205 ], [ -44.357927251641279, -4.894959747794076 ], [ -44.322447087662908, -4.834605005116828 ], [ -44.253669445788262, -4.816153690240583 ], [ -44.197476065867704, -4.729777751242182 ], [ -44.207468784756536, -4.654819159776366 ], [ -44.233968888953022, -4.621727960277099 ], [ -44.196051307721632, -4.527627855740889 ], [ -44.093488231096956, -4.494759492956177 ], [ -43.936948896574279, -4.334886118899249 ], [ -43.87317620941451, -4.356483228118464 ], [ -43.807951473281832, -4.32474836724333 ], [ -43.752269730263777, -4.241983030892129 ], [ -43.594569056216919, -4.228417811832514 ], [ -43.515687818937636, -4.186746891156076 ], [ -43.42924347210851, -4.223322443775714 ], [ -43.368171479630064, -4.3017735506088 ], [ -43.696008194322644, -4.492481680185335 ], [ -43.679062469557266, -4.550034459122969 ], [ -43.584262102513996, -4.658699401656008 ] ] } }
]
}
