{
"type": "FeatureCollection",
"features": [
{ "type": "Feature", "properties": { "Name": "COELHO NETO", "Description": "COELHO NETO \/ MA" }, "geometry": { "type": "LineString", "coordinates": [ [ -42.942047571638057, -4.167086927020023 ], [ -42.989193441723899, -4.23405202308237 ], [ -42.980060361396504, -4.305009870708943 ], [ -42.95080375059257, -4.38683566733215 ], [ -43.082672376429002, -4.446155624882124 ], [ -43.210345161300097, -4.365335809000328 ], [ -43.231451581525214, -4.288405080729831 ], [ -43.227022837733728, -4.123158609082509 ], [ -43.26669808724688, -4.073980612015589 ], [ -43.208812040243401, -4.018405837958994 ], [ -43.180503135011634, -4.026604003771695 ], [ -43.118087761341087, -4.118938673480955 ], [ -43.059840028594408, -4.1189000125255 ], [ -43.022164618602233, -4.181234226878018 ], [ -42.942047571638057, -4.167086927020023 ] ] } }
]
}
