{
"type": "FeatureCollection",
"features": [
{ "type": "Feature", "properties": { "Name": "COROATÃ", "Description": "COROATÃ \/ MA" }, "geometry": { "type": "LineString", "coordinates": [ [ -43.89547737987715, -3.968674378319861 ], [ -43.998731610675236, -4.252297626134464 ], [ -44.064488374938485, -4.293081256794493 ], [ -44.051864201071965, -4.38697278516588 ], [ -43.936948896574279, -4.334886118899249 ], [ -44.093488231096956, -4.494759492956177 ], [ -44.180302139931769, -4.336510316997476 ], [ -44.267766665099487, -4.277755113008027 ], [ -44.342758220315538, -4.099957026595461 ], [ -44.446521446707379, -4.12914394173947 ], [ -44.458188986532427, -4.087399573431526 ], [ -44.402088013750813, -4.086039017886321 ], [ -44.407235893221866, -4.043175087160478 ], [ -44.354267377837175, -3.971910493374537 ], [ -44.365653182548272, -3.928793423277795 ], [ -44.322938892715683, -3.864473964501826 ], [ -44.198819749231966, -3.92744493033922 ], [ -44.165973186912993, -3.910470349027321 ], [ -44.155495695669799, -3.836836710745558 ], [ -43.992763792315145, -3.842436085856605 ], [ -43.9380703053003, -4.000469248257161 ], [ -43.89547737987715, -3.968674378319861 ] ] } }
]
}
