{
"type": "FeatureCollection",
"features": [
{ "type": "Feature", "properties": { "Name": "CURURUPU", "Description": "CURURUPU \/ MA" }, "geometry": { "type": "LineString", "coordinates": [ [ -44.631352862844324, -1.831308893290725 ], [ -44.661551243694873, -1.861690925595667 ], [ -44.72846073107786, -1.890984720668257 ], [ -44.77990033783027, -1.944063852664613 ], [ -44.925225633655998, -1.944922586508142 ], [ -44.928788717924924, -1.877987206744137 ], [ -44.970957662466105, -1.827384312136246 ], [ -44.90433645546301, -1.817555514475373 ], [ -44.889155918211031, -1.766539912886628 ], [ -44.923936554428394, -1.717979438899931 ], [ -44.807379826217982, -1.669261390200972 ], [ -44.850261344085709, -1.625371120780528 ], [ -44.821520178813152, -1.575308986720301 ], [ -44.747832680134024, -1.588106719849179 ], [ -44.714152659417664, -1.559011236079641 ], [ -44.667551491607973, -1.57659263674077 ], [ -44.643492249068004, -1.621096759108127 ], [ -44.678450178532898, -1.650835817518896 ], [ -44.73777512462226, -1.65583313429164 ], [ -44.789420436004264, -1.703491607151875 ], [ -44.732757288018377, -1.725809009478155 ], [ -44.702760969543071, -1.768773091405023 ], [ -44.647669931821838, -1.764509487422856 ], [ -44.631352862844324, -1.831308893290725 ] ] } },
{ "type": "Feature", "properties": { "Name": "CURURUPU", "Description": "CURURUPU \/ MA" }, "geometry": { "type": "LineString", "coordinates": [ [ -44.943346817301737, -1.372065040768973 ], [ -44.930324895777289, -1.285971594113732 ], [ -44.892044360758575, -1.334728157178688 ], [ -44.943346817301737, -1.372065040768973 ] ] } }
]
}
