{
"type": "FeatureCollection",
"features": [
{ "type": "Feature", "properties": { "Name": "DAVINÃPOLIS", "Description": "DAVINÃPOLIS \/ MA" }, "geometry": { "type": "LineString", "coordinates": [ [ -47.280175227704547, -5.539927287814009 ], [ -47.158786873815131, -5.598163375239551 ], [ -47.119552045690341, -5.65427560483522 ], [ -47.30253506634017, -5.658434642844441 ], [ -47.320509718048982, -5.641408315441367 ], [ -47.395862128034764, -5.645351991900839 ], [ -47.440738079598638, -5.5784549700208 ], [ -47.406557158985663, -5.509069131934837 ], [ -47.344701210392486, -5.551481721704022 ], [ -47.280175227704547, -5.539927287814009 ] ] } }
]
}
