{
"type": "FeatureCollection",
"features": [
{ "type": "Feature", "properties": { "Name": "DOM PEDRO", "Description": "DOM PEDRO \/ MA" }, "geometry": { "type": "LineString", "coordinates": [ [ -44.349960483189697, -5.110209254553411 ], [ -44.488275538485254, -5.127387042178213 ], [ -44.496161606273063, -4.975901724884636 ], [ -44.411705062438614, -4.975747054982548 ], [ -44.412173423064985, -4.949211946474122 ], [ -44.357927251641279, -4.894959747794076 ], [ -44.306612648854639, -4.911877527026205 ], [ -44.312448048338695, -5.024118353878861 ], [ -44.349960483189697, -5.110209254553411 ] ] } }
]
}
