{
"type": "FeatureCollection",
"features": [
{ "type": "Feature", "properties": { "Name": "FORTALEZA DOS NOGUEIRAS", "Description": "FORTALEZA DOS NOGUEIRAS \/ MA" }, "geometry": { "type": "LineString", "coordinates": [ [ -45.926028877330793, -6.646750921317903 ], [ -45.948077036126278, -6.674022243631612 ], [ -45.850889477167584, -6.721108987789535 ], [ -45.931858566119899, -6.718521346882596 ], [ -46.026695223505726, -6.819101410301812 ], [ -46.002499514241151, -6.846291930328277 ], [ -45.983473108097428, -6.930841076454442 ], [ -45.931553680657771, -6.959937178957603 ], [ -45.863912548924922, -6.940925972255741 ], [ -45.81991079954372, -6.974093548478435 ], [ -45.917222561172188, -7.058272586710473 ], [ -45.959112015307191, -7.050765540896975 ], [ -45.870391368366938, -7.288604301547252 ], [ -46.071795304109969, -7.159892754746807 ], [ -46.225178930163452, -7.03654908587157 ], [ -46.341754128650045, -6.998616157709478 ], [ -46.404349313669847, -6.998528927068264 ], [ -46.340173291364238, -6.939397038442507 ], [ -46.30650145627714, -6.907492397256306 ], [ -46.295054436512991, -6.854048219649598 ], [ -46.248086112384158, -6.829103704272484 ], [ -46.231321622594741, -6.78768150819502 ], [ -46.151016472532149, -6.767716034467355 ], [ -46.15495079244505, -6.712020126227799 ], [ -46.110697832738765, -6.670830364429719 ], [ -46.040438724167757, -6.69318966257282 ], [ -45.980630896998264, -6.64336958194059 ], [ -45.926028877330793, -6.646750921317903 ] ] } }
]
}
