{
"type": "FeatureCollection",
"features": [
{ "type": "Feature", "properties": { "Name": "GOVERNADOR LUIZ ROCHA", "Description": "GOVERNADOR LUIZ ROCHA \/ MA" }, "geometry": { "type": "LineString", "coordinates": [ [ -43.958487332224536, -5.489037942946652 ], [ -44.022019620708875, -5.524848645548502 ], [ -44.042957244481215, -5.60915082345167 ], [ -44.114226482366234, -5.642316571352637 ], [ -44.164744428812291, -5.707141389763307 ], [ -44.17714549886562, -5.649866802610802 ], [ -44.122951481825396, -5.58847740071144 ], [ -44.157122273374171, -5.520710155249446 ], [ -44.195929879460316, -5.54491164445676 ], [ -44.209418871083983, -5.464313107663713 ], [ -44.206942163350099, -5.464216245283467 ], [ -44.186865085555212, -5.451118103517614 ], [ -44.068322521167374, -5.459164316280123 ], [ -43.958487332224536, -5.489037942946652 ] ] } }
]
}
