{
"type": "FeatureCollection",
"features": [
{ "type": "Feature", "properties": { "Name": "GOVERNADOR EUGÃNIO BARROS", "Description": "GOVERNADOR EUGÃNIO BARROS \/ MA" }, "geometry": { "type": "LineString", "coordinates": [ [ -43.871053726648142, -5.321183345634835 ], [ -43.882701418435659, -5.387735318330215 ], [ -43.860173840949983, -5.42926713277194 ], [ -43.865535859792033, -5.500547467391641 ], [ -43.822134949268438, -5.548619647278827 ], [ -43.958487332224536, -5.489037942946652 ], [ -44.068322521167374, -5.459164316280123 ], [ -44.186865085555212, -5.451118103517614 ], [ -44.206942163350099, -5.464216245283467 ], [ -44.306792050112961, -5.331268247731372 ], [ -44.130877296949677, -5.22972949621925 ], [ -44.095126909179498, -5.349442929347674 ], [ -44.009616487610792, -5.312144760672139 ], [ -43.953674639972633, -5.331474243741297 ], [ -43.871053726648142, -5.321183345634835 ] ] } }
]
}
