{
"type": "FeatureCollection",
"features": [
{ "type": "Feature", "properties": { "Name": "IGARAPÃ GRANDE", "Description": "IGARAPÃ GRANDE \/ MA" }, "geometry": { "type": "LineString", "coordinates": [ [ -44.726457671084631, -4.454316386092273 ], [ -44.745942887054525, -4.564788030643057 ], [ -44.801363931899907, -4.569727270996736 ], [ -44.798468998945111, -4.608065036172434 ], [ -44.755348194863245, -4.711329347471349 ], [ -44.950757418919693, -4.692970855220721 ], [ -44.902875481618139, -4.645281156999772 ], [ -44.89193965179345, -4.584552033749333 ], [ -44.851351198299142, -4.547756449400595 ], [ -44.84296928570393, -4.505363410892642 ], [ -44.848661103027439, -4.456412632936632 ], [ -44.726457671084631, -4.454316386092273 ] ] } }
]
}
