{
"type": "FeatureCollection",
"features": [
{ "type": "Feature", "properties": { "Name": "IMPERATRIZ", "Description": "IMPERATRIZ \/ MA" }, "geometry": { "type": "LineString", "coordinates": [ [ -47.364041548278806, -5.258772792330433 ], [ -47.431248421677253, -5.333047583379198 ], [ -47.419300070341933, -5.459577947764046 ], [ -47.398013683184899, -5.483068113702416 ], [ -47.406557158985663, -5.509069131934837 ], [ -47.440738079598638, -5.5784549700208 ], [ -47.395862128034764, -5.645351991900839 ], [ -47.47968914463825, -5.621709309037328 ], [ -47.500120459091875, -5.525604844987583 ], [ -47.560260639716716, -5.463212715194629 ], [ -47.618619746304205, -5.45972620370128 ], [ -47.744313744783426, -5.380132445256094 ], [ -47.827540944159182, -5.386588162013993 ], [ -47.867624059602626, -5.342815892639294 ], [ -47.866688058706927, -5.305313658798241 ], [ -47.820049363087605, -5.32606394299654 ], [ -47.752840944653826, -5.249701597051001 ], [ -47.704622034978911, -5.234495146733593 ], [ -47.666561219624555, -5.166471076478956 ], [ -47.538747426452517, -5.156179833032809 ], [ -47.484267421404347, -5.176800227248634 ], [ -47.415841906378823, -5.233029467635788 ], [ -47.364041548278806, -5.258772792330433 ] ] } }
]
}
