{
"type": "FeatureCollection",
"features": [
{ "type": "Feature", "properties": { "Name": "LAGOA GRANDE DO MARANHÃO", "Description": "LAGOA GRANDE DO MARANHÃO \/ MA" }, "geometry": { "type": "LineString", "coordinates": [ [ -45.425935597949433, -4.770014157926993 ], [ -45.408499460281803, -4.796467545041139 ], [ -45.316955988927702, -4.807413443675443 ], [ -45.291502961792219, -4.853194480141099 ], [ -45.276426607401959, -4.957607610602679 ], [ -45.238875645594533, -5.015029856542583 ], [ -45.329158488673265, -5.095462803865246 ], [ -45.330693106201863, -5.121758786238956 ], [ -45.31409603330524, -5.163671176683408 ], [ -45.339765539847747, -5.206629235850528 ], [ -45.345201610665754, -5.155831455457246 ], [ -45.43964984186664, -5.119275607882969 ], [ -45.486119549477564, -5.054943846381377 ], [ -45.544778068253208, -5.041477651672267 ], [ -45.52890455030473, -4.959515654523784 ], [ -45.571610705769388, -4.93167776741501 ], [ -45.554729871586289, -4.898128117818316 ], [ -45.48853254384175, -4.866006247190511 ], [ -45.455856050516275, -4.788077547540752 ], [ -45.425935597949433, -4.770014157926993 ] ] } }
]
}
