{
"type": "FeatureCollection",
"features": [
{ "type": "Feature", "properties": { "Name": "LIMA CAMPOS", "Description": "LIMA CAMPOS \/ MA" }, "geometry": { "type": "LineString", "coordinates": [ [ -44.347571952183785, -4.558218368882592 ], [ -44.414170349681854, -4.61766221973562 ], [ -44.39824128510719, -4.666045075819568 ], [ -44.485754165921996, -4.650437453225834 ], [ -44.574774054179215, -4.519069412523322 ], [ -44.577366507358363, -4.475296114324181 ], [ -44.430799536469408, -4.480809815520502 ], [ -44.347571952183785, -4.558218368882592 ] ] } }
]
}
