{
"type": "FeatureCollection",
"features": [
{ "type": "Feature", "properties": { "Name": "LORETO", "Description": "LORETO \/ MA" }, "geometry": { "type": "LineString", "coordinates": [ [ -44.957013393553211, -6.73688480968616 ], [ -44.980268911081339, -6.791267047636097 ], [ -44.93574594252118, -6.867909011691494 ], [ -44.992150950006298, -7.024311309319444 ], [ -44.970825025054808, -7.077333498941755 ], [ -44.987512780190627, -7.102163776137331 ], [ -45.085126898387614, -7.502515485800984 ], [ -45.156077176420524, -7.513438043430937 ], [ -45.21473448021203, -7.566567755997084 ], [ -45.339767014735912, -7.580244760787024 ], [ -45.399033820554337, -7.640044514742499 ], [ -45.455998926709071, -7.67066608057513 ], [ -45.537775058272302, -7.596640255143598 ], [ -45.608337795952473, -7.588601282822878 ], [ -45.645018683465423, -7.60592708176938 ], [ -45.322272715213607, -7.195210478680621 ], [ -45.26358125607009, -7.090172830211884 ], [ -45.27446206267399, -7.01045831709763 ], [ -45.243944677005175, -6.955953457486032 ], [ -45.277749896840248, -6.940644399019731 ], [ -45.33165791867799, -6.820454219086911 ], [ -45.322101581422828, -6.781599152179069 ], [ -45.119356214217873, -6.815389830875972 ], [ -45.04004837453283, -6.746843148392543 ], [ -44.957013393553211, -6.73688480968616 ] ] } }
]
}
