{
"type": "FeatureCollection",
"features": [
{ "type": "Feature", "properties": { "Name": "MARANHÃOZINHO", "Description": "MARANHÃOZINHO \/ MA" }, "geometry": { "type": "LineString", "coordinates": [ [ -45.747395127383186, -2.189329041202257 ], [ -45.775607017349948, -2.187204385673795 ], [ -45.831999180717553, -2.228774657824147 ], [ -45.852409431250237, -2.34544110152558 ], [ -45.903953222663063, -2.429493489133165 ], [ -45.911692726138369, -2.529002301714797 ], [ -45.983920327461078, -2.611957671109565 ], [ -45.989969891497253, -2.695910092776501 ], [ -46.064407357313655, -2.686344176842226 ], [ -46.075281162695433, -2.681669290405353 ], [ -46.045364386557139, -2.473919248174695 ], [ -46.003940470076593, -2.419521695669687 ], [ -45.989544370076601, -2.27062843585361 ], [ -45.935417562970088, -2.251295932860955 ], [ -45.946708404669096, -2.204588028114983 ], [ -45.800441062704863, -2.153287842359987 ], [ -45.747395127383186, -2.189329041202257 ] ] } }
]
}
