{
"type": "FeatureCollection",
"features": [
{ "type": "Feature", "properties": { "Name": "MATA ROMA", "Description": "MATA ROMA \/ MA" }, "geometry": { "type": "LineString", "coordinates": [ [ -43.1233243076706, -3.6900317225859 ], [ -43.197697678804786, -3.782997355743305 ], [ -43.23092253464722, -3.706414191161969 ], [ -43.334893979273659, -3.682777115571354 ], [ -43.384146656942619, -3.584370760302306 ], [ -43.387530939800968, -3.550326632867779 ], [ -43.334929089705668, -3.561585283334125 ], [ -43.311509609580753, -3.537167431631644 ], [ -43.280920462509293, -3.555388091986799 ], [ -43.193502032992392, -3.517798688658502 ], [ -43.17308519852304, -3.552529082451144 ], [ -43.092472755513199, -3.54794434855279 ], [ -43.087868505427139, -3.586876781438264 ], [ -43.1233243076706, -3.6900317225859 ] ] } }
]
}
