{
"type": "FeatureCollection",
"features": [
{ "type": "Feature", "properties": { "Name": "OLINDA NOVA DO MARANHÃO", "Description": "OLINDA NOVA DO MARANHÃO \/ MA" }, "geometry": { "type": "LineString", "coordinates": [ [ -44.974544465454699, -2.93903849572996 ], [ -44.936243447477068, -2.980789488444088 ], [ -44.909249193695295, -3.040134415670707 ], [ -44.892910237017759, -3.077914200080215 ], [ -45.045920991560479, -3.013634253917644 ], [ -45.095663451706905, -2.93148369861376 ], [ -45.125694543368461, -2.920495709009742 ], [ -45.027967093506504, -2.887304908694546 ], [ -45.016434296405635, -2.938154270603036 ], [ -44.974544465454699, -2.93903849572996 ] ] } }
]
}
