{
"type": "FeatureCollection",
"features": [
{ "type": "Feature", "properties": { "Name": "PEDREIRAS", "Description": "PEDREIRAS \/ MA" }, "geometry": { "type": "LineString", "coordinates": [ [ -44.577366507358363, -4.475296114324181 ], [ -44.574774054179215, -4.519069412523322 ], [ -44.485754165921996, -4.650437453225834 ], [ -44.572956370539991, -4.708695340217729 ], [ -44.563767838015274, -4.767424574484493 ], [ -44.633266649836003, -4.828564450488955 ], [ -44.638638744682282, -4.862501203367799 ], [ -44.642999487136592, -4.857024808747894 ], [ -44.644171188649409, -4.854966331630862 ], [ -44.642029341680711, -4.817908686636542 ], [ -44.576353289772442, -4.766666952317962 ], [ -44.593144878833066, -4.659269155447134 ], [ -44.725266492954226, -4.650744906252385 ], [ -44.658127986017689, -4.636131981505685 ], [ -44.65798549383544, -4.60649055439552 ], [ -44.606878764843088, -4.572379029068884 ], [ -44.600190996916922, -4.452130648610478 ], [ -44.577366507358363, -4.475296114324181 ] ] } }
]
}
