{
"type": "FeatureCollection",
"features": [
{ "type": "Feature", "properties": { "Name": "PINHEIRO", "Description": "PINHEIRO \/ MA" }, "geometry": { "type": "LineString", "coordinates": [ [ -44.966944580827715, -2.17104225459633 ], [ -44.934889084663496, -2.233443610534152 ], [ -44.934884762521733, -2.329573236715476 ], [ -44.898309677549541, -2.38481460421059 ], [ -44.955382223011156, -2.427104749484556 ], [ -44.959243452323449, -2.459461617459624 ], [ -45.004611212537384, -2.464437139162612 ], [ -45.041549486019903, -2.54213494237365 ], [ -45.074194362779565, -2.567506824580221 ], [ -45.129146081126692, -2.745170368817412 ], [ -45.183877584283039, -2.798417995094326 ], [ -45.219895898077191, -2.813416726300829 ], [ -45.275329470478653, -2.809148988135235 ], [ -45.35772819460044, -2.745596114169302 ], [ -45.275854612500325, -2.70125559826721 ], [ -45.24276142010342, -2.487935636420445 ], [ -45.300411623497602, -2.411008844482524 ], [ -45.160514031197522, -2.347327729890765 ], [ -45.026891221052949, -2.208038043320983 ], [ -44.967118167069707, -2.170878039290017 ], [ -44.966944580827715, -2.17104225459633 ] ] } }
]
}
