{
"type": "FeatureCollection",
"features": [
{ "type": "Feature", "properties": { "Name": "PIRAPEMAS", "Description": "PIRAPEMAS \/ MA" }, "geometry": { "type": "LineString", "coordinates": [ [ -44.048214352010682, -3.704012638872143 ], [ -43.992763792315145, -3.842436085856605 ], [ -44.155495695669799, -3.836836710745558 ], [ -44.165973186912993, -3.910470349027321 ], [ -44.198819749231966, -3.92744493033922 ], [ -44.322938892715683, -3.864473964501826 ], [ -44.353667646044975, -3.848927516491642 ], [ -44.335263974552731, -3.7917380159966 ], [ -44.285861044451622, -3.764623800747756 ], [ -44.289571769521501, -3.715954693154515 ], [ -44.260904012310277, -3.694924503962625 ], [ -44.205406061940153, -3.709571600249092 ], [ -44.15325993249985, -3.650479762930672 ], [ -44.097807730642216, -3.623421433352405 ], [ -44.048214352010682, -3.704012638872143 ] ] } }
]
}
