{
"type": "FeatureCollection",
"features": [
{ "type": "Feature", "properties": { "Name": "PORTO FRANCO", "Description": "PORTO FRANCO \/ MA" }, "geometry": { "type": "LineString", "coordinates": [ [ -46.848333864516178, -6.196224392541636 ], [ -46.806585814383766, -6.235314723895328 ], [ -46.789334111479995, -6.32541374105125 ], [ -46.843866616251319, -6.318660350494724 ], [ -46.86786561500611, -6.287008272213939 ], [ -46.994422468921755, -6.273449743211017 ], [ -47.066403259402875, -6.380166036533296 ], [ -47.128759695103781, -6.390195322755915 ], [ -47.069050589213305, -6.546350344592667 ], [ -47.133871188904209, -6.521690434965535 ], [ -47.212461548561578, -6.573482611033626 ], [ -47.271360901284538, -6.563020115086204 ], [ -47.350542826889921, -6.510615086117297 ], [ -47.425248004691639, -6.49736210987345 ], [ -47.434205684844414, -6.431188623156402 ], [ -47.380745732229741, -6.250022596365682 ], [ -47.301644939862051, -6.251287884028557 ], [ -47.268121579247456, -6.287384134869853 ], [ -47.112290284568928, -6.233483715001397 ], [ -47.044913852991897, -6.197186346972273 ], [ -46.985837750211942, -6.230909071996052 ], [ -46.848333864516178, -6.196224392541636 ] ] } }
]
}
