{
"type": "FeatureCollection",
"features": [
{ "type": "Feature", "properties": { "Name": "PRESIDENTE MÃDICI", "Description": "PRESIDENTE MÃDICI \/ MA" }, "geometry": { "type": "LineString", "coordinates": [ [ -45.683926292364447, -2.226847693066532 ], [ -45.684157271540812, -2.329146648698838 ], [ -45.639095568605569, -2.360169838267382 ], [ -45.641471494713642, -2.361128956236314 ], [ -45.803545345241446, -2.426866221398939 ], [ -45.903953222663063, -2.429493489133165 ], [ -45.852409431250237, -2.34544110152558 ], [ -45.831999180717553, -2.228774657824147 ], [ -45.775607017349948, -2.187204385673795 ], [ -45.747395127383186, -2.189329041202257 ], [ -45.709648494682256, -2.243753478939879 ], [ -45.683926292364447, -2.226847693066532 ] ] } }
]
}
