{
"type": "FeatureCollection",
"features": [
{ "type": "Feature", "properties": { "Name": "SANTA LUZIA DO PARUÃ", "Description": "SANTA LUZIA DO PARUÃ \/ MA" }, "geometry": { "type": "LineString", "coordinates": [ [ -45.641810693808452, -2.655518740997024 ], [ -45.754738864407045, -2.621396177391603 ], [ -45.79811087611597, -2.648683797219405 ], [ -45.989969891497253, -2.695910092776501 ], [ -45.983920327461078, -2.611957671109565 ], [ -45.911692726138369, -2.529002301714797 ], [ -45.903953222663063, -2.429493489133165 ], [ -45.803545345241446, -2.426866221398939 ], [ -45.641471494713642, -2.361128956236314 ], [ -45.641599166967914, -2.458481717956885 ], [ -45.5609583566428, -2.48146155910365 ], [ -45.594437950850704, -2.557225618467498 ], [ -45.594304092160087, -2.605761029248072 ], [ -45.641810693808452, -2.655518740997024 ] ] } }
]
}
