{
"type": "FeatureCollection",
"features": [
{ "type": "Feature", "properties": { "Name": "SÃO PEDRO DOS CRENTES", "Description": "SÃO PEDRO DOS CRENTES \/ MA" }, "geometry": { "type": "LineString", "coordinates": [ [ -46.7333473310145, -6.683375828731471 ], [ -46.646888295558362, -6.728280996570675 ], [ -46.574580847927734, -6.706818123757386 ], [ -46.524386879550832, -6.74385154641169 ], [ -46.496084413464871, -6.806985693335037 ], [ -46.466254189878896, -6.81184395513435 ], [ -46.369678845302417, -6.843576730481686 ], [ -46.345294206462427, -6.912480554434012 ], [ -46.30650145627714, -6.907492397256306 ], [ -46.340173291364238, -6.939397038442507 ], [ -46.415861772602682, -6.932319757051118 ], [ -46.425805098026785, -6.864476689747391 ], [ -46.499833204139009, -6.862722981180582 ], [ -46.579255801813758, -6.814106142184642 ], [ -46.682084290857283, -6.838852610659387 ], [ -46.760441162229824, -6.905980400375142 ], [ -46.838563795282873, -6.930015619325331 ], [ -46.88694626465832, -7.017639846101986 ], [ -46.94178689694769, -7.019140993561962 ], [ -46.910229545157328, -6.964894573925392 ], [ -46.928922061803689, -6.938118138641129 ], [ -46.920833125848048, -6.824825526776578 ], [ -46.84050498012067, -6.722484669931532 ], [ -46.875722456626015, -6.679020146762298 ], [ -46.79816976802033, -6.690695247187875 ], [ -46.7333473310145, -6.683375828731471 ] ] } }
]
}
