{
"type": "FeatureCollection",
"features": [
{ "type": "Feature", "properties": { "Name": "SÃO RAIMUNDO DO DOCA BEZERRA", "Description": "SÃO RAIMUNDO DO DOCA BEZERRA \/ MA" }, "geometry": { "type": "LineString", "coordinates": [ [ -44.971964699910927, -5.115527054629808 ], [ -45.020377908113915, -5.209063129559751 ], [ -45.124924652650577, -5.12301523446547 ], [ -45.330693106201863, -5.121758786238956 ], [ -45.329158488673265, -5.095462803865246 ], [ -45.238875645594533, -5.015029856542583 ], [ -45.192505857159517, -4.998610043618555 ], [ -45.149984768682089, -5.006005642746174 ], [ -45.033862188189403, -5.059065548136515 ], [ -45.029322809799787, -5.085322703180168 ], [ -44.971964699910927, -5.115527054629808 ] ] } }
]
}
