{
"type": "FeatureCollection",
"features": [
{ "type": "Feature", "properties": { "Name": "SÃO RAIMUNDO DAS MANGABEIRAS", "Description": "SÃO RAIMUNDO DAS MANGABEIRAS \/ MA" }, "geometry": { "type": "LineString", "coordinates": [ [ -45.354359856721942, -6.780371768242446 ], [ -45.38082447277116, -6.820590677717576 ], [ -45.369025855858524, -6.899991779796777 ], [ -45.532576723237128, -7.291131188753298 ], [ -45.585326420078161, -7.311354181550199 ], [ -45.648586397444262, -7.394752905921847 ], [ -45.672108035157635, -7.40467456667784 ], [ -45.773049809501053, -7.33404080773704 ], [ -45.870391368366938, -7.288604301547252 ], [ -45.959112015307191, -7.050765540896975 ], [ -45.917222561172188, -7.058272586710473 ], [ -45.81991079954372, -6.974093548478435 ], [ -45.863912548924922, -6.940925972255741 ], [ -45.931553680657771, -6.959937178957603 ], [ -45.983473108097428, -6.930841076454442 ], [ -46.002499514241151, -6.846291930328277 ], [ -46.026695223505726, -6.819101410301812 ], [ -45.931858566119899, -6.718521346882596 ], [ -45.850889477167584, -6.721108987789535 ], [ -45.746498250593731, -6.700131707512242 ], [ -45.678185843302003, -6.728060740910393 ], [ -45.622083267029097, -6.797868824186821 ], [ -45.572775738809234, -6.819865033644361 ], [ -45.501326916204157, -6.803381656638123 ], [ -45.40041086337061, -6.757620742503207 ], [ -45.354359856721942, -6.780371768242446 ] ] } }
]
}
