{
"type": "FeatureCollection",
"features": [
{ "type": "Feature", "properties": { "Name": "TIMBIRAS", "Description": "TIMBIRAS \/ MA" }, "geometry": { "type": "LineString", "coordinates": [ [ -43.594569056216919, -4.228417811832514 ], [ -43.752269730263777, -4.241983030892129 ], [ -43.807951473281832, -4.32474836724333 ], [ -43.87317620941451, -4.356483228118464 ], [ -43.936948896574279, -4.334886118899249 ], [ -44.051864201071965, -4.38697278516588 ], [ -44.064488374938485, -4.293081256794493 ], [ -43.998731610675236, -4.252297626134464 ], [ -43.89547737987715, -3.968674378319861 ], [ -43.729345717231013, -3.935116827279728 ], [ -43.59969621350939, -4.052338347836439 ], [ -43.605623985058799, -4.125108450794301 ], [ -43.588305582136847, -4.146774983178886 ], [ -43.594569056216919, -4.228417811832514 ] ] } }
]
}
