{
"type": "FeatureCollection",
"features": [
{ "type": "Feature", "properties": { "Name": "TURIAÃU", "Description": "TURIAÃU \/ MA" }, "geometry": { "type": "LineString", "coordinates": [ [ -45.348059911535643, -1.735311353236341 ], [ -45.276222795845285, -1.733970470360873 ], [ -45.237046671866381, -1.794055449699215 ], [ -45.221159250399069, -1.861618828745918 ], [ -45.217329546821077, -1.89977912080974 ], [ -45.253197170213184, -1.962726018990508 ], [ -45.286645349303399, -1.980227583236342 ], [ -45.312915654234018, -2.030959339002266 ], [ -45.474547947529686, -2.022307666665426 ], [ -45.53912266627799, -2.048587086224984 ], [ -45.604071848337071, -2.104418085226428 ], [ -45.631748250481337, -2.105920747144694 ], [ -45.6514191126019, -2.000915440994731 ], [ -45.622280246436162, -1.95068462829289 ], [ -45.712010048724721, -1.77019353730185 ], [ -45.603254298946695, -1.561551005174692 ], [ -45.474391964617439, -1.47693617346556 ], [ -45.427022380078711, -1.423246200351798 ], [ -45.372982836888355, -1.391552942114515 ], [ -45.369203758846368, -1.362429629723579 ], [ -45.321066382607448, -1.314908636224516 ], [ -45.300921972570961, -1.343345149858749 ], [ -45.29299239468321, -1.421608853265923 ], [ -45.354493397052572, -1.453175334074387 ], [ -45.298344958952669, -1.493511896456823 ], [ -45.339349917264819, -1.584705495562105 ], [ -45.365903378238272, -1.711757058441435 ], [ -45.348059911535643, -1.735311353236341 ] ] } }
]
}
