{
"type": "FeatureCollection",
"features": [
{ "type": "Feature", "properties": { "Name": "URBANO SANTOS", "Description": "URBANO SANTOS \/ MA" }, "geometry": { "type": "LineString", "coordinates": [ [ -43.041145980402632, -3.13029284473896 ], [ -43.030588453094595, -3.172604725727467 ], [ -43.11293809221911, -3.24438654120587 ], [ -43.136730917797593, -3.279956870313242 ], [ -43.126530024740816, -3.339642144169545 ], [ -43.159761953751108, -3.359168690282786 ], [ -43.163012264604276, -3.433143739092259 ], [ -43.137727816285626, -3.465702924850063 ], [ -43.18239474921824, -3.4429788347054 ], [ -43.235198718346112, -3.384512502849702 ], [ -43.311509609580753, -3.537167431631644 ], [ -43.334929089705668, -3.561585283334125 ], [ -43.387530939800968, -3.550326632867779 ], [ -43.406936138591902, -3.44084785514434 ], [ -43.434379783600093, -3.433776627988948 ], [ -43.423088326764798, -3.365347183825406 ], [ -43.447216204664073, -3.316661249916706 ], [ -43.458229807859311, -3.28499128771773 ], [ -43.604427085441614, -3.235811830151818 ], [ -43.518105890874097, -3.240809025516057 ], [ -43.344760617708289, -3.10183331925225 ], [ -43.278734654880395, -3.081260531548253 ], [ -43.319109589535913, -3.021937029770072 ], [ -43.242752797803348, -2.992042403034418 ], [ -43.180478881195363, -2.99501623531097 ], [ -43.151433841298683, -3.043440273150054 ], [ -43.150268461120561, -3.087006780338584 ], [ -43.041145980402632, -3.13029284473896 ] ] } }
]
}
